UTCDateTime,mac_address,firmware_ver,hardware,current_temp_f,current_humidity,current_dewpoint_f,pressure,adc,mem,rssi,uptime,pm1_0_atm,pm2_5_atm,pm10_0_atm,pm1_0_cf_1,pm2_5_cf_1,pm10_0_cf_1,p_0_3_um,p_0_5_um,p_1_0_um,p_2_5_um,p_5_0_um,p_10_0_um,pm1_0_atm_b,pm2_5_atm_b,pm10_0_atm_b,pm1_0_cf_1_b,pm2_5_cf_1_b,pm10_0_cf_1_b,p_0_3_um_b,p_0_5_um_b,p_1_0_um_b,p_2_5_um_b,p_5_0_um_b,p_10_0_um_b
2018/07/11T19:53:28z,60:1:94:58:d8:f6,2.50i,2.0+OPENLOG+15833 MB+DS3231+BME280+PMSX003A+PMSX003B,69,51,50.12,1013.42,0.03,30128,31,177,2.02,2.78,2.78,2.02,2.78,2.78,495.13,151.61,15.17,1.22,0.00,0.00,2.50,3.00,3.00,2.50,3.00,3.00,565.12,164.90,12.75,0.10,0.00,0.00
2018/07/11T19:54:48z,60:1:94:58:d8:f6,2.50i,2.0+OPENLOG+15833 MB+DS3231+BME280+PMSX003A+PMSX003B,69,50,49.59,1013.09,0.03,29640,31,257,2.60,3.71,4.49,2.60,3.71,4.49,558.67,169.64,21.16,2.58,1.29,0.00,2.08,2.38,2.59,2.08,2.38,2.59,512.62,154.95,11.77,0.46,0.36,0.00
2018/07/11T19:56:08z,60:1:94:58:d8:f6,2.50i,2.0+OPENLOG+15833 MB+DS3231+BME280+PMSX003A+PMSX003B,70,48,49.41,1013.64,0.03,29696,31,337,96.51,254.36,413.58,64.91,170.13,277.07,16929.27,5380.11,2318.64,514.76,206.44,35.47,96.92,256.00,387.94,64.47,170.58,258.56,17496.50,5577.64,2395.53,537.36,159.03,35.06
2018/07/11T19:57:28z,60:1:94:58:d8:f6,2.50i,2.0+OPENLOG+15833 MB+DS3231+BME280+PMSX003A+PMSX003B,71,40,45.47,1013.57,0.03,29672,31,417,206.02,526.98,858.87,136.58,350.58,571.84,35773.00,11380.22,4819.56,1084.76,447.60,67.51,203.29,543.08,842.16,134.74,360.97,560.74,36863.37,11788.84,5135.76,1159.21,375.39,68.16
2018/07/11T19:58:48z,60:1:94:58:d8:f6,2.50i,2.0+OPENLOG+15833 MB+DS3231+BME280+PMSX003A+PMSX003B,71,33,40.45,1013.50,0.02,30128,31,497,142.87,331.27,507.53,94.36,219.89,337.29,24785.80,7802.84,2935.16,602.93,241.29,29.69,140.62,333.65,509.11,93.14,221.70,338.73,24842.11,7854.19,3030.92,655.30,221.43,42.54
2018/07/11T20:00:08z,60:1:94:58:d8:f6,2.50i,2.0+OPENLOG+15833 MB+DS3231+BME280+PMSX003A+PMSX003B,72,27,36.19,1013.44,0.02,30128,31,577,89.70,206.28,313.09,58.77,136.65,207.79,15965.16,5000.23,1792.23,364.05,150.14,16.23,92.49,210.22,312.84,60.92,139.41,207.78,16472.76,5148.89,1843.73,392.86,129.68,21.89
2018/07/11T20:01:28z,60:1:94:58:d8:f6,2.50i,2.0+OPENLOG+15833 MB+DS3231+BME280+PMSX003A+PMSX003B,72,23,32.17,1013.24,0.02,29696,31,657,56.89,123.40,188.76,37.69,81.47,124.91,10093.13,3162.04,1067.64,219.42,90.13,11.02,59.03,128.71,184.26,38.89,85.03,122.09,10420.97,3276.86,1090.69,228.63,65.97,8.34
2018/07/11T20:02:48z,60:1:94:58:d8:f6,2.50i,2.0+OPENLOG+15833 MB+DS3231+BME280+PMSX003A+PMSX003B,73,21,30.75,1012.99,0.02,29672,31,737,36.73,78.78,114.96,28.80,53.40,79.09,6602.33,2056.53,690.71,125.64,55.73,5.56,36.31,77.11,106.00,28.33,52.11,74.78,6488.33,2018.42,650.58,118.97,35.28,3.53
2018/07/11T20:04:08z,60:1:94:58:d8:f6,2.50i,2.0+OPENLOG+15833 MB+DS3231+BME280+PMSX003A+PMSX003B,73,21,30.75,1012.95,0.02,30128,31,817,31.61,68.75,97.98,26.55,49.18,72.11,5688.07,1767.89,588.00,103.14,40.64,6.27,30.81,69.16,95.57,25.84,49.03,70.70,5683.78,1770.78,596.92,113.03,33.92,4.00
2018/07/11T20:05:28z,60:1:94:58:d8:f6,2.50i,2.0+OPENLOG+15833 MB+DS3231+BME280+PMSX003A+PMSX003B,73,21,30.75,1012.77,0.02,30128,31,897,29.00,65.16,90.00,24.84,47.48,68.36,5395.77,1662.50,548.27,99.27,35.27,6.27,27.73,61.27,85.41,24.05,45.95,66.59,4944.41,1540.51,524.30,99.81,29.73,3.54
2018/07/11T20:06:48z,60:1:94:58:d8:f6,2.50i,2.0+OPENLOG+15833 MB+DS3231+BME280+PMSX003A+PMSX003B,74,21,31.58,1012.90,0.02,29696,31,977,26.57,59.04,83.35,23.17,44.85,65.28,4939.30,1535.22,504.22,97.83,32.39,6.35,25.79,53.47,79.74,22.97,42.68,64.00,4636.82,1449.45,460.00,90.45,34.92,4.32
2018/07/11T20:08:08z,60:1:94:58:d8:f6,2.50i,2.0+OPENLOG+15833 MB+DS3231+BME280+PMSX003A+PMSX003B,74,21,31.58,1012.87,0.02,29696,31,1057,25.84,55.40,77.51,22.82,43.22,62.78,4791.60,1486.87,468.44,88.27,30.76,5.33,26.14,56.03,72.73,23.16,43.73,60.78,4703.27,1451.78,463.43,81.76,18.89,3.30
2018/07/11T20:09:28z,60:1:94:58:d8:f6,2.50i,2.0+OPENLOG+15833 MB+DS3231+BME280+PMSX003A+PMSX003B,75,21,32.42,1012.87,0.02,29672,31,1137,24.62,51.11,71.51,22.49,41.80,60.38,4451.53,1386.02,417.07,79.91,26.84,4.27,22.78,49.84,67.70,21.32,40.78,58.00,4207.14,1307.76,431.70,78.08,19.14,3.81
2018/07/11T20:10:48z,60:1:94:58:d8:f6,2.50i,2.0+OPENLOG+15833 MB+DS3231+BME280+PMSX003A+PMSX003B,75,21,32.42,1012.78,0.02,30128,31,1217,21.73,45.29,63.33,20.71,38.60,55.64,4012.67,1243.93,389.69,65.96,24.49,3.24,21.50,46.03,60.94,20.44,38.83,54.11,3914.00,1219.72,399.58,69.69,15.53,2.06
2018/07/11T20:12:08z,60:1:94:58:d8:f6,2.50i,2.0+OPENLOG+15833 MB+DS3231+BME280+PMSX003A+PMSX003B,75,22,33.58,1012.83,0.02,29456,31,1297,19.91,42.47,60.00,19.47,36.91,53.69,3652.87,1141.33,376.13,62.84,23.11,3.78,19.84,42.24,54.95,19.50,37.03,51.03,3472.18,1083.74,366.45,56.63,14.95,2.55
2018/07/11T20:13:28z,60:1:94:58:d8:f6,2.50i,2.0+OPENLOG+15833 MB+DS3231+BME280+PMSX003A+PMSX003B,75,22,33.58,1012.77,0.02,29696,31,1377,18.11,42.20,58.68,17.91,37.00,52.95,3475.16,1075.32,367.36,70.09,21.18,2.55,18.89,40.36,52.44,18.78,35.81,49.39,3495.83,1076.39,336.69,60.50,13.83,2.83
2018/07/11T20:14:48z,60:1:94:58:d8:f6,2.50i,2.0+OPENLOG+15833 MB+DS3231+BME280+PMSX003A+PMSX003B,76,22,34.41,1012.70,0.02,29672,31,1457,17.02,36.93,51.70,17.02,33.87,48.89,3210.91,995.78,313.65,57.00,21.61,3.43,16.89,35.31,47.36,16.89,32.89,46.17,3058.92,952.94,302.56,49.72,15.08,2.56
2018/07/11T20:16:08z,60:1:94:58:d8:f6,2.50i,2.0+OPENLOG+15833 MB+DS3231+BME280+PMSX003A+PMSX003B,76,22,34.41,1012.81,0.02,30128,31,1537,16.14,36.02,52.02,16.14,33.33,49.16,3063.63,945.81,312.14,60.00,23.72,4.60,16.89,36.72,50.69,16.89,33.75,48.31,3049.42,953.14,305.11,59.92,16.14,3.56
2018/07/11T20:17:28z,60:1:94:58:d8:f6,2.50i,2.0+OPENLOG+15833 MB+DS3231+BME280+PMSX003A+PMSX003B,76,23,35.53,1012.54,0.02,30128,31,1617,14.00,31.34,42.43,14.00,30.48,41.93,2658.95,831.95,271.55,46.14,15.77,3.41,15.50,32.76,42.63,15.50,31.32,42.32,2789.21,871.71,282.42,43.84,11.71,2.26
2018/07/11T20:18:48z,60:1:94:58:d8:f6,2.50i,2.0+OPENLOG+15833 MB+DS3231+BME280+PMSX003A+PMSX003B,76,23,35.53,1012.72,0.02,29592,31,1697,13.88,30.49,47.12,13.88,29.49,45.74,2725.12,845.77,266.56,53.63,24.56,2.42,14.69,28.44,38.53,14.69,28.25,38.53,2618.50,820.72,244.36,37.58,11.64,2.61
2018/07/11T20:20:08z,60:1:94:58:d8:f6,2.50i,2.0+OPENLOG+15833 MB+DS3231+BME280+PMSX003A+PMSX003B,76,23,35.53,1012.71,0.02,29672,31,1777,13.20,28.36,40.86,13.20,28.07,40.48,2498.73,775.82,244.55,46.18,15.68,3.77,13.19,27.30,34.92,13.19,27.30,34.92,2416.70,749.14,238.89,36.46,8.43,1.24
2018/07/11T20:21:28z,60:1:94:58:d8:f6,2.50i,2.0+OPENLOG+15833 MB+DS3231+BME280+PMSX003A+PMSX003B,77,23,36.37,1012.64,0.02,30128,31,1857,11.60,24.48,35.40,11.60,24.48,35.40,2199.62,679.17,214.96,40.08,13.13,2.83,12.06,25.31,32.17,12.06,25.31,32.17,2257.58,699.81,234.36,32.03,7.50,0.44
2018/07/11T20:22:48z,60:1:94:58:d8:f6,2.50i,2.0+OPENLOG+15833 MB+DS3231+BME280+PMSX003A+PMSX003B,77,23,36.37,1012.68,0.02,30128,31,1937,11.96,24.56,33.02,11.96,24.56,33.02,2183.73,685.82,212.09,32.84,12.00,1.33,12.29,25.63,31.89,12.29,25.63,31.89,2325.55,720.95,217.26,29.87,7.82,0.66
2018/07/11T20:24:08z,60:1:94:58:d8:f6,2.50i,2.0+OPENLOG+15833 MB+DS3231+BME280+PMSX003A+PMSX003B,77,24,37.45,1012.65,0.02,29408,31,2017,10.20,21.56,31.64,10.20,21.56,31.64,1983.60,613.69,190.27,33.56,12.98,2.71,10.73,21.51,26.49,10.73,21.51,26.49,2027.68,619.43,176.19,25.95,5.49,1.43
2018/07/11T20:25:28z,60:1:94:58:d8:f6,2.50i,2.0+OPENLOG+15833 MB+DS3231+BME280+PMSX003A+PMSX003B,77,24,37.45,1012.58,0.02,29672,31,2097,8.80,19.89,27.56,8.80,19.89,27.56,1741.33,546.09,178.98,27.96,10.36,1.47,8.84,18.79,22.03,8.84,18.79,22.03,1686.00,529.29,166.87,16.87,2.97,0.66
2018/07/11T20:26:48z,60:1:94:58:d8:f6,2.50i,2.0+OPENLOG+15833 MB+DS3231+BME280+PMSX003A+PMSX003B,77,24,37.45,1012.54,0.02,30128,31,2177,7.15,17.25,24.98,7.15,17.25,24.98,1471.63,451.00,165.67,31.29,9.58,2.04,8.15,17.18,23.46,8.15,17.18,23.46,1647.31,504.77,154.10,24.82,8.59,1.31
2018/07/11T20:28:08z,60:1:94:58:d8:f6,2.50i,2.0+OPENLOG+15833 MB+DS3231+BME280+PMSX003A+PMSX003B,77,24,37.45,1012.57,0.02,30128,31,2257,8.20,16.22,24.07,8.20,16.22,24.07,1518.00,480.78,139.26,24.61,11.26,1.96,8.45,19.21,23.55,8.45,19.21,23.55,1584.63,497.11,163.63,24.29,6.13,0.89
2018/07/11T20:29:57z,60:1:94:58:d8:f6,2.50i,2.0+OPENLOG+15833 MB+DS3231+BME280+PMSX003A+PMSX003B,77,24,37.45,1012.28,0.02,29672,31,28,2.00,2.00,2.00,2.00,2.00,2.00,0.00,0.00,0.00,0.00,0.00,0.00,9.00,13.00,15.00,9.00,13.00,15.00,0.00,0.00,0.00,0.00,0.00,0.00
2018/07/11T20:31:16z,60:1:94:58:d8:f6,2.50i,2.0+OPENLOG+15833 MB+DS3231+BME280+PMSX003A+PMSX003B,78,24,38.29,1012.45,0.02,30128,31,107,5.86,13.70,19.05,5.86,13.70,19.05,1255.36,388.36,137.50,17.68,7.86,1.23,6.34,12.77,16.49,6.34,12.77,16.49,1262.23,400.14,121.71,13.97,5.14,0.80
2018/07/11T20:32:36z,60:1:94:58:d8:f6,2.50i,2.0+OPENLOG+15833 MB+DS3231+BME280+PMSX003A+PMSX003B,78,24,38.29,1012.36,0.02,29640,31,187,5.98,12.72,18.15,5.98,12.72,18.15,1314.91,403.83,105.13,21.39,8.26,0.52,6.69,13.03,17.09,6.69,13.03,17.09,1278.34,397.89,118.69,15.80,4.63,1.14
2018/07/11T20:33:56z,60:1:94:58:d8:f6,2.50i,2.0+OPENLOG+15833 MB+DS3231+BME280+PMSX003A+PMSX003B,78,25,39.33,1012.50,0.02,29512,31,267,4.60,11.58,14.51,4.60,11.58,14.51,1092.67,334.71,103.82,15.96,4.09,0.52,6.43,13.03,15.40,6.43,13.03,15.40,1216.20,380.49,109.20,14.31,2.77,0.46
2018/07/11T20:35:16z,60:1:94:58:d8:f6,2.50i,2.0+OPENLOG+15833 MB+DS3231+BME280+PMSX003A+PMSX003B,78,25,39.33,1012.45,0.02,29944,31,347,5.47,11.51,15.98,5.47,11.51,15.98,1057.40,327.23,97.91,18.94,6.51,0.52,5.33,11.33,14.05,5.33,11.33,14.05,1160.69,352.46,86.05,15.10,3.36,0.87
2018/07/11T20:36:36z,60:1:94:58:d8:f6,2.50i,2.0+OPENLOG+15833 MB+DS3231+BME280+PMSX003A+PMSX003B,78,25,39.33,1012.39,0.02,30128,31,427,4.66,10.81,14.89,4.66,10.81,14.89,1054.34,318.72,90.55,19.28,5.74,0.81,5.30,10.89,12.78,5.30,10.89,12.78,1044.81,323.76,90.59,9.78,2.19,0.84
2018/07/11T20:37:56z,60:1:94:58:d8:f6,2.50i,2.0+OPENLOG+15833 MB+DS3231+BME280+PMSX003A+PMSX003B,78,25,39.33,1012.40,0.02,30128,31,507,4.13,9.69,13.51,4.13,9.69,13.51,935.20,286.09,90.04,14.98,4.36,0.49,4.84,9.71,12.08,4.84,9.71,12.08,1009.50,313.16,84.08,9.84,3.34,0.29
2018/07/11T20:39:16z,60:1:94:58:d8:f6,2.50i,2.0+OPENLOG+15833 MB+DS3231+BME280+PMSX003A+PMSX003B,78,25,39.33,1012.36,0.02,29592,31,587,4.33,8.51,10.09,4.33,8.51,10.09,948.53,284.36,70.27,8.13,2.40,0.49,4.29,8.42,9.13,4.29,8.42,9.13,912.24,286.24,76.29,4.08,0.61,0.13
2018/07/11T20:40:36z,60:1:94:58:d8:f6,2.50i,2.0+OPENLOG+15833 MB+DS3231+BME280+PMSX003A+PMSX003B,78,25,39.33,1012.18,0.02,29672,31,667,4.52,8.93,11.11,4.52,8.93,11.11,891.26,276.09,65.65,10.52,3.26,0.49,4.08,8.37,11.47,4.08,8.37,11.47,791.53,249.76,82.55,9.18,3.63,0.82
2018/07/11T20:41:56z,60:1:94:58:d8:f6,2.50i,2.0+OPENLOG+15833 MB+DS3231+BME280+PMSX003A+PMSX003B,78,25,39.33,1012.37,0.02,30128,31,747,2.91,6.93,10.17,2.91,6.93,10.17,696.13,212.52,74.57,10.74,3.48,0.48,4.43,8.49,10.81,4.43,8.49,10.81,899.51,279.92,72.30,8.97,2.62,1.32
2018/07/11T20:43:16z,60:1:94:58:d8:f6,2.50i,2.0+OPENLOG+15833 MB+DS3231+BME280+PMSX003A+PMSX003B,78,25,39.33,1012.37,0.02,30128,31,827,2.82,7.16,9.42,2.82,7.16,9.42,686.80,217.64,69.73,10.40,3.16,0.84,3.30,6.30,7.65,3.30,6.30,7.65,726.57,222.49,53.59,6.65,2.16,1.32
2018/07/11T20:44:36z,60:1:94:58:d8:f6,2.50i,2.0+OPENLOG+15833 MB+DS3231+BME280+PMSX003A+PMSX003B,78,25,39.33,1012.13,0.02,29696,31,907,1.70,6.11,7.66,1.70,6.11,7.66,661.79,205.62,60.64,9.87,2.60,0.77,2.87,5.95,6.51,2.87,5.95,6.51,635.69,197.10,60.21,3.31,0.62,1.32
2018/07/11T20:45:56z,60:1:94:58:d8:f6,2.50i,2.0+OPENLOG+15833 MB+DS3231+BME280+PMSX003A+PMSX003B,79,26,41.19,1012.20,0.02,29696,31,987,2.87,5.58,7.98,2.87,5.58,7.98,624.12,195.17,59.54,6.75,4.17,0.13,2.61,5.08,6.50,2.61,5.08,6.50,640.03,191.24,42.66,7.29,1.21,1.32
2018/07/11T20:47:16z,60:1:94:58:d8:f6,2.50i,2.0+OPENLOG+15833 MB+DS3231+BME280+PMSX003A+PMSX003B,79,26,41.19,1012.30,0.02,30128,31,1067,2.91,6.43,9.48,2.91,6.43,9.48,692.73,209.91,62.73,8.82,3.55,2.05,2.81,5.78,7.24,2.81,5.78,7.24,646.46,196.22,49.27,7.97,1.59,0.92
2018/07/11T20:48:36z,60:1:94:58:d8:f6,2.50i,2.0+OPENLOG+15833 MB+DS3231+BME280+PMSX003A+PMSX003B,79,26,41.19,1012.26,0.02,30128,31,1147,2.26,5.54,6.80,2.26,5.54,6.80,597.39,184.00,55.61,5.65,0.96,2.05,1.63,3.31,3.80,1.63,3.31,3.80,463.03,142.83,32.66,2.49,0.43,0.92
2018/07/11T20:49:56z,60:1:94:58:d8:f6,2.50i,2.0+OPENLOG+15833 MB+DS3231+BME280+PMSX003A+PMSX003B,79,26,41.19,1012.22,0.02,29848,31,1227,1.09,3.98,5.47,1.09,3.98,5.47,503.73,154.44,47.47,6.40,2.00,2.05,1.97,4.47,4.72,1.97,4.47,4.72,530.08,162.67,43.14,4.44,0.44,0.92
2018/07/11T20:51:16z,60:1:94:58:d8:f6,2.50i,2.0+OPENLOG+15833 MB+DS3231+BME280+PMSX003A+PMSX003B,79,26,41.19,1012.07,0.02,29696,31,1307,1.98,4.81,5.91,1.98,4.81,5.91,509.87,160.94,43.28,4.60,1.70,2.05,1.91,3.77,4.63,1.91,3.77,4.63,469.20,140.37,36.97,3.63,1.11,0.69
2018/07/11T20:52:36z,60:1:94:58:d8:f6,2.50i,2.0+OPENLOG+15833 MB+DS3231+BME280+PMSX003A+PMSX003B,79,26,41.19,1011.98,0.02,30128,31,1387,2.17,5.17,5.89,2.17,5.17,5.89,513.13,162.26,36.48,6.09,1.26,2.05,2.33,4.78,5.83,2.33,4.78,5.83,518.83,162.44,47.19,4.58,1.17,0.69
2018/07/11T20:53:56z,60:1:94:58:d8:f6,2.50i,2.0+OPENLOG+15833 MB+DS3231+BME280+PMSX003A+PMSX003B,79,26,41.19,1012.14,0.02,30128,31,1467,1.93,4.62,6.73,1.93,4.62,6.73,478.67,148.22,40.58,7.38,2.98,1.02,1.37,2.49,2.97,1.37,2.49,2.97,423.77,129.69,28.60,2.63,1.17,0.69
2018/07/11T20:55:16z,60:1:94:58:d8:f6,2.50i,2.0+OPENLOG+15833 MB+DS3231+BME280+PMSX003A+PMSX003B,79,26,41.19,1012.03,0.02,30128,31,1547,1.06,3.74,5.09,1.06,3.74,5.09,384.26,122.21,38.13,5.49,2.00,0.38,1.06,3.42,3.47,1.06,3.42,3.47,359.33,112.92,34.28,1.69,0.14,0.14
2018/07/11T20:56:36z,60:1:94:58:d8:f6,2.50i,2.0+OPENLOG+15833 MB+DS3231+BME280+PMSX003A+PMSX003B,79,26,41.19,1011.97,0.02,29696,31,1627,0.53,2.04,3.53,0.53,2.04,3.53,342.77,108.38,37.83,3.53,2.00,1.11,1.29,2.71,4.11,1.29,2.71,4.11,387.60,121.31,30.89,2.97,1.31,0.69
2018/07/11T20:57:56z,60:1:94:58:d8:f6,2.50i,2.0+OPENLOG+15833 MB+DS3231+BME280+PMSX003A+PMSX003B,79,24,39.13,1012.53,0.02,29672,31,1707,0.63,2.57,4.04,0.63,2.57,4.04,325.30,103.96,27.39,6.48,1.43,1.11,0.89,2.44,3.22,0.89,2.44,3.22,309.92,99.64,33.44,3.22,1.00,0.69
2018/07/11T20:59:16z,60:1:94:58:d8:f6,2.50i,2.0+OPENLOG+15833 MB+DS3231+BME280+PMSX003A+PMSX003B,79,19,33.22,1012.54,0.02,29944,31,1787,0.43,1.63,1.63,0.43,1.63,1.63,230.09,70.78,18.96,1.83,1.43,1.11,0.26,0.63,0.94,0.26,0.63,0.94,151.71,44.94,13.57,0.31,0.31,0.31
2018/07/11T21:00:36z,60:1:94:58:d8:f6,2.50i,2.0+OPENLOG+15833 MB+DS3231+BME280+PMSX003A+PMSX003B,79,16,28.97,1012.49,0.02,30128,31,1867,0.15,0.62,0.62,0.15,0.62,0.62,118.34,37.36,11.83,1.83,1.43,1.11,0.26,0.31,0.78,0.26,0.31,0.78,112.75,34.56,7.33,1.39,0.78,0.31
2018/07/11T21:01:56z,60:1:94:58:d8:f6,2.50i,2.0+OPENLOG+15833 MB+DS3231+BME280+PMSX003A+PMSX003B,79,14,25.73,1012.45,0.02,29696,31,1947,0.15,0.62,0.62,0.15,0.62,0.62,65.47,19.64,3.87,1.83,1.43,1.11,0.26,0.03,0.03,0.26,0.03,0.03,58.63,17.74,1.97,1.39,0.78,0.31
2018/07/11T21:03:16z,60:1:94:58:d8:f6,2.50i,2.0+OPENLOG+15833 MB+DS3231+BME280+PMSX003A+PMSX003B,79,12,22.04,1012.43,0.02,29696,31,2027,0.15,0.62,0.62,0.15,0.62,0.62,42.00,12.39,2.57,0.52,1.43,1.11,0.26,0.03,0.03,0.26,0.03,0.03,47.66,15.09,3.17,1.39,0.78,0.31
2018/07/11T21:04:36z,60:1:94:58:d8:f6,2.50i,2.0+OPENLOG+15833 MB+DS3231+BME280+PMSX003A+PMSX003B,79,11,19.99,1012.42,0.02,30128,31,2107,0.15,0.62,0.62,0.15,0.62,0.62,19.66,6.55,2.00,0.51,1.43,1.11,0.26,0.03,0.03,0.26,0.03,0.03,23.68,7.32,1.86,0.30,0.78,0.31
2018/07/11T21:05:56z,60:1:94:58:d8:f6,2.50i,2.0+OPENLOG+15833 MB+DS3231+BME280+PMSX003A+PMSX003B,79,10,17.77,1012.32,0.02,30128,31,2187,0.15,0.62,0.24,0.15,0.62,0.24,15.33,3.51,0.49,0.49,0.49,1.11,0.26,0.03,0.03,0.26,0.03,0.03,4.89,1.58,0.29,0.30,0.78,0.31
2018/07/11T21:07:16z,60:1:94:58:d8:f6,2.50i,2.0+OPENLOG+15833 MB+DS3231+BME280+PMSX003A+PMSX003B,79,9,15.33,1012.37,0.02,29848,31,2267,0.15,0.62,0.24,0.15,0.62,0.24,12.78,3.70,0.70,0.70,0.49,1.11,0.26,0.03,0.03,0.26,0.03,0.03,2.37,0.79,0.29,0.30,0.78,0.31
2018/07/11T21:09:00z,60:1:94:58:d8:f6,2.50i,2.0+OPENLOG+15833 MB+DS3231+BME280+PMSX003A+PMSX003B,79,9,15.33,1012.38,0.03,29672,31,23,0.00,0.00,0.00,0.00,0.00,0.00,0.00,0.00,0.00,0.00,0.00,0.00,0.00,0.00,0.00,0.00,0.00,0.00,0.00,0.00,0.00,0.00,0.00,0.00
2018/07/11T21:10:14z,60:1:94:58:d8:f6,2.50i,2.0+OPENLOG+15833 MB+DS3231+BME280+PMSX003A+PMSX003B,79,8,12.64,1012.28,0.02,30128,31,97,0.00,0.00,0.00,0.00,0.00,0.00,4.54,1.51,0.59,0.00,0.00,0.00,0.00,0.00,0.00,0.00,0.00,0.00,4.00,1.33,0.31,0.00,0.00,0.00
2018/07/11T21:11:34z,60:1:94:58:d8:f6,2.50i,2.0+OPENLOG+15833 MB+DS3231+BME280+PMSX003A+PMSX003B,79,8,12.64,1012.27,0.02,30128,31,177,0.00,0.00,0.00,0.00,0.00,0.00,4.96,1.65,0.59,0.00,0.00,0.00,0.00,0.00,0.00,0.00,0.00,0.00,5.45,1.82,0.31,0.00,0.00,0.00
2018/07/11T21:12:54z,60:1:94:58:d8:f6,2.50i,2.0+OPENLOG+15833 MB+DS3231+BME280+PMSX003A+PMSX003B,79,7,9.64,1012.26,0.02,30128,31,257,0.00,0.00,0.00,0.00,0.00,0.00,2.04,0.68,0.59,0.00,0.00,0.00,0.00,0.00,0.00,0.00,0.00,0.00,4.03,1.34,0.31,0.00,0.00,0.00
2018/07/11T21:14:14z,60:1:94:58:d8:f6,2.50i,2.0+OPENLOG+15833 MB+DS3231+BME280+PMSX003A+PMSX003B,79,7,9.64,1012.09,0.02,29696,31,337,0.00,0.00,0.00,0.00,0.00,0.00,1.43,0.48,0.59,0.00,0.00,0.00,0.00,0.00,0.00,0.00,0.00,0.00,3.41,1.14,0.31,0.00,0.00,0.00
2018/07/11T21:15:34z,60:1:94:58:d8:f6,2.50i,2.0+OPENLOG+15833 MB+DS3231+BME280+PMSX003A+PMSX003B,79,6,6.22,1012.24,0.02,29512,31,417,0.00,0.00,0.00,0.00,0.00,0.00,1.07,0.36,0.59,0.00,0.00,0.00,0.00,0.00,0.00,0.00,0.00,0.00,0.73,0.24,0.31,0.00,0.00,0.00
2018/07/11T21:16:54z,60:1:94:58:d8:f6,2.50i,2.0+OPENLOG+15833 MB+DS3231+BME280+PMSX003A+PMSX003B,79,6,6.22,1012.01,0.02,30128,31,497,0.00,0.00,0.00,0.00,0.00,0.00,3.50,1.17,0.59,0.00,0.00,0.00,0.00,0.00,0.00,0.00,0.00,0.00,0.73,0.24,0.31,0.00,0.00,0.00
2018/07/11T21:18:14z,60:1:94:58:d8:f6,2.50i,2.0+OPENLOG+15833 MB+DS3231+BME280+PMSX003A+PMSX003B,79,20,34.51,1011.75,0.02,30128,31,577,0.96,1.13,1.13,0.96,1.13,1.13,241.96,70.61,7.04,0.00,0.00,0.00,0.51,0.65,0.65,0.51,0.65,0.65,191.11,58.70,3.59,0.00,0.00,0.00
2018/07/11T21:19:34z,60:1:94:58:d8:f6,2.50i,2.0+OPENLOG+15833 MB+DS3231+BME280+PMSX003A+PMSX003B,79,26,41.19,1012.23,0.02,29696,31,657,11.56,19.93,29.24,9.13,14.64,21.18,2082.80,652.22,158.36,27.16,14.18,0.93,3.31,4.89,5.47,3.31,4.89,5.47,809.00,244.58,32.92,2.14,0.83,0.31
2018/07/11T21:20:54z,60:1:94:58:d8:f6,2.50i,2.0+OPENLOG+15833 MB+DS3231+BME280+PMSX003A+PMSX003B,79,21,35.74,1012.08,0.02,29696,31,737,231.62,658.66,1095.49,153.68,438.34,729.70,43316.43,13883.92,6470.15,1507.72,605.11,92.30,230.89,694.69,1117.44,153.28,462.47,744.25,42773.50,13784.83,6868.19,1615.31,522.03,98.44
2018/07/11T21:22:14z,60:1:94:58:d8:f6,2.50i,2.0+OPENLOG+15833 MB+DS3231+BME280+PMSX003A+PMSX003B,79,17,30.46,1012.07,0.02,30128,31,817,202.64,506.36,816.77,134.38,336.87,543.83,36346.47,11548.32,4795.36,1072.89,432.21,62.09,204.83,520.72,792.72,135.78,346.36,527.75,36181.67,11522.22,4857.92,1059.47,334.50,53.47
2018/07/11T21:23:34z,60:1:94:58:d8:f6,2.50i,2.0+OPENLOG+15833 MB+DS3231+BME280+PMSX003A+PMSX003B,79,14,25.73,1011.80,0.02,30128,31,897,144.89,340.44,508.33,95.87,226.18,338.20,25855.07,8145.42,3040.31,620.13,232.36,32.40,145.37,338.86,488.20,96.09,225.00,324.77,25489.54,8043.29,2989.11,612.00,188.26,31.26
2018/07/11T21:24:54z,60:1:94:58:d8:f6,2.50i,2.0+OPENLOG+15833 MB+DS3231+BME280+PMSX003A+PMSX003B,79,12,22.04,1012.00,0.02,29944,31,977,92.16,206.91,310.61,60.70,137.25,206.41,16540.43,5165.73,1816.36,362.68,144.82,20.23,98.57,218.38,315.54,64.89,144.54,209.49,17326.38,5422.03,1901.54,375.22,122.95,17.86
2018/07/11T21:26:14z,60:1:94:58:d8:f6,2.50i,2.0+OPENLOG+15833 MB+DS3231+BME280+PMSX003A+PMSX003B,79,10,17.77,1012.02,0.02,29696,31,1057,57.29,124.73,182.20,37.96,82.24,120.60,10361.53,3229.13,1071.20,201.96,79.20,15.87,58.57,121.03,177.11,38.63,79.77,117.29,10235.40,3201.06,1047.54,205.91,66.77,10.89
2018/07/11T21:27:34z,60:1:94:58:d8:f6,2.50i,2.0+OPENLOG+15833 MB+DS3231+BME280+PMSX003A+PMSX003B,79,9,15.33,1011.62,0.02,30128,31,1137,36.93,76.57,110.77,28.20,52.77,77.45,6723.75,2094.57,690.14,114.73,48.68,7.09,38.20,78.91,104.23,29.34,53.51,74.03,6680.66,2077.29,665.46,113.40,27.14,4.20
2018/07/11T21:28:54z,60:1:94:58:d8:f6,2.50i,2.0+OPENLOG+15833 MB+DS3231+BME280+PMSX003A+PMSX003B,79,9,15.33,1011.62,0.02,30128,31,1217,28.87,62.04,89.64,24.60,46.09,68.20,5255.60,1630.64,541.07,104.67,35.51,4.09,29.19,60.31,83.94,25.08,45.75,66.06,5179.08,1601.50,509.06,96.47,28.97,4.39
2018/07/11T21:30:14z,60:1:94:58:d8:f6,2.50i,2.0+OPENLOG+15833 MB+DS3231+BME280+PMSX003A+PMSX003B,79,9,15.33,1011.47,0.02,30128,31,1297,26.28,57.20,81.67,23.35,44.48,64.96,4850.41,1499.17,493.96,87.87,35.04,4.52,25.83,54.83,72.42,23.03,43.22,60.58,4582.33,1419.22,458.67,79.47,22.44,1.69
2018/07/11T21:31:34z,60:1:94:58:d8:f6,2.50i,2.0+OPENLOG+15833 MB+DS3231+BME280+PMSX003A+PMSX003B,80,9,16.09,1011.53,0.02,29696,31,1377,23.91,52.47,76.98,22.07,42.31,62.69,4437.13,1375.33,462.22,86.22,32.62,6.98,25.00,51.94,71.17,22.64,42.22,59.92,4431.33,1381.72,432.06,80.78,21.58,5.67
2018/07/11T21:32:54z,60:1:94:58:d8:f6,2.50i,2.0+OPENLOG+15833 MB+DS3231+BME280+PMSX003A+PMSX003B,80,10,18.53,1011.62,0.02,29672,31,1457,22.33,46.62,66.49,20.93,39.36,57.20,3953.47,1238.40,381.51,77.64,25.16,4.27,23.35,50.05,66.97,21.78,41.08,57.78,4219.95,1313.41,411.57,79.30,18.35,3.73
2018/07/11T21:34:14z,60:1:94:58:d8:f6,2.50i,2.0+OPENLOG+15833 MB+DS3231+BME280+PMSX003A+PMSX003B,80,10,18.53,1011.64,0.02,30128,31,1537,19.71,43.31,60.91,19.18,37.36,54.20,3792.20,1175.11,378.00,67.78,23.47,2.53,21.54,43.26,59.06,20.74,37.63,53.37,3827.40,1190.71,362.06,61.20,19.63,3.40
2018/07/11T21:35:34z,60:1:94:58:d8:f6,2.50i,2.0+OPENLOG+15833 MB+DS3231+BME280+PMSX003A+PMSX003B,80,10,18.53,1011.60,0.02,30128,31,1617,20.54,43.87,59.46,19.93,37.93,53.43,3829.43,1184.39,382.57,63.74,22.22,2.74,20.26,42.50,55.12,19.71,37.15,50.88,3661.32,1129.15,356.50,61.62,13.85,3.18
2018/07/11T21:36:54z,60:1:94:58:d8:f6,2.50i,2.0+OPENLOG+15833 MB+DS3231+BME280+PMSX003A+PMSX003B,80,11,20.76,1011.64,0.02,29384,31,1697,18.24,38.84,58.76,18.18,35.02,53.02,3455.47,1069.60,359.82,63.33,26.98,4.53,19.49,38.76,49.00,19.32,35.03,47.19,3373.38,1057.57,327.32,47.30,9.11,2.14
2018/07/11T21:38:14z,60:1:94:58:d8:f6,2.50i,2.0+OPENLOG+15833 MB+DS3231+BME280+PMSX003A+PMSX003B,80,11,20.76,1011.53,0.02,29696,31,1777,16.39,37.16,49.68,16.39,33.95,47.61,3067.77,955.59,322.91,53.32,16.73,2.77,16.81,35.56,45.69,16.81,32.92,44.94,3024.00,946.11,306.75,45.56,11.67,2.33
2018/07/11T21:39:34z,60:1:94:58:d8:f6,2.50i,2.0+OPENLOG+15833 MB+DS3231+BME280+PMSX003A+PMSX003B,80,11,20.76,1011.62,0.02,30128,31,1857,15.44,34.51,47.64,15.44,32.18,45.76,2971.60,922.58,309.78,52.27,16.53,3.38,15.30,32.35,45.81,15.30,31.16,44.84,2835.16,878.57,295.65,48.27,17.92,2.73
2018/07/11T21:40:54z,60:1:94:58:d8:f6,2.50i,2.0+OPENLOG+15833 MB+DS3231+BME280+PMSX003A+PMSX003B,80,12,22.82,1011.53,0.02,29944,31,1937,14.07,31.30,43.64,14.07,30.20,42.55,2727.41,847.73,280.00,45.09,18.55,2.18,14.78,30.89,37.62,14.78,30.16,37.51,2698.62,837.97,259.73,35.16,6.95,1.70
2018/07/11T21:42:14z,60:1:94:58:d8:f6,2.50i,2.0+OPENLOG+15833 MB+DS3231+BME280+PMSX003A+PMSX003B,80,12,22.82,1011.54,0.02,29696,31,2017,13.91,29.77,42.66,13.91,29.25,42.43,2597.66,804.68,250.32,45.86,18.27,3.05,13.25,26.25,33.17,13.25,26.25,33.17,2346.17,721.19,215.58,32.61,9.08,1.39
2018/07/11T21:43:34z,60:1:94:58:d8:f6,2.50i,2.0+OPENLOG+15833 MB+DS3231+BME280+PMSX003A+PMSX003B,80,12,22.82,1011.49,0.02,29696,31,2097,13.28,28.70,39.07,13.28,28.57,39.04,2466.39,764.22,259.78,41.43,15.17,3.22,12.80,26.69,33.03,12.80,26.69,33.03,2336.23,722.11,221.94,33.71,6.91,0.74
2018/07/11T21:44:54z,60:1:94:58:d8:f6,2.50i,2.0+OPENLOG+15833 MB+DS3231+BME280+PMSX003A+PMSX003B,80,13,24.74,1011.38,0.02,30128,31,2177,11.09,22.91,29.78,11.09,22.91,29.78,2084.80,648.98,208.80,24.89,8.13,1.47,11.95,25.27,29.86,11.95,25.27,29.86,2199.24,677.92,219.32,27.68,5.16,0.08
2018/07/11T21:46:14z,60:1:94:58:d8:f6,2.50i,2.0+OPENLOG+15833 MB+DS3231+BME280+PMSX003A+PMSX003B,80,13,24.74,1011.41,0.02,30128,31,2257,10.82,23.89,34.20,10.82,23.89,34.20,2073.73,642.31,198.71,38.84,16.71,1.11,10.97,22.28,27.72,10.97,22.28,27.72,2084.92,655.94,191.67,21.69,7.08,1.69
2018/07/11T21:47:58z,60:1:94:58:d8:f6,2.50i,2.0+OPENLOG+15833 MB+DS3231+BME280+PMSX003A+PMSX003B,81,13,25.52,1011.48,0.02,29672,31,23,5.00,18.00,18.00,5.00,18.00,18.00,0.00,0.00,0.00,0.00,0.00,0.00,5.00,7.00,7.00,5.00,7.00,7.00,0.00,0.00,0.00,0.00,0.00,0.00
2018/07/11T21:49:12z,60:1:94:58:d8:f6,2.50i,2.0+OPENLOG+15833 MB+DS3231+BME280+PMSX003A+PMSX003B,81,13,25.52,1011.47,0.02,30128,31,97,7.45,18.48,26.74,7.45,18.48,26.74,1575.29,486.24,168.33,31.33,11.19,0.48,9.69,19.14,23.50,9.69,19.14,23.50,1815.75,569.97,150.17,20.89,4.58,1.47
2018/07/11T21:50:32z,60:1:94:58:d8:f6,2.50i,2.0+OPENLOG+15833 MB+DS3231+BME280+PMSX003A+PMSX003B,81,14,27.31,1011.35,0.02,29944,31,177,7.84,18.07,24.00,7.84,18.07,24.00,1583.59,491.50,170.09,24.73,8.00,1.05,9.26,19.24,24.55,9.26,19.24,24.55,1672.89,523.39,157.68,28.05,5.34,1.63
2018/07/11T21:51:52z,60:1:94:58:d8:f6,2.50i,2.0+OPENLOG+15833 MB+DS3231+BME280+PMSX003A+PMSX003B,81,14,27.31,1011.37,0.02,30128,31,257,7.35,17.85,24.07,7.35,17.85,24.07,1582.04,498.78,159.83,23.91,9.17,1.26,8.14,16.84,19.78,8.14,16.84,19.78,1534.30,474.73,142.76,16.73,3.65,1.22
2018/07/11T21:53:12z,60:1:94:58:d8:f6,2.50i,2.0+OPENLOG+15833 MB+DS3231+BME280+PMSX003A+PMSX003B,81,14,27.31,1011.29,0.02,29696,31,337,6.61,16.04,19.33,6.61,16.04,19.33,1371.26,423.26,122.83,25.48,3.78,1.26,7.47,15.55,19.61,7.47,15.55,19.61,1514.68,465.37,135.37,19.11,4.87,1.00
2018/07/11T21:54:32z,60:1:94:58:d8:f6,2.50i,2.0+OPENLOG+15833 MB+DS3231+BME280+PMSX003A+PMSX003B,81,14,27.31,1011.17,0.02,29696,31,417,6.42,15.13,21.18,6.42,15.13,21.18,1371.33,425.78,127.60,26.04,7.73,1.02,7.53,13.39,15.55,7.53,13.39,15.55,1362.79,413.87,116.63,12.11,1.74,0.84
2018/07/11T21:55:52z,60:1:94:58:d8:f6,2.50i,2.0+OPENLOG+15833 MB+DS3231+BME280+PMSX003A+PMSX003B,81,14,27.31,1011.24,0.02,30128,31,497,5.26,12.91,16.76,5.26,12.91,16.76,1141.04,355.22,115.70,20.65,4.78,0.04,7.08,13.68,17.21,7.08,13.68,17.21,1403.29,434.87,124.82,14.42,3.34,0.42
2018/07/11T21:57:12z,60:1:94:58:d8:f6,2.50i,2.0+OPENLOG+15833 MB+DS3231+BME280+PMSX003A+PMSX003B,81,15,29.00,1011.37,0.02,30128,31,577,5.89,12.95,17.84,5.89,12.95,17.84,1186.64,368.68,113.41,19.45,6.64,0.73,6.36,11.83,15.22,6.36,11.83,15.22,1192.17,366.72,109.11,12.36,3.81,0.33
2018/07/11T21:58:32z,60:1:94:58:d8:f6,2.50i,2.0+OPENLOG+15833 MB+DS3231+BME280+PMSX003A+PMSX003B,81,15,29.00,1011.35,0.02,29592,31,657,5.67,11.78,16.62,5.67,11.78,16.62,1187.33,376.49,107.02,14.53,7.56,0.71,5.11,11.41,14.08,5.11,11.41,14.08,1043.59,325.54,101.22,15.57,2.30,0.43
2018/07/11T21:59:52z,60:1:94:58:d8:f6,2.50i,2.0+OPENLOG+15833 MB+DS3231+BME280+PMSX003A+PMSX003B,81,15,29.00,1011.30,0.02,29696,31,737,3.93,9.20,11.67,3.93,9.20,11.67,901.43,282.39,85.96,13.26,2.83,0.71,6.00,12.62,15.00,6.00,12.62,15.00,1156.38,355.89,99.43,16.65,2.51,0.81
2018/07/11T22:01:12z,60:1:94:58:d8:f6,2.50i,2.0+OPENLOG+15833 MB+DS3231+BME280+PMSX003A+PMSX003B,81,15,29.00,1011.29,0.02,30128,31,817,4.67,10.78,12.49,4.67,10.78,12.49,974.40,304.49,94.62,11.64,1.73,0.71,4.27,9.03,11.05,4.27,9.03,11.05,872.92,271.16,83.30,10.54,2.38,0.27
2018/07/11T22:02:32z,60:1:94:58:d8:f6,2.50i,2.0+OPENLOG+15833 MB+DS3231+BME280+PMSX003A+PMSX003B,81,15,29.00,1011.25,0.02,30128,31,897,4.32,9.15,12.43,4.32,9.15,12.43,871.40,271.96,82.51,12.43,5.15,0.71,4.18,8.29,9.87,4.18,8.29,9.87,833.76,262.61,75.95,9.95,1.74,0.03
2018/07/11T22:03:52z,60:1:94:58:d8:f6,2.50i,2.0+OPENLOG+15833 MB+DS3231+BME280+PMSX003A+PMSX003B,81,15,29.00,1011.12,0.02,30128,31,977,4.04,8.67,10.38,4.04,8.67,10.38,838.00,262.00,73.64,11.42,2.58,0.71,4.26,8.55,10.47,4.26,8.55,10.47,847.03,259.37,72.45,9.84,2.34,0.95
2018/07/11T22:05:12z,60:1:94:58:d8:f6,2.50i,2.0+OPENLOG+15833 MB+DS3231+BME280+PMSX003A+PMSX003B,81,16,30.58,1011.28,0.02,29592,31,1057,3.76,8.78,11.43,3.76,8.78,11.43,813.65,251.70,76.09,14.26,4.96,0.48,4.24,7.71,9.32,4.24,7.71,9.32,826.50,250.68,62.50,7.34,2.34,0.21
2018/07/11T22:06:32z,60:1:94:58:d8:f6,2.50i,2.0+OPENLOG+15833 MB+DS3231+BME280+PMSX003A+PMSX003B,81,16,30.58,1011.22,0.02,29672,31,1137,3.66,7.47,10.00,3.66,7.47,10.00,780.51,238.04,60.38,11.87,3.40,0.72,4.69,8.14,11.22,4.69,8.14,11.22,891.83,279.08,72.17,8.53,2.86,1.78
2018/07/11T22:07:52z,60:1:94:58:d8:f6,2.50i,2.0+OPENLOG+15833 MB+DS3231+BME280+PMSX003A+PMSX003B,81,16,30.58,1011.02,0.02,30128,31,1217,3.96,7.29,8.96,3.96,7.29,8.96,820.13,247.47,63.78,7.38,2.93,0.72,3.71,5.95,6.92,3.71,5.95,6.92,699.79,217.18,46.95,5.24,1.68,1.78
2018/07/11T22:09:12z,60:1:94:58:d8:f6,2.50i,2.0+OPENLOG+15833 MB+DS3231+BME280+PMSX003A+PMSX003B,81,16,30.58,1011.06,0.02,30128,31,1297,2.82,5.73,8.51,2.82,5.73,8.51,614.93,194.67,57.69,8.84,4.00,0.72,3.28,7.22,8.61,3.28,7.22,8.61,704.42,220.17,67.28,9.58,1.42,1.78
2018/07/11T22:10:32z,60:1:94:58:d8:f6,2.50i,2.0+OPENLOG+15833 MB+DS3231+BME280+PMSX003A+PMSX003B,81,16,30.58,1011.15,0.02,29696,31,1377,2.43,6.11,7.28,2.43,6.11,7.28,582.26,180.04,55.49,8.34,1.11,0.17,3.22,5.32,6.08,3.22,5.32,6.08,655.62,206.86,41.84,2.30,1.19,1.78
2018/07/11T22:11:52z,60:1:94:58:d8:f6,2.50i,2.0+OPENLOG+15833 MB+DS3231+BME280+PMSX003A+PMSX003B,81,16,30.58,1011.12,0.02,29696,31,1457,2.00,5.57,8.74,2.00,5.57,8.74,538.96,165.61,55.09,11.48,4.35,0.48,2.13,4.53,6.21,2.13,4.53,6.21,561.87,167.89,50.55,5.97,1.42,0.63
2018/07/11T22:13:12z,60:1:94:58:d8:f6,2.50i,2.0+OPENLOG+15833 MB+DS3231+BME280+PMSX003A+PMSX003B,81,16,30.58,1011.13,0.02,29944,31,1537,1.91,4.91,5.71,1.91,4.91,5.71,564.00,176.71,50.67,5.29,0.49,0.48,1.81,4.24,4.92,1.81,4.24,4.92,457.22,143.54,40.08,4.19,1.08,0.43
2018/07/11T22:14:32z,60:1:94:58:d8:f6,2.50i,2.0+OPENLOG+15833 MB+DS3231+BME280+PMSX003A+PMSX003B,81,17,32.08,1011.02,0.02,30128,31,1617,1.50,4.09,5.78,1.50,4.09,5.78,519.65,164.91,52.65,4.83,2.52,0.48,1.92,4.32,5.30,1.92,4.32,5.30,496.05,148.97,37.54,4.05,1.57,0.30
2018/07/11T22:15:52z,60:1:94:58:d8:f6,2.50i,2.0+OPENLOG+15833 MB+DS3231+BME280+PMSX003A+PMSX003B,81,17,32.08,1011.08,0.02,29696,31,1697,1.30,3.59,6.57,1.30,3.59,6.57,514.70,161.61,47.57,6.87,5.52,0.48,1.49,3.14,4.00,1.49,3.14,4.00,428.84,137.16,34.59,3.32,1.03,0.30
2018/07/11T22:17:12z,60:1:94:58:d8:f6,2.50i,2.0+OPENLOG+15833 MB+DS3231+BME280+PMSX003A+PMSX003B,81,17,32.08,1011.08,0.02,29696,31,1777,1.30,3.19,4.68,1.30,3.19,4.68,482.81,146.13,36.43,6.13,1.02,0.48,1.89,3.58,4.92,1.89,3.58,4.92,435.95,137.58,34.08,5.61,1.08,0.30
2018/07/11T22:18:32z,60:1:94:58:d8:f6,2.50i,2.0+OPENLOG+15833 MB+DS3231+BME280+PMSX003A+PMSX003B,81,17,32.08,1011.10,0.02,30128,31,1857,1.91,3.50,4.17,1.91,3.50,4.17,396.00,126.43,35.96,3.87,0.17,0.48,1.11,3.11,3.30,1.11,3.11,3.30,360.32,112.16,31.03,1.78,0.57,0.30
2018/07/11T22:19:52z,60:1:94:58:d8:f6,2.50i,2.0+OPENLOG+15833 MB+DS3231+BME280+PMSX003A+PMSX003B,81,17,32.08,1011.06,0.02,30128,31,1937,0.91,2.76,3.67,0.91,2.76,3.67,300.00,95.82,29.96,3.91,1.69,0.48,2.00,4.11,4.58,2.00,4.11,4.58,403.42,129.03,37.16,4.92,0.68,0.13
2018/07/11T22:21:12z,60:1:94:58:d8:f6,2.50i,2.0+OPENLOG+15833 MB+DS3231+BME280+PMSX003A+PMSX003B,81,17,32.08,1011.01,0.02,29640,31,2017,1.51,3.02,4.09,1.51,3.02,4.09,363.57,114.60,30.00,5.19,0.72,0.48,1.13,2.71,3.05,1.13,2.71,3.05,303.71,96.26,36.50,2.53,0.11,0.13
2018/07/11T22:22:32z,60:1:94:58:d8:f6,2.50i,2.0+OPENLOG+15833 MB+DS3231+BME280+PMSX003A+PMSX003B,81,17,32.08,1010.86,0.02,29696,31,2097,1.04,3.00,4.09,1.04,3.00,4.09,382.85,115.02,29.11,6.77,0.64,0.48,1.16,2.22,2.59,1.16,2.22,2.59,345.41,100.81,23.95,1.95,0.08,0.13
2018/07/11T22:23:52z,60:1:94:58:d8:f6,2.50i,2.0+OPENLOG+15833 MB+DS3231+BME280+PMSX003A+PMSX003B,81,17,32.08,1011.07,0.02,29944,31,2177,0.53,1.76,3.29,0.53,1.76,3.29,291.73,91.69,25.07,5.24,1.60,0.80,1.62,2.97,3.05,1.62,2.97,3.05,397.14,123.32,26.27,1.57,0.32,0.13
2018/07/11T22:25:12z,60:1:94:58:d8:f6,2.50i,2.0+OPENLOG+15833 MB+DS3231+BME280+PMSX003A+PMSX003B,81,17,32.08,1010.95,0.02,29944,31,2257,0.59,1.48,3.57,0.59,1.48,3.57,270.91,81.87,25.52,5.30,2.70,0.78,0.92,1.76,2.68,0.92,1.76,2.68,279.16,85.58,22.71,2.08,1.50,0.13
2018/07/11T22:27:01z,60:1:94:58:d8:f6,2.50i,2.0+OPENLOG+15833 MB+DS3231+BME280+PMSX003A+PMSX003B,81,18,33.51,1011.02,0.03,29672,31,28,1.00,1.00,1.00,1.00,1.00,1.00,0.00,0.00,0.00,0.00,0.00,0.00,0.00,0.00,0.00,0.00,0.00,0.00,0.00,0.00,0.00,0.00,0.00,0.00
2018/07/11T22:28:20z,60:1:94:58:d8:f6,2.50i,2.0+OPENLOG+15833 MB+DS3231+BME280+PMSX003A+PMSX003B,81,18,33.51,1010.94,0.02,30128,31,107,0.22,1.40,2.64,0.22,1.40,2.64,252.27,80.49,24.93,5.20,1.07,0.27,0.49,1.27,1.59,0.49,1.27,1.59,327.32,99.22,22.38,0.73,0.35,0.00
2018/07/11T22:29:40z,60:1:94:58:d8:f6,2.50i,2.0+OPENLOG+15833 MB+DS3231+BME280+PMSX003A+PMSX003B,81,18,33.51,1010.88,0.02,29848,31,187,0.57,1.19,3.38,0.57,1.19,3.38,302.17,93.02,21.49,4.38,2.94,1.62,0.70,1.11,1.16,0.70,1.11,1.16,265.30,80.73,8.76,1.32,0.35,0.00
2018/07/11T22:31:00z,60:1:94:58:d8:f6,2.50i,2.0+OPENLOG+15833 MB+DS3231+BME280+PMSX003A+PMSX003B,81,18,33.51,1011.01,0.02,29696,31,267,0.43,1.93,3.22,0.43,1.93,3.22,244.04,75.04,24.35,4.96,1.22,1.62,0.57,1.81,2.22,0.57,1.81,2.22,257.84,84.46,24.32,2.92,0.70,0.00
2018/07/11T22:32:20z,60:1:94:58:d8:f6,2.50i,2.0+OPENLOG+15833 MB+DS3231+BME280+PMSX003A+PMSX003B,81,18,33.51,1010.99,0.02,30128,31,347,0.41,0.98,1.57,0.41,0.98,1.57,222.26,71.65,18.13,2.13,1.17,1.62,0.61,1.55,2.11,0.61,1.55,2.11,313.26,95.82,22.55,1.13,0.76,0.32
2018/07/11T22:33:40z,60:1:94:58:d8:f6,2.50i,2.0+OPENLOG+15833 MB+DS3231+BME280+PMSX003A+PMSX003B,81,18,33.51,1010.94,0.02,30128,31,427,0.47,1.94,1.94,0.47,1.94,1.94,228.38,71.96,18.60,3.62,1.17,1.62,0.03,0.45,1.47,0.03,0.45,1.47,235.26,70.66,15.00,2.24,1.82,0.18
2018/07/11T22:35:00z,60:1:94:58:d8:f6,2.50i,2.0+OPENLOG+15833 MB+DS3231+BME280+PMSX003A+PMSX003B,81,18,33.51,1010.83,0.02,30128,31,507,0.61,1.85,2.26,0.61,1.85,2.26,292.96,86.13,21.61,2.35,0.83,1.62,0.03,0.63,0.63,0.03,0.63,0.63,156.39,51.82,10.66,0.87,0.37,0.18
2018/07/11T22:36:20z,60:1:94:58:d8:f6,2.50i,2.0+OPENLOG+15833 MB+DS3231+BME280+PMSX003A+PMSX003B,81,18,33.51,1010.94,0.02,29408,31,587,0.49,2.09,2.87,0.49,2.09,2.87,214.80,70.13,28.04,4.58,1.47,1.62,0.43,1.05,1.43,0.43,1.05,1.43,241.30,75.32,13.16,0.92,0.38,0.18
2018/07/11T22:37:40z,60:1:94:58:d8:f6,2.50i,2.0+OPENLOG+15833 MB+DS3231+BME280+PMSX003A+PMSX003B,81,18,33.51,1010.70,0.02,29672,31,667,0.13,0.94,0.94,0.13,0.94,0.94,178.21,56.55,19.19,0.47,1.47,1.62,0.24,1.43,2.03,0.24,1.43,2.03,196.46,60.84,15.65,3.81,0.84,0.18
2018/07/11T22:39:00z,60:1:94:58:d8:f6,2.50i,2.0+OPENLOG+15833 MB+DS3231+BME280+PMSX003A+PMSX003B,81,18,33.51,1010.83,0.02,30128,31,747,0.13,0.64,1.15,0.13,0.64,1.15,139.53,42.68,12.30,1.66,1.02,1.62,0.37,0.71,0.87,0.37,0.71,0.87,184.58,57.24,9.08,0.79,0.63,0.18
2018/07/11T22:40:20z,60:1:94:58:d8:f6,2.50i,2.0+OPENLOG+15833 MB+DS3231+BME280+PMSX003A+PMSX003B,81,18,33.51,1010.84,0.02,30128,31,827,0.13,1.00,1.04,0.13,1.00,1.04,164.40,52.67,10.27,2.13,1.02,1.62,0.18,0.74,1.34,0.18,0.74,1.34,177.24,55.63,12.63,2.00,1.18,0.18
2018/07/11T22:41:40z,60:1:94:58:d8:f6,2.50i,2.0+OPENLOG+15833 MB+DS3231+BME280+PMSX003A+PMSX003B,81,18,33.51,1010.83,0.02,29696,31,907,0.37,0.72,2.35,0.37,0.72,2.35,202.04,59.04,10.52,3.35,2.74,1.62,0.34,0.74,0.92,0.34,0.74,0.92,197.29,61.00,12.26,1.42,0.08,0.18
2018/07/11T22:43:00z,60:1:94:58:d8:f6,2.50i,2.0+OPENLOG+15833 MB+DS3231+BME280+PMSX003A+PMSX003B,81,19,34.86,1010.77,0.02,29696,31,987,0.13,1.28,2.36,0.13,1.28,2.36,181.28,56.85,15.79,2.81,2.04,1.62,0.34,0.22,0.56,0.34,0.22,0.56,87.83,29.03,8.39,0.64,0.33,0.18
2018/07/11T22:44:20z,60:1:94:58:d8:f6,2.50i,2.0+OPENLOG+15833 MB+DS3231+BME280+PMSX003A+PMSX003B,81,19,34.86,1010.63,0.02,30128,31,1067,0.35,0.70,0.87,0.35,0.70,0.87,209.61,63.00,11.83,0.48,2.04,1.62,0.30,0.78,1.22,0.30,0.78,1.22,172.30,54.03,11.49,2.03,0.78,0.18
2018/07/11T22:45:40z,60:1:94:58:d8:f6,2.50i,2.0+OPENLOG+15833 MB+DS3231+BME280+PMSX003A+PMSX003B,81,19,34.86,1010.81,0.02,30128,31,1147,0.26,0.61,1.11,0.26,0.61,1.11,165.65,53.04,13.04,1.00,0.48,0.48,0.30,0.08,0.08,0.30,0.08,0.08,110.46,32.36,5.74,0.82,0.78,0.18
2018/07/11T22:47:00z,60:1:94:58:d8:f6,2.50i,2.0+OPENLOG+15833 MB+DS3231+BME280+PMSX003A+PMSX003B,81,19,34.86,1010.52,0.02,29640,31,1227,0.26,1.04,1.30,0.26,1.04,1.30,173.74,53.23,13.87,2.38,0.51,0.48,0.30,0.08,0.16,0.30,0.08,0.16,104.59,29.95,7.43,0.41,0.16,0.18
2018/07/11T22:48:20z,60:1:94:58:d8:f6,2.50i,2.0+OPENLOG+15833 MB+DS3231+BME280+PMSX003A+PMSX003B,81,19,34.86,1010.80,0.02,29696,31,1307,0.07,0.87,1.57,0.07,0.87,1.57,189.39,56.22,15.22,2.35,0.83,0.48,0.30,0.08,0.24,0.30,0.08,0.24,104.76,32.05,5.89,0.97,0.32,0.18
2018/07/11T22:49:40z,60:1:94:58:d8:f6,2.50i,2.0+OPENLOG+15833 MB+DS3231+BME280+PMSX003A+PMSX003B,81,19,34.86,1010.77,0.02,30128,31,1387,0.07,0.13,0.13,0.07,0.13,0.13,98.93,30.53,7.02,0.67,0.83,0.48,0.30,0.35,0.51,0.30,0.35,0.51,134.84,41.57,8.54,1.38,0.46,0.18
2018/07/11T22:51:00z,60:1:94:58:d8:f6,2.50i,2.0+OPENLOG+15833 MB+DS3231+BME280+PMSX003A+PMSX003B,81,19,34.86,1010.69,0.02,30128,31,1467,0.07,0.81,1.06,0.07,0.81,1.06,133.15,37.70,11.45,1.28,0.51,0.48,0.08,0.50,0.84,0.08,0.50,0.84,137.05,43.45,7.39,1.21,0.46,0.18
2018/07/11T22:52:20z,60:1:94:58:d8:f6,2.50i,2.0+OPENLOG+15833 MB+DS3231+BME280+PMSX003A+PMSX003B,82,19,35.68,1010.76,0.02,30128,31,1547,0.07,0.17,1.38,0.07,0.17,1.38,113.23,33.45,9.96,2.30,1.53,0.77,0.08,0.50,0.50,0.08,0.50,0.50,90.55,28.11,6.26,0.87,0.50,0.50
2018/07/11T22:53:40z,60:1:94:58:d8:f6,2.50i,2.0+OPENLOG+15833 MB+DS3231+BME280+PMSX003A+PMSX003B,81,19,34.86,1010.56,0.02,29592,31,1627,0.07,0.09,0.64,0.07,0.09,0.64,82.80,27.60,9.51,2.09,1.07,0.53,0.08,0.18,0.29,0.08,0.18,0.29,92.53,27.95,9.53,0.58,0.26,0.50
2018/07/11T22:55:00z,60:1:94:58:d8:f6,2.50i,2.0+OPENLOG+15833 MB+DS3231+BME280+PMSX003A+PMSX003B,82,19,35.68,1010.75,0.02,29696,31,1707,0.07,0.09,0.41,0.07,0.09,0.41,94.57,29.13,11.83,2.35,0.83,0.53,0.08,0.18,0.08,0.08,0.18,0.08,90.73,28.05,3.78,0.14,0.14,0.50
2018/07/11T22:56:20z,60:1:94:58:d8:f6,2.50i,2.0+OPENLOG+15833 MB+DS3231+BME280+PMSX003A+PMSX003B,81,19,34.86,1010.66,0.02,29944,31,1787,0.07,0.23,0.49,0.07,0.23,0.49,85.53,28.04,10.13,1.96,0.83,0.53,0.08,0.18,0.03,0.08,0.18,0.03,78.41,24.57,2.27,0.32,0.30,0.50
2018/07/11T22:57:40z,60:1:94:58:d8:f6,2.50i,2.0+OPENLOG+15833 MB+DS3231+BME280+PMSX003A+PMSX003B,82,19,35.68,1010.69,0.02,30128,31,1867,0.07,0.15,0.43,0.07,0.15,0.43,83.74,26.30,6.65,1.70,0.83,0.53,0.08,0.18,0.03,0.08,0.18,0.03,68.37,20.50,1.97,0.08,0.30,0.50
2018/07/11T22:59:00z,60:1:94:58:d8:f6,2.50i,2.0+OPENLOG+15833 MB+DS3231+BME280+PMSX003A+PMSX003B,81,19,34.86,1010.62,0.02,29592,31,1947,0.02,0.02,0.02,0.02,0.02,0.02,102.91,30.70,5.13,0.22,0.83,0.53,0.08,0.66,0.66,0.08,0.66,0.66,153.16,45.95,5.21,0.32,0.30,0.50
2018/07/11T23:00:20z,60:1:94:58:d8:f6,2.50i,2.0+OPENLOG+15833 MB+DS3231+BME280+PMSX003A+PMSX003B,82,19,35.68,1010.68,0.02,29696,31,2027,0.02,0.02,0.15,0.02,0.02,0.15,79.40,24.30,5.96,1.19,0.51,0.53,0.08,0.66,0.66,0.08,0.66,0.66,76.97,25.50,3.55,0.32,0.30,0.50
2018/07/11T23:01:40z,60:1:94:58:d8:f6,2.50i,2.0+OPENLOG+15833 MB+DS3231+BME280+PMSX003A+PMSX003B,82,19,35.68,1010.68,0.02,30128,31,2107,0.02,0.02,0.15,0.02,0.02,0.15,83.61,22.61,7.74,1.19,0.51,0.53,0.08,0.66,0.08,0.08,0.66,0.08,104.76,32.92,6.65,0.49,0.49,0.50
2018/07/11T23:03:00z,60:1:94:58:d8:f6,2.50i,2.0+OPENLOG+15833 MB+DS3231+BME280+PMSX003A+PMSX003B,82,19,35.68,1010.61,0.02,30128,31,2187,0.02,0.02,0.15,0.02,0.02,0.15,41.47,12.58,3.51,1.19,0.51,0.53,0.08,0.66,0.08,0.08,0.66,0.08,53.51,14.92,3.59,0.49,0.49,0.50
2018/07/11T23:04:20z,60:1:94:58:d8:f6,2.50i,2.0+OPENLOG+15833 MB+DS3231+BME280+PMSX003A+PMSX003B,82,20,36.98,1010.65,0.02,30128,31,2267,0.02,0.23,0.23,0.02,0.23,0.23,80.04,25.66,6.34,0.72,0.51,0.53,0.08,0.24,0.24,0.08,0.24,0.24,83.92,25.24,7.50,1.03,0.49,0.50
2018/07/11T23:06:08z,60:1:94:58:d8:f6,2.50i,2.0+OPENLOG+15833 MB+DS3231+BME280+PMSX003A+PMSX003B,82,20,36.98,1010.64,0.02,29672,31,28,0.00,0.00,0.00,0.00,0.00,0.00,0.00,0.00,0.00,0.00,0.00,0.00,0.00,0.00,0.00,0.00,0.00,0.00,0.00,0.00,0.00,0.00,0.00,0.00
2018/07/11T23:07:28z,60:1:94:58:d8:f6,2.50i,2.0+OPENLOG+15833 MB+DS3231+BME280+PMSX003A+PMSX003B,82,20,36.98,1010.63,0.02,30128,31,107,0.00,0.00,0.18,0.00,0.00,0.18,83.47,25.20,3.07,0.36,0.36,0.00,0.00,0.00,0.00,0.00,0.00,0.00,58.38,18.49,3.08,0.00,0.00,0.00
2018/07/11T23:08:48z,60:1:94:58:d8:f6,2.50i,2.0+OPENLOG+15833 MB+DS3231+BME280+PMSX003A+PMSX003B,82,20,36.98,1010.46,0.02,29640,31,187,0.00,0.00,0.18,0.00,0.00,0.18,82.85,26.30,6.26,0.47,0.36,0.00,0.00,0.00,0.00,0.00,0.00,0.00,71.03,21.03,2.19,0.00,0.00,0.00
2018/07/11T23:10:08z,60:1:94:58:d8:f6,2.50i,2.0+OPENLOG+15833 MB+DS3231+BME280+PMSX003A+PMSX003B,82,20,36.98,1010.59,0.02,29696,31,267,0.00,0.00,0.20,0.00,0.00,0.20,95.61,28.04,6.43,0.57,0.36,0.00,0.00,0.00,0.05,0.00,0.00,0.05,70.05,21.84,3.89,0.76,0.30,0.00
2018/07/11T23:11:28z,60:1:94:58:d8:f6,2.50i,2.0+OPENLOG+15833 MB+DS3231+BME280+PMSX003A+PMSX003B,82,20,36.98,1010.52,0.02,30128,31,347,0.00,0.00,0.20,0.00,0.00,0.20,82.17,25.74,5.17,0.57,0.36,0.00,0.00,0.00,0.16,0.00,0.00,0.16,48.71,14.45,1.32,0.32,0.32,0.32
2018/07/11T23:12:48z,60:1:94:58:d8:f6,2.50i,2.0+OPENLOG+15833 MB+DS3231+BME280+PMSX003A+PMSX003B,82,20,36.98,1010.55,0.02,30128,31,427,0.00,0.00,0.20,0.00,0.00,0.20,66.77,19.45,3.66,0.57,0.36,0.00,0.00,0.00,0.16,0.00,0.00,0.16,51.81,16.35,5.54,0.32,0.32,0.32
2018/07/11T23:14:08z,60:1:94:58:d8:f6,2.50i,2.0+OPENLOG+15833 MB+DS3231+BME280+PMSX003A+PMSX003B,82,20,36.98,1010.55,0.02,30128,31,507,0.00,0.00,0.20,0.00,0.00,0.20,66.65,19.96,3.17,0.57,0.36,0.00,0.00,0.00,0.16,0.00,0.00,0.16,49.86,15.92,2.30,0.30,0.32,0.32
2018/07/11T23:15:28z,60:1:94:58:d8:f6,2.50i,2.0+OPENLOG+15833 MB+DS3231+BME280+PMSX003A+PMSX003B,82,20,36.98,1010.50,0.02,29512,31,587,0.00,0.00,0.20,0.00,0.00,0.20,51.33,15.11,2.53,0.80,0.36,0.00,0.00,0.00,0.16,0.00,0.00,0.16,55.30,13.32,1.27,0.30,0.32,0.32
2018/07/11T23:16:48z,60:1:94:58:d8:f6,2.50i,2.0+OPENLOG+15833 MB+DS3231+BME280+PMSX003A+PMSX003B,82,20,36.98,1010.49,0.02,29672,31,667,0.00,0.15,0.15,0.00,0.15,0.15,45.83,14.68,4.51,0.77,0.36,0.00,0.00,0.00,0.16,0.00,0.00,0.16,45.73,15.24,5.43,0.76,0.32,0.32
2018/07/11T23:18:08z,60:1:94:58:d8:f6,2.50i,2.0+OPENLOG+15833 MB+DS3231+BME280+PMSX003A+PMSX003B,81,20,36.16,1010.17,0.02,30128,31,747,0.00,0.15,0.06,0.00,0.15,0.06,50.17,15.40,4.89,0.98,0.36,0.00,0.00,0.00,0.16,0.00,0.00,0.16,31.70,9.22,1.76,0.30,0.32,0.32
2018/07/11T23:19:28z,60:1:94:58:d8:f6,2.50i,2.0+OPENLOG+15833 MB+DS3231+BME280+PMSX003A+PMSX003B,82,20,36.98,1010.33,0.02,30128,31,827,0.00,0.15,0.06,0.00,0.15,0.06,50.80,15.87,4.13,0.98,0.36,0.00,0.00,0.00,0.16,0.00,0.00,0.16,37.34,10.13,0.74,0.37,0.32,0.32
2018/07/11T23:20:48z,60:1:94:58:d8:f6,2.50i,2.0+OPENLOG+15833 MB+DS3231+BME280+PMSX003A+PMSX003B,82,20,36.98,1010.46,0.02,29696,31,907,0.00,0.15,0.63,0.00,0.15,0.63,40.30,12.70,5.78,2.78,1.26,0.00,0.00,0.00,0.16,0.00,0.00,0.16,41.53,13.00,2.71,0.08,0.32,0.32
2018/07/11T23:22:08z,60:1:94:58:d8:f6,2.50i,2.0+OPENLOG+15833 MB+DS3231+BME280+PMSX003A+PMSX003B,82,20,36.98,1010.29,0.02,29696,31,987,0.00,0.15,0.63,0.00,0.15,0.63,34.34,11.45,2.26,2.78,1.26,0.00,0.00,0.00,0.16,0.00,0.00,0.16,32.68,10.03,0.62,0.08,0.32,0.32
2018/07/11T23:23:28z,60:1:94:58:d8:f6,2.50i,2.0+OPENLOG+15833 MB+DS3231+BME280+PMSX003A+PMSX003B,81,20,36.16,1010.08,0.02,30128,31,1067,0.00,0.15,0.63,0.00,0.15,0.63,40.17,12.04,3.13,2.78,1.26,0.00,0.00,0.00,0.16,0.00,0.00,0.16,48.42,15.56,2.64,0.08,0.32,0.32
2018/07/11T23:24:48z,60:1:94:58:d8:f6,2.50i,2.0+OPENLOG+15833 MB+DS3231+BME280+PMSX003A+PMSX003B,82,20,36.98,1010.38,0.02,30128,31,1147,0.00,0.15,0.63,0.00,0.15,0.63,39.07,12.22,4.76,0.76,1.26,0.00,0.00,0.00,0.16,0.00,0.00,0.16,28.50,8.47,1.47,0.08,0.32,0.32
2018/07/11T23:26:08z,60:1:94:58:d8:f6,2.50i,2.0+OPENLOG+15833 MB+DS3231+BME280+PMSX003A+PMSX003B,82,20,36.98,1010.31,0.02,29640,31,1227,0.00,0.15,0.63,0.00,0.15,0.63,39.70,13.23,1.83,0.76,1.26,0.00,0.00,0.00,0.16,0.00,0.00,0.16,22.11,6.05,1.18,0.39,0.39,0.32
2018/07/11T23:27:28z,60:1:94:58:d8:f6,2.50i,2.0+OPENLOG+15833 MB+DS3231+BME280+PMSX003A+PMSX003B,82,20,36.98,1010.36,0.02,29696,31,1307,0.00,0.15,0.63,0.00,0.15,0.63,32.94,9.79,1.62,0.64,1.26,0.00,0.00,0.00,0.16,0.00,0.00,0.16,34.62,11.54,1.08,0.39,0.39,0.32
2018/07/11T23:28:48z,60:1:94:58:d8:f6,2.50i,2.0+OPENLOG+15833 MB+DS3231+BME280+PMSX003A+PMSX003B,82,20,36.98,1010.36,0.02,30128,31,1387,0.00,0.02,0.02,0.00,0.02,0.02,74.13,23.11,5.69,0.49,1.26,0.00,0.00,0.00,0.32,0.00,0.00,0.32,54.97,15.89,5.43,2.03,0.38,0.32
2018/07/11T23:30:08z,60:1:94:58:d8:f6,2.50i,2.0+OPENLOG+15833 MB+DS3231+BME280+PMSX003A+PMSX003B,82,20,36.98,1010.30,0.02,30128,31,1467,0.00,0.02,0.02,0.00,0.02,0.02,36.51,11.62,4.17,0.49,1.26,0.00,0.00,0.00,0.32,0.00,0.00,0.32,30.89,9.65,1.24,2.03,0.38,0.32
2018/07/11T23:31:28z,60:1:94:58:d8:f6,2.50i,2.0+OPENLOG+15833 MB+DS3231+BME280+PMSX003A+PMSX003B,82,20,36.98,1010.12,0.02,29944,31,1547,0.00,0.02,0.02,0.00,0.02,0.02,28.09,9.36,3.83,0.47,1.26,0.00,0.00,0.00,0.32,0.00,0.00,0.32,26.76,7.55,1.21,0.05,0.05,0.32
2018/07/11T23:32:48z,60:1:94:58:d8:f6,2.50i,2.0+OPENLOG+15833 MB+DS3231+BME280+PMSX003A+PMSX003B,82,20,36.98,1010.28,0.02,29592,31,1627,0.00,0.02,0.02,0.00,0.02,0.02,49.07,15.64,1.87,0.47,1.26,0.00,0.00,0.00,0.32,0.00,0.00,0.32,22.11,6.05,2.16,0.34,0.05,0.32
2018/07/11T23:34:08z,60:1:94:58:d8:f6,2.50i,2.0+OPENLOG+15833 MB+DS3231+BME280+PMSX003A+PMSX003B,82,21,38.22,1010.37,0.02,29696,31,1707,0.00,0.02,0.13,0.00,0.02,0.13,37.57,12.52,2.48,0.61,0.61,0.00,0.00,0.00,0.32,0.00,0.00,0.32,37.66,11.61,2.39,0.34,0.05,0.32
2018/07/11T23:35:28z,60:1:94:58:d8:f6,2.50i,2.0+OPENLOG+15833 MB+DS3231+BME280+PMSX003A+PMSX003B,82,21,38.22,1010.34,0.02,30128,31,1787,0.00,0.17,0.17,0.00,0.17,0.17,44.43,14.00,3.79,0.81,0.61,0.00,0.00,0.00,0.32,0.00,0.00,0.32,18.32,4.59,1.41,0.34,0.05,0.32
2018/07/11T23:36:48z,60:1:94:58:d8:f6,2.50i,2.0+OPENLOG+15833 MB+DS3231+BME280+PMSX003A+PMSX003B,82,21,38.22,1010.04,0.02,30128,31,1867,0.00,0.02,0.26,0.00,0.02,0.26,34.04,11.35,6.04,1.26,0.78,0.00,0.00,0.00,0.32,0.00,0.00,0.32,28.70,6.73,0.43,0.34,0.05,0.32
2018/07/11T23:38:08z,60:1:94:58:d8:f6,2.50i,2.0+OPENLOG+15833 MB+DS3231+BME280+PMSX003A+PMSX003B,82,21,38.22,1010.28,0.02,29848,31,1947,0.00,0.02,0.26,0.00,0.02,0.26,48.00,15.96,4.80,0.53,0.78,0.00,0.00,0.00,0.32,0.00,0.00,0.32,18.87,6.18,1.76,0.26,0.05,0.32
2018/07/11T23:39:28z,60:1:94:58:d8:f6,2.50i,2.0+OPENLOG+15833 MB+DS3231+BME280+PMSX003A+PMSX003B,82,21,38.22,1010.25,0.02,29696,31,2027,0.00,0.02,0.26,0.00,0.02,0.26,36.64,10.72,2.81,0.53,0.78,0.00,0.00,0.00,0.32,0.00,0.00,0.32,13.18,3.92,0.95,0.26,0.05,0.32
2018/07/11T23:40:48z,60:1:94:58:d8:f6,2.50i,2.0+OPENLOG+15833 MB+DS3231+BME280+PMSX003A+PMSX003B,82,21,38.22,1010.11,0.02,30128,31,2107,0.00,0.02,0.26,0.00,0.02,0.26,34.09,10.81,0.68,0.53,0.78,0.00,0.00,0.00,0.32,0.00,0.00,0.32,31.26,8.74,1.55,0.26,0.05,0.32
2018/07/11T23:42:08z,60:1:94:58:d8:f6,2.50i,2.0+OPENLOG+15833 MB+DS3231+BME280+PMSX003A+PMSX003B,82,21,38.22,1010.21,0.02,30128,31,2187,0.00,0.02,0.26,0.00,0.02,0.26,37.07,11.07,2.09,0.53,0.78,0.00,0.00,0.00,0.32,0.00,0.00,0.32,24.57,7.22,0.46,0.26,0.05,0.32
2018/07/11T23:43:28z,60:1:94:58:d8:f6,2.50i,2.0+OPENLOG+15833 MB+DS3231+BME280+PMSX003A+PMSX003B,82,21,38.22,1010.21,0.02,30128,31,2267,0.00,0.02,0.26,0.00,0.02,0.26,23.22,7.74,1.96,0.39,0.78,0.00,0.00,0.00,0.32,0.00,0.00,0.32,29.35,7.86,0.38,0.26,0.05,0.32
2018/07/11T23:45:11z,60:1:94:58:d8:f6,2.50i,2.0+OPENLOG+15833 MB+DS3231+BME280+PMSX003A+PMSX003B,82,21,38.22,1010.17,0.02,29672,31,23,0.00,0.00,0.00,0.00,0.00,0.00,0.00,0.00,0.00,0.00,0.00,0.00,0.00,0.00,0.00,0.00,0.00,0.00,0.00,0.00,0.00,0.00,0.00,0.00
2018/07/11T23:46:26z,60:1:94:58:d8:f6,2.50i,2.0+OPENLOG+15833 MB+DS3231+BME280+PMSX003A+PMSX003B,82,21,38.22,1010.05,0.02,30128,31,97,0.00,0.00,0.00,0.00,0.00,0.00,32.20,10.49,3.07,0.83,0.00,0.00,0.00,0.00,0.00,0.00,0.00,0.00,35.75,11.92,1.44,0.42,0.00,0.00
2018/07/11T23:47:46z,60:1:94:58:d8:f6,2.50i,2.0+OPENLOG+15833 MB+DS3231+BME280+PMSX003A+PMSX003B,82,21,38.22,1009.88,0.02,30128,31,177,0.00,0.00,0.00,0.00,0.00,0.00,39.65,12.39,2.96,0.48,0.00,0.00,0.00,0.00,0.00,0.00,0.00,0.00,20.45,6.82,0.37,0.42,0.00,0.00
2018/07/11T23:49:06z,60:1:94:58:d8:f6,2.50i,2.0+OPENLOG+15833 MB+DS3231+BME280+PMSX003A+PMSX003B,82,21,38.22,1010.12,0.02,30128,31,257,0.00,0.00,0.00,0.00,0.00,0.00,25.25,8.42,3.17,0.48,0.00,0.00,0.00,0.00,0.00,0.00,0.00,0.00,34.50,11.50,2.76,0.42,0.00,0.00
2018/07/11T23:50:26z,60:1:94:58:d8:f6,2.50i,2.0+OPENLOG+15833 MB+DS3231+BME280+PMSX003A+PMSX003B,82,21,38.22,1010.19,0.02,29696,31,337,0.00,0.00,0.00,0.00,0.00,0.00,25.43,8.48,1.74,0.48,0.00,0.00,0.00,0.00,0.00,0.00,0.00,0.00,11.59,3.78,0.35,0.42,0.00,0.00
2018/07/11T23:51:46z,60:1:94:58:d8:f6,2.50i,2.0+OPENLOG+15833 MB+DS3231+BME280+PMSX003A+PMSX003B,82,21,38.22,1010.16,0.02,29672,31,417,0.00,0.00,0.56,0.00,0.00,0.56,41.73,13.91,5.20,1.78,1.24,0.49,0.00,0.00,0.00,0.00,0.00,0.00,22.05,6.30,0.46,0.42,0.00,0.00
2018/07/11T23:53:06z,60:1:94:58:d8:f6,2.50i,2.0+OPENLOG+15833 MB+DS3231+BME280+PMSX003A+PMSX003B,82,21,38.22,1010.11,0.02,30128,31,497,0.00,0.00,0.56,0.00,0.00,0.56,37.40,11.96,3.74,0.77,1.24,0.49,0.00,0.00,0.00,0.00,0.00,0.00,28.66,9.26,0.46,0.42,0.00,0.00
2018/07/11T23:54:26z,60:1:94:58:d8:f6,2.50i,2.0+OPENLOG+15833 MB+DS3231+BME280+PMSX003A+PMSX003B,82,21,38.22,1010.12,0.02,30128,31,577,0.00,0.00,0.56,0.00,0.00,0.56,30.89,9.19,0.21,0.77,1.24,0.49,0.00,0.00,0.00,0.00,0.00,0.00,20.84,5.30,0.32,0.42,0.00,0.00
2018/07/11T23:55:46z,60:1:94:58:d8:f6,2.50i,2.0+OPENLOG+15833 MB+DS3231+BME280+PMSX003A+PMSX003B,82,21,38.22,1009.99,0.02,29592,31,657,0.00,0.00,0.56,0.00,0.00,0.56,27.00,9.00,2.65,0.78,1.24,0.49,0.00,0.00,0.00,0.00,0.00,0.00,15.87,3.39,1.18,0.42,0.00,0.00
2018/07/11T23:57:06z,60:1:94:58:d8:f6,2.50i,2.0+OPENLOG+15833 MB+DS3231+BME280+PMSX003A+PMSX003B,82,21,38.22,1010.10,0.02,29512,31,737,0.00,0.00,0.15,0.00,0.00,0.15,54.26,17.61,6.87,0.52,1.24,0.49,0.00,0.00,0.00,0.00,0.00,0.00,14.67,4.89,1.72,0.42,0.00,0.00
2018/07/11T23:58:26z,60:1:94:58:d8:f6,2.50i,2.0+OPENLOG+15833 MB+DS3231+BME280+PMSX003A+PMSX003B,82,21,38.22,1010.06,0.02,30128,31,817,0.00,0.00,0.15,0.00,0.00,0.15,24.00,8.00,1.06,0.60,1.24,0.49,0.00,0.00,0.00,0.00,0.00,0.00,28.38,8.97,1.03,0.11,0.00,0.00
2018/07/11T23:59:46z,60:1:94:58:d8:f6,2.50i,2.0+OPENLOG+15833 MB+DS3231+BME280+PMSX003A+PMSX003B,82,21,38.22,1010.04,0.02,30128,31,897,0.00,0.00,0.33,0.00,0.00,0.33,26.00,8.09,3.33,0.67,0.67,0.49,0.00,0.00,0.00,0.00,0.00,0.00,25.46,7.70,1.05,0.05,0.00,0.00
