UTCDateTime,mac_address,firmware_ver,hardware,current_temp_f,current_humidity,current_dewpoint_f,pressure,adc,mem,rssi,uptime,pm1_0_atm,pm2_5_atm,pm10_0_atm,pm1_0_cf_1,pm2_5_cf_1,pm10_0_cf_1,p_0_3_um,p_0_5_um,p_1_0_um,p_2_5_um,p_5_0_um,p_10_0_um,pm1_0_atm_b,pm2_5_atm_b,pm10_0_atm_b,pm1_0_cf_1_b,pm2_5_cf_1_b,pm10_0_cf_1_b,p_0_3_um_b,p_0_5_um_b,p_1_0_um_b,p_2_5_um_b,p_5_0_um_b,p_10_0_um_b
2018/06/13T18:17:37z,60:1:94:4b:32:74,2.50i,2.0+OPENLOG+15931 MB+DS3231+BME280+PMSX003A+PMSX003B,70,43,46.48,1009.83,0.00,29488,31,24,2.00,2.00,2.00,2.00,2.00,2.00,0.00,0.00,0.00,0.00,0.00,0.00,2.00,2.00,2.00,2.00,2.00,2.00,0.00,0.00,0.00,0.00,0.00,0.00
2018/06/13T18:18:50z,60:1:94:4b:32:74,2.50i,2.0+OPENLOG+15931 MB+DS3231+BME280+PMSX003A+PMSX003B,71,42,46.76,1009.87,0.00,30128,31,97,3.02,3.51,3.80,3.02,3.51,3.80,681.37,187.80,13.10,1.44,0.39,0.00,2.39,3.53,3.53,2.39,3.53,3.53,598.83,174.06,10.92,1.58,0.00,0.00
2018/06/13T18:20:10z,60:1:94:4b:32:74,2.50i,2.0+OPENLOG+15931 MB+DS3231+BME280+PMSX003A+PMSX003B,71,42,46.76,1009.86,0.00,30128,31,177,2.86,3.23,3.73,2.86,3.23,3.73,740.25,203.64,8.55,0.98,0.61,0.00,3.00,3.68,4.03,3.00,3.68,4.03,679.14,194.57,13.68,1.27,0.62,0.00
2018/06/13T18:21:30z,60:1:94:4b:32:74,2.50i,2.0+OPENLOG+15931 MB+DS3231+BME280+PMSX003A+PMSX003B,72,41,47.02,1009.80,0.00,30128,31,257,2.55,3.40,3.89,2.55,3.40,3.89,738.96,205.04,16.47,1.34,0.49,0.00,3.32,4.19,4.19,3.32,4.19,4.19,786.89,229.92,17.41,0.41,0.62,0.00
2018/06/13T18:22:50z,60:1:94:4b:32:74,2.50i,2.0+OPENLOG+15931 MB+DS3231+BME280+PMSX003A+PMSX003B,72,40,46.36,1009.79,0.00,29592,31,337,2.13,2.72,2.72,2.13,2.72,2.72,666.00,181.11,15.64,0.51,0.26,0.00,2.22,2.83,2.83,2.22,2.83,2.83,728.75,201.03,11.89,0.41,0.62,0.00
2018/06/13T18:24:10z,60:1:94:4b:32:74,2.50i,2.0+OPENLOG+15931 MB+DS3231+BME280+PMSX003A+PMSX003B,73,40,47.26,1009.76,0.00,30128,31,417,2.53,3.29,3.49,2.53,3.29,3.49,730.60,199.80,12.44,0.67,0.27,0.27,2.89,3.57,3.83,2.89,3.57,3.83,739.03,215.94,11.11,1.69,0.26,0.00
2018/06/13T18:25:30z,60:1:94:4b:32:74,2.50i,2.0+OPENLOG+15931 MB+DS3231+BME280+PMSX003A+PMSX003B,74,39,47.48,1009.77,0.00,30128,31,497,1.90,2.71,2.83,1.90,2.71,2.83,796.25,180.27,11.73,1.42,0.21,0.27,2.51,3.11,3.11,2.51,3.11,3.11,807.51,207.11,14.46,0.54,0.26,0.00
2018/06/13T18:26:50z,60:1:94:4b:32:74,2.50i,2.0+OPENLOG+15931 MB+DS3231+BME280+PMSX003A+PMSX003B,74,39,47.48,1009.64,0.00,30128,31,577,525.58,853.52,965.63,349.79,568.13,642.79,65116.38,24245.56,6822.92,466.88,156.31,19.81,417.79,685.98,737.19,277.83,456.67,490.81,60104.00,19455.62,5078.33,379.17,69.81,4.00
2018/06/13T18:28:10z,60:1:94:4b:32:74,2.50i,2.0+OPENLOG+15931 MB+DS3231+BME280+PMSX003A+PMSX003B,74,36,45.36,1009.73,0.00,29696,31,657,472.64,795.08,957.12,314.42,529.28,637.36,65535.00,22515.30,6166.68,604.28,229.66,24.74,433.05,786.92,888.46,287.84,523.86,591.76,64289.84,20683.81,6153.35,641.81,146.95,10.78
2018/06/13T18:29:30z,60:1:94:4b:32:74,2.50i,2.0+OPENLOG+15931 MB+DS3231+BME280+PMSX003A+PMSX003B,74,30,40.60,1009.75,0.00,29696,31,737,379.28,585.26,683.58,252.12,389.50,455.16,59678.52,18230.34,3939.90,392.48,128.52,13.62,355.54,584.08,633.38,236.14,388.89,421.70,54908.92,17168.49,3947.76,399.08,69.81,8.14
2018/06/13T18:30:50z,60:1:94:4b:32:74,2.50i,2.0+OPENLOG+15931 MB+DS3231+BME280+PMSX003A+PMSX003B,74,24,34.92,1009.66,0.00,30128,31,817,269.66,388.38,448.28,179.02,258.09,298.19,44479.98,13169.11,2300.68,233.00,83.23,12.77,263.76,388.47,418.95,175.05,258.11,278.63,41948.13,12861.21,2265.79,206.29,40.87,6.76
2018/06/13T18:32:10z,60:1:94:4b:32:74,2.50i,2.0+OPENLOG+15931 MB+DS3231+BME280+PMSX003A+PMSX003B,75,20,31.21,1009.67,0.00,30128,31,897,178.78,248.02,275.82,118.47,164.60,183.29,30239.47,8788.27,1314.47,128.20,35.84,1.78,175.78,252.41,277.59,116.46,167.46,184.19,29031.16,8736.54,1377.35,145.57,35.76,4.00
2018/06/13T18:33:30z,60:1:94:4b:32:74,2.50i,2.0+OPENLOG+15931 MB+DS3231+BME280+PMSX003A+PMSX003B,75,17,27.22,1009.71,0.00,29848,31,977,118.18,169.86,191.41,78.11,112.48,126.91,20444.46,5892.77,946.77,99.55,29.68,4.34,115.86,163.72,177.86,76.58,108.47,117.92,19491.83,5759.31,863.53,88.17,19.53,1.75
2018/06/13T18:34:50z,60:1:94:4b:32:74,2.50i,2.0+OPENLOG+15931 MB+DS3231+BME280+PMSX003A+PMSX003B,75,17,27.22,1009.63,0.00,29696,31,1057,104.57,149.33,165.17,68.85,98.76,109.39,18186.65,5246.52,806.28,81.46,20.63,2.11,105.31,151.39,164.11,69.31,100.17,108.58,17867.75,5322.31,788.33,83.50,16.39,1.03
2018/06/13T18:36:10z,60:1:94:4b:32:74,2.50i,2.0+OPENLOG+15931 MB+DS3231+BME280+PMSX003A+PMSX003B,75,17,27.22,1009.63,0.00,30128,31,1137,99.55,143.57,163.80,65.52,94.98,108.41,17378.39,5019.61,785.84,88.52,27.55,3.77,100.13,143.53,153.34,66.00,94.89,101.45,16908.16,5025.89,753.76,78.74,13.45,0.97
2018/06/13T18:37:30z,60:1:94:4b:32:74,2.50i,2.0+OPENLOG+15931 MB+DS3231+BME280+PMSX003A+PMSX003B,75,17,27.22,1009.61,0.00,30128,31,1217,92.78,134.07,154.78,60.91,88.48,102.39,16269.91,4701.15,742.15,87.28,29.61,3.30,94.26,137.00,147.62,62.03,90.41,97.68,16083.00,4783.97,738.97,72.68,16.76,1.38
2018/06/13T18:38:50z,60:1:94:4b:32:74,2.50i,2.0+OPENLOG+15931 MB+DS3231+BME280+PMSX003A+PMSX003B,76,17,28.03,1009.64,0.00,30128,31,1297,85.20,124.78,141.59,55.89,82.50,93.61,15209.67,4365.46,681.70,74.65,23.04,2.04,85.61,124.50,135.08,56.22,82.19,89.19,14855.17,4379.31,680.42,64.61,15.53,1.81
2018/06/13T18:40:10z,60:1:94:4b:32:74,2.50i,2.0+OPENLOG+15931 MB+DS3231+BME280+PMSX003A+PMSX003B,76,17,28.03,1009.66,0.00,29592,31,1377,82.25,119.36,136.52,53.98,78.82,90.32,14593.77,4170.23,654.41,72.77,23.50,3.20,80.64,119.44,129.64,53.03,78.89,85.53,13962.67,4128.81,660.50,71.03,14.94,1.42
2018/06/13T18:41:30z,60:1:94:4b:32:74,2.50i,2.0+OPENLOG+15931 MB+DS3231+BME280+PMSX003A+PMSX003B,76,18,29.43,1009.71,0.00,30128,31,1457,76.50,112.52,130.63,50.17,74.22,86.37,13751.22,3918.54,643.00,70.74,25.04,3.70,78.19,115.32,125.78,51.46,76.14,83.00,13462.05,3989.46,630.43,67.86,15.03,2.14
2018/06/13T18:42:50z,60:1:94:4b:32:74,2.50i,2.0+OPENLOG+15931 MB+DS3231+BME280+PMSX003A+PMSX003B,76,18,29.43,1009.74,0.00,29944,31,1537,71.80,106.29,121.64,47.07,70.13,80.84,12814.40,3672.64,604.42,67.20,20.18,2.42,73.00,105.97,113.67,47.78,69.92,77.28,12465.67,3697.67,574.53,54.25,9.75,1.33
2018/06/13T18:44:10z,60:1:94:4b:32:74,2.50i,2.0+OPENLOG+15931 MB+DS3231+BME280+PMSX003A+PMSX003B,77,18,30.25,1009.70,0.00,30128,31,1617,67.73,101.07,117.40,44.58,66.62,78.80,12205.87,3484.29,576.80,66.58,22.20,2.00,68.28,100.67,107.61,44.89,66.44,75.22,11853.33,3496.72,560.25,50.28,8.61,1.06
2018/06/13T18:45:30z,60:1:94:4b:32:74,2.50i,2.0+OPENLOG+15931 MB+DS3231+BME280+PMSX003A+PMSX003B,77,18,30.25,1009.77,0.00,29512,31,1697,65.33,95.04,115.27,42.84,62.56,78.16,11659.93,3335.22,546.42,66.00,29.44,6.24,64.08,96.54,106.32,42.08,63.51,75.00,11192.35,3295.41,524.89,65.76,13.65,1.51
2018/06/13T18:46:50z,60:1:94:4b:32:74,2.50i,2.0+OPENLOG+15931 MB+DS3231+BME280+PMSX003A+PMSX003B,77,19,31.58,1009.76,0.00,30128,31,1777,61.00,92.59,103.84,40.02,60.98,74.16,10826.05,3118.00,538.91,58.16,14.20,1.64,61.26,93.00,101.74,40.17,61.37,73.26,10768.80,3148.94,518.00,64.03,11.29,1.03
2018/06/13T18:48:10z,60:1:94:4b:32:74,2.50i,2.0+OPENLOG+15931 MB+DS3231+BME280+PMSX003A+PMSX003B,77,19,31.58,1009.73,0.00,30128,31,1857,56.24,84.73,99.00,36.73,55.73,71.93,10253.07,2920.56,480.76,62.02,18.60,2.38,59.14,87.31,96.37,38.74,57.60,71.31,10204.37,3025.34,486.06,54.00,14.94,0.69
2018/06/13T18:49:30z,60:1:94:4b:32:74,2.50i,2.0+OPENLOG+15931 MB+DS3231+BME280+PMSX003A+PMSX003B,77,19,31.58,1009.79,0.00,30128,31,1937,54.27,81.84,94.09,35.68,54.14,70.23,9714.55,2794.91,480.55,52.41,15.20,3.02,55.28,84.06,89.58,36.00,55.19,68.31,9742.08,2886.03,445.97,53.64,7.39,0.33
2018/06/13T18:50:50z,60:1:94:4b:32:74,2.50i,2.0+OPENLOG+15931 MB+DS3231+BME280+PMSX003A+PMSX003B,77,19,31.58,1009.74,0.00,29696,31,2017,50.68,76.80,85.77,34.00,51.75,66.82,9267.41,2627.98,442.27,43.57,11.39,2.07,52.53,77.11,82.63,35.05,52.03,65.50,9275.21,2723.45,416.08,40.84,7.03,1.24
2018/06/13T18:52:10z,60:1:94:4b:32:74,2.50i,2.0+OPENLOG+15931 MB+DS3231+BME280+PMSX003A+PMSX003B,77,19,31.58,1009.75,0.00,29696,31,2097,48.56,73.44,83.38,33.24,50.40,65.44,8738.87,2513.53,439.49,43.13,12.09,1.18,50.22,75.35,81.32,33.78,51.30,64.68,8723.68,2589.08,423.92,43.30,8.05,0.76
2018/06/13T18:53:30z,60:1:94:4b:32:74,2.50i,2.0+OPENLOG+15931 MB+DS3231+BME280+PMSX003A+PMSX003B,78,19,32.40,1009.78,0.00,30128,31,2177,46.42,69.51,78.31,32.62,49.29,63.47,8491.33,2409.49,407.82,40.80,11.18,0.96,47.17,69.53,74.97,32.94,49.33,62.11,8199.50,2435.00,386.00,36.19,7.14,0.86
2018/06/13T18:54:50z,60:1:94:4b:32:74,2.50i,2.0+OPENLOG+15931 MB+DS3231+BME280+PMSX003A+PMSX003B,78,20,33.68,1009.75,0.00,30128,31,2257,42.38,65.00,76.76,30.67,47.29,62.53,7849.20,2234.93,392.27,47.80,14.33,1.53,46.58,68.81,74.25,32.69,49.00,61.44,8084.67,2385.58,392.58,36.17,7.97,0.39
2018/06/13T18:56:34z,60:1:94:4b:32:74,2.50i,2.0+OPENLOG+15931 MB+DS3231+BME280+PMSX003A+PMSX003B,78,20,33.68,1009.66,0.00,29672,31,23,32.00,39.00,39.00,27.00,35.00,39.00,0.00,0.00,0.00,0.00,0.00,0.00,32.00,57.00,61.00,27.00,44.00,55.00,0.00,0.00,0.00,0.00,0.00,0.00
2018/06/13T18:57:48z,60:1:94:4b:32:74,2.50i,2.0+OPENLOG+15931 MB+DS3231+BME280+PMSX003A+PMSX003B,78,20,33.68,1009.64,0.00,30128,31,97,37.45,59.00,68.21,28.95,45.17,58.31,6650.43,1912.95,338.07,45.43,11.43,0.83,37.72,58.08,63.47,29.31,45.58,56.58,6406.58,1884.28,345.33,35.36,6.83,1.03
2018/06/13T18:59:08z,60:1:94:4b:32:74,2.50i,2.0+OPENLOG+15931 MB+DS3231+BME280+PMSX003A+PMSX003B,78,20,33.68,1009.71,0.00,30128,31,177,36.35,56.30,64.59,28.09,43.63,56.13,6759.52,1934.20,346.72,35.67,10.83,1.48,36.71,55.31,60.77,28.51,43.86,54.80,6508.54,1918.57,313.29,30.97,6.54,0.51
2018/06/13T19:00:28z,60:1:94:4b:32:74,2.50i,2.0+OPENLOG+15931 MB+DS3231+BME280+PMSX003A+PMSX003B,78,20,33.68,1009.74,0.00,30128,31,257,34.69,53.98,61.56,27.58,42.93,54.71,6467.87,1829.47,318.40,36.89,9.64,0.87,34.22,51.50,56.33,27.86,42.03,51.69,6050.17,1775.08,297.94,29.03,6.64,0.83
2018/06/13T19:01:48z,60:1:94:4b:32:74,2.50i,2.0+OPENLOG+15931 MB+DS3231+BME280+PMSX003A+PMSX003B,78,20,33.68,1009.71,0.00,29592,31,337,33.52,51.26,58.91,27.30,41.87,53.30,6228.98,1768.15,286.39,33.98,10.85,1.80,34.31,53.28,59.72,28.03,43.17,54.14,5996.08,1773.31,307.64,37.19,9.11,1.61
2018/06/13T19:03:08z,60:1:94:4b:32:74,2.50i,2.0+OPENLOG+15931 MB+DS3231+BME280+PMSX003A+PMSX003B,78,20,33.68,1009.65,0.00,29672,31,417,31.42,50.82,58.80,26.42,41.58,53.18,5884.73,1671.96,319.13,39.20,10.18,1.11,33.97,52.14,56.28,27.78,42.19,51.83,5982.67,1774.83,304.78,31.17,6.17,1.44
2018/06/13T19:04:28z,60:1:94:4b:32:74,2.50i,2.0+OPENLOG+15931 MB+DS3231+BME280+PMSX003A+PMSX003B,79,20,34.51,1009.79,0.00,30128,31,497,32.36,49.31,55.78,26.87,40.76,51.44,5762.67,1659.09,290.00,28.71,9.87,1.73,31.74,47.17,52.77,26.54,39.89,49.69,5566.20,1653.46,272.29,29.46,7.63,1.06
2018/06/13T19:05:48z,60:1:94:4b:32:74,2.50i,2.0+OPENLOG+15931 MB+DS3231+BME280+PMSX003A+PMSX003B,79,20,34.51,1009.77,0.00,30128,31,577,28.86,45.66,53.27,24.68,38.91,49.80,5365.23,1542.11,281.18,29.11,10.48,1.84,29.89,46.16,49.84,25.53,39.37,47.82,5264.13,1547.05,267.13,28.37,5.08,0.08
2018/06/13T19:07:08z,60:1:94:4b:32:74,2.50i,2.0+OPENLOG+15931 MB+DS3231+BME280+PMSX003A+PMSX003B,79,21,35.74,1009.76,0.00,29696,31,657,28.78,44.80,49.72,24.63,38.61,47.65,5281.76,1508.24,267.91,23.07,7.43,0.39,26.81,40.68,45.51,23.70,36.14,44.81,4907.59,1438.11,244.78,22.89,7.78,0.92
2018/06/13T19:08:28z,60:1:94:4b:32:74,2.50i,2.0+OPENLOG+15931 MB+DS3231+BME280+PMSX003A+PMSX003B,79,21,35.74,1009.79,0.00,29672,31,737,26.27,43.42,51.53,23.47,37.80,48.96,4952.20,1413.84,276.62,34.84,10.42,1.51,27.11,41.66,46.53,23.74,36.89,45.55,4845.55,1428.79,261.21,26.21,6.68,0.61
2018/06/13T19:09:48z,60:1:94:4b:32:74,2.50i,2.0+OPENLOG+15931 MB+DS3231+BME280+PMSX003A+PMSX003B,79,21,35.74,1009.73,0.00,30128,31,817,25.33,39.85,46.28,22.80,35.52,45.59,4724.41,1350.20,235.09,25.89,9.59,1.07,26.37,41.42,45.21,23.39,36.58,44.71,4808.76,1411.03,244.16,26.87,5.37,0.42
2018/06/13T19:11:08z,60:1:94:4b:32:74,2.50i,2.0+OPENLOG+15931 MB+DS3231+BME280+PMSX003A+PMSX003B,79,21,35.74,1009.69,0.00,30128,31,897,25.09,41.09,47.33,22.78,36.38,46.11,4703.87,1352.04,254.33,29.60,9.24,0.96,25.28,37.47,42.25,22.81,34.25,42.11,4511.33,1331.11,222.86,22.08,7.33,0.69
2018/06/13T19:12:28z,60:1:94:4b:32:74,2.50i,2.0+OPENLOG+15931 MB+DS3231+BME280+PMSX003A+PMSX003B,79,21,35.74,1009.72,0.00,29592,31,977,22.61,38.35,45.26,21.46,34.76,44.78,4311.00,1226.59,249.02,32.02,9.65,2.15,23.76,36.26,39.89,22.11,33.45,39.89,4282.82,1255.13,222.50,20.61,5.97,0.79
2018/06/13T19:13:48z,60:1:94:4b:32:74,2.50i,2.0+OPENLOG+15931 MB+DS3231+BME280+PMSX003A+PMSX003B,79,21,35.74,1009.83,0.00,29512,31,1057,21.37,34.83,45.02,20.54,32.61,44.50,4117.43,1159.02,229.70,32.04,14.46,1.35,22.17,33.77,38.69,21.09,32.00,38.69,4123.54,1195.94,210.14,20.91,7.37,0.91
2018/06/13T19:15:08z,60:1:94:4b:32:74,2.50i,2.0+OPENLOG+15931 MB+DS3231+BME280+PMSX003A+PMSX003B,79,21,35.74,1009.77,0.00,30128,31,1137,21.48,35.48,43.04,20.48,32.91,42.89,4161.78,1179.91,228.93,30.17,10.46,1.15,20.78,32.94,34.58,19.81,31.19,34.58,3928.25,1157.00,200.08,16.78,1.92,0.64
2018/06/13T19:16:28z,60:1:94:4b:32:74,2.50i,2.0+OPENLOG+15931 MB+DS3231+BME280+PMSX003A+PMSX003B,79,21,35.74,1009.71,0.00,30128,31,1217,20.33,33.84,41.42,19.73,31.98,41.16,3936.87,1115.71,223.42,29.64,10.78,0.87,21.57,33.57,39.43,20.46,31.81,39.43,3912.73,1154.49,196.81,24.86,8.97,1.03
2018/06/13T19:17:48z,60:1:94:4b:32:74,2.50i,2.0+OPENLOG+15931 MB+DS3231+BME280+PMSX003A+PMSX003B,79,21,35.74,1009.77,0.00,29592,31,1297,19.41,31.15,37.39,19.26,30.37,37.39,3690.20,1056.57,193.63,22.43,8.63,1.30,19.43,29.92,31.92,19.08,29.43,31.92,3597.73,1060.24,178.95,14.57,2.70,0.22
2018/06/13T19:19:08z,60:1:94:4b:32:74,2.50i,2.0+OPENLOG+15931 MB+DS3231+BME280+PMSX003A+PMSX003B,79,21,35.74,1009.82,0.00,29696,31,1377,19.22,33.59,39.93,19.15,31.76,39.74,3731.35,1062.83,220.28,29.43,8.78,0.63,18.29,30.57,34.34,18.26,29.97,34.34,3440.91,1006.91,190.26,23.17,5.71,0.57
2018/06/13T19:20:28z,60:1:94:4b:32:74,2.50i,2.0+OPENLOG+15931 MB+DS3231+BME280+PMSX003A+PMSX003B,79,21,35.74,1009.83,0.00,30128,31,1457,18.28,30.48,33.28,18.28,29.96,33.28,3513.13,994.41,187.89,19.65,3.11,0.80,17.11,27.87,31.55,17.11,27.84,31.55,3283.50,961.55,190.66,14.74,6.16,0.61
2018/06/13T19:21:48z,60:1:94:4b:32:74,2.50i,2.0+OPENLOG+15931 MB+DS3231+BME280+PMSX003A+PMSX003B,79,21,35.74,1009.82,0.00,30128,31,1537,17.62,31.29,38.89,17.62,30.51,38.89,3387.20,981.78,213.27,29.40,10.40,2.07,18.35,29.59,33.43,18.35,29.30,33.43,3330.89,989.43,177.43,22.49,5.65,0.03
2018/06/13T19:23:08z,60:1:94:4b:32:74,2.50i,2.0+OPENLOG+15931 MB+DS3231+BME280+PMSX003A+PMSX003B,80,21,36.56,1009.82,0.00,29592,31,1617,16.41,28.89,34.68,16.41,28.61,34.68,3184.50,916.27,182.57,31.00,8.66,0.57,17.08,28.00,30.71,17.08,28.00,30.71,3222.63,948.34,170.66,21.95,3.37,0.84
2018/06/13T19:24:28z,60:1:94:4b:32:74,2.50i,2.0+OPENLOG+15931 MB+DS3231+BME280+PMSX003A+PMSX003B,80,21,36.56,1009.82,0.00,29696,31,1697,15.91,28.09,33.48,15.91,27.93,33.48,3219.34,910.91,182.82,27.73,6.95,0.93,16.11,25.97,28.22,16.11,25.97,28.22,2946.89,876.84,183.73,13.97,3.92,0.05
2018/06/13T19:25:48z,60:1:94:4b:32:74,2.50i,2.0+OPENLOG+15931 MB+DS3231+BME280+PMSX003A+PMSX003B,80,21,36.56,1009.88,0.00,30128,31,1777,15.33,25.47,29.33,15.33,25.47,29.33,2994.13,857.51,162.29,17.78,5.04,0.76,16.79,27.28,29.97,16.79,27.28,29.97,3050.15,901.08,169.33,20.13,3.56,0.05
2018/06/13T19:27:08z,60:1:94:4b:32:74,2.50i,2.0+OPENLOG+15931 MB+DS3231+BME280+PMSX003A+PMSX003B,80,22,37.75,1009.88,0.00,30128,31,1857,13.93,25.16,31.55,13.93,25.14,31.55,2764.02,806.80,172.61,24.98,8.50,0.52,14.89,24.21,27.79,14.89,24.21,27.79,2857.74,829.58,161.61,20.63,4.21,0.37
2018/06/13T19:28:28z,60:1:94:4b:32:74,2.50i,2.0+OPENLOG+15931 MB+DS3231+BME280+PMSX003A+PMSX003B,80,22,37.75,1009.83,0.00,29848,31,1937,14.84,25.69,32.40,14.84,25.69,32.40,2858.67,829.53,170.89,23.82,9.02,1.38,14.08,23.53,28.89,14.08,23.53,28.89,2678.37,797.61,137.26,23.53,7.89,0.82
2018/06/13T19:29:48z,60:1:94:4b:32:74,2.50i,2.0+OPENLOG+15931 MB+DS3231+BME280+PMSX003A+PMSX003B,80,22,37.75,1009.75,0.00,29696,31,2017,13.52,22.76,29.02,13.52,22.76,29.02,2740.57,778.30,147.50,19.96,8.50,1.78,12.94,23.11,26.71,12.94,23.11,26.71,2495.49,742.51,154.97,21.80,5.46,0.82
2018/06/13T19:31:08z,60:1:94:4b:32:74,2.50i,2.0+OPENLOG+15931 MB+DS3231+BME280+PMSX003A+PMSX003B,80,22,37.75,1009.85,0.00,30128,31,2097,12.64,22.77,27.09,12.64,22.77,27.09,2502.26,721.34,155.96,21.40,4.98,1.36,13.61,21.37,24.00,13.61,21.37,24.00,2535.71,746.58,134.71,15.84,3.79,0.50
2018/06/13T19:32:28z,60:1:94:4b:32:74,2.50i,2.0+OPENLOG+15931 MB+DS3231+BME280+PMSX003A+PMSX003B,80,22,37.75,1009.83,0.00,30128,31,2177,13.04,23.60,28.87,13.04,23.60,28.87,2715.51,744.74,168.60,21.89,6.66,0.79,12.00,20.43,24.31,12.00,20.43,24.31,2328.09,689.94,140.09,16.89,5.71,1.34
2018/06/13T19:33:48z,60:1:94:4b:32:74,2.50i,2.0+OPENLOG+15931 MB+DS3231+BME280+PMSX003A+PMSX003B,80,22,37.75,1009.84,0.00,29640,31,2257,13.31,23.91,30.40,13.31,23.91,30.40,2853.80,759.89,175.27,21.98,7.98,1.87,12.39,21.42,24.45,12.39,21.42,24.45,2406.47,705.63,138.95,18.84,3.34,0.26
2018/06/13T19:35:32z,60:1:94:4b:32:74,2.50i,2.0+OPENLOG+15931 MB+DS3231+BME280+PMSX003A+PMSX003B,80,22,37.75,1009.84,0.00,29488,31,23,5.00,7.00,21.00,5.00,7.00,21.00,0.00,0.00,0.00,0.00,0.00,0.00,3.00,11.00,17.00,3.00,11.00,17.00,0.00,0.00,0.00,0.00,0.00,0.00
2018/06/13T19:36:46z,60:1:94:4b:32:74,2.50i,2.0+OPENLOG+15931 MB+DS3231+BME280+PMSX003A+PMSX003B,80,22,37.75,1009.82,0.00,30128,31,97,10.32,17.27,19.75,10.32,17.27,19.75,2119.05,592.00,111.65,11.48,3.05,0.20,10.26,18.32,21.44,10.26,18.32,21.44,2012.38,590.24,123.03,17.09,4.71,0.12
2018/06/13T19:38:06z,60:1:94:4b:32:74,2.50i,2.0+OPENLOG+15931 MB+DS3231+BME280+PMSX003A+PMSX003B,80,22,37.75,1009.94,0.00,30128,31,177,10.39,18.54,22.61,10.39,18.54,22.61,2202.52,628.52,132.35,18.20,4.28,0.96,10.32,17.11,18.43,10.32,17.11,18.43,1905.16,567.65,106.43,12.65,1.97,0.12
2018/06/13T19:39:26z,60:1:94:4b:32:74,2.50i,2.0+OPENLOG+15931 MB+DS3231+BME280+PMSX003A+PMSX003B,80,22,37.75,1009.85,0.00,30128,31,257,10.59,18.37,22.09,10.59,18.37,22.09,2187.59,622.13,125.59,16.98,4.98,0.48,10.03,16.97,19.33,10.03,16.97,19.33,2029.00,602.15,118.05,12.33,3.10,0.79
2018/06/13T19:40:46z,60:1:94:4b:32:74,2.50i,2.0+OPENLOG+15931 MB+DS3231+BME280+PMSX003A+PMSX003B,80,22,37.75,1009.92,0.00,29696,31,337,9.85,17.65,21.89,9.85,17.65,21.89,2265.20,580.24,124.54,14.41,7.17,1.20,10.32,17.34,19.39,10.32,17.34,19.39,2082.47,599.84,120.50,12.26,3.05,0.79
2018/06/13T19:42:06z,60:1:94:4b:32:74,2.50i,2.0+OPENLOG+15931 MB+DS3231+BME280+PMSX003A+PMSX003B,80,22,37.75,1009.72,0.00,29672,31,417,9.93,17.78,24.62,9.93,17.78,24.62,2074.33,584.82,127.51,23.80,9.13,1.11,8.53,16.31,20.28,8.53,16.31,20.28,1735.00,517.67,121.61,20.36,6.61,0.36
2018/06/13T19:43:26z,60:1:94:4b:32:74,2.50i,2.0+OPENLOG+15931 MB+DS3231+BME280+PMSX003A+PMSX003B,80,22,37.75,1009.80,0.00,30128,31,497,9.16,17.23,21.36,9.16,17.23,21.36,1951.02,555.48,117.95,15.34,5.36,1.45,10.22,16.76,17.19,10.22,16.76,17.19,1885.46,563.78,110.57,10.76,0.41,0.36
2018/06/13T19:44:46z,60:1:94:4b:32:74,2.50i,2.0+OPENLOG+15931 MB+DS3231+BME280+PMSX003A+PMSX003B,80,22,37.75,1009.79,0.00,30128,31,577,8.98,16.36,18.89,8.98,16.36,18.89,1840.73,537.71,122.91,10.73,3.82,0.20,9.16,15.30,18.59,9.16,15.30,18.59,1806.65,533.95,100.81,14.86,5.32,0.76
2018/06/13T19:46:06z,60:1:94:4b:32:74,2.50i,2.0+OPENLOG+15931 MB+DS3231+BME280+PMSX003A+PMSX003B,80,22,37.75,1009.75,0.00,29512,31,657,8.38,14.24,17.04,8.38,14.24,17.04,1713.87,497.22,102.02,10.53,3.36,0.64,8.00,14.19,17.19,8.00,14.19,17.19,1709.58,497.50,100.31,13.36,4.28,1.03
2018/06/13T19:47:26z,60:1:94:4b:32:74,2.50i,2.0+OPENLOG+15931 MB+DS3231+BME280+PMSX003A+PMSX003B,80,22,37.75,1009.80,0.00,29672,31,737,8.20,14.98,16.64,8.20,14.98,16.64,1755.61,485.93,97.52,11.77,2.16,0.45,7.29,12.58,13.45,7.29,12.58,13.45,1512.71,440.95,79.32,9.97,1.58,0.50
2018/06/13T19:48:46z,60:1:94:4b:32:74,2.50i,2.0+OPENLOG+15931 MB+DS3231+BME280+PMSX003A+PMSX003B,80,22,37.75,1009.79,0.00,30128,31,817,8.08,15.38,21.27,8.08,15.38,21.27,1685.81,478.73,115.58,19.04,8.44,3.17,7.34,13.71,17.37,7.34,13.71,17.37,1588.66,472.71,102.79,14.05,4.16,0.61
2018/06/13T19:50:06z,60:1:94:4b:32:74,2.50i,2.0+OPENLOG+15931 MB+DS3231+BME280+PMSX003A+PMSX003B,80,22,37.75,1009.78,0.00,30128,31,897,8.34,15.11,18.50,8.34,15.11,18.50,1777.91,504.34,103.89,14.16,5.25,0.93,7.46,13.11,14.38,7.46,13.11,14.38,1602.57,466.86,86.08,9.51,2.19,0.19
2018/06/13T19:51:26z,60:1:94:4b:32:74,2.50i,2.0+OPENLOG+15931 MB+DS3231+BME280+PMSX003A+PMSX003B,80,22,37.75,1009.80,0.00,29696,31,977,7.46,13.20,17.63,7.46,13.20,17.63,1957.43,444.33,102.28,14.20,7.07,0.93,7.42,11.81,13.36,7.42,11.81,13.36,1510.08,446.78,83.78,7.75,1.89,0.19
2018/06/13T19:52:46z,60:1:94:4b:32:74,2.50i,2.0+OPENLOG+15931 MB+DS3231+BME280+PMSX003A+PMSX003B,80,22,37.75,1009.78,0.00,29672,31,1057,6.23,13.02,18.09,6.23,13.02,18.09,1428.57,407.74,102.79,18.49,6.83,0.94,7.08,13.03,15.71,7.08,13.03,15.71,1487.61,436.97,92.76,13.92,3.39,0.32
2018/06/13T19:54:06z,60:1:94:4b:32:74,2.50i,2.0+OPENLOG+15931 MB+DS3231+BME280+PMSX003A+PMSX003B,80,22,37.75,1009.82,0.00,30128,31,1137,6.36,11.91,14.09,6.36,11.91,14.09,1394.40,397.93,91.22,8.36,3.36,0.73,6.81,11.59,14.41,6.81,11.59,14.41,1420.70,417.19,81.78,10.81,3.43,0.68
2018/06/13T19:55:26z,60:1:94:4b:32:74,2.50i,2.0+OPENLOG+15931 MB+DS3231+BME280+PMSX003A+PMSX003B,80,22,37.75,1009.85,0.00,30128,31,1217,6.36,13.89,17.42,6.36,13.89,17.42,2369.40,430.24,99.00,16.91,4.98,0.47,7.11,12.71,14.21,7.11,12.71,14.21,1416.24,421.63,93.16,8.55,2.32,0.68
2018/06/13T19:56:46z,60:1:94:4b:32:74,2.50i,2.0+OPENLOG+15931 MB+DS3231+BME280+PMSX003A+PMSX003B,80,22,37.75,1009.72,0.00,29696,31,1297,6.42,11.75,14.52,6.42,11.75,14.52,2228.69,390.38,81.67,11.67,3.35,0.98,7.18,11.76,12.71,7.18,11.76,12.71,1347.55,403.21,76.08,8.71,1.16,0.68
2018/06/13T19:58:06z,60:1:94:4b:32:74,2.50i,2.0+OPENLOG+15931 MB+DS3231+BME280+PMSX003A+PMSX003B,81,22,38.58,1009.61,0.00,29696,31,1377,6.00,10.68,12.05,6.00,10.68,12.05,1367.52,368.50,74.09,7.89,1.93,0.25,6.63,11.68,13.00,6.63,11.68,13.00,1322.37,385.97,72.32,10.74,1.97,0.68
2018/06/13T19:59:26z,60:1:94:4b:32:74,2.50i,2.0+OPENLOG+15931 MB+DS3231+BME280+PMSX003A+PMSX003B,80,22,37.75,1009.76,0.00,30128,31,1457,5.91,12.20,16.41,5.91,12.20,16.41,2013.14,388.61,88.25,17.43,5.27,1.36,5.42,10.19,10.33,5.42,10.19,10.33,1159.75,340.11,68.44,6.03,1.97,0.68
2018/06/13T20:00:46z,60:1:94:4b:32:74,2.50i,2.0+OPENLOG+15931 MB+DS3231+BME280+PMSX003A+PMSX003B,81,22,38.58,1009.79,0.00,30128,31,1537,6.53,10.60,13.09,6.53,10.60,13.09,1405.85,379.13,80.13,8.77,3.68,0.23,6.22,11.73,13.46,6.22,11.73,13.46,1299.65,385.78,80.16,11.76,2.03,0.30
2018/06/13T20:02:06z,60:1:94:4b:32:74,2.50i,2.0+OPENLOG+15931 MB+DS3231+BME280+PMSX003A+PMSX003B,80,22,37.75,1009.82,0.00,29640,31,1617,4.98,8.80,11.82,4.98,8.80,11.82,1107.00,315.56,64.78,7.82,5.16,1.02,5.39,9.53,10.56,5.39,9.53,10.56,1137.75,337.22,62.78,8.61,1.81,0.30
2018/06/13T20:03:26z,60:1:94:4b:32:74,2.50i,2.0+OPENLOG+15931 MB+DS3231+BME280+PMSX003A+PMSX003B,81,23,39.72,1009.86,0.00,29696,31,1697,5.17,10.61,14.41,5.17,10.61,14.41,2197.37,348.96,81.04,12.72,5.35,0.52,5.16,9.78,11.68,5.16,9.78,11.68,1121.35,338.97,67.59,10.05,2.59,0.92
2018/06/13T20:04:46z,60:1:94:4b:32:74,2.50i,2.0+OPENLOG+15931 MB+DS3231+BME280+PMSX003A+PMSX003B,81,23,39.72,1009.84,0.00,30128,31,1777,5.89,10.37,11.46,5.89,10.37,11.46,2337.78,377.07,68.59,6.96,1.30,0.35,4.64,9.92,11.15,4.64,9.92,11.15,1056.77,318.33,69.56,12.33,1.49,0.92
2018/06/13T20:06:06z,60:1:94:4b:32:74,2.50i,2.0+OPENLOG+15931 MB+DS3231+BME280+PMSX003A+PMSX003B,81,23,39.72,1009.66,0.00,30128,31,1857,4.39,7.54,9.80,4.39,7.54,9.80,1091.09,289.80,56.02,6.61,3.43,1.00,4.76,9.16,10.95,4.76,9.16,10.95,1046.45,307.18,60.50,9.55,2.71,0.71
2018/06/13T20:07:26z,60:1:94:4b:32:74,2.50i,2.0+OPENLOG+15931 MB+DS3231+BME280+PMSX003A+PMSX003B,81,23,39.72,1009.77,0.00,29640,31,1937,4.74,8.48,10.04,4.74,8.48,10.04,1058.22,292.26,65.67,8.70,2.09,1.00,5.08,8.06,9.19,5.08,8.06,9.19,1090.42,316.36,54.42,5.58,1.83,0.71
2018/06/13T20:08:46z,60:1:94:4b:32:74,2.50i,2.0+OPENLOG+15931 MB+DS3231+BME280+PMSX003A+PMSX003B,81,23,39.72,1009.85,0.00,29696,31,2017,4.33,8.74,10.50,4.33,8.74,10.50,1089.52,286.00,68.76,8.13,2.24,0.26,4.24,7.86,9.76,4.24,7.86,9.76,955.54,283.30,63.59,6.43,2.84,0.71
2018/06/13T20:10:06z,60:1:94:4b:32:74,2.50i,2.0+OPENLOG+15931 MB+DS3231+BME280+PMSX003A+PMSX003B,81,23,39.72,1009.79,0.00,30128,31,2097,4.40,8.81,11.32,4.40,8.81,11.32,1012.91,290.21,62.00,11.87,3.02,1.32,3.38,6.68,9.78,3.38,6.68,9.78,827.03,248.49,51.73,10.92,4.62,0.97
2018/06/13T20:11:26z,60:1:94:4b:32:74,2.50i,2.0+OPENLOG+15931 MB+DS3231+BME280+PMSX003A+PMSX003B,81,23,39.72,1009.88,0.00,30128,31,2177,4.27,8.78,11.67,4.27,8.78,11.67,1059.73,287.29,71.18,10.13,4.13,1.04,4.95,8.27,9.76,4.95,8.27,9.76,975.57,297.16,52.14,6.62,2.11,0.59
2018/06/13T20:12:46z,60:1:94:4b:32:74,2.50i,2.0+OPENLOG+15931 MB+DS3231+BME280+PMSX003A+PMSX003B,81,23,39.72,1009.92,0.00,30128,31,2257,4.00,7.40,9.62,4.00,7.40,9.62,1218.77,266.87,49.38,8.98,3.77,0.19,4.35,8.05,9.03,4.35,8.05,9.03,979.14,287.22,58.11,5.68,1.14,0.41
2018/06/13T20:14:30z,60:1:94:4b:32:74,2.50i,2.0+OPENLOG+15931 MB+DS3231+BME280+PMSX003A+PMSX003B,81,23,39.72,1009.70,0.00,29672,31,23,2.00,2.00,2.00,2.00,2.00,2.00,0.00,0.00,0.00,0.00,0.00,0.00,3.00,8.00,9.00,3.00,8.00,9.00,0.00,0.00,0.00,0.00,0.00,0.00
2018/06/13T20:15:44z,60:1:94:4b:32:74,2.50i,2.0+OPENLOG+15931 MB+DS3231+BME280+PMSX003A+PMSX003B,81,23,39.72,1009.89,0.00,30128,31,97,2.50,7.21,9.48,2.50,7.21,9.48,1494.93,238.62,58.07,12.02,3.21,0.29,4.17,7.56,8.19,4.17,7.56,8.19,919.42,273.44,49.28,5.36,0.86,0.33
2018/06/13T20:17:04z,60:1:94:4b:32:74,2.50i,2.0+OPENLOG+15931 MB+DS3231+BME280+PMSX003A+PMSX003B,81,23,39.72,1009.77,0.00,30128,31,177,3.52,6.89,8.26,3.52,6.89,8.26,1182.72,261.78,48.41,5.02,2.02,0.70,3.43,6.59,7.43,3.43,6.59,7.43,817.95,248.43,45.65,6.27,1.00,0.68
2018/06/13T20:18:24z,60:1:94:4b:32:74,2.50i,2.0+OPENLOG+15931 MB+DS3231+BME280+PMSX003A+PMSX003B,81,23,39.72,1009.68,0.00,30128,31,257,3.13,6.72,9.74,3.13,6.72,9.74,1144.89,245.61,53.09,10.52,3.70,0.26,3.03,5.42,5.94,3.03,5.42,5.94,704.08,212.17,38.94,4.75,0.69,0.36
2018/06/13T20:19:44z,60:1:94:4b:32:74,2.50i,2.0+OPENLOG+15931 MB+DS3231+BME280+PMSX003A+PMSX003B,81,23,39.72,1009.78,0.00,29408,31,337,4.00,7.11,9.28,4.00,7.11,9.28,1321.09,270.87,47.94,8.09,3.34,0.64,3.43,5.89,8.05,3.43,5.89,8.05,737.92,219.51,44.19,7.76,2.95,0.49
2018/06/13T20:21:04z,60:1:94:4b:32:74,2.50i,2.0+OPENLOG+15931 MB+DS3231+BME280+PMSX003A+PMSX003B,81,23,39.72,1009.82,0.00,29672,31,417,4.24,7.67,8.78,4.24,7.67,8.78,3222.07,299.64,42.04,6.36,1.78,0.64,2.92,6.62,7.92,2.92,6.62,7.92,748.78,220.24,54.14,6.62,1.62,0.49
2018/06/13T20:22:24z,60:1:94:4b:32:74,2.50i,2.0+OPENLOG+15931 MB+DS3231+BME280+PMSX003A+PMSX003B,81,23,39.72,1009.74,0.00,30128,31,497,3.49,5.45,7.00,3.49,5.45,7.00,1524.45,226.85,39.19,5.43,1.57,0.40,3.47,6.47,7.21,3.47,6.47,7.21,834.24,238.34,46.03,7.18,0.39,0.39
2018/06/13T20:23:44z,60:1:94:4b:32:74,2.50i,2.0+OPENLOG+15931 MB+DS3231+BME280+PMSX003A+PMSX003B,81,23,39.72,1009.74,0.00,30128,31,577,3.72,6.74,8.35,3.72,6.74,8.35,1829.61,257.28,51.76,8.50,1.89,0.40,3.53,6.87,8.05,3.53,6.87,8.05,783.39,231.47,55.74,6.76,1.74,0.39
2018/06/13T20:25:04z,60:1:94:4b:32:74,2.50i,2.0+OPENLOG+15931 MB+DS3231+BME280+PMSX003A+PMSX003B,81,23,39.72,1009.64,0.00,29696,31,657,5.20,8.65,10.35,5.20,8.65,10.35,3855.78,352.91,48.83,6.87,2.13,0.24,2.51,5.73,8.73,2.51,5.73,8.73,730.54,206.16,46.49,9.76,4.41,0.49
2018/06/13T20:26:24z,60:1:94:4b:32:74,2.50i,2.0+OPENLOG+15931 MB+DS3231+BME280+PMSX003A+PMSX003B,81,23,39.72,1009.69,0.00,29696,31,737,4.21,7.36,10.62,4.21,7.36,10.62,3475.40,315.60,48.83,7.43,5.02,1.64,2.92,4.41,4.95,2.92,4.41,4.95,672.73,192.51,26.97,3.22,0.81,0.49
2018/06/13T20:27:44z,60:1:94:4b:32:74,2.50i,2.0+OPENLOG+15931 MB+DS3231+BME280+PMSX003A+PMSX003B,81,23,39.72,1009.62,0.00,30128,31,817,5.43,9.02,10.43,5.43,9.02,10.43,4237.91,368.75,49.61,6.23,2.39,1.64,2.68,5.78,6.68,2.68,5.78,6.68,619.30,183.95,39.19,7.05,1.59,0.30
2018/06/13T20:29:04z,60:1:94:4b:32:74,2.50i,2.0+OPENLOG+15931 MB+DS3231+BME280+PMSX003A+PMSX003B,81,23,39.72,1009.70,0.00,30128,31,897,3.35,6.89,8.39,3.35,6.89,8.39,2657.22,259.41,52.43,6.39,1.43,0.39,2.08,4.19,6.08,2.08,4.19,6.08,561.24,165.00,32.89,7.24,2.24,0.27
2018/06/13T20:30:24z,60:1:94:4b:32:74,2.50i,2.0+OPENLOG+15931 MB+DS3231+BME280+PMSX003A+PMSX003B,81,23,39.72,1009.73,0.00,29696,31,977,3.39,6.32,8.05,3.39,6.32,8.05,1932.95,244.43,51.43,6.05,2.48,0.16,1.86,3.92,4.35,1.86,3.92,4.35,594.24,171.49,31.78,2.68,0.35,0.27
2018/06/13T20:31:44z,60:1:94:4b:32:74,2.50i,2.0+OPENLOG+15931 MB+DS3231+BME280+PMSX003A+PMSX003B,81,23,39.72,1009.62,0.00,29512,31,1057,3.02,5.16,7.13,3.02,5.16,7.13,2578.87,226.76,35.82,5.78,2.62,0.31,2.26,4.50,5.39,2.26,4.50,5.39,605.37,181.05,35.87,5.58,0.97,0.27
2018/06/13T20:33:04z,60:1:94:4b:32:74,2.50i,2.0+OPENLOG+15931 MB+DS3231+BME280+PMSX003A+PMSX003B,81,23,39.72,1009.76,0.00,30128,31,1137,3.13,6.87,7.50,3.13,6.87,7.50,1695.20,230.02,48.93,5.54,0.96,0.13,2.30,4.73,5.81,2.30,4.73,5.81,570.49,170.19,35.97,5.08,1.68,0.27
2018/06/13T20:34:24z,60:1:94:4b:32:74,2.50i,2.0+OPENLOG+15931 MB+DS3231+BME280+PMSX003A+PMSX003B,81,23,39.72,1009.74,0.00,30128,31,1217,3.89,6.35,8.11,3.89,6.35,8.11,2977.89,285.87,41.26,6.04,1.70,0.57,2.27,4.92,6.00,2.27,4.92,6.00,607.14,177.54,41.22,6.05,1.68,0.49
2018/06/13T20:35:44z,60:1:94:4b:32:74,2.50i,2.0+OPENLOG+15931 MB+DS3231+BME280+PMSX003A+PMSX003B,81,23,39.72,1009.78,0.00,29408,31,1297,2.50,5.52,6.72,2.50,5.52,6.72,1455.85,197.46,45.15,5.02,2.37,0.57,1.84,4.65,5.30,1.84,4.65,5.30,554.43,155.24,36.65,7.41,1.08,0.49
2018/06/13T20:37:04z,60:1:94:4b:32:74,2.50i,2.0+OPENLOG+15931 MB+DS3231+BME280+PMSX003A+PMSX003B,81,23,39.72,1009.75,0.00,29696,31,1377,2.20,5.24,7.16,2.20,5.24,7.16,1261.80,200.91,44.24,6.67,2.82,0.40,1.66,3.58,4.76,1.66,3.58,4.76,477.71,139.63,31.18,3.84,2.11,0.32
2018/06/13T20:38:24z,60:1:94:4b:32:74,2.50i,2.0+OPENLOG+15931 MB+DS3231+BME280+PMSX003A+PMSX003B,81,23,39.72,1009.71,0.00,30128,31,1457,1.96,4.48,5.26,1.96,4.48,5.26,635.61,162.74,36.04,5.02,1.33,0.24,1.45,3.08,4.58,1.45,3.08,4.58,466.58,137.58,26.74,5.32,1.68,0.05
2018/06/13T20:39:44z,60:1:94:4b:32:74,2.50i,2.0+OPENLOG+15931 MB+DS3231+BME280+PMSX003A+PMSX003B,81,23,39.72,1009.71,0.00,30128,31,1537,2.69,4.87,5.40,2.69,4.87,5.40,1803.13,204.33,37.09,3.62,0.51,0.24,1.54,3.11,5.11,1.54,3.11,5.11,491.92,141.78,29.38,4.35,2.70,0.43
2018/06/13T20:41:04z,60:1:94:4b:32:74,2.50i,2.0+OPENLOG+15931 MB+DS3231+BME280+PMSX003A+PMSX003B,81,23,39.72,1009.64,0.00,29592,31,1617,3.23,5.28,6.60,3.23,5.28,6.60,2072.36,229.17,36.15,5.13,1.66,0.26,1.11,3.36,3.81,1.11,3.36,3.81,434.50,128.08,28.03,5.83,0.11,0.06
2018/06/13T20:42:24z,60:1:94:4b:32:74,2.50i,2.0+OPENLOG+15931 MB+DS3231+BME280+PMSX003A+PMSX003B,81,23,39.72,1009.72,0.00,29696,31,1697,1.64,3.36,4.16,1.64,3.36,4.16,890.33,164.58,25.27,3.13,1.33,0.49,1.41,3.81,5.27,1.41,3.81,5.27,464.51,137.14,31.22,8.89,2.70,0.06
2018/06/13T20:43:44z,60:1:94:4b:32:74,2.50i,2.0+OPENLOG+15931 MB+DS3231+BME280+PMSX003A+PMSX003B,81,23,39.72,1009.78,0.00,30128,31,1777,4.89,6.89,8.20,4.89,6.89,8.20,3683.07,344.42,29.36,4.62,1.89,0.51,1.43,3.81,4.30,1.43,3.81,4.30,478.95,141.03,31.84,4.76,0.68,0.30
2018/06/13T20:45:04z,60:1:94:4b:32:74,2.50i,2.0+OPENLOG+15931 MB+DS3231+BME280+PMSX003A+PMSX003B,81,23,39.72,1009.72,0.00,30128,31,1857,2.15,3.50,4.61,2.15,3.50,4.61,1324.63,160.24,29.09,3.00,1.63,0.39,0.95,2.79,2.92,0.95,2.79,2.92,418.03,121.58,24.68,3.18,0.29,0.30
2018/06/13T20:46:24z,60:1:94:4b:32:74,2.50i,2.0+OPENLOG+15931 MB+DS3231+BME280+PMSX003A+PMSX003B,81,23,39.72,1009.72,0.00,29848,31,1937,1.58,3.31,3.64,1.58,3.31,3.64,1030.87,154.04,23.07,2.40,0.40,0.13,1.79,2.74,3.61,1.79,2.74,3.61,479.45,142.05,26.03,1.87,0.97,0.30
2018/06/13T20:47:44z,60:1:94:4b:32:74,2.50i,2.0+OPENLOG+15931 MB+DS3231+BME280+PMSX003A+PMSX003B,81,23,39.72,1009.73,0.00,29512,31,2017,2.38,4.13,4.56,2.38,4.13,4.56,1744.33,173.96,30.02,3.00,0.44,0.13,1.89,4.08,4.95,1.89,4.08,4.95,483.32,144.00,31.46,5.35,1.30,0.30
2018/06/13T20:49:04z,60:1:94:4b:32:74,2.50i,2.0+OPENLOG+15931 MB+DS3231+BME280+PMSX003A+PMSX003B,81,23,39.72,1009.69,0.00,30128,31,2097,3.46,4.89,5.89,3.46,4.89,5.89,2096.80,278.87,25.67,2.89,1.22,0.33,1.08,2.92,3.64,1.08,2.92,3.64,468.33,131.08,26.06,2.97,0.97,0.47
2018/06/13T20:50:24z,60:1:94:4b:32:74,2.50i,2.0+OPENLOG+15931 MB+DS3231+BME280+PMSX003A+PMSX003B,81,23,39.72,1009.72,0.00,30128,31,2177,2.72,5.07,6.37,2.72,5.07,6.37,2585.80,234.63,34.39,3.37,2.02,0.26,1.62,3.24,4.49,1.62,3.24,4.49,478.22,138.57,25.89,5.24,2.30,0.49
2018/06/13T20:51:44z,60:1:94:4b:32:74,2.50i,2.0+OPENLOG+15931 MB+DS3231+BME280+PMSX003A+PMSX003B,81,23,39.72,1009.62,0.00,30128,31,2257,2.80,5.22,7.40,2.80,5.22,7.40,2678.33,235.53,38.07,5.91,2.69,0.49,1.00,3.14,3.78,1.00,3.14,3.78,480.32,136.65,32.43,3.54,0.65,0.49
2018/06/13T20:53:33z,60:1:94:4b:32:74,2.50i,2.0+OPENLOG+15931 MB+DS3231+BME280+PMSX003A+PMSX003B,81,23,39.72,1009.72,0.00,29488,31,28,1.00,1.00,1.00,1.00,1.00,1.00,0.00,0.00,0.00,0.00,0.00,0.00,0.00,2.00,2.00,0.00,2.00,2.00,0.00,0.00,0.00,0.00,0.00,0.00
2018/06/13T20:54:52z,60:1:94:4b:32:74,2.50i,2.0+OPENLOG+15931 MB+DS3231+BME280+PMSX003A+PMSX003B,81,23,39.72,1009.62,0.00,30128,31,107,1.66,3.02,3.72,1.66,3.02,3.72,1181.04,174.09,25.60,2.47,0.83,0.00,0.69,2.25,2.89,0.69,2.25,2.89,348.67,100.19,19.00,3.25,1.31,0.00
2018/06/13T20:56:12z,60:1:94:4b:32:74,2.50i,2.0+OPENLOG+15931 MB+DS3231+BME280+PMSX003A+PMSX003B,81,23,39.72,1009.61,0.00,29384,31,187,1.74,3.87,5.04,1.74,3.87,5.04,1182.26,171.07,33.63,4.00,1.37,0.00,0.35,2.24,3.08,0.35,2.24,3.08,363.97,105.73,28.81,4.68,1.38,0.43
2018/06/13T20:57:32z,60:1:94:4b:32:74,2.50i,2.0+OPENLOG+15931 MB+DS3231+BME280+PMSX003A+PMSX003B,81,23,39.72,1009.59,0.00,29696,31,267,1.87,2.62,3.20,1.87,2.62,3.20,1523.60,155.84,16.91,1.42,0.93,0.00,0.70,2.54,3.38,0.70,2.54,3.38,396.49,114.97,23.14,3.92,0.78,0.46
2018/06/13T20:58:52z,60:1:94:4b:32:74,2.50i,2.0+OPENLOG+15931 MB+DS3231+BME280+PMSX003A+PMSX003B,81,23,39.72,1009.79,0.00,30128,31,347,1.09,2.36,3.18,1.09,2.36,3.18,1148.20,127.71,21.80,2.49,0.93,0.00,0.58,2.00,2.71,0.58,2.00,2.71,365.68,114.05,23.13,3.50,1.00,0.13
2018/06/13T21:00:12z,60:1:94:4b:32:74,2.50i,2.0+OPENLOG+15931 MB+DS3231+BME280+PMSX003A+PMSX003B,81,23,39.72,1009.77,0.00,30128,31,427,1.62,3.15,5.13,1.62,3.15,5.13,1479.45,158.15,25.94,5.19,2.66,0.00,1.08,2.54,2.81,1.08,2.54,2.81,371.84,112.22,20.43,3.46,0.41,0.05
2018/06/13T21:01:32z,60:1:94:4b:32:74,2.50i,2.0+OPENLOG+15931 MB+DS3231+BME280+PMSX003A+PMSX003B,81,23,39.72,1009.71,0.00,29848,31,507,1.29,3.31,4.22,1.29,3.31,4.22,784.47,146.62,25.56,4.04,1.29,0.49,0.95,1.95,2.57,0.95,1.95,2.57,336.73,96.16,19.97,2.51,0.51,0.05
2018/06/13T21:02:52z,60:1:94:4b:32:74,2.50i,2.0+OPENLOG+15931 MB+DS3231+BME280+PMSX003A+PMSX003B,81,23,39.72,1009.73,0.00,29696,31,587,0.85,2.02,2.55,0.85,2.02,2.55,656.23,101.85,17.64,1.91,0.26,0.49,0.78,1.84,1.89,0.78,1.84,1.89,321.32,93.51,16.81,1.81,0.05,0.05
2018/06/13T21:04:12z,60:1:94:4b:32:74,2.50i,2.0+OPENLOG+15931 MB+DS3231+BME280+PMSX003A+PMSX003B,81,23,39.72,1009.71,0.00,30128,31,667,2.13,3.60,5.51,2.13,3.60,5.51,2073.40,179.29,24.84,4.27,3.00,0.47,0.84,2.35,3.08,0.84,2.35,3.08,336.00,95.30,20.19,3.89,1.08,0.05
2018/06/13T21:05:32z,60:1:94:4b:32:74,2.50i,2.0+OPENLOG+15931 MB+DS3231+BME280+PMSX003A+PMSX003B,81,23,39.72,1009.71,0.00,30128,31,747,2.98,5.26,5.72,2.98,5.26,5.72,2192.02,242.22,28.41,3.85,0.74,0.35,0.49,1.38,1.76,0.49,1.38,1.76,281.84,84.38,11.73,0.76,0.51,0.43
2018/06/13T21:06:52z,60:1:94:4b:32:74,2.50i,2.0+OPENLOG+15931 MB+DS3231+BME280+PMSX003A+PMSX003B,81,23,39.72,1009.80,0.00,30128,31,827,0.98,2.07,2.98,0.98,2.07,2.98,606.07,102.13,19.40,3.33,1.18,0.35,0.50,2.03,2.55,0.50,2.03,2.55,304.42,84.37,19.08,3.68,0.89,0.42
2018/06/13T21:08:12z,60:1:94:4b:32:74,2.50i,2.0+OPENLOG+15931 MB+DS3231+BME280+PMSX003A+PMSX003B,81,23,39.72,1009.68,0.00,29592,31,907,2.61,4.28,4.96,2.61,4.28,4.96,2161.63,223.00,24.17,2.50,1.17,0.35,0.55,1.79,2.26,0.55,1.79,2.26,291.71,83.84,19.39,2.50,0.76,0.42
2018/06/13T21:09:32z,60:1:94:4b:32:74,2.50i,2.0+OPENLOG+15931 MB+DS3231+BME280+PMSX003A+PMSX003B,81,23,39.72,1009.74,0.00,30128,31,987,3.35,4.13,4.39,3.35,4.13,4.39,2710.17,244.48,18.04,1.57,0.22,0.35,0.24,1.32,2.32,0.24,1.32,2.32,260.03,75.81,18.11,3.05,1.41,0.42
2018/06/13T21:10:52z,60:1:94:4b:32:74,2.50i,2.0+OPENLOG+15931 MB+DS3231+BME280+PMSX003A+PMSX003B,81,23,39.72,1009.78,0.00,30128,31,1067,2.00,2.78,3.62,2.00,2.78,3.62,2294.13,162.00,16.07,3.29,1.02,0.35,0.24,0.97,1.14,0.24,0.97,1.14,315.97,89.68,13.32,0.95,0.24,0.42
2018/06/13T21:12:12z,60:1:94:4b:32:74,2.50i,2.0+OPENLOG+15931 MB+DS3231+BME280+PMSX003A+PMSX003B,81,23,39.72,1009.77,0.00,30128,31,1147,3.46,5.57,6.39,3.46,5.57,6.39,2823.78,278.43,30.09,3.22,0.57,0.35,0.24,0.97,1.58,0.24,0.97,1.58,230.92,67.89,13.56,0.61,0.61,0.31
2018/06/13T21:13:32z,60:1:94:4b:32:74,2.50i,2.0+OPENLOG+15931 MB+DS3231+BME280+PMSX003A+PMSX003B,81,23,39.72,1009.80,0.00,29696,31,1227,1.08,2.10,2.83,1.08,2.10,2.83,1044.56,124.31,15.65,2.83,1.02,0.35,0.38,1.43,1.43,0.38,1.43,1.43,274.05,78.49,16.00,1.32,0.61,0.31
2018/06/13T21:14:52z,60:1:94:4b:32:74,2.50i,2.0+OPENLOG+15931 MB+DS3231+BME280+PMSX003A+PMSX003B,81,23,39.72,1009.84,0.00,29672,31,1307,0.75,2.00,2.92,0.75,2.00,2.92,624.38,102.00,20.81,3.56,0.56,0.35,0.08,1.63,2.47,0.08,1.63,2.47,244.82,70.32,19.18,3.82,0.84,0.37
2018/06/13T21:16:12z,60:1:94:4b:32:74,2.50i,2.0+OPENLOG+15931 MB+DS3231+BME280+PMSX003A+PMSX003B,81,23,39.72,1009.72,0.00,30128,31,1387,2.17,3.45,4.28,2.17,3.45,4.28,1988.68,189.94,18.60,3.17,1.04,0.55,0.63,1.26,1.39,0.63,1.26,1.39,280.42,82.08,13.61,1.42,0.32,0.37
2018/06/13T21:17:32z,60:1:94:4b:32:74,2.50i,2.0+OPENLOG+15931 MB+DS3231+BME280+PMSX003A+PMSX003B,81,23,39.72,1009.84,0.00,30128,31,1467,1.36,2.43,3.09,1.36,2.43,3.09,1628.49,164.09,16.17,1.45,1.23,0.38,0.05,0.84,1.22,0.05,0.84,1.22,219.24,61.65,13.22,1.76,0.76,0.08
2018/06/13T21:18:52z,60:1:94:4b:32:74,2.50i,2.0+OPENLOG+15931 MB+DS3231+BME280+PMSX003A+PMSX003B,81,23,39.72,1009.75,0.00,29512,31,1547,1.98,3.09,3.14,1.98,3.09,3.14,2117.73,168.55,11.20,1.64,0.05,0.38,0.05,1.08,1.56,0.05,1.08,1.56,200.83,59.58,10.97,3.53,0.31,0.08
2018/06/13T21:20:12z,60:1:94:4b:32:74,2.50i,2.0+OPENLOG+15931 MB+DS3231+BME280+PMSX003A+PMSX003B,81,23,39.72,1009.81,0.00,29672,31,1627,1.84,2.93,3.68,1.84,2.93,3.68,1651.64,164.41,17.95,2.61,1.32,0.25,0.62,0.89,0.89,0.62,0.89,0.89,267.41,77.24,10.78,1.14,0.31,0.08
2018/06/13T21:21:32z,60:1:94:4b:32:74,2.50i,2.0+OPENLOG+15931 MB+DS3231+BME280+PMSX003A+PMSX003B,81,23,39.72,1009.79,0.00,30128,31,1707,1.31,2.78,3.33,1.31,2.78,3.33,1669.13,140.22,18.31,2.60,0.80,0.36,0.19,1.32,1.32,0.19,1.32,1.32,280.14,82.59,17.65,1.81,0.31,0.08
2018/06/13T21:22:52z,60:1:94:4b:32:74,2.50i,2.0+OPENLOG+15931 MB+DS3231+BME280+PMSX003A+PMSX003B,81,23,39.72,1009.65,0.00,30128,31,1787,2.09,3.76,4.29,2.09,3.76,4.29,1608.33,181.73,21.33,1.98,0.82,0.36,0.37,2.00,2.24,0.37,2.00,2.24,273.00,78.37,18.34,3.97,0.47,0.47
2018/06/13T21:24:12z,60:1:94:4b:32:74,2.50i,2.0+OPENLOG+15931 MB+DS3231+BME280+PMSX003A+PMSX003B,81,23,39.72,1009.78,0.00,29408,31,1867,1.84,2.82,3.73,1.84,2.82,3.73,1554.14,158.20,17.20,2.52,1.48,0.43,0.55,1.42,1.82,0.55,1.42,1.82,231.32,71.82,11.61,2.13,0.92,0.47
2018/06/13T21:25:32z,60:1:94:4b:32:74,2.50i,2.0+OPENLOG+15931 MB+DS3231+BME280+PMSX003A+PMSX003B,81,23,39.72,1009.75,0.00,29488,31,1947,2.31,3.64,4.29,2.31,3.64,4.29,2100.00,199.18,16.42,2.67,0.89,0.24,0.62,1.35,2.27,0.62,1.35,2.27,293.59,81.86,12.11,4.19,0.92,0.41
2018/06/13T21:26:52z,60:1:94:4b:32:74,2.50i,2.0+OPENLOG+15931 MB+DS3231+BME280+PMSX003A+PMSX003B,81,23,39.72,1009.76,0.00,30128,31,2027,0.81,1.53,2.55,0.81,1.53,2.55,1024.72,106.40,15.49,1.66,1.64,0.38,0.27,0.54,0.68,0.27,0.54,0.68,228.81,62.95,9.22,0.49,0.41,0.41
2018/06/13T21:28:12z,60:1:94:4b:32:74,2.50i,2.0+OPENLOG+15931 MB+DS3231+BME280+PMSX003A+PMSX003B,81,23,39.72,1009.73,0.00,30128,31,2107,1.83,2.78,3.46,1.83,2.78,3.46,1900.04,183.41,16.33,2.70,0.13,0.38,0.27,1.08,1.68,0.27,1.08,1.68,191.68,56.65,12.43,2.59,0.57,0.41
2018/06/13T21:29:32z,60:1:94:4b:32:74,2.50i,2.0+OPENLOG+15931 MB+DS3231+BME280+PMSX003A+PMSX003B,81,23,39.72,1009.80,0.00,29696,31,2187,1.46,2.43,3.15,1.46,2.43,3.15,1746.00,159.67,14.72,1.91,1.22,0.20,0.27,0.32,1.30,0.27,0.32,1.30,167.03,49.30,12.78,1.41,1.11,0.41
2018/06/13T21:30:52z,60:1:94:4b:32:74,2.50i,2.0+OPENLOG+15931 MB+DS3231+BME280+PMSX003A+PMSX003B,81,23,39.72,1009.71,0.00,29512,31,2267,0.20,0.72,0.98,0.20,0.72,0.98,569.67,75.61,13.26,1.89,0.33,0.20,0.27,0.62,1.05,0.27,0.62,1.05,190.14,54.30,10.27,1.43,0.30,0.41
2018/06/13T21:32:41z,60:1:94:4b:32:74,2.50i,2.0+OPENLOG+15931 MB+DS3231+BME280+PMSX003A+PMSX003B,81,23,39.72,1009.78,0.00,29672,31,28,0.00,0.00,0.00,0.00,0.00,0.00,0.00,0.00,0.00,0.00,0.00,0.00,0.50,1.00,2.50,0.50,1.00,2.50,0.00,0.00,0.00,0.00,0.00,0.00
2018/06/13T21:34:00z,60:1:94:4b:32:74,2.50i,2.0+OPENLOG+15931 MB+DS3231+BME280+PMSX003A+PMSX003B,81,23,39.72,1009.81,0.00,30128,31,107,0.02,0.53,1.00,0.02,0.53,1.00,249.96,59.81,9.74,1.83,0.66,0.00,0.50,0.67,1.22,0.50,0.67,1.22,210.25,57.42,9.89,1.83,0.83,0.00
2018/06/13T21:35:20z,60:1:94:4b:32:74,2.50i,2.0+OPENLOG+15931 MB+DS3231+BME280+PMSX003A+PMSX003B,81,23,39.72,1009.81,0.00,29408,31,187,0.34,1.02,1.07,0.34,1.02,1.07,642.27,82.18,12.23,0.91,0.09,0.00,0.50,0.46,1.08,0.50,0.46,1.08,195.97,57.57,12.95,1.86,0.97,0.35
2018/06/13T21:36:40z,60:1:94:4b:32:74,2.50i,2.0+OPENLOG+15931 MB+DS3231+BME280+PMSX003A+PMSX003B,81,23,39.72,1009.86,0.00,29696,31,267,2.58,3.02,3.09,2.58,3.02,3.09,2977.20,208.87,8.24,0.67,0.09,0.00,0.50,0.89,1.57,0.50,0.89,1.57,223.62,61.43,15.11,2.51,1.22,0.49
2018/06/13T21:38:00z,60:1:94:4b:32:74,2.50i,2.0+OPENLOG+15931 MB+DS3231+BME280+PMSX003A+PMSX003B,81,23,39.72,1009.85,0.00,30128,31,347,0.91,2.09,2.23,0.91,2.09,2.23,1095.83,116.85,16.43,1.70,0.43,0.19,0.50,0.74,1.21,0.50,0.74,1.21,206.45,61.26,11.74,1.61,0.45,0.49
2018/06/13T21:39:20z,60:1:94:4b:32:74,2.50i,2.0+OPENLOG+15931 MB+DS3231+BME280+PMSX003A+PMSX003B,81,23,39.72,1009.82,0.00,30128,31,427,2.44,2.96,3.19,2.44,2.96,3.19,2497.06,196.94,12.15,0.90,0.43,0.19,0.50,0.71,1.03,0.50,0.71,1.03,198.24,55.05,9.29,1.87,0.32,0.49
2018/06/13T21:40:40z,60:1:94:4b:32:74,2.50i,2.0+OPENLOG+15931 MB+DS3231+BME280+PMSX003A+PMSX003B,81,23,39.72,1009.91,0.00,29408,31,507,1.17,2.06,2.89,1.17,2.06,2.89,1564.60,139.85,12.66,2.06,0.85,0.32,0.50,0.57,1.27,0.50,0.57,1.27,202.38,53.00,11.81,2.32,0.22,0.22
2018/06/13T21:42:01z,60:1:94:4b:32:74,2.50i,2.0+OPENLOG+15931 MB+DS3231+BME280+PMSX003A+PMSX003B,81,23,39.72,1009.90,0.00,29696,31,587,1.09,2.64,3.96,1.09,2.64,3.96,993.80,118.36,25.42,2.82,1.58,0.49,0.50,0.68,0.76,0.50,0.68,0.76,175.78,51.27,6.73,0.49,0.32,0.03
2018/06/13T21:43:21z,60:1:94:4b:32:74,2.50i,2.0+OPENLOG+15931 MB+DS3231+BME280+PMSX003A+PMSX003B,81,23,39.72,1009.85,0.00,30128,31,667,0.98,1.64,2.13,0.98,1.64,2.13,1210.93,112.44,12.38,3.09,0.87,0.49,0.50,1.08,1.22,0.50,1.08,1.22,195.24,60.49,13.76,2.30,0.32,0.03
2018/06/13T21:44:41z,60:1:94:4b:32:74,2.50i,2.0+OPENLOG+15931 MB+DS3231+BME280+PMSX003A+PMSX003B,81,23,39.72,1009.77,0.00,30128,31,747,0.94,2.15,3.32,0.94,2.15,3.32,1289.68,126.21,18.74,2.77,1.32,0.30,0.50,0.70,1.27,0.50,0.70,1.27,157.54,40.14,9.24,3.22,1.22,0.03
2018/06/13T21:46:01z,60:1:94:4b:32:74,2.50i,2.0+OPENLOG+15931 MB+DS3231+BME280+PMSX003A+PMSX003B,81,23,39.72,1009.79,0.00,29848,31,827,0.70,1.70,2.15,0.70,1.70,2.15,1126.96,112.37,14.48,1.41,0.67,0.30,0.50,1.05,1.13,0.50,1.05,1.13,180.79,53.21,10.50,2.29,0.16,0.03
2018/06/13T21:47:21z,60:1:94:4b:32:74,2.50i,2.0+OPENLOG+15931 MB+DS3231+BME280+PMSX003A+PMSX003B,81,23,39.72,1009.89,0.00,29696,31,907,1.23,1.80,2.11,1.23,1.80,2.11,1445.39,120.93,12.73,0.98,0.36,0.30,0.50,1.05,0.76,0.50,1.05,0.76,123.00,37.05,9.35,1.38,0.70,0.03
2018/06/13T21:48:41z,60:1:94:4b:32:74,2.50i,2.0+OPENLOG+15931 MB+DS3231+BME280+PMSX003A+PMSX003B,81,23,39.72,1009.90,0.00,30128,31,987,1.56,2.04,2.04,1.56,2.04,2.04,1856.87,141.31,8.44,0.44,0.36,0.30,0.46,0.76,0.81,0.46,0.76,0.81,234.41,68.49,7.11,0.08,0.05,0.03
2018/06/13T21:50:01z,60:1:94:4b:32:74,2.50i,2.0+OPENLOG+15931 MB+DS3231+BME280+PMSX003A+PMSX003B,81,23,39.72,1009.75,0.00,30128,31,1067,0.28,1.07,1.74,0.28,1.07,1.74,610.17,63.96,14.87,2.85,0.63,0.24,0.46,0.59,0.59,0.46,0.59,0.59,205.70,57.97,12.41,1.51,0.05,0.03
2018/06/13T21:51:21z,60:1:94:4b:32:74,2.50i,2.0+OPENLOG+15931 MB+DS3231+BME280+PMSX003A+PMSX003B,81,23,39.72,1009.93,0.00,30128,31,1147,1.33,1.80,2.87,1.33,1.80,2.87,1713.26,120.46,13.09,2.15,1.59,0.50,0.46,1.14,1.33,0.46,1.14,1.33,180.17,50.89,11.22,3.47,0.75,0.03
2018/06/13T21:52:41z,60:1:94:4b:32:74,2.50i,2.0+OPENLOG+15931 MB+DS3231+BME280+PMSX003A+PMSX003B,81,23,39.72,1009.91,0.00,29512,31,1227,0.55,1.32,2.27,0.55,1.32,2.27,1119.89,86.30,11.59,2.70,1.07,0.25,0.46,0.08,0.57,0.46,0.08,0.57,137.19,39.35,5.89,0.57,0.57,0.03
2018/06/13T21:54:01z,60:1:94:4b:32:74,2.50i,2.0+OPENLOG+15931 MB+DS3231+BME280+PMSX003A+PMSX003B,81,23,39.72,1009.91,0.00,29672,31,1307,1.04,1.13,2.21,1.04,1.13,2.21,1751.30,106.66,11.49,1.98,1.68,0.25,0.46,0.39,0.82,0.46,0.39,0.82,180.55,52.71,10.95,1.82,1.03,0.03
2018/06/13T21:55:21z,60:1:94:4b:32:74,2.50i,2.0+OPENLOG+15931 MB+DS3231+BME280+PMSX003A+PMSX003B,81,23,39.72,1010.00,0.00,30128,31,1387,1.78,2.48,3.22,1.78,2.48,3.22,2951.22,167.74,10.76,1.39,0.80,0.25,0.05,0.21,0.89,0.05,0.21,0.89,160.89,45.50,8.89,0.95,0.95,0.24
2018/06/13T21:56:41z,60:1:94:4b:32:74,2.50i,2.0+OPENLOG+15931 MB+DS3231+BME280+PMSX003A+PMSX003B,81,23,39.72,1009.88,0.00,29944,31,1467,1.85,2.48,3.85,1.85,2.48,3.85,2339.41,162.98,12.28,3.11,2.20,0.25,0.05,0.86,1.43,0.05,0.86,1.43,148.05,46.27,9.84,4.00,1.35,0.49
2018/06/13T21:58:01z,60:1:94:4b:32:74,2.50i,2.0+OPENLOG+15931 MB+DS3231+BME280+PMSX003A+PMSX003B,81,23,39.72,1010.00,0.00,29696,31,1547,1.26,1.87,2.06,1.26,1.87,2.06,1605.89,116.30,9.36,0.89,0.23,0.25,0.05,0.86,0.14,0.05,0.86,0.14,124.08,37.33,5.39,1.25,0.44,0.49
2018/06/13T21:59:21z,60:1:94:4b:32:74,2.50i,2.0+OPENLOG+15931 MB+DS3231+BME280+PMSX003A+PMSX003B,81,23,39.72,1010.03,0.00,29696,31,1627,1.24,1.84,2.18,1.24,1.84,2.18,2065.47,121.76,8.31,1.51,0.80,0.27,0.05,0.89,1.24,0.05,0.89,1.24,195.49,56.59,12.73,1.84,0.38,0.49
2018/06/13T22:00:41z,60:1:94:4b:32:74,2.50i,2.0+OPENLOG+15931 MB+DS3231+BME280+PMSX003A+PMSX003B,81,23,39.72,1010.09,0.00,30128,31,1707,0.66,1.30,1.70,0.66,1.30,1.70,1352.32,95.00,8.32,1.61,1.05,0.27,0.05,0.38,0.84,0.05,0.38,0.84,128.92,40.73,9.86,0.86,0.49,0.49
2018/06/13T22:02:01z,60:1:94:4b:32:74,2.50i,2.0+OPENLOG+15931 MB+DS3231+BME280+PMSX003A+PMSX003B,81,23,39.72,1010.00,0.00,30128,31,1787,0.56,0.91,1.42,0.56,0.91,1.42,826.47,74.02,8.60,1.27,0.84,0.36,0.05,0.50,0.84,0.05,0.50,0.84,125.29,37.89,9.03,2.55,0.45,0.49
2018/06/13T22:03:21z,60:1:94:4b:32:74,2.50i,2.0+OPENLOG+15931 MB+DS3231+BME280+PMSX003A+PMSX003B,81,23,39.72,1009.98,0.00,29696,31,1867,0.96,1.46,1.46,0.96,1.46,1.46,1584.75,106.23,7.50,0.85,0.84,0.36,0.05,0.32,0.34,0.05,0.32,0.34,145.97,39.26,7.18,1.63,0.32,0.49
2018/06/13T22:04:41z,60:1:94:4b:32:74,2.50i,2.0+OPENLOG+15931 MB+DS3231+BME280+PMSX003A+PMSX003B,81,23,39.72,1009.95,0.00,29696,31,1947,0.52,0.98,1.45,0.52,0.98,1.45,2103.55,95.95,6.50,2.27,0.77,0.36,0.05,0.59,1.32,0.05,0.59,1.32,149.27,43.59,8.32,2.14,1.49,0.32
2018/06/13T22:06:01z,60:1:94:4b:32:74,2.50i,2.0+OPENLOG+15931 MB+DS3231+BME280+PMSX003A+PMSX003B,81,23,39.72,1010.08,0.00,30128,31,2027,1.37,1.94,2.37,1.37,1.94,2.37,2876.50,149.46,5.73,1.35,0.65,0.36,0.05,0.43,0.43,0.05,0.43,0.43,143.92,42.03,6.11,1.51,1.49,0.32
2018/06/13T22:07:21z,60:1:94:4b:32:74,2.50i,2.0+OPENLOG+15931 MB+DS3231+BME280+PMSX003A+PMSX003B,81,23,39.72,1010.05,0.00,30128,31,2107,0.78,1.57,1.83,0.78,1.57,1.83,1529.15,103.57,10.67,1.28,0.67,0.36,0.05,0.35,0.35,0.05,0.35,0.35,119.35,32.30,4.68,1.35,1.49,0.32
2018/06/13T22:08:41z,60:1:94:4b:32:74,2.50i,2.0+OPENLOG+15931 MB+DS3231+BME280+PMSX003A+PMSX003B,81,23,39.72,1010.03,0.00,29848,31,2187,1.71,1.84,2.16,1.71,1.84,2.16,2727.87,158.27,10.24,0.38,0.38,0.36,0.05,0.32,0.81,0.05,0.32,0.81,126.41,37.16,9.57,1.30,0.49,0.32
2018/06/13T22:10:01z,60:1:94:4b:32:74,2.50i,2.0+OPENLOG+15931 MB+DS3231+BME280+PMSX003A+PMSX003B,81,23,39.72,1010.02,0.00,29696,31,2267,3.15,3.51,4.43,3.15,3.51,4.43,5062.40,232.68,10.04,2.23,0.85,0.36,0.05,0.27,0.51,0.05,0.27,0.51,140.59,38.32,7.57,1.92,0.49,0.32
UTCDateTime,mac_address,firmware_ver,hardware,current_temp_f,current_humidity,current_dewpoint_f,pressure,adc,mem,rssi,uptime,pm1_0_atm,pm2_5_atm,pm10_0_atm,pm1_0_cf_1,pm2_5_cf_1,pm10_0_cf_1,p_0_3_um,p_0_5_um,p_1_0_um,p_2_5_um,p_5_0_um,p_10_0_um,pm1_0_atm_b,pm2_5_atm_b,pm10_0_atm_b,pm1_0_cf_1_b,pm2_5_cf_1_b,pm10_0_cf_1_b,p_0_3_um_b,p_0_5_um_b,p_1_0_um_b,p_2_5_um_b,p_5_0_um_b,p_10_0_um_b
2018/06/13T22:11:44z,60:1:94:4b:32:74,2.50i,2.0+OPENLOG+15931 MB+DS3231+BME280+PMSX003A+PMSX003B,81,24,40.82,1009.90,0.00,29488,31,23,0.00,0.00,0.00,0.00,0.00,0.00,0.00,0.00,0.00,0.00,0.00,0.00,0.00,0.00,0.00,0.00,0.00,0.00,0.00,0.00,0.00,0.00,0.00,0.00
2018/06/13T22:12:59z,60:1:94:4b:32:74,2.50i,2.0+OPENLOG+15931 MB+DS3231+BME280+PMSX003A+PMSX003B,81,23,39.72,1010.01,0.00,30128,31,97,0.00,0.00,0.20,0.00,0.00,0.20,237.23,31.65,4.15,0.80,0.28,0.00,0.00,0.41,1.08,0.00,0.41,1.08,107.35,32.70,9.89,2.97,1.05,0.00
2018/06/13T22:14:19z,60:1:94:4b:32:74,2.50i,2.0+OPENLOG+15931 MB+DS3231+BME280+PMSX003A+PMSX003B,81,23,39.72,1009.99,0.00,30128,31,177,0.00,0.36,1.43,0.00,0.36,1.43,441.83,47.64,10.28,3.70,2.04,0.00,0.16,0.55,1.16,0.16,0.55,1.16,189.16,57.87,10.13,2.32,0.89,0.00
2018/06/13T22:15:39z,60:1:94:4b:32:74,2.50i,2.0+OPENLOG+15931 MB+DS3231+BME280+PMSX003A+PMSX003B,81,23,39.72,1009.99,0.00,30128,31,257,0.47,0.91,0.91,0.47,0.91,0.91,912.73,76.71,9.00,0.56,0.11,0.00,0.16,0.49,0.78,0.16,0.49,0.78,123.24,35.54,7.73,2.70,0.49,0.00
2018/06/13T22:16:59z,60:1:94:4b:32:74,2.50i,2.0+OPENLOG+15931 MB+DS3231+BME280+PMSX003A+PMSX003B,81,23,39.72,1010.01,0.00,29696,31,337,0.85,1.27,1.98,0.85,1.27,1.98,2010.75,104.69,11.92,1.48,0.92,0.29,0.16,0.49,0.78,0.16,0.49,0.78,110.19,31.97,5.84,0.68,0.49,0.00
2018/06/13T22:18:19z,60:1:94:4b:32:74,2.50i,2.0+OPENLOG+15931 MB+DS3231+BME280+PMSX003A+PMSX003B,81,23,39.72,1009.85,0.00,29672,31,417,0.82,1.14,2.05,0.82,1.14,2.05,2359.98,99.77,9.70,1.64,0.80,0.39,0.16,0.49,0.27,0.16,0.49,0.27,111.49,30.70,5.16,0.86,0.30,0.00
2018/06/13T22:19:39z,60:1:94:4b:32:74,2.50i,2.0+OPENLOG+15931 MB+DS3231+BME280+PMSX003A+PMSX003B,81,24,40.82,1009.91,0.00,30128,31,497,1.12,1.37,2.08,1.12,1.37,2.08,3267.94,112.83,6.44,0.90,0.71,0.40,0.16,0.13,0.13,0.16,0.13,0.13,124.66,32.87,5.84,0.29,0.30,0.00
2018/06/13T22:20:59z,60:1:94:4b:32:74,2.50i,2.0+OPENLOG+15931 MB+DS3231+BME280+PMSX003A+PMSX003B,81,24,40.82,1010.01,0.00,30128,31,577,0.68,0.82,0.82,0.68,0.82,0.82,2381.93,88.52,4.09,0.64,0.71,0.40,0.16,0.13,0.13,0.16,0.13,0.13,121.86,34.70,3.08,0.14,0.30,0.00
2018/06/13T22:22:19z,60:1:94:4b:32:74,2.50i,2.0+OPENLOG+15931 MB+DS3231+BME280+PMSX003A+PMSX003B,81,24,40.82,1010.02,0.00,29696,31,657,0.68,0.25,0.58,0.68,0.25,0.58,913.75,52.21,6.90,0.69,0.40,0.40,0.16,0.13,0.16,0.16,0.13,0.16,120.89,34.59,4.11,0.81,0.32,0.00
2018/06/13T22:23:39z,60:1:94:4b:32:74,2.50i,2.0+OPENLOG+15931 MB+DS3231+BME280+PMSX003A+PMSX003B,81,24,40.82,1010.07,0.00,29696,31,737,0.51,0.82,1.16,0.51,0.82,1.16,1962.93,72.76,6.93,0.98,0.58,0.40,0.16,0.03,0.35,0.16,0.03,0.35,122.43,33.24,8.00,0.78,0.35,0.00
2018/06/13T22:24:59z,60:1:94:4b:32:74,2.50i,2.0+OPENLOG+15931 MB+DS3231+BME280+PMSX003A+PMSX003B,81,24,40.82,1009.92,0.00,29944,31,817,0.11,0.17,0.36,0.11,0.17,0.36,1346.36,59.06,6.68,1.06,0.28,0.28,0.16,0.19,0.51,0.16,0.19,0.51,117.65,34.49,6.00,1.32,0.32,0.32
2018/06/13T22:26:19z,60:1:94:4b:32:74,2.50i,2.0+OPENLOG+15931 MB+DS3231+BME280+PMSX003A+PMSX003B,81,24,40.82,1010.02,0.00,30128,31,897,0.11,0.07,0.07,0.11,0.07,0.07,852.53,39.47,6.47,0.42,0.28,0.28,0.16,0.14,0.43,0.16,0.14,0.43,124.38,33.89,5.08,1.41,0.59,0.11
2018/06/13T22:27:39z,60:1:94:4b:32:74,2.50i,2.0+OPENLOG+15931 MB+DS3231+BME280+PMSX003A+PMSX003B,81,24,40.82,1010.06,0.00,29696,31,977,0.11,0.66,0.83,0.11,0.66,0.83,1473.83,61.45,6.32,1.06,0.53,0.28,0.16,0.27,0.35,0.16,0.27,0.35,106.70,29.38,5.54,0.57,0.08,0.08
2018/06/13T22:28:59z,60:1:94:4b:32:74,2.50i,2.0+OPENLOG+15931 MB+DS3231+BME280+PMSX003A+PMSX003B,81,23,39.72,1010.07,0.00,29696,31,1057,0.11,0.11,0.38,0.11,0.11,0.38,371.13,40.27,7.47,1.42,0.07,0.28,0.16,0.08,0.35,0.16,0.08,0.35,130.46,37.62,8.92,1.51,0.51,0.08
2018/06/13T22:30:19z,60:1:94:4b:32:74,2.50i,2.0+OPENLOG+15931 MB+DS3231+BME280+PMSX003A+PMSX003B,81,19,34.86,1010.07,0.00,30128,31,1137,0.51,0.53,0.70,0.51,0.53,0.70,1413.57,62.00,3.28,1.04,0.17,0.17,0.16,0.08,0.50,0.16,0.08,0.50,85.66,26.32,5.74,1.39,0.97,0.08
2018/06/13T22:31:39z,60:1:94:4b:32:74,2.50i,2.0+OPENLOG+15931 MB+DS3231+BME280+PMSX003A+PMSX003B,81,15,29.00,1010.01,0.00,30128,31,1217,0.51,0.53,0.57,0.51,0.53,0.57,1606.76,40.26,4.59,1.35,0.85,0.22,0.16,0.08,0.35,0.16,0.08,0.35,61.46,18.49,4.89,1.22,0.89,0.08
2018/06/13T22:32:59z,60:1:94:4b:32:74,2.50i,2.0+OPENLOG+15931 MB+DS3231+BME280+PMSX003A+PMSX003B,81,12,23.60,1010.02,0.00,29848,31,1297,0.51,0.53,0.15,0.51,0.53,0.15,159.65,14.74,3.07,0.91,0.15,0.15,0.16,0.08,0.35,0.16,0.08,0.35,34.30,10.84,2.22,0.73,0.43,0.08
2018/06/13T22:34:19z,60:1:94:4b:32:74,2.50i,2.0+OPENLOG+15931 MB+DS3231+BME280+PMSX003A+PMSX003B,81,10,19.29,1009.89,0.00,29696,31,1377,0.51,0.53,0.83,0.51,0.53,0.83,84.52,17.61,4.93,2.50,1.52,0.39,0.16,0.08,0.08,0.16,0.08,0.08,56.11,16.78,7.32,1.49,0.08,0.08
2018/06/13T22:35:39z,60:1:94:4b:32:74,2.50i,2.0+OPENLOG+15931 MB+DS3231+BME280+PMSX003A+PMSX003B,80,9,16.09,1009.88,0.00,29944,31,1457,0.51,0.20,1.07,0.51,0.20,1.07,136.37,25.20,9.52,2.02,1.00,0.26,0.16,0.42,0.42,0.16,0.42,0.42,65.29,17.66,8.16,2.82,0.29,0.08
2018/06/13T22:36:59z,60:1:94:4b:32:74,2.50i,2.0+OPENLOG+15931 MB+DS3231+BME280+PMSX003A+PMSX003B,80,8,13.39,1009.91,0.00,30128,31,1537,0.51,0.04,0.85,0.51,0.04,0.85,146.68,32.62,11.83,2.49,1.62,0.26,0.16,0.23,0.23,0.16,0.23,0.23,58.38,18.03,9.28,1.97,0.15,0.08
2018/06/13T22:38:19z,60:1:94:4b:32:74,2.50i,2.0+OPENLOG+15931 MB+DS3231+BME280+PMSX003A+PMSX003B,80,7,10.37,1010.00,0.00,30128,31,1617,0.51,0.89,1.44,0.51,0.89,1.44,170.20,41.09,14.13,2.80,0.87,0.26,0.16,0.08,1.05,0.16,0.08,1.05,92.61,27.29,10.11,2.71,0.55,0.08
2018/06/13T22:39:39z,60:1:94:4b:32:74,2.50i,2.0+OPENLOG+15931 MB+DS3231+BME280+PMSX003A+PMSX003B,80,6,6.94,1009.88,0.00,29592,31,1697,0.51,0.26,1.00,0.51,0.26,1.00,116.23,27.81,9.47,1.85,0.74,0.74,0.16,0.84,1.32,0.16,0.84,1.32,107.51,33.41,11.54,3.11,1.30,0.08
2018/06/13T22:40:59z,60:1:94:4b:32:74,2.50i,2.0+OPENLOG+15931 MB+DS3231+BME280+PMSX003A+PMSX003B,80,6,6.94,1009.94,0.00,29672,31,1777,0.51,0.87,1.29,0.51,0.87,1.29,122.87,34.44,14.98,1.78,0.73,0.74,0.16,0.92,0.92,0.16,0.92,0.92,99.24,29.11,12.62,2.81,1.30,0.08
2018/06/13T22:42:19z,60:1:94:4b:32:74,2.50i,2.0+OPENLOG+15931 MB+DS3231+BME280+PMSX003A+PMSX003B,80,6,6.94,1009.89,0.00,30128,31,1857,0.11,0.45,0.68,0.11,0.45,0.68,136.85,40.43,11.36,1.17,0.89,0.74,0.16,0.38,1.14,0.16,0.38,1.14,96.57,28.62,13.24,2.16,0.38,0.08
2018/06/13T22:43:39z,60:1:94:4b:32:74,2.50i,2.0+OPENLOG+15931 MB+DS3231+BME280+PMSX003A+PMSX003B,80,7,10.37,1009.79,0.00,30128,31,1937,0.11,1.00,1.80,0.11,1.00,1.80,161.07,44.29,13.47,2.33,1.20,0.80,0.16,0.66,1.29,0.16,0.66,1.29,149.61,46.21,13.92,2.42,1.11,0.08
2018/06/13T22:44:59z,60:1:94:4b:32:74,2.50i,2.0+OPENLOG+15931 MB+DS3231+BME280+PMSX003A+PMSX003B,80,7,10.37,1009.90,0.00,29696,31,2017,0.11,0.50,1.12,0.11,0.50,1.12,151.87,41.90,11.69,1.19,0.56,0.56,0.16,0.55,1.13,0.16,0.55,1.13,111.00,35.79,16.03,2.76,1.39,0.08
2018/06/13T22:46:19z,60:1:94:4b:32:74,2.50i,2.0+OPENLOG+15931 MB+DS3231+BME280+PMSX003A+PMSX003B,80,8,13.39,1009.85,0.00,29696,31,2097,0.11,0.18,1.53,0.11,0.18,1.53,115.67,33.47,11.93,4.22,2.67,0.56,0.16,0.27,0.86,0.16,0.27,0.86,138.16,44.03,15.24,3.95,0.89,0.43
2018/06/13T22:47:39z,60:1:94:4b:32:74,2.50i,2.0+OPENLOG+15931 MB+DS3231+BME280+PMSX003A+PMSX003B,81,8,14.13,1009.88,0.00,29944,31,2177,0.11,0.79,2.83,0.11,0.79,2.83,166.12,47.10,19.62,5.67,2.06,0.29,0.16,0.78,1.06,0.16,0.78,1.06,103.42,31.72,13.53,3.64,0.64,0.43
2018/06/13T22:48:59z,60:1:94:4b:32:74,2.50i,2.0+OPENLOG+15931 MB+DS3231+BME280+PMSX003A+PMSX003B,81,9,16.84,1009.87,0.00,30128,31,2257,0.11,0.50,0.98,0.11,0.50,0.98,129.75,35.80,11.27,1.64,0.75,0.25,0.16,0.71,1.24,0.16,0.71,1.24,120.47,36.63,15.08,3.08,1.03,0.43
2018/06/13T22:50:42z,60:1:94:4b:32:74,2.50i,2.0+OPENLOG+15931 MB+DS3231+BME280+PMSX003A+PMSX003B,80,9,16.09,1009.71,0.00,29488,31,23,0.00,0.00,0.00,0.00,0.00,0.00,0.00,0.00,0.00,0.00,0.00,0.00,0.00,3.00,3.00,0.00,3.00,3.00,0.00,0.00,0.00,0.00,0.00,0.00
2018/06/13T22:51:57z,60:1:94:4b:32:74,2.50i,2.0+OPENLOG+15931 MB+DS3231+BME280+PMSX003A+PMSX003B,81,10,19.29,1009.88,0.00,30128,31,97,0.00,0.00,0.65,0.00,0.00,0.65,152.70,38.88,8.18,1.87,1.23,0.00,0.08,0.92,1.51,0.08,0.92,1.51,212.27,57.27,10.81,2.65,1.32,0.00
2018/06/13T22:53:17z,60:1:94:4b:32:74,2.50i,2.0+OPENLOG+15931 MB+DS3231+BME280+PMSX003A+PMSX003B,81,19,34.86,1009.91,0.00,30128,31,177,193.88,336.00,371.48,129.52,224.44,248.20,20099.22,8862.28,3074.30,153.44,50.86,3.28,107.72,160.82,168.10,71.87,107.35,112.55,15389.10,4980.65,1063.22,64.80,11.52,0.32
2018/06/13T22:54:37z,60:1:94:4b:32:74,2.50i,2.0+OPENLOG+15931 MB+DS3231+BME280+PMSX003A+PMSX003B,81,17,32.08,1009.94,0.00,30128,31,257,570.69,1019.71,1185.63,379.69,679.06,789.56,65535.00,26722.87,8662.85,725.15,220.56,20.79,504.33,972.26,1085.38,335.43,647.55,722.93,65535.00,23827.36,8305.36,766.12,168.45,22.74
2018/06/13T22:55:57z,60:1:94:4b:32:74,2.50i,2.0+OPENLOG+15931 MB+DS3231+BME280+PMSX003A+PMSX003B,81,15,29.00,1009.91,0.00,29696,31,337,507.86,1010.49,1270.94,337.86,673.00,846.71,65535.00,25128.71,8826.31,998.49,363.39,38.37,449.46,989.76,1150.22,299.02,659.20,766.22,65535.00,22547.27,8639.83,1056.22,237.00,14.29
2018/06/13T22:57:17z,60:1:94:4b:32:74,2.50i,2.0+OPENLOG+15931 MB+DS3231+BME280+PMSX003A+PMSX003B,81,12,23.60,1009.90,0.00,29672,31,417,445.98,759.85,905.00,296.71,505.81,602.56,65442.06,21617.54,5751.69,587.04,198.00,26.10,414.95,747.13,831.35,275.92,497.23,553.70,62879.70,20087.53,5475.25,615.05,120.95,8.65
2018/06/13T22:58:37z,60:1:94:4b:32:74,2.50i,2.0+OPENLOG+15931 MB+DS3231+BME280+PMSX003A+PMSX003B,81,10,19.29,1009.89,0.00,30128,31,497,350.20,541.55,615.98,232.73,360.33,409.90,56642.14,17020.82,3502.63,338.78,105.43,12.06,333.64,531.74,592.92,221.90,353.77,394.62,52390.08,16304.05,3356.95,396.79,89.33,4.92
2018/06/13T22:59:57z,60:1:94:4b:32:74,2.50i,2.0+OPENLOG+15931 MB+DS3231+BME280+PMSX003A+PMSX003B,80,8,13.39,1009.78,0.00,30128,31,577,246.85,365.25,420.42,163.83,242.73,279.60,41526.69,12250.00,2141.77,229.79,73.06,5.94,250.30,367.76,398.76,166.00,244.51,265.05,40287.24,12223.97,2078.32,205.35,43.59,2.73
2018/06/13T23:01:17z,60:1:94:4b:32:74,2.50i,2.0+OPENLOG+15931 MB+DS3231+BME280+PMSX003A+PMSX003B,80,7,10.37,1009.84,0.00,29592,31,657,163.53,236.49,266.49,108.44,156.98,176.91,28517.67,8196.67,1324.91,130.07,38.91,6.49,163.83,238.42,260.64,108.53,158.22,173.08,27448.08,8179.19,1272.97,145.50,30.39,7.53
2018/06/13T23:02:37z,60:1:94:4b:32:74,2.50i,2.0+OPENLOG+15931 MB+DS3231+BME280+PMSX003A+PMSX003B,80,6,6.94,1009.83,0.00,29696,31,737,106.49,156.82,182.20,70.20,103.80,120.69,19001.67,5449.00,886.62,89.09,34.13,6.40,106.58,155.36,166.00,70.28,102.83,110.00,18098.58,5385.19,848.61,80.97,14.39,2.17
2018/06/13T23:03:57z,60:1:94:4b:32:74,2.50i,2.0+OPENLOG+15931 MB+DS3231+BME280+PMSX003A+PMSX003B,80,6,6.94,1009.82,0.00,30128,31,817,92.89,138.48,161.73,61.16,91.59,107.02,16699.77,4776.75,810.80,89.43,31.91,4.18,94.86,140.49,149.83,62.49,92.97,99.17,16336.29,4829.26,760.06,84.34,13.23,0.94
2018/06/13T23:05:17z,60:1:94:4b:32:74,2.50i,2.0+OPENLOG+15931 MB+DS3231+BME280+PMSX003A+PMSX003B,80,7,10.37,1009.82,0.00,30128,31,897,90.27,135.73,152.91,59.44,89.76,101.18,16027.40,4620.02,793.69,79.69,22.78,3.96,91.13,136.53,146.74,59.87,90.24,97.03,15760.03,4654.03,749.08,82.74,13.13,1.16
2018/06/13T23:06:37z,60:1:94:4b:32:74,2.50i,2.0+OPENLOG+15931 MB+DS3231+BME280+PMSX003A+PMSX003B,81,7,11.11,1009.85,0.00,29640,31,977,85.30,130.34,149.53,56.26,86.19,99.04,15507.13,4394.79,784.11,85.21,24.26,1.96,87.66,131.57,142.94,57.74,86.77,94.40,15090.17,4491.46,727.37,82.03,16.43,1.31
2018/06/13T23:07:57z,60:1:94:4b:32:74,2.50i,2.0+OPENLOG+15931 MB+DS3231+BME280+PMSX003A+PMSX003B,81,7,11.11,1009.90,0.00,29696,31,1057,81.85,124.83,144.46,53.61,82.48,95.46,14723.02,4200.09,741.72,90.65,23.93,3.37,82.94,124.83,139.81,54.61,82.50,92.42,14411.25,4279.08,723.81,77.36,21.83,1.53
2018/06/13T23:09:17z,60:1:94:4b:32:74,2.50i,2.0+OPENLOG+15931 MB+DS3231+BME280+PMSX003A+PMSX003B,81,8,14.13,1009.89,0.00,30128,31,1137,77.82,120.89,139.64,51.16,79.87,92.40,14172.87,4029.49,730.96,79.02,24.36,2.64,81.64,122.64,134.72,53.64,81.08,89.08,14060.83,4155.78,670.11,82.72,16.56,1.67
2018/06/13T23:10:37z,60:1:94:4b:32:74,2.50i,2.0+OPENLOG+15931 MB+DS3231+BME280+PMSX003A+PMSX003B,81,8,14.13,1009.85,0.00,29944,31,1217,74.14,114.75,134.68,48.84,75.89,89.14,13817.32,3843.70,697.77,81.43,25.25,2.77,76.40,116.66,126.69,50.14,77.09,83.71,13311.43,3951.29,657.57,74.69,13.31,2.11
2018/06/13T23:11:57z,60:1:94:4b:32:74,2.50i,2.0+OPENLOG+15931 MB+DS3231+BME280+PMSX003A+PMSX003B,81,9,16.84,1009.82,0.00,29944,31,1297,71.43,110.93,129.89,46.98,73.27,85.86,13053.34,3733.73,682.98,73.14,24.57,3.50,71.06,109.57,120.77,46.54,72.09,79.86,12403.37,3685.77,620.06,79.14,16.71,1.31
2018/06/13T23:13:17z,60:1:94:4b:32:74,2.50i,2.0+OPENLOG+15931 MB+DS3231+BME280+PMSX003A+PMSX003B,81,9,16.84,1009.73,0.00,29696,31,1377,66.78,107.02,120.60,43.71,70.53,80.67,12205.87,3493.07,659.60,75.11,16.56,1.96,69.92,107.58,117.97,45.78,71.06,79.33,12264.83,3604.78,590.44,76.31,14.67,1.61
2018/06/13T23:14:37z,60:1:94:4b:32:74,2.50i,2.0+OPENLOG+15931 MB+DS3231+BME280+PMSX003A+PMSX003B,81,9,16.84,1009.81,0.00,30128,31,1457,65.20,104.13,122.57,42.65,68.57,81.52,12197.61,3418.28,644.15,80.93,25.67,2.00,65.72,102.89,113.08,43.11,67.72,77.19,11548.17,3433.22,589.17,71.28,14.53,1.64
2018/06/13T23:15:57z,60:1:94:4b:32:74,2.50i,2.0+OPENLOG+15931 MB+DS3231+BME280+PMSX003A+PMSX003B,81,10,19.29,1009.52,0.00,30128,31,1537,62.87,101.76,117.29,41.22,67.04,79.00,11530.80,3281.87,616.29,75.33,20.13,2.38,65.83,100.08,112.11,43.06,66.14,77.06,11394.75,3370.25,583.17,73.72,16.33,1.67
2018/06/13T23:17:17z,60:1:94:4b:32:74,2.50i,2.0+OPENLOG+15931 MB+DS3231+BME280+PMSX003A+PMSX003B,81,10,19.29,1009.72,0.00,30128,31,1617,57.31,93.44,107.40,37.47,61.58,75.42,10706.93,3034.38,577.11,71.76,17.93,2.58,59.11,94.66,106.05,38.68,62.26,74.76,10456.97,3099.13,567.84,69.45,17.42,1.45
2018/06/13T23:18:37z,60:1:94:4b:32:74,2.50i,2.0+OPENLOG+15931 MB+DS3231+BME280+PMSX003A+PMSX003B,81,10,19.29,1009.79,0.00,29592,31,1697,54.62,90.02,105.96,35.96,59.38,74.64,10078.27,2885.22,576.51,62.76,20.98,2.82,57.14,91.08,101.08,37.33,59.94,72.81,10044.58,2981.17,546.33,67.53,13.97,2.22
2018/06/13T23:19:57z,60:1:94:4b:32:74,2.50i,2.0+OPENLOG+15931 MB+DS3231+BME280+PMSX003A+PMSX003B,81,10,19.29,1009.69,0.00,29672,31,1777,53.36,87.02,103.96,35.29,57.29,73.96,9912.13,2812.87,565.38,69.58,22.20,2.13,56.00,92.62,101.16,36.70,61.00,73.14,9886.13,2913.19,583.54,71.54,10.54,1.38
2018/06/13T23:21:17z,60:1:94:4b:32:74,2.50i,2.0+OPENLOG+15931 MB+DS3231+BME280+PMSX003A+PMSX003B,81,11,21.53,1009.77,0.00,30128,31,1857,51.24,84.69,100.33,34.29,55.67,72.62,9534.73,2700.51,535.02,69.20,18.24,3.29,51.97,83.63,92.51,34.66,55.09,69.60,9132.43,2716.11,518.20,58.46,13.37,0.74
2018/06/13T23:22:37z,60:1:94:4b:32:74,2.50i,2.0+OPENLOG+15931 MB+DS3231+BME280+PMSX003A+PMSX003B,81,11,21.53,1009.76,0.00,30128,31,1937,48.95,82.77,96.77,33.48,54.39,71.20,9083.45,2601.61,529.23,68.48,18.55,1.64,50.47,80.92,92.05,34.11,53.84,69.37,8909.53,2641.00,487.76,65.26,16.95,0.34
2018/06/13T23:23:57z,60:1:94:4b:32:74,2.50i,2.0+OPENLOG+15931 MB+DS3231+BME280+PMSX003A+PMSX003B,81,11,21.53,1009.76,0.00,29696,31,2017,47.31,77.24,94.44,32.89,51.87,70.29,8898.40,2509.13,486.36,71.71,22.93,2.53,47.61,76.53,82.75,32.83,51.58,65.19,8399.83,2485.67,474.81,51.06,8.58,0.56
2018/06/13T23:25:17z,60:1:94:4b:32:74,2.50i,2.0+OPENLOG+15931 MB+DS3231+BME280+PMSX003A+PMSX003B,81,11,21.53,1009.74,0.00,29672,31,2097,43.45,74.85,91.00,31.40,51.06,69.00,8345.81,2343.55,490.83,73.21,22.21,2.26,46.22,75.39,81.89,32.42,51.22,64.81,8160.58,2431.56,450.44,54.94,8.64,0.78
2018/06/13T23:26:37z,60:1:94:4b:32:74,2.50i,2.0+OPENLOG+15931 MB+DS3231+BME280+PMSX003A+PMSX003B,81,12,23.60,1009.73,0.00,30128,31,2177,42.91,74.32,87.48,31.39,51.09,67.66,7960.30,2290.66,494.66,64.80,16.84,2.64,43.11,70.74,81.82,31.37,50.05,65.16,7695.79,2285.92,435.26,65.66,15.89,1.89
2018/06/13T23:27:57z,60:1:94:4b:32:74,2.50i,2.0+OPENLOG+15931 MB+DS3231+BME280+PMSX003A+PMSX003B,81,12,23.60,1009.75,0.00,30128,31,2257,40.33,72.89,90.35,30.17,50.43,68.67,7712.41,2219.11,502.85,70.76,25.11,2.30,41.95,67.41,74.16,31.11,48.54,61.68,7426.95,2193.49,414.11,46.38,7.97,2.54
2018/06/13T23:29:46z,60:1:94:4b:32:74,2.50i,2.0+OPENLOG+15931 MB+DS3231+BME280+PMSX003A+PMSX003B,81,12,23.60,1009.68,0.00,29672,31,28,31.00,41.00,41.00,26.00,36.00,41.00,0.00,0.00,0.00,0.00,0.00,0.00,34.00,57.00,72.00,27.50,44.50,60.50,0.00,0.00,0.00,0.00,0.00,0.00
2018/06/13T23:31:05z,60:1:94:4b:32:74,2.50i,2.0+OPENLOG+15931 MB+DS3231+BME280+PMSX003A+PMSX003B,81,12,23.60,1009.68,0.00,30128,31,107,35.89,61.91,73.43,28.32,46.52,61.27,6714.82,1925.18,409.82,50.52,14.18,1.18,38.06,64.26,74.14,29.34,47.54,62.03,6763.89,2005.00,414.69,56.03,14.34,1.23
2018/06/13T23:32:25z,60:1:94:4b:32:74,2.50i,2.0+OPENLOG+15931 MB+DS3231+BME280+PMSX003A+PMSX003B,81,12,23.60,1009.50,0.00,29640,31,187,36.29,62.82,74.44,28.36,46.64,61.58,6742.13,1957.76,431.13,51.29,14.67,2.18,35.49,59.70,66.78,28.00,45.24,57.65,6464.59,1912.24,390.57,46.14,8.73,0.84
2018/06/13T23:33:45z,60:1:94:4b:32:74,2.50i,2.0+OPENLOG+15931 MB+DS3231+BME280+PMSX003A+PMSX003B,81,13,25.52,1009.75,0.00,29696,31,267,33.67,60.53,69.64,27.51,45.71,59.27,6462.00,1831.31,408.58,51.53,11.36,1.42,34.28,59.42,67.50,27.72,45.25,57.92,6248.33,1861.31,377.83,49.00,11.81,0.86
2018/06/13T23:35:05z,60:1:94:4b:32:74,2.50i,2.0+OPENLOG+15931 MB+DS3231+BME280+PMSX003A+PMSX003B,82,13,26.31,1009.77,0.00,30128,31,347,30.93,55.67,71.91,25.98,43.53,60.33,6015.73,1718.04,396.33,60.62,22.89,2.44,32.76,56.84,64.70,27.08,44.16,56.54,5991.32,1777.03,368.38,48.62,10.76,1.68
2018/06/13T23:36:25z,60:1:94:4b:32:74,2.50i,2.0+OPENLOG+15931 MB+DS3231+BME280+PMSX003A+PMSX003B,81,13,25.52,1009.78,0.00,29944,31,427,31.45,56.77,70.45,26.45,44.23,59.89,6152.62,1728.53,393.83,56.40,20.49,1.72,31.68,53.57,62.92,26.54,43.00,55.51,5736.08,1699.89,359.54,46.54,13.08,1.78
2018/06/13T23:37:45z,60:1:94:4b:32:74,2.50i,2.0+OPENLOG+15931 MB+DS3231+BME280+PMSX003A+PMSX003B,82,13,26.31,1009.74,0.00,29640,31,507,30.18,53.56,67.82,25.67,42.89,58.13,5924.00,1669.71,369.36,53.16,20.04,2.80,30.00,52.19,59.94,25.72,42.28,54.03,5425.50,1610.33,334.08,49.94,11.14,1.53
2018/06/13T23:39:05z,60:1:94:4b:32:74,2.50i,2.0+OPENLOG+15931 MB+DS3231+BME280+PMSX003A+PMSX003B,82,13,26.31,1009.78,0.00,29696,31,587,29.49,56.28,66.32,25.00,43.98,57.51,5735.11,1642.11,391.30,54.04,13.02,1.66,29.06,53.74,61.00,24.89,43.00,54.37,5338.80,1593.20,364.29,48.86,10.97,0.86
2018/06/13T23:40:25z,60:1:94:4b:32:74,2.50i,2.0+OPENLOG+15931 MB+DS3231+BME280+PMSX003A+PMSX003B,82,13,26.31,1009.73,0.00,30128,31,667,27.29,51.29,61.40,23.67,41.69,54.64,5388.53,1526.82,357.00,46.60,13.40,2.73,30.49,50.65,55.41,26.05,41.62,51.16,5466.65,1606.62,304.41,39.57,6.46,0.32
2018/06/13T23:41:45z,60:1:94:4b:32:74,2.50i,2.0+OPENLOG+15931 MB+DS3231+BME280+PMSX003A+PMSX003B,82,13,26.31,1009.70,0.00,30128,31,747,26.28,49.24,60.35,23.43,40.78,54.11,5303.28,1489.41,350.43,48.37,14.41,1.22,28.06,48.33,55.56,24.31,40.36,51.22,5082.25,1516.64,314.31,40.58,10.67,1.17
2018/06/13T23:43:05z,60:1:94:4b:32:74,2.50i,2.0+OPENLOG+15931 MB+DS3231+BME280+PMSX003A+PMSX003B,82,14,28.11,1009.74,0.00,30128,31,827,26.57,48.33,59.74,23.54,40.35,53.78,5181.26,1478.20,338.48,44.13,14.26,3.00,26.16,46.84,52.62,23.14,39.51,49.51,4753.86,1430.49,316.97,38.54,7.76,1.57
2018/06/13T23:44:25z,60:1:94:4b:32:74,2.50i,2.0+OPENLOG+15931 MB+DS3231+BME280+PMSX003A+PMSX003B,82,14,28.11,1009.74,0.00,29592,31,907,23.81,45.57,53.89,21.96,38.83,50.21,4743.96,1360.98,314.89,40.94,10.72,1.11,25.50,46.47,51.94,23.06,39.33,49.11,4678.00,1390.33,317.86,43.42,7.42,0.78
2018/06/13T23:45:45z,60:1:94:4b:32:74,2.50i,2.0+OPENLOG+15931 MB+DS3231+BME280+PMSX003A+PMSX003B,82,14,28.11,1009.77,0.00,30128,31,987,23.80,43.07,51.64,22.07,37.67,48.98,4797.27,1333.02,294.22,39.29,10.16,2.18,24.89,45.66,50.54,22.60,39.03,48.23,4625.57,1377.66,314.60,36.91,6.80,1.09
2018/06/13T23:47:05z,60:1:94:4b:32:74,2.50i,2.0+OPENLOG+15931 MB+DS3231+BME280+PMSX003A+PMSX003B,82,14,28.11,1009.74,0.00,30128,31,1067,23.93,42.96,51.11,22.18,37.58,48.56,4607.67,1308.62,317.04,32.71,10.31,2.51,24.23,41.29,48.00,22.51,36.54,46.57,4411.46,1309.97,278.23,38.23,9.11,1.29
2018/06/13T23:48:25z,60:1:94:4b:32:74,2.50i,2.0+OPENLOG+15931 MB+DS3231+BME280+PMSX003A+PMSX003B,82,14,28.11,1009.74,0.00,30128,31,1147,21.80,42.30,50.34,20.80,37.18,47.84,4321.43,1230.25,302.98,41.27,11.00,1.16,23.37,40.06,45.86,21.97,35.80,45.23,4241.49,1259.26,264.23,34.71,9.31,0.91
2018/06/13T23:49:45z,60:1:94:4b:32:74,2.50i,2.0+OPENLOG+15931 MB+DS3231+BME280+PMSX003A+PMSX003B,82,14,28.11,1009.61,0.00,29592,31,1227,20.67,37.50,45.52,19.80,34.26,44.87,4064.09,1155.15,271.78,31.26,11.04,1.11,22.03,38.59,43.27,20.81,34.86,42.92,4117.70,1217.16,265.00,28.00,7.97,0.30
2018/06/13T23:51:05z,60:1:94:4b:32:74,2.50i,2.0+OPENLOG+15931 MB+DS3231+BME280+PMSX003A+PMSX003B,82,14,28.11,1009.74,0.00,29672,31,1307,20.09,38.50,50.05,19.68,34.93,47.89,4199.73,1162.09,287.89,40.11,15.43,1.84,21.06,39.33,45.33,20.17,35.31,44.78,3913.00,1172.00,267.69,36.75,9.08,0.67
2018/06/13T23:52:25z,60:1:94:4b:32:74,2.50i,2.0+OPENLOG+15931 MB+DS3231+BME280+PMSX003A+PMSX003B,82,14,28.11,1009.75,0.00,30128,31,1387,18.80,38.43,47.76,18.78,34.63,46.39,3924.33,1121.02,294.39,39.46,11.50,1.70,19.89,35.19,40.81,19.73,32.97,40.76,3628.86,1084.62,252.78,30.32,6.81,1.54
2018/06/13T23:53:45z,60:1:94:4b:32:74,2.50i,2.0+OPENLOG+15931 MB+DS3231+BME280+PMSX003A+PMSX003B,82,14,28.11,1009.79,0.00,30128,31,1467,19.02,34.98,43.04,18.96,32.78,42.73,3803.53,1083.69,240.56,31.07,10.33,2.42,18.86,33.97,38.73,18.86,32.27,38.73,3500.59,1042.78,232.95,29.19,6.65,0.35
2018/06/13T23:55:05z,60:1:94:4b:32:74,2.50i,2.0+OPENLOG+15931 MB+DS3231+BME280+PMSX003A+PMSX003B,82,15,29.79,1009.77,0.00,29696,31,1547,18.27,35.71,46.20,18.13,33.04,45.11,3772.33,1069.13,265.29,38.82,13.73,3.64,19.64,34.50,38.61,19.47,32.31,38.58,3616.67,1068.36,243.50,26.11,5.64,0.33
2018/06/13T23:56:25z,60:1:94:4b:32:74,2.50i,2.0+OPENLOG+15931 MB+DS3231+BME280+PMSX003A+PMSX003B,82,15,29.79,1009.79,0.00,29672,31,1627,17.11,34.07,41.69,17.11,32.16,41.69,3516.67,988.47,245.62,33.62,10.76,1.07,18.06,33.47,40.36,18.06,31.89,40.28,3348.42,990.53,240.11,38.17,10.81,0.97
2018/06/13T23:57:45z,60:1:94:4b:32:74,2.50i,2.0+OPENLOG+15931 MB+DS3231+BME280+PMSX003A+PMSX003B,82,15,29.79,1009.79,0.00,30128,31,1707,16.41,33.53,43.71,16.41,31.94,43.53,3414.61,948.88,252.59,44.61,15.35,1.53,17.00,30.16,34.51,17.00,29.65,34.51,3227.76,958.11,210.59,24.05,6.27,0.41
2018/06/13T23:59:05z,60:1:94:4b:32:74,2.50i,2.0+OPENLOG+15931 MB+DS3231+BME280+PMSX003A+PMSX003B,82,15,29.79,1009.79,0.00,30128,31,1787,15.60,31.73,40.67,15.60,30.73,40.49,3161.80,913.89,231.04,39.02,13.47,0.64,17.09,30.71,32.77,17.09,29.89,32.77,3207.60,945.03,218.20,20.89,2.89,0.46
