UTCDateTime,mac_address,firmware_ver,hardware,current_temp_f,current_humidity,current_dewpoint_f,pressure,adc,mem,rssi,uptime,pm1_0_atm,pm2_5_atm,pm10_0_atm,pm1_0_cf_1,pm2_5_cf_1,pm10_0_cf_1,p_0_3_um,p_0_5_um,p_1_0_um,p_2_5_um,p_5_0_um,p_10_0_um,pm1_0_atm_b,pm2_5_atm_b,pm10_0_atm_b,pm1_0_cf_1_b,pm2_5_cf_1_b,pm10_0_cf_1_b,p_0_3_um_b,p_0_5_um_b,p_1_0_um_b,p_2_5_um_b,p_5_0_um_b,p_10_0_um_b
2018/07/04T00:00:11z,60:1:94:58:d6:c6,2.50i,2.0+OPENLOG+15931 MB+DS3231+BME280+PMSX003A+PMSX003B,84,9,19.10,1008.77,0.00,29640,31,1617,0.06,1.77,2.02,0.06,1.77,2.02,291.57,84.77,27.51,1.57,0.57,0.29,0.59,1.84,2.43,0.59,1.84,2.43,353.59,101.62,22.03,2.08,0.95,0.38
2018/07/04T00:01:31z,60:1:94:58:d6:c6,2.50i,2.0+OPENLOG+15931 MB+DS3231+BME280+PMSX003A+PMSX003B,84,9,19.10,1009.44,0.00,30072,31,1697,0.50,1.59,1.59,0.50,1.59,1.59,303.39,89.52,20.39,0.35,0.57,0.29,1.37,2.61,2.92,1.37,2.61,2.92,358.50,110.82,22.63,2.32,0.95,0.38
2018/07/04T00:02:51z,60:1:94:58:d6:c6,2.50i,2.0+OPENLOG+15931 MB+DS3231+BME280+PMSX003A+PMSX003B,83,9,18.35,1008.24,0.00,30072,31,1777,0.42,1.40,1.96,0.42,1.40,1.96,261.27,76.69,18.20,1.44,0.64,0.29,1.05,2.03,2.84,1.05,2.03,2.84,326.59,91.76,23.92,2.16,1.30,0.38
2018/07/04T00:04:11z,60:1:94:58:d6:c6,2.50i,2.0+OPENLOG+15931 MB+DS3231+BME280+PMSX003A+PMSX003B,85,9,19.85,1009.59,0.00,29608,31,1857,0.17,0.83,1.21,0.17,0.83,1.21,264.32,76.30,18.94,1.74,0.32,0.29,0.92,1.38,1.49,0.92,1.38,1.49,292.38,84.59,14.32,0.54,0.35,0.38
2018/07/04T00:05:31z,60:1:94:58:d6:c6,2.50i,2.0+OPENLOG+15931 MB+DS3231+BME280+PMSX003A+PMSX003B,85,9,19.85,1009.63,0.00,29640,31,1937,0.37,0.89,0.89,0.37,0.89,0.89,222.91,68.83,14.57,1.33,0.32,0.29,1.18,1.72,1.82,1.18,1.72,1.82,326.38,98.08,14.74,1.26,0.35,0.38
2018/07/04T00:06:51z,60:1:94:58:d6:c6,2.50i,2.0+OPENLOG+15931 MB+DS3231+BME280+PMSX003A+PMSX003B,85,9,19.85,1009.80,0.00,29616,31,2017,0.57,1.65,2.17,0.57,1.65,2.17,236.54,72.41,19.39,2.89,0.39,0.29,0.61,1.53,1.69,0.61,1.53,1.69,261.42,78.19,15.28,0.97,0.14,0.38
2018/07/04T00:08:11z,60:1:94:58:d6:c6,2.50i,2.0+OPENLOG+15931 MB+DS3231+BME280+PMSX003A+PMSX003B,85,7,14.04,1009.81,0.00,30072,31,2097,0.19,0.67,1.06,0.19,0.67,1.06,170.06,50.44,14.00,1.44,0.40,0.29,0.30,0.81,1.03,0.30,0.81,1.03,222.81,65.32,11.59,0.70,0.30,0.38
2018/07/04T00:09:31z,60:1:94:58:d6:c6,2.50i,2.0+OPENLOG+15931 MB+DS3231+BME280+PMSX003A+PMSX003B,84,6,9.83,1009.18,0.00,30072,31,2177,0.19,0.67,1.06,0.19,0.67,1.06,74.74,22.09,5.02,1.44,0.40,0.29,0.30,0.21,0.21,0.30,0.21,0.21,80.45,23.97,5.76,0.58,0.30,0.38
2018/07/04T00:10:51z,60:1:94:58:d6:c6,2.50i,2.0+OPENLOG+15931 MB+DS3231+BME280+PMSX003A+PMSX003B,84,5,5.79,1009.79,0.00,29536,31,2257,0.19,0.67,1.06,0.19,0.67,1.06,48.33,16.11,1.62,1.44,0.40,0.29,0.30,0.21,0.21,0.30,0.21,0.21,59.37,18.13,1.68,0.58,0.30,0.38
2018/07/04T00:12:11z,60:1:94:58:d6:c6,2.50i,2.0+OPENLOG+15931 MB+DS3231+BME280+PMSX003A+PMSX003B,84,4,0.95,1009.38,0.00,29616,31,2337,0.19,0.67,1.06,0.19,0.67,1.06,24.56,6.75,0.56,1.44,0.40,0.29,0.30,0.21,0.21,0.30,0.21,0.21,37.05,11.95,2.62,0.38,0.38,0.38

 ets Jan  8 2013,rst cause:1, boot mode:(3,7)

load 0x4010f000, len 1384, room 16 
tail 8
chksum 0x2d
csum 0x2d
v3de0c112
~ld


AirMonitor Ver: 2.50i
FlashChipRealSize: 2097152
70 31872 time not set:Detecting I2C...
70 31848 time not set:RETRY: Found RTC! ******************
83 31784 2018/07/04T00:12:11z:Found BME280 sensor on 0x76! ******************
3724 31504 2018/07/04T00:12:15z:EEPROM SSID: 
3726 31448 2018/07/04T00:12:15z:Device: AirMonitor_d6c6
3728 31448 2018/07/04T00:12:15z:MAC: 60:1:94:58:d6:c6
3729 31472 2018/07/04T00:12:15z:setupWiFi Complete.
3732 31472 2018/07/04T00:12:15z:Looking for channel B
6420 31128 2018/07/04T00:12:18z:Attempt 1 took 2683ms. Found PMSX003 type sensor! ******************
6422 31344 2018/07/04T00:12:18z:Looking for channel A
11424 31184 2018/07/04T00:12:23z:Retry 1
2018/07/04T00:13:49z,60:1:94:58:d6:c6,2.50i,2.0+OPENLOG+15931 MB+DS3231+BME280+PMSX003A+PMSX003B,84,3,-5.12,1009.76,0.00,30072,31,97,0.00,0.00,0.00,0.00,0.00,0.00,9.13,2.58,0.64,0.36,0.36,0.00,0.00,0.00,0.00,0.00,0.00,0.00,14.32,4.78,1.05,0.13,0.13,0.00
2018/07/04T00:15:09z,60:1:94:58:d6:c6,2.50i,2.0+OPENLOG+15931 MB+DS3231+BME280+PMSX003A+PMSX003B,84,3,-5.12,1009.23,0.00,29888,31,177,0.00,0.00,0.00,0.00,0.00,0.00,7.98,1.89,0.36,0.36,0.36,0.00,0.00,0.00,0.00,0.00,0.00,0.00,13.83,2.56,0.92,0.13,0.13,0.00
2018/07/04T00:16:29z,60:1:94:58:d6:c6,2.50i,2.0+OPENLOG+15931 MB+DS3231+BME280+PMSX003A+PMSX003B,84,3,-5.12,1009.68,0.00,29352,31,257,0.00,0.00,0.00,0.00,0.00,0.00,3.80,0.98,0.36,0.36,0.36,0.00,0.00,0.00,0.00,0.00,0.00,0.00,1.89,0.63,0.92,0.13,0.13,0.00
2018/07/04T00:17:49z,60:1:94:58:d6:c6,2.50i,2.0+OPENLOG+15931 MB+DS3231+BME280+PMSX003A+PMSX003B,84,2,-13.37,1009.85,0.00,29640,31,337,0.00,0.00,0.00,0.00,0.00,0.00,4.83,1.61,0.89,0.36,0.36,0.00,0.00,0.00,0.00,0.00,0.00,0.00,6.08,2.03,0.38,0.13,0.13,0.00
2018/07/04T00:19:09z,60:1:94:58:d6:c6,2.50i,2.0+OPENLOG+15931 MB+DS3231+BME280+PMSX003A+PMSX003B,82,2,-14.66,1007.40,0.00,29616,31,417,0.00,0.00,0.00,0.00,0.00,0.00,0.70,0.23,0.89,0.36,0.36,0.00,0.00,0.00,0.00,0.00,0.00,0.00,1.00,0.33,0.38,0.13,0.13,0.00
2018/07/04T00:20:29z,60:1:94:58:d6:c6,2.50i,2.0+OPENLOG+15931 MB+DS3231+BME280+PMSX003A+PMSX003B,84,2,-13.37,1009.62,0.00,29888,31,497,0.00,0.00,0.00,0.00,0.00,0.00,2.27,0.49,0.89,0.36,0.36,0.00,0.00,0.00,0.00,0.00,0.00,0.00,1.97,0.66,0.38,0.13,0.13,0.00
2018/07/04T00:21:49z,60:1:94:58:d6:c6,2.50i,2.0+OPENLOG+15931 MB+DS3231+BME280+PMSX003A+PMSX003B,84,2,-13.37,1009.35,0.00,30072,31,577,0.00,0.00,0.00,0.00,0.00,0.00,0.89,0.30,0.89,0.36,0.36,0.00,0.00,0.00,0.00,0.00,0.00,0.00,3.08,1.03,0.32,0.13,0.13,0.00
2018/07/04T00:23:09z,60:1:94:58:d6:c6,2.50i,2.0+OPENLOG+15931 MB+DS3231+BME280+PMSX003A+PMSX003B,83,2,-14.02,1009.43,0.00,29640,31,657,0.00,0.00,0.00,0.00,0.00,0.00,3.13,1.04,0.89,0.36,0.36,0.00,0.00,0.00,0.00,0.00,0.00,0.00,4.38,1.14,0.11,0.13,0.13,0.00
2018/07/04T00:24:29z,60:1:94:58:d6:c6,2.50i,2.0+OPENLOG+15931 MB+DS3231+BME280+PMSX003A+PMSX003B,84,2,-13.37,1009.73,0.00,29616,31,737,0.00,0.00,0.00,0.00,0.00,0.00,1.13,0.38,0.89,0.36,0.36,0.00,0.00,0.00,0.00,0.00,0.00,0.00,1.97,0.08,0.11,0.13,0.13,0.00
2018/07/04T00:25:49z,60:1:94:58:d6:c6,2.50i,2.0+OPENLOG+15931 MB+DS3231+BME280+PMSX003A+PMSX003B,84,2,-13.37,1009.67,0.00,30072,31,817,0.00,0.00,0.00,0.00,0.00,0.00,1.17,0.39,0.89,0.36,0.36,0.00,0.00,0.00,0.00,0.00,0.00,0.00,2.19,0.73,0.11,0.13,0.13,0.00
2018/07/04T00:27:09z,60:1:94:58:d6:c6,2.50i,2.0+OPENLOG+15931 MB+DS3231+BME280+PMSX003A+PMSX003B,83,2,-14.02,1009.33,0.00,30072,31,897,0.00,0.00,0.00,0.00,0.00,0.00,0.89,0.30,0.89,0.36,0.36,0.00,0.00,0.00,0.00,0.00,0.00,0.00,6.25,1.47,0.08,0.13,0.13,0.00
2018/07/04T00:28:29z,60:1:94:58:d6:c6,2.50i,2.0+OPENLOG+15931 MB+DS3231+BME280+PMSX003A+PMSX003B,84,1,-26.72,1009.70,0.00,29536,31,977,0.00,0.00,0.00,0.00,0.00,0.00,0.93,0.31,0.89,0.36,0.36,0.00,0.00,0.00,0.00,0.00,0.00,0.00,3.71,1.24,0.24,0.13,0.13,0.00
2018/07/04T00:29:49z,60:1:94:58:d6:c6,2.50i,2.0+OPENLOG+15931 MB+DS3231+BME280+PMSX003A+PMSX003B,84,1,-26.72,1009.59,0.00,29640,31,1057,0.00,0.00,0.00,0.00,0.00,0.00,0.93,0.31,0.89,0.36,0.36,0.00,0.00,0.00,0.00,0.00,0.00,0.00,0.08,0.03,0.03,0.13,0.13,0.00
2018/07/04T00:31:09z,60:1:94:58:d6:c6,2.50i,2.0+OPENLOG+15931 MB+DS3231+BME280+PMSX003A+PMSX003B,83,1,-27.32,1009.14,0.00,30072,31,1137,0.00,0.00,0.00,0.00,0.00,0.00,1.24,0.41,0.89,0.36,0.36,0.00,0.00,0.00,0.00,0.00,0.00,0.00,0.25,0.08,0.08,0.13,0.13,0.00
2018/07/04T00:32:29z,60:1:94:58:d6:c6,2.50i,2.0+OPENLOG+15931 MB+DS3231+BME280+PMSX003A+PMSX003B,84,1,-26.72,1009.49,0.00,30072,31,1217,0.00,0.00,0.00,0.00,0.00,0.00,0.80,0.27,0.89,0.36,0.36,0.00,0.00,0.00,0.00,0.00,0.00,0.00,1.97,0.66,0.34,0.13,0.13,0.00
2018/07/04T00:33:49z,60:1:94:58:d6:c6,2.50i,2.0+OPENLOG+15931 MB+DS3231+BME280+PMSX003A+PMSX003B,83,1,-27.32,1009.06,0.00,29792,31,1297,0.00,0.00,0.00,0.00,0.00,0.00,2.12,0.71,0.89,0.36,0.36,0.00,0.00,0.00,0.00,0.00,0.00,0.00,1.54,0.51,0.34,0.13,0.13,0.00
2018/07/04T00:35:09z,60:1:94:58:d6:c6,2.50i,2.0+OPENLOG+15931 MB+DS3231+BME280+PMSX003A+PMSX003B,83,1,-27.32,1009.11,0.00,29536,31,1377,0.00,0.00,0.00,0.00,0.00,0.00,3.39,1.13,0.89,0.36,0.36,0.00,0.00,0.00,0.00,0.00,0.00,0.00,3.97,0.95,0.34,0.13,0.13,0.00
2018/07/04T00:36:29z,60:1:94:58:d6:c6,2.50i,2.0+OPENLOG+15931 MB+DS3231+BME280+PMSX003A+PMSX003B,83,1,-27.32,1008.83,0.00,29616,31,1457,0.00,0.00,0.00,0.00,0.00,0.00,0.67,0.22,0.89,0.36,0.36,0.00,0.00,0.00,0.00,0.00,0.00,0.00,1.50,0.50,0.34,0.13,0.13,0.00
2018/07/04T00:37:49z,60:1:94:58:d6:c6,2.50i,2.0+OPENLOG+15931 MB+DS3231+BME280+PMSX003A+PMSX003B,83,1,-27.32,1008.81,0.00,30072,31,1537,0.00,0.00,0.00,0.00,0.00,0.00,6.32,2.11,0.34,0.36,0.36,0.00,0.00,0.00,0.00,0.00,0.00,0.00,1.38,0.46,0.34,0.13,0.13,0.00
2018/07/04T00:39:09z,60:1:94:58:d6:c6,2.50i,2.0+OPENLOG+15931 MB+DS3231+BME280+PMSX003A+PMSX003B,83,1,-27.32,1008.70,0.00,30072,31,1617,0.00,0.00,0.00,0.00,0.00,0.00,3.13,1.04,0.80,0.36,0.36,0.00,0.00,0.00,0.00,0.00,0.00,0.00,2.08,0.69,0.39,0.13,0.13,0.00
2018/07/04T00:40:29z,60:1:94:58:d6:c6,2.50i,2.0+OPENLOG+15931 MB+DS3231+BME280+PMSX003A+PMSX003B,82,1,-27.92,1008.50,0.00,29536,31,1697,0.00,0.00,0.00,0.00,0.00,0.00,2.93,0.64,0.40,0.36,0.36,0.00,0.00,0.00,0.00,0.00,0.00,0.00,2.92,0.97,0.39,0.13,0.13,0.00
2018/07/04T00:41:49z,60:1:94:58:d6:c6,2.50i,2.0+OPENLOG+15931 MB+DS3231+BME280+PMSX003A+PMSX003B,83,1,-27.32,1009.37,0.00,29616,31,1777,0.00,0.00,0.00,0.00,0.00,0.00,2.31,0.77,0.40,0.36,0.36,0.00,0.00,0.00,0.00,0.00,0.00,0.00,0.95,0.32,0.39,0.13,0.13,0.00
2018/07/04T00:43:09z,60:1:94:58:d6:c6,2.50i,2.0+OPENLOG+15931 MB+DS3231+BME280+PMSX003A+PMSX003B,82,1,-27.92,1008.58,0.00,30072,31,1857,0.00,0.00,0.00,0.00,0.00,0.00,5.33,1.78,0.40,0.40,0.36,0.00,0.00,0.00,0.00,0.00,0.00,0.00,0.92,0.31,0.31,0.13,0.13,0.00
2018/07/04T00:44:29z,60:1:94:58:d6:c6,2.50i,2.0+OPENLOG+15931 MB+DS3231+BME280+PMSX003A+PMSX003B,82,1,-27.92,1008.39,0.00,30072,31,1937,0.00,0.00,0.00,0.00,0.00,0.00,2.28,0.76,0.52,0.40,0.36,0.00,0.00,0.00,0.00,0.00,0.00,0.00,0.92,0.31,0.31,0.13,0.13,0.00
2018/07/04T00:45:49z,60:1:94:58:d6:c6,2.50i,2.0+OPENLOG+15931 MB+DS3231+BME280+PMSX003A+PMSX003B,83,1,-27.32,1008.73,0.00,29328,31,2017,0.00,0.00,0.00,0.00,0.00,0.00,3.19,1.06,0.52,0.40,0.36,0.00,0.00,0.00,0.00,0.00,0.00,0.00,0.97,0.32,0.31,0.13,0.13,0.00
2018/07/04T00:47:09z,60:1:94:58:d6:c6,2.50i,2.0+OPENLOG+15931 MB+DS3231+BME280+PMSX003A+PMSX003B,83,1,-27.32,1009.12,0.00,29640,31,2097,0.00,0.00,0.00,0.00,0.00,0.00,1.67,0.56,0.52,0.40,0.36,0.00,0.00,0.00,0.00,0.00,0.00,0.00,0.97,0.32,0.31,0.13,0.13,0.00
2018/07/04T00:48:29z,60:1:94:58:d6:c6,2.50i,2.0+OPENLOG+15931 MB+DS3231+BME280+PMSX003A+PMSX003B,82,1,-27.92,1007.88,0.00,30072,31,2177,0.00,0.00,0.00,0.00,0.00,0.00,1.17,0.39,0.52,0.40,0.36,0.00,0.00,0.00,0.00,0.00,0.00,0.00,0.63,0.21,0.21,0.13,0.13,0.00
2018/07/04T00:49:49z,60:1:94:58:d6:c6,2.50i,2.0+OPENLOG+15931 MB+DS3231+BME280+PMSX003A+PMSX003B,82,1,-27.92,1008.32,0.00,30072,31,2257,0.00,0.00,0.00,0.00,0.00,0.00,1.02,0.34,0.52,0.40,0.36,0.00,0.00,0.00,0.00,0.00,0.00,0.00,1.14,0.03,0.03,0.13,0.13,0.00
2018/07/04T00:51:09z,60:1:94:58:d6:c6,2.50i,2.0+OPENLOG+15931 MB+DS3231+BME280+PMSX003A+PMSX003B,83,1,-27.32,1009.22,0.00,29536,31,2337,0.00,0.00,0.00,0.00,0.00,0.00,1.80,0.60,0.52,0.40,0.36,0.00,0.00,0.00,0.00,0.00,0.00,0.00,0.92,0.31,0.31,0.13,0.13,0.00

 ets Jan  8 2013,rst cause:1, boot mode:(3,7)

load 0x4010f000, len 1384, room 16 
tail 8
chksum 0x2d
csum 0x2d
v3de0c112
~ld


AirMonitor Ver: 2.50i
FlashChipRealSize: 2097152
70 31872 time not set:Detecting I2C...
71 31848 time not set:RETRY: Found RTC! ******************
83 31784 2018/07/04T00:51:09z:Found BME280 sensor on 0x76! ******************
3724 31504 2018/07/04T00:51:13z:EEPROM SSID: 
3726 31448 2018/07/04T00:51:13z:Device: AirMonitor_d6c6
3728 31448 2018/07/04T00:51:13z:MAC: 60:1:94:58:d6:c6
3729 31472 2018/07/04T00:51:13z:setupWiFi Complete.
3732 31472 2018/07/04T00:51:13z:Looking for channel B
6439 31128 2018/07/04T00:51:16z:Attempt 1 took 2702ms. Found PMSX003 type sensor! ******************
6441 31344 2018/07/04T00:51:16z:Looking for channel A
11443 31184 2018/07/04T00:51:21z:Retry 1
2018/07/04T00:52:47z,60:1:94:58:d6:c6,2.50i,2.0+OPENLOG+15931 MB+DS3231+BME280+PMSX003A+PMSX003B,83,1,-27.32,1009.39,0.00,29888,31,97,0.00,0.00,0.00,0.00,0.00,0.00,0.00,0.00,0.00,0.00,0.00,0.00,0.00,0.00,0.00,0.00,0.00,0.00,2.85,0.95,0.13,0.00,0.00,0.00
2018/07/04T00:54:07z,60:1:94:58:d6:c6,2.50i,2.0+OPENLOG+15931 MB+DS3231+BME280+PMSX003A+PMSX003B,83,1,-27.32,1009.13,0.00,30072,31,177,0.00,0.00,0.00,0.00,0.00,0.00,0.96,0.32,0.32,0.00,0.00,0.00,0.00,0.00,0.00,0.00,0.00,0.00,2.85,0.95,0.13,0.00,0.00,0.00
2018/07/04T00:55:27z,60:1:94:58:d6:c6,2.50i,2.0+OPENLOG+15931 MB+DS3231+BME280+PMSX003A+PMSX003B,83,1,-27.32,1009.06,0.00,29584,31,257,0.00,0.00,0.00,0.00,0.00,0.00,0.78,0.32,0.32,0.00,0.00,0.00,0.00,0.00,0.00,0.00,0.00,0.00,2.85,0.95,0.13,0.00,0.00,0.00
