UTCDateTime,mac_address,firmware_ver,hardware,current_temp_f,current_humidity,current_dewpoint_f,pressure,adc,mem,rssi,uptime,pm1_0_atm,pm2_5_atm,pm10_0_atm,pm1_0_cf_1,pm2_5_cf_1,pm10_0_cf_1,p_0_3_um,p_0_5_um,p_1_0_um,p_2_5_um,p_5_0_um,p_10_0_um,pm1_0_atm_b,pm2_5_atm_b,pm10_0_atm_b,pm1_0_cf_1_b,pm2_5_cf_1_b,pm10_0_cf_1_b,p_0_3_um_b,p_0_5_um_b,p_1_0_um_b,p_2_5_um_b,p_5_0_um_b,p_10_0_um_b
2018/07/10T00:00:50z,2c:3a:e8:34:ff:6b,2.50i,2.0+OPENLOG+15833 MB+DS3231+BME280+PMSX003A+PMSX003B,85,9,19.85,1014.75,0.00,30128,31,2177,0.04,1.09,1.34,0.04,1.09,1.34,191.62,59.79,16.55,2.43,0.78,0.78,0.11,0.65,0.81,0.11,0.65,0.81,115.62,34.81,10.70,2.38,0.72,0.95
2018/07/10T00:02:09z,2c:3a:e8:34:ff:6b,2.50i,2.0+OPENLOG+15833 MB+DS3231+BME280+PMSX003A+PMSX003B,85,9,19.85,1014.94,0.00,30128,31,2257,0.04,0.30,0.89,0.04,0.30,0.89,126.77,37.57,9.96,2.30,0.64,0.64,0.11,0.58,0.58,0.11,0.58,0.58,115.74,36.00,12.05,2.38,0.72,0.95
2018/07/10T00:03:54z,2c:3a:e8:34:ff:6b,2.50i,2.0+OPENLOG+15833 MB+DS3231+BME280+PMSX003A+PMSX003B,85,10,22.34,1014.83,0.00,29672,31,23,0.00,0.00,0.00,0.00,0.00,0.00,0.00,0.00,0.00,0.00,0.00,0.00,0.00,0.50,0.50,0.00,0.50,0.50,0.00,0.00,0.00,0.00,0.00,0.00
2018/07/10T00:05:08z,2c:3a:e8:34:ff:6b,2.50i,2.0+OPENLOG+15833 MB+DS3231+BME280+PMSX003A+PMSX003B,85,10,22.34,1014.79,0.00,30128,31,97,0.00,0.24,1.07,0.00,0.24,1.07,129.29,36.95,14.00,2.81,0.52,0.00,0.00,0.17,0.17,0.00,0.17,0.17,94.29,30.11,7.14,1.71,0.00,0.00
2018/07/10T00:06:28z,2c:3a:e8:34:ff:6b,2.50i,2.0+OPENLOG+15833 MB+DS3231+BME280+PMSX003A+PMSX003B,85,10,22.34,1014.94,0.00,30128,31,177,0.00,0.19,0.64,0.00,0.19,0.64,100.85,31.23,13.06,2.77,0.98,0.00,0.00,0.27,1.16,0.00,0.27,1.16,97.95,31.08,11.30,2.81,1.30,0.70
2018/07/10T00:07:48z,2c:3a:e8:34:ff:6b,2.50i,2.0+OPENLOG+15833 MB+DS3231+BME280+PMSX003A+PMSX003B,85,10,22.34,1014.95,0.00,30128,31,257,0.00,0.39,0.63,0.00,0.39,0.63,131.74,37.87,12.61,0.52,0.52,0.00,0.00,0.66,0.95,0.00,0.66,0.95,125.84,37.47,10.74,1.84,0.63,0.70
2018/07/10T00:09:08z,2c:3a:e8:34:ff:6b,2.50i,2.0+OPENLOG+15833 MB+DS3231+BME280+PMSX003A+PMSX003B,85,10,22.34,1014.94,0.00,29696,31,337,0.00,0.15,0.83,0.00,0.15,0.83,113.74,35.87,7.65,1.17,1.17,0.65,0.00,0.55,0.55,0.00,0.55,0.55,132.47,39.63,11.26,1.37,0.63,0.70
2018/07/10T00:10:28z,2c:3a:e8:34:ff:6b,2.50i,2.0+OPENLOG+15833 MB+DS3231+BME280+PMSX003A+PMSX003B,85,10,22.34,1014.73,0.00,29672,31,417,0.00,0.11,0.28,0.00,0.11,0.28,108.00,34.26,7.13,2.09,0.52,0.65,0.00,0.24,0.86,0.00,0.24,0.86,108.81,32.92,10.00,2.54,1.57,0.70
2018/07/10T00:11:48z,2c:3a:e8:34:ff:6b,2.50i,2.0+OPENLOG+15833 MB+DS3231+BME280+PMSX003A+PMSX003B,85,10,22.34,1014.95,0.00,30128,31,497,0.00,0.49,0.49,0.00,0.49,0.49,128.55,39.79,13.19,0.98,0.52,0.65,0.00,0.17,0.17,0.00,0.17,0.17,90.83,26.39,5.28,1.33,1.57,0.70
2018/07/10T00:13:08z,2c:3a:e8:34:ff:6b,2.50i,2.0+OPENLOG+15833 MB+DS3231+BME280+PMSX003A+PMSX003B,85,10,22.34,1014.93,0.00,30128,31,577,0.00,0.40,0.40,0.00,0.40,0.40,86.43,26.77,10.13,1.02,0.52,0.65,0.00,0.32,0.32,0.00,0.32,0.32,117.32,36.84,8.43,1.24,1.57,0.70
2018/07/10T00:14:28z,2c:3a:e8:34:ff:6b,2.50i,2.0+OPENLOG+15833 MB+DS3231+BME280+PMSX003A+PMSX003B,85,10,22.34,1014.84,0.00,29696,31,657,0.00,0.83,0.89,0.00,0.83,0.89,89.74,28.70,8.91,2.61,0.52,0.65,0.00,0.55,0.55,0.00,0.55,0.55,130.74,38.79,11.42,0.26,1.57,0.70
2018/07/10T00:15:48z,2c:3a:e8:34:ff:6b,2.50i,2.0+OPENLOG+15833 MB+DS3231+BME280+PMSX003A+PMSX003B,85,10,22.34,1014.88,0.00,29512,31,737,0.00,0.13,0.13,0.00,0.13,0.13,110.48,32.09,7.04,2.61,0.52,0.65,0.00,0.81,1.27,0.00,0.81,1.27,145.14,43.89,10.11,3.08,0.86,0.70
2018/07/10T00:17:08z,2c:3a:e8:34:ff:6b,2.50i,2.0+OPENLOG+15833 MB+DS3231+BME280+PMSX003A+PMSX003B,85,10,22.34,1014.85,0.00,30128,31,817,0.00,0.13,0.24,0.00,0.13,0.24,92.22,25.96,3.91,0.48,0.48,0.65,0.00,0.92,1.00,0.00,0.92,1.00,119.75,39.14,15.72,1.94,0.17,0.70
2018/07/10T00:18:28z,2c:3a:e8:34:ff:6b,2.50i,2.0+OPENLOG+15833 MB+DS3231+BME280+PMSX003A+PMSX003B,85,10,22.34,1014.90,0.00,30128,31,897,0.00,0.26,0.38,0.00,0.26,0.38,116.04,34.85,6.89,0.77,0.26,0.65,0.00,0.92,1.00,0.00,0.92,1.00,67.42,20.79,3.16,1.94,0.17,0.70
2018/07/10T00:19:48z,2c:3a:e8:34:ff:6b,2.50i,2.0+OPENLOG+15833 MB+DS3231+BME280+PMSX003A+PMSX003B,85,10,22.34,1014.73,0.00,29640,31,977,0.00,0.26,0.53,0.00,0.26,0.53,77.36,25.32,5.96,1.06,1.06,0.65,0.00,0.92,1.08,0.00,0.92,1.08,81.79,27.05,8.74,2.58,0.84,0.84
2018/07/10T00:21:08z,2c:3a:e8:34:ff:6b,2.50i,2.0+OPENLOG+15833 MB+DS3231+BME280+PMSX003A+PMSX003B,85,10,22.34,1014.85,0.00,29696,31,1057,0.00,0.02,0.02,0.00,0.02,0.02,90.26,29.57,6.57,1.06,1.06,0.65,0.00,0.92,1.08,0.00,0.92,1.08,88.83,24.94,7.17,2.58,0.84,0.84
2018/07/10T00:22:28z,2c:3a:e8:34:ff:6b,2.50i,2.0+OPENLOG+15833 MB+DS3231+BME280+PMSX003A+PMSX003B,85,10,22.34,1014.77,0.00,30128,31,1137,0.00,0.20,0.78,0.00,0.20,0.78,91.30,27.70,8.57,1.52,1.04,0.39,0.00,0.70,0.70,0.00,0.70,0.70,77.19,24.59,9.19,1.68,0.84,0.84
2018/07/10T00:23:48z,2c:3a:e8:34:ff:6b,2.50i,2.0+OPENLOG+15833 MB+DS3231+BME280+PMSX003A+PMSX003B,85,10,22.34,1014.86,0.00,30128,31,1217,0.00,0.35,0.63,0.00,0.35,0.63,112.83,31.48,7.83,1.48,0.43,0.43,0.00,0.71,0.71,0.00,0.71,0.71,113.21,37.16,5.26,1.37,0.84,0.84
2018/07/10T00:25:08z,2c:3a:e8:34:ff:6b,2.50i,2.0+OPENLOG+15833 MB+DS3231+BME280+PMSX003A+PMSX003B,85,10,22.34,1014.85,0.00,30128,31,1297,0.00,0.35,0.06,0.00,0.35,0.06,54.51,16.26,6.77,0.64,0.43,0.43,0.00,0.71,0.71,0.00,0.71,0.71,60.95,19.05,3.37,1.37,0.84,0.84
2018/07/10T00:26:28z,2c:3a:e8:34:ff:6b,2.50i,2.0+OPENLOG+15833 MB+DS3231+BME280+PMSX003A+PMSX003B,85,9,19.85,1015.10,0.00,29592,31,1377,0.00,0.06,0.26,0.00,0.06,0.26,71.11,22.60,7.62,1.28,0.43,0.43,0.00,0.71,0.30,0.00,0.71,0.30,95.51,27.19,7.19,0.65,0.65,0.84
2018/07/10T00:27:48z,2c:3a:e8:34:ff:6b,2.50i,2.0+OPENLOG+15833 MB+DS3231+BME280+PMSX003A+PMSX003B,85,8,17.11,1015.12,0.00,29672,31,1457,0.00,0.06,0.26,0.00,0.06,0.26,40.17,12.61,1.96,0.04,0.43,0.43,0.00,0.71,0.30,0.00,0.71,0.30,44.27,11.95,3.57,0.65,0.65,0.84
2018/07/10T00:29:08z,2c:3a:e8:34:ff:6b,2.50i,2.0+OPENLOG+15833 MB+DS3231+BME280+PMSX003A+PMSX003B,85,8,17.11,1015.12,0.00,30128,31,1537,0.00,0.06,0.26,0.00,0.06,0.26,27.78,8.74,1.26,0.04,0.43,0.43,0.00,0.08,0.21,0.00,0.08,0.21,41.21,13.74,5.53,1.00,0.65,0.84
2018/07/10T00:30:28z,2c:3a:e8:34:ff:6b,2.50i,2.0+OPENLOG+15833 MB+DS3231+BME280+PMSX003A+PMSX003B,85,7,14.04,1015.08,0.00,30128,31,1617,0.00,0.06,0.26,0.00,0.06,0.26,10.57,3.52,1.26,0.04,0.43,0.43,0.00,0.08,0.37,0.00,0.08,0.37,13.42,3.74,1.47,1.47,0.63,0.84
2018/07/10T00:31:48z,2c:3a:e8:34:ff:6b,2.50i,2.0+OPENLOG+15833 MB+DS3231+BME280+PMSX003A+PMSX003B,85,10,22.34,1014.87,0.00,29592,31,1697,0.00,0.06,0.09,0.00,0.06,0.09,22.98,7.32,2.04,0.17,0.17,0.43,0.00,0.08,0.37,0.00,0.08,0.37,12.83,4.28,2.33,1.47,0.63,0.84
2018/07/10T00:33:08z,2c:3a:e8:34:ff:6b,2.50i,2.0+OPENLOG+15833 MB+DS3231+BME280+PMSX003A+PMSX003B,85,24,44.18,1014.84,0.00,29696,31,1777,4.70,5.87,6.47,4.70,5.87,6.47,999.83,276.77,32.81,1.32,0.77,0.43,5.47,8.72,8.81,5.47,8.72,8.81,1162.25,333.36,51.22,2.17,0.17,0.84
2018/07/10T00:34:28z,2c:3a:e8:34:ff:6b,2.50i,2.0+OPENLOG+15833 MB+DS3231+BME280+PMSX003A+PMSX003B,85,22,41.91,1015.34,0.00,30128,31,1857,182.82,534.93,817.44,121.42,355.76,544.20,34431.54,10727.11,5016.98,1078.04,408.49,16.71,174.38,506.46,765.24,115.70,337.11,509.73,34271.68,10603.84,4487.70,1052.84,313.54,98.00
2018/07/10T00:35:48z,2c:3a:e8:34:ff:6b,2.50i,2.0+OPENLOG+15833 MB+DS3231+BME280+PMSX003A+PMSX003B,85,18,36.76,1015.31,0.00,30128,31,1937,202.02,552.20,838.31,134.04,367.44,558.38,37695.27,11638.58,5086.13,1081.29,413.24,18.27,192.17,553.66,825.66,127.29,368.37,549.80,37642.20,11651.37,4892.86,1100.94,320.71,106.91
2018/07/10T00:37:08z,2c:3a:e8:34:ff:6b,2.50i,2.0+OPENLOG+15833 MB+DS3231+BME280+PMSX003A+PMSX003B,85,15,32.18,1015.27,0.00,30128,31,2017,145.20,358.13,516.36,96.07,237.98,343.56,26536.93,8047.42,3133.53,619.02,232.36,11.02,136.28,351.50,521.97,90.17,233.67,347.36,26092.50,7994.72,3063.08,651.58,202.00,70.17
2018/07/10T00:38:28z,2c:3a:e8:34:ff:6b,2.50i,2.0+OPENLOG+15833 MB+DS3231+BME280+PMSX003A+PMSX003B,85,13,28.66,1015.22,0.00,29592,31,2097,96.53,226.91,318.40,63.64,150.56,211.62,17556.13,5302.71,1968.27,358.67,128.67,7.56,91.62,228.59,320.76,60.46,151.70,213.16,17473.22,5262.89,1903.14,404.68,109.54,39.03
2018/07/10T00:39:48z,2c:3a:e8:34:ff:6b,2.50i,2.0+OPENLOG+15833 MB+DS3231+BME280+PMSX003A+PMSX003B,85,11,24.61,1015.23,0.00,29672,31,2177,60.93,141.13,200.33,40.11,93.41,132.83,11372.54,3367.24,1187.96,231.91,86.91,2.70,60.22,140.81,201.22,39.67,93.19,133.47,11561.33,3437.39,1177.47,233.42,72.81,21.83
2018/07/10T00:41:08z,2c:3a:e8:34:ff:6b,2.50i,2.0+OPENLOG+15833 MB+DS3231+BME280+PMSX003A+PMSX003B,85,10,22.34,1015.15,0.00,30128,31,2257,39.41,88.14,124.52,29.75,58.68,84.91,7331.25,2176.30,750.09,139.32,52.23,1.64,36.64,85.03,114.22,28.50,57.06,79.03,6984.17,2094.14,711.19,122.86,37.00,9.78
2018/07/10T00:42:57z,2c:3a:e8:34:ff:6b,2.50i,2.0+OPENLOG+15833 MB+DS3231+BME280+PMSX003A+PMSX003B,85,9,19.85,1014.48,0.00,29672,31,29,15.00,40.00,51.00,15.00,36.00,49.00,0.00,0.00,0.00,0.00,0.00,0.00,14.00,33.00,64.00,14.00,32.00,56.00,0.00,0.00,0.00,0.00,0.00,0.00
2018/07/10T00:44:16z,2c:3a:e8:34:ff:6b,2.50i,2.0+OPENLOG+15833 MB+DS3231+BME280+PMSX003A+PMSX003B,85,9,19.85,1014.76,0.00,30128,31,107,20.84,47.95,63.77,20.16,40.02,55.77,4006.02,1197.05,419.14,68.82,21.41,0.73,20.62,46.92,64.30,19.97,39.49,56.38,4076.92,1215.73,386.68,71.05,21.51,5.30
2018/07/10T00:45:36z,2c:3a:e8:34:ff:6b,2.50i,2.0+OPENLOG+15833 MB+DS3231+BME280+PMSX003A+PMSX003B,85,9,19.85,1014.79,0.00,29640,31,187,21.22,45.91,60.07,20.44,38.93,53.87,3936.27,1167.69,382.44,61.51,19.33,2.31,19.24,45.92,61.57,18.97,39.00,54.57,3891.08,1166.03,404.59,63.68,19.19,7.89
2018/07/10T00:46:56z,2c:3a:e8:34:ff:6b,2.50i,2.0+OPENLOG+15833 MB+DS3231+BME280+PMSX003A+PMSX003B,85,9,19.85,1014.79,0.00,29696,31,267,16.87,41.36,56.16,16.87,36.31,51.44,3392.00,997.24,369.51,59.78,21.20,1.20,17.19,42.72,55.25,17.19,37.19,51.00,3618.67,1069.06,358.64,62.00,15.11,4.56
2018/07/10T00:48:16z,2c:3a:e8:34:ff:6b,2.50i,2.0+OPENLOG+15833 MB+DS3231+BME280+PMSX003A+PMSX003B,85,9,19.85,1014.75,0.00,30128,31,347,16.57,36.87,51.77,16.57,33.66,48.91,3193.15,950.47,340.64,56.47,18.85,0.55,15.47,38.89,53.06,15.47,35.08,49.72,3280.83,969.00,319.58,60.00,18.39,5.28
2018/07/10T00:49:36z,2c:3a:e8:34:ff:6b,2.50i,2.0+OPENLOG+15833 MB+DS3231+BME280+PMSX003A+PMSX003B,85,9,19.85,1014.74,0.00,30128,31,427,16.74,36.52,45.00,16.74,33.70,44.46,3123.26,934.26,307.91,43.04,11.39,0.55,15.26,31.97,45.63,15.26,30.57,44.91,2996.49,890.89,269.74,48.06,17.14,4.00
2018/07/10T00:50:56z,2c:3a:e8:34:ff:6b,2.50i,2.0+OPENLOG+15833 MB+DS3231+BME280+PMSX003A+PMSX003B,85,9,19.85,1014.69,0.00,30128,31,507,14.63,32.33,43.63,14.63,31.11,43.22,2834.22,837.35,287.17,47.26,15.13,0.52,14.59,33.59,44.86,14.59,31.89,43.81,2957.43,881.65,271.49,51.51,10.59,4.38
2018/07/10T00:52:16z,2c:3a:e8:34:ff:6b,2.50i,2.0+OPENLOG+15833 MB+DS3231+BME280+PMSX003A+PMSX003B,85,9,19.85,1014.55,0.00,29592,31,587,12.47,28.30,39.66,12.47,28.15,39.64,2420.94,721.11,252.00,43.70,16.34,0.26,13.38,30.81,42.35,13.38,30.22,42.27,2619.16,778.89,260.16,46.70,14.22,5.46
2018/07/10T00:53:36z,2c:3a:e8:34:ff:6b,2.50i,2.0+OPENLOG+15833 MB+DS3231+BME280+PMSX003A+PMSX003B,85,9,19.85,1014.67,0.00,29672,31,667,12.53,29.60,41.42,12.53,29.24,41.29,2505.07,750.49,267.87,44.09,16.04,1.24,11.05,24.74,36.29,11.05,24.74,36.29,2279.05,674.37,213.92,40.63,13.68,2.42
2018/07/10T00:54:56z,2c:3a:e8:34:ff:6b,2.50i,2.0+OPENLOG+15833 MB+DS3231+BME280+PMSX003A+PMSX003B,85,9,19.85,1014.66,0.00,30128,31,747,11.27,26.93,35.24,11.27,26.93,35.24,2278.40,676.84,240.40,31.42,13.78,0.62,9.92,24.14,35.56,9.92,24.14,35.56,2046.58,615.06,204.17,38.78,15.28,4.06
2018/07/10T00:56:16z,2c:3a:e8:34:ff:6b,2.50i,2.0+OPENLOG+15833 MB+DS3231+BME280+PMSX003A+PMSX003B,85,9,19.85,1014.53,0.00,30128,31,827,10.43,24.45,31.23,10.43,24.45,31.23,2073.27,623.41,204.09,32.23,10.05,1.27,10.16,24.97,32.74,10.16,24.97,32.74,2103.32,630.82,220.32,33.74,9.32,4.37
2018/07/10T00:57:36z,2c:3a:e8:34:ff:6b,2.50i,2.0+OPENLOG+15833 MB+DS3231+BME280+PMSX003A+PMSX003B,85,9,19.85,1014.69,0.00,29696,31,907,9.85,22.11,30.47,9.85,22.11,30.47,1892.04,561.66,197.15,36.30,9.53,0.13,9.89,21.68,28.16,9.89,21.68,28.16,1943.92,569.92,172.16,26.79,8.05,4.05
2018/07/10T00:58:56z,2c:3a:e8:34:ff:6b,2.50i,2.0+OPENLOG+15833 MB+DS3231+BME280+PMSX003A+PMSX003B,85,9,19.85,1014.77,0.00,29672,31,987,9.54,19.52,24.48,9.54,19.52,24.48,1841.09,541.26,155.13,25.65,7.00,0.22,8.69,19.69,26.14,8.69,19.69,26.14,1777.83,535.72,173.50,24.67,7.22,3.56
2018/07/10T01:00:16z,2c:3a:e8:34:ff:6b,2.50i,2.0+OPENLOG+15833 MB+DS3231+BME280+PMSX003A+PMSX003B,85,9,19.85,1014.59,0.00,29944,31,1067,8.70,19.61,25.04,8.70,19.61,25.04,1728.78,518.87,166.43,24.09,7.78,0.26,7.86,19.84,25.54,7.86,19.84,25.54,1719.57,517.05,174.35,24.92,7.89,1.89
2018/07/10T01:01:36z,2c:3a:e8:34:ff:6b,2.50i,2.0+OPENLOG+15833 MB+DS3231+BME280+PMSX003A+PMSX003B,85,9,19.85,1014.68,0.00,30128,31,1147,8.52,18.66,25.27,8.52,18.66,25.27,1615.23,486.64,160.59,27.14,9.59,1.00,7.94,18.00,21.86,7.94,18.00,21.86,1616.83,484.06,140.28,25.50,4.83,1.89
2018/07/10T01:02:56z,2c:3a:e8:34:ff:6b,2.50i,2.0+OPENLOG+15833 MB+DS3231+BME280+PMSX003A+PMSX003B,85,9,19.85,1014.76,0.00,29696,31,1227,7.33,16.62,20.93,7.33,16.62,20.93,1472.00,441.29,145.16,19.16,6.27,0.53,7.38,15.70,22.05,7.38,15.70,22.05,1561.38,457.84,127.68,21.41,6.86,4.43
2018/07/10T01:04:16z,2c:3a:e8:34:ff:6b,2.50i,2.0+OPENLOG+15833 MB+DS3231+BME280+PMSX003A+PMSX003B,85,9,19.85,1014.76,0.00,29696,31,1307,7.52,17.65,23.41,7.52,17.65,23.41,1546.43,458.70,156.35,25.96,8.35,0.39,6.71,15.79,21.39,6.71,15.79,21.39,1436.76,429.76,143.24,22.68,6.47,2.95
2018/07/10T01:05:36z,2c:3a:e8:34:ff:6b,2.50i,2.0+OPENLOG+15833 MB+DS3231+BME280+PMSX003A+PMSX003B,85,9,19.85,1014.78,0.00,30128,31,1387,6.32,13.77,19.28,6.32,13.77,19.28,1262.04,376.77,123.23,20.94,7.83,0.30,6.22,14.00,17.73,6.22,14.00,17.73,1339.22,404.16,119.89,17.51,3.78,1.03
2018/07/10T01:06:56z,2c:3a:e8:34:ff:6b,2.50i,2.0+OPENLOG+15833 MB+DS3231+BME280+PMSX003A+PMSX003B,85,9,19.85,1014.57,0.00,29944,31,1467,6.13,13.96,18.46,6.13,13.96,18.46,1291.96,381.09,124.74,14.78,6.65,0.74,5.86,13.54,16.89,5.86,13.54,16.89,1245.89,364.24,108.76,17.68,3.89,1.03
2018/07/10T01:08:16z,2c:3a:e8:34:ff:6b,2.50i,2.0+OPENLOG+15833 MB+DS3231+BME280+PMSX003A+PMSX003B,85,9,19.85,1014.68,0.00,29848,31,1547,4.85,11.41,17.17,4.85,11.41,17.17,1055.09,319.09,106.26,15.65,9.30,0.78,4.89,11.59,14.41,4.89,11.59,14.41,1070.68,328.05,96.35,17.95,2.76,0.86
2018/07/10T01:09:36z,2c:3a:e8:34:ff:6b,2.50i,2.0+OPENLOG+15833 MB+DS3231+BME280+PMSX003A+PMSX003B,85,9,19.85,1014.70,0.00,29696,31,1627,5.19,13.11,16.15,5.19,13.11,16.15,1101.32,330.30,114.98,17.96,4.26,0.78,4.35,11.57,14.84,4.35,11.57,14.84,1092.00,320.78,95.05,17.68,3.62,1.19
2018/07/10T01:10:56z,2c:3a:e8:34:ff:6b,2.50i,2.0+OPENLOG+15833 MB+DS3231+BME280+PMSX003A+PMSX003B,85,9,19.85,1014.59,0.00,30128,31,1707,3.85,9.59,13.87,3.85,9.59,13.87,954.13,285.57,86.26,14.43,6.30,0.83,4.55,9.66,15.13,4.55,9.66,15.13,994.03,305.24,82.37,18.26,6.21,1.42
2018/07/10T01:12:16z,2c:3a:e8:34:ff:6b,2.50i,2.0+OPENLOG+15833 MB+DS3231+BME280+PMSX003A+PMSX003B,85,9,19.85,1014.53,0.00,30128,31,1787,4.00,9.09,13.55,4.00,9.09,13.55,920.55,270.98,92.94,15.83,6.34,0.81,3.45,8.42,11.71,3.45,8.42,11.71,854.92,248.37,67.42,15.74,3.47,0.95
2018/07/10T01:13:36z,2c:3a:e8:34:ff:6b,2.50i,2.0+OPENLOG+15833 MB+DS3231+BME280+PMSX003A+PMSX003B,85,9,19.85,1014.51,0.00,29640,31,1867,3.85,9.83,12.91,3.85,9.83,12.91,935.62,280.13,99.74,11.87,3.87,0.81,3.46,8.69,11.37,3.46,8.69,11.37,876.34,259.46,82.74,8.74,3.31,1.83
2018/07/10T01:14:56z,2c:3a:e8:34:ff:6b,2.50i,2.0+OPENLOG+15833 MB+DS3231+BME280+PMSX003A+PMSX003B,85,9,19.85,1014.63,0.00,29696,31,1947,4.28,8.61,11.96,4.28,8.61,11.96,925.83,265.30,77.04,10.43,5.09,0.52,3.54,7.95,11.54,3.54,7.95,11.54,852.54,257.87,67.49,15.64,3.28,0.67
2018/07/10T01:16:16z,2c:3a:e8:34:ff:6b,2.50i,2.0+OPENLOG+15833 MB+DS3231+BME280+PMSX003A+PMSX003B,85,9,19.85,1014.63,0.00,30128,31,2027,3.98,8.90,12.75,3.98,8.90,12.75,826.25,246.04,73.71,17.25,5.25,0.50,3.03,7.95,9.58,3.03,7.95,9.58,771.47,231.42,67.79,11.16,2.11,1.21
2018/07/10T01:17:36z,2c:3a:e8:34:ff:6b,2.50i,2.0+OPENLOG+15833 MB+DS3231+BME280+PMSX003A+PMSX003B,85,9,19.85,1014.63,0.00,30128,31,2107,3.00,7.28,9.67,3.00,7.28,9.67,665.74,203.83,69.52,10.70,4.17,0.50,2.81,6.57,9.46,2.81,6.57,9.46,680.68,203.86,58.65,11.62,3.41,1.21
2018/07/10T01:18:56z,2c:3a:e8:34:ff:6b,2.50i,2.0+OPENLOG+15833 MB+DS3231+BME280+PMSX003A+PMSX003B,85,9,19.85,1014.64,0.00,30128,31,2187,3.55,7.81,11.53,3.55,7.81,11.53,757.40,230.55,73.06,9.91,6.30,0.50,3.53,7.79,10.16,3.53,7.79,10.16,848.29,257.74,69.05,8.11,2.47,1.89
2018/07/10T01:20:16z,2c:3a:e8:34:ff:6b,2.50i,2.0+OPENLOG+15833 MB+DS3231+BME280+PMSX003A+PMSX003B,85,9,19.85,1014.58,0.00,29696,31,2267,3.38,6.28,9.66,3.38,6.28,9.66,745.79,219.02,55.15,8.98,4.94,0.50,3.39,6.26,8.08,3.39,6.26,8.08,709.03,211.66,56.00,7.79,2.16,1.89
2018/07/10T01:22:05z,2c:3a:e8:34:ff:6b,2.50i,2.0+OPENLOG+15833 MB+DS3231+BME280+PMSX003A+PMSX003B,85,9,19.85,1014.64,0.00,29672,31,29,2.00,2.00,2.00,2.00,2.00,2.00,0.00,0.00,0.00,0.00,0.00,0.00,1.00,3.50,4.50,1.00,3.50,4.50,0.00,0.00,0.00,0.00,0.00,0.00
2018/07/10T01:23:24z,2c:3a:e8:34:ff:6b,2.50i,2.0+OPENLOG+15833 MB+DS3231+BME280+PMSX003A+PMSX003B,85,10,22.34,1014.53,0.00,30128,31,107,1.16,4.31,4.78,1.16,4.31,4.78,489.20,144.71,43.24,4.49,0.84,0.00,1.72,4.14,5.81,1.72,4.14,5.81,566.83,166.69,41.89,7.06,1.94,0.00
2018/07/10T01:24:44z,2c:3a:e8:34:ff:6b,2.50i,2.0+OPENLOG+15833 MB+DS3231+BME280+PMSX003A+PMSX003B,85,10,22.34,1014.64,0.00,29640,31,187,2.04,4.85,6.54,2.04,4.85,6.54,586.30,170.13,51.91,5.04,2.00,0.00,1.92,5.22,5.95,1.92,5.22,5.95,573.89,174.46,56.11,4.16,0.43,0.00
2018/07/10T01:26:04z,2c:3a:e8:34:ff:6b,2.50i,2.0+OPENLOG+15833 MB+DS3231+BME280+PMSX003A+PMSX003B,85,10,22.34,1014.62,0.00,29696,31,267,1.23,3.72,4.68,1.23,3.72,4.68,374.30,109.40,37.19,6.51,0.68,0.00,1.89,5.13,6.34,1.89,5.13,6.34,510.32,160.03,48.32,6.63,1.37,0.00
2018/07/10T01:27:24z,2c:3a:e8:34:ff:6b,2.50i,2.0+OPENLOG+15833 MB+DS3231+BME280+PMSX003A+PMSX003B,85,10,22.34,1014.66,0.00,30128,31,347,2.24,4.49,6.00,2.24,4.49,6.00,603.07,168.44,43.78,5.60,1.51,0.44,1.66,4.34,7.21,1.66,4.34,7.21,514.34,149.61,39.26,8.53,4.21,2.63
2018/07/10T01:28:44z,2c:3a:e8:34:ff:6b,2.50i,2.0+OPENLOG+15833 MB+DS3231+BME280+PMSX003A+PMSX003B,85,10,22.34,1014.66,0.00,30128,31,427,0.98,3.60,5.13,0.98,3.60,5.13,412.53,125.73,42.62,6.67,2.04,0.40,1.64,3.69,4.08,1.64,3.69,4.08,468.67,144.17,39.83,2.00,0.28,2.63
2018/07/10T01:30:04z,2c:3a:e8:34:ff:6b,2.50i,2.0+OPENLOG+15833 MB+DS3231+BME280+PMSX003A+PMSX003B,85,10,22.34,1014.62,0.00,30128,31,507,1.39,3.91,5.24,1.39,3.91,5.24,419.22,124.43,43.43,5.09,2.09,0.40,1.11,3.44,4.89,1.11,3.44,4.89,401.75,123.33,40.61,6.56,1.67,0.94
2018/07/10T01:31:24z,2c:3a:e8:34:ff:6b,2.50i,2.0+OPENLOG+15833 MB+DS3231+BME280+PMSX003A+PMSX003B,85,10,22.34,1014.57,0.00,29592,31,587,1.35,4.04,5.37,1.35,4.04,5.37,404.87,125.42,43.83,6.83,1.92,0.40,1.44,3.00,3.69,1.44,3.00,3.69,428.17,129.36,23.78,4.28,0.17,0.17
2018/07/10T01:32:44z,2c:3a:e8:34:ff:6b,2.50i,2.0+OPENLOG+15833 MB+DS3231+BME280+PMSX003A+PMSX003B,85,10,22.34,1014.53,0.00,29672,31,667,1.37,2.78,3.22,1.37,2.78,3.22,392.61,116.22,23.00,3.13,1.92,0.40,1.39,3.34,5.37,1.39,3.34,5.37,391.74,117.50,35.32,5.68,2.63,0.74
2018/07/10T01:34:04z,2c:3a:e8:34:ff:6b,2.50i,2.0+OPENLOG+15833 MB+DS3231+BME280+PMSX003A+PMSX003B,85,10,22.34,1014.61,0.00,30128,31,747,1.00,3.82,5.02,1.00,3.82,5.02,345.20,100.40,37.16,8.53,1.38,0.40,0.84,2.66,2.71,0.84,2.66,2.71,331.26,99.97,26.84,2.68,2.63,0.74
2018/07/10T01:35:24z,2c:3a:e8:34:ff:6b,2.50i,2.0+OPENLOG+15833 MB+DS3231+BME280+PMSX003A+PMSX003B,85,10,22.34,1014.68,0.00,30128,31,827,1.00,2.96,3.93,1.00,2.96,3.93,400.13,114.22,28.98,3.60,1.20,0.40,0.83,3.86,4.36,0.83,3.86,4.36,352.33,107.03,38.28,4.89,1.00,0.74
2018/07/10T01:36:44z,2c:3a:e8:34:ff:6b,2.50i,2.0+OPENLOG+15833 MB+DS3231+BME280+PMSX003A+PMSX003B,85,10,22.34,1014.68,0.00,29696,31,907,0.51,1.83,2.77,0.51,1.83,2.77,292.72,80.55,25.74,3.79,0.47,0.47,0.65,2.32,3.35,0.65,2.32,3.35,301.05,88.27,24.00,4.81,1.30,0.74
2018/07/10T01:38:04z,2c:3a:e8:34:ff:6b,2.50i,2.0+OPENLOG+15833 MB+DS3231+BME280+PMSX003A+PMSX003B,85,10,22.34,1014.49,0.00,29696,31,987,0.93,2.33,3.80,0.93,2.33,3.80,298.43,92.09,31.52,5.13,1.74,0.04,1.18,3.18,3.50,1.18,3.18,3.50,317.84,99.29,33.16,5.47,1.30,0.74
2018/07/10T01:39:24z,2c:3a:e8:34:ff:6b,2.50i,2.0+OPENLOG+15833 MB+DS3231+BME280+PMSX003A+PMSX003B,85,10,22.34,1014.38,0.00,30128,31,1067,0.28,1.11,1.41,0.28,1.11,1.41,240.52,70.30,14.74,1.57,0.48,0.04,0.03,1.65,1.65,0.03,1.65,1.65,243.49,71.95,21.78,1.68,1.30,0.74
2018/07/10T01:40:44z,2c:3a:e8:34:ff:6b,2.50i,2.0+OPENLOG+15833 MB+DS3231+BME280+PMSX003A+PMSX003B,85,10,22.34,1014.49,0.00,30128,31,1147,0.28,1.54,2.35,0.28,1.54,2.35,241.43,75.48,24.13,2.91,1.52,0.04,0.58,1.69,2.42,0.58,1.69,2.42,271.67,80.22,22.28,2.28,0.78,0.61
2018/07/10T01:42:04z,2c:3a:e8:34:ff:6b,2.50i,2.0+OPENLOG+15833 MB+DS3231+BME280+PMSX003A+PMSX003B,85,10,22.34,1014.61,0.00,29696,31,1227,0.89,1.85,1.87,0.89,1.85,1.87,357.26,100.91,20.87,1.83,0.04,0.04,0.11,1.62,1.62,0.11,1.62,1.62,250.46,68.95,27.41,2.11,0.78,0.61
2018/07/10T01:43:24z,2c:3a:e8:34:ff:6b,2.50i,2.0+OPENLOG+15833 MB+DS3231+BME280+PMSX003A+PMSX003B,85,10,22.34,1014.50,0.00,29512,31,1307,0.74,1.52,3.15,0.74,1.52,3.15,268.43,80.48,22.00,4.13,2.48,0.04,0.45,1.32,1.32,0.45,1.32,1.32,247.82,73.29,15.32,1.37,0.78,0.61
2018/07/10T01:44:44z,2c:3a:e8:34:ff:6b,2.50i,2.0+OPENLOG+15833 MB+DS3231+BME280+PMSX003A+PMSX003B,85,10,22.34,1014.54,0.00,30128,31,1387,0.09,1.09,1.49,0.09,1.09,1.49,181.53,51.83,15.45,2.43,0.81,0.04,0.67,1.83,2.92,0.67,1.83,2.92,273.67,81.39,22.56,2.06,1.00,0.17
2018/07/10T01:46:04z,2c:3a:e8:34:ff:6b,2.50i,2.0+OPENLOG+15833 MB+DS3231+BME280+PMSX003A+PMSX003B,85,10,22.34,1014.48,0.00,30128,31,1467,0.33,1.39,3.17,0.33,1.39,3.17,235.04,70.39,21.74,5.04,3.48,0.04,0.39,2.31,3.11,0.39,2.31,3.11,281.67,85.86,27.00,4.61,1.00,0.17
2018/07/10T01:47:24z,2c:3a:e8:34:ff:6b,2.50i,2.0+OPENLOG+15833 MB+DS3231+BME280+PMSX003A+PMSX003B,85,10,22.34,1014.38,0.00,29848,31,1547,0.24,0.85,1.85,0.24,0.85,1.85,191.87,57.09,16.74,3.52,1.30,1.30,0.39,0.79,0.79,0.39,0.79,0.79,188.21,54.74,17.37,0.11,1.00,0.17
2018/07/10T01:48:44z,2c:3a:e8:34:ff:6b,2.50i,2.0+OPENLOG+15833 MB+DS3231+BME280+PMSX003A+PMSX003B,85,10,22.34,1014.51,0.00,29696,31,1627,0.31,1.33,1.93,0.31,1.33,1.93,197.60,60.36,23.73,2.58,0.80,1.30,0.39,1.08,1.47,0.39,1.08,1.47,220.11,63.84,12.63,2.21,1.00,0.17
2018/07/10T01:50:04z,2c:3a:e8:34:ff:6b,2.50i,2.0+OPENLOG+15833 MB+DS3231+BME280+PMSX003A+PMSX003B,85,10,22.34,1014.51,0.00,30128,31,1707,0.09,1.15,1.60,0.09,1.15,1.60,204.38,65.06,16.85,2.30,0.80,1.30,0.39,0.17,0.78,0.39,0.17,0.78,157.17,44.72,9.83,1.50,1.00,0.17
2018/07/10T01:51:24z,2c:3a:e8:34:ff:6b,2.50i,2.0+OPENLOG+15833 MB+DS3231+BME280+PMSX003A+PMSX003B,85,10,22.34,1014.56,0.00,30128,31,1787,0.34,1.06,1.36,0.34,1.06,1.36,235.40,68.98,13.23,0.72,0.60,1.30,0.30,0.84,0.84,0.30,0.84,0.84,208.38,57.73,11.62,0.49,1.00,0.17
2018/07/10T01:52:44z,2c:3a:e8:34:ff:6b,2.50i,2.0+OPENLOG+15833 MB+DS3231+BME280+PMSX003A+PMSX003B,85,10,22.34,1014.41,0.00,30128,31,1867,0.34,1.11,1.87,0.34,1.11,1.87,153.91,47.48,12.30,3.43,1.30,0.48,0.11,0.55,1.18,0.11,0.55,1.18,153.79,45.47,8.74,3.37,1.00,0.17
2018/07/10T01:54:04z,2c:3a:e8:34:ff:6b,2.50i,2.0+OPENLOG+15833 MB+DS3231+BME280+PMSX003A+PMSX003B,85,10,22.34,1014.45,0.00,29592,31,1947,0.34,0.11,0.11,0.34,0.11,0.11,114.13,36.17,4.61,3.43,1.30,0.48,0.14,0.81,0.92,0.14,0.81,0.92,179.03,55.46,17.30,0.92,0.22,0.17
2018/07/10T01:55:24z,2c:3a:e8:34:ff:6b,2.50i,2.0+OPENLOG+15833 MB+DS3231+BME280+PMSX003A+PMSX003B,85,10,22.34,1014.51,0.00,29488,31,2027,0.33,1.13,1.24,0.33,1.13,1.24,185.09,56.04,14.39,1.57,0.22,0.48,0.14,0.56,0.61,0.14,0.56,0.61,145.33,43.11,11.11,1.00,0.11,0.17
2018/07/10T01:56:44z,2c:3a:e8:34:ff:6b,2.50i,2.0+OPENLOG+15833 MB+DS3231+BME280+PMSX003A+PMSX003B,85,10,22.34,1014.62,0.00,30128,31,2107,0.33,0.57,0.96,0.33,0.57,0.96,146.04,40.51,15.87,1.79,0.51,0.48,0.14,0.84,1.32,0.14,0.84,1.32,168.32,50.00,11.57,0.97,0.97,0.17
2018/07/10T01:58:04z,2c:3a:e8:34:ff:6b,2.50i,2.0+OPENLOG+15833 MB+DS3231+BME280+PMSX003A+PMSX003B,85,10,22.34,1014.55,0.00,30128,31,2187,0.33,0.26,0.26,0.33,0.26,0.26,108.64,31.57,7.96,0.26,0.51,0.48,0.14,0.10,0.69,0.14,0.10,0.69,111.08,33.23,7.23,1.69,1.08,0.87
2018/07/10T01:59:24z,2c:3a:e8:34:ff:6b,2.50i,2.0+OPENLOG+15833 MB+DS3231+BME280+PMSX003A+PMSX003B,85,10,22.34,1014.41,0.00,29696,31,2267,0.33,0.59,1.22,0.33,0.59,1.22,146.61,43.91,12.87,2.13,1.13,0.48,0.03,0.51,1.41,0.03,0.51,1.41,156.32,43.03,12.86,0.97,0.86,0.86
2018/07/10T02:01:10z,2c:3a:e8:34:ff:6b,2.50i,2.0+OPENLOG+15833 MB+DS3231+BME280+PMSX003A+PMSX003B,85,10,22.34,1014.47,0.00,29488,31,26,0.00,0.00,0.00,0.00,0.00,0.00,0.00,0.00,0.00,0.00,0.00,0.00,1.00,1.00,1.00,1.00,1.00,1.00,0.00,0.00,0.00,0.00,0.00,0.00
2018/07/10T02:02:22z,2c:3a:e8:34:ff:6b,2.50i,2.0+OPENLOG+15833 MB+DS3231+BME280+PMSX003A+PMSX003B,85,10,22.34,1014.52,0.00,30152,31,97,0.00,0.00,0.00,0.00,0.00,0.00,105.75,28.50,7.65,0.00,0.00,0.00,1.00,0.18,0.18,1.00,0.18,0.18,120.35,35.29,7.94,0.88,0.00,0.00
2018/07/10T02:03:42z,2c:3a:e8:34:ff:6b,2.50i,2.0+OPENLOG+15833 MB+DS3231+BME280+PMSX003A+PMSX003B,85,10,22.34,1014.50,0.00,30128,31,177,0.00,0.37,0.37,0.00,0.37,0.37,111.26,29.61,6.83,1.48,0.00,0.00,1.00,0.22,0.92,1.00,0.22,0.92,146.76,42.81,10.27,1.19,1.19,0.27
2018/07/10T02:05:02z,2c:3a:e8:34:ff:6b,2.50i,2.0+OPENLOG+15833 MB+DS3231+BME280+PMSX003A+PMSX003B,85,10,22.34,1014.50,0.00,30128,31,257,0.00,0.15,0.15,0.00,0.15,0.15,100.30,29.57,5.96,1.30,0.00,0.00,1.00,0.18,0.58,1.00,0.18,0.58,150.79,38.63,5.89,1.95,0.26,0.27
2018/07/10T02:06:22z,2c:3a:e8:34:ff:6b,2.50i,2.0+OPENLOG+15833 MB+DS3231+BME280+PMSX003A+PMSX003B,85,10,22.34,1014.43,0.00,29592,31,337,0.00,0.18,0.80,0.00,0.18,0.80,87.87,28.18,8.40,2.49,1.24,0.00,1.00,0.32,1.57,1.00,0.32,1.57,113.03,34.38,9.46,3.84,1.46,0.70
2018/07/10T02:07:42z,2c:3a:e8:34:ff:6b,2.50i,2.0+OPENLOG+15833 MB+DS3231+BME280+PMSX003A+PMSX003B,85,10,22.34,1014.39,0.00,29512,31,417,0.00,0.26,0.26,0.00,0.26,0.26,90.78,28.96,7.52,0.52,1.24,0.00,1.00,0.32,0.46,1.00,0.32,0.46,100.80,32.17,7.03,1.14,1.46,0.70
2018/07/10T02:09:02z,2c:3a:e8:34:ff:6b,2.50i,2.0+OPENLOG+15833 MB+DS3231+BME280+PMSX003A+PMSX003B,85,10,22.34,1014.92,0.00,30128,31,497,0.00,0.67,1.02,0.00,0.67,1.02,96.39,28.43,13.78,1.17,0.70,0.00,1.00,0.11,0.11,1.00,0.11,0.11,86.92,28.16,8.00,0.76,1.46,0.70
2018/07/10T02:10:22z,2c:3a:e8:34:ff:6b,2.50i,2.0+OPENLOG+15833 MB+DS3231+BME280+PMSX003A+PMSX003B,85,9,19.85,1014.92,0.00,30128,31,577,0.00,0.67,1.02,0.00,0.67,1.02,70.47,21.32,5.62,1.17,0.70,0.00,1.00,0.11,0.11,1.00,0.11,0.11,90.08,26.76,4.11,0.74,1.46,0.70
2018/07/10T02:11:42z,2c:3a:e8:34:ff:6b,2.50i,2.0+OPENLOG+15833 MB+DS3231+BME280+PMSX003A+PMSX003B,85,8,17.11,1014.95,0.00,29640,31,657,0.00,0.67,1.02,0.00,0.67,1.02,42.39,13.17,3.91,1.17,0.70,0.00,1.00,0.11,0.11,1.00,0.11,0.11,34.86,10.49,3.89,0.74,1.46,0.70
2018/07/10T02:13:02z,2c:3a:e8:34:ff:6b,2.50i,2.0+OPENLOG+15833 MB+DS3231+BME280+PMSX003A+PMSX003B,85,8,17.11,1014.95,0.00,29592,31,737,0.00,0.67,1.02,0.00,0.67,1.02,25.07,7.33,2.27,1.17,0.70,0.00,1.00,0.11,0.11,1.00,0.11,0.11,38.17,12.72,3.44,0.74,1.46,0.70
2018/07/10T02:14:22z,2c:3a:e8:34:ff:6b,2.50i,2.0+OPENLOG+15833 MB+DS3231+BME280+PMSX003A+PMSX003B,85,7,14.04,1014.90,0.00,30128,31,817,0.00,0.67,1.02,0.00,0.67,1.02,11.22,3.48,0.78,1.17,0.70,0.00,1.00,0.11,0.11,1.00,0.11,0.11,27.79,8.95,2.37,0.74,1.46,0.70
2018/07/10T02:15:42z,2c:3a:e8:34:ff:6b,2.50i,2.0+OPENLOG+15833 MB+DS3231+BME280+PMSX003A+PMSX003B,85,7,14.04,1014.85,0.00,30128,31,897,0.00,0.67,1.02,0.00,0.67,1.02,13.53,4.51,0.81,0.81,0.70,0.00,1.00,0.11,0.11,1.00,0.11,0.11,24.79,7.63,2.37,0.74,1.46,0.70
2018/07/10T02:17:02z,2c:3a:e8:34:ff:6b,2.50i,2.0+OPENLOG+15833 MB+DS3231+BME280+PMSX003A+PMSX003B,85,7,14.04,1014.86,0.00,30128,31,977,0.00,0.67,1.02,0.00,0.67,1.02,5.87,1.96,0.81,0.81,0.70,0.00,1.00,0.11,0.11,1.00,0.11,0.11,3.50,1.00,1.00,1.00,1.46,0.70
2018/07/10T02:18:22z,2c:3a:e8:34:ff:6b,2.50i,2.0+OPENLOG+15833 MB+DS3231+BME280+PMSX003A+PMSX003B,85,6,10.55,1014.92,0.00,29696,31,1057,0.00,0.67,1.02,0.00,0.67,1.02,8.74,2.91,0.52,0.81,0.70,0.00,1.00,0.11,0.11,1.00,0.11,0.11,12.49,2.38,1.00,1.00,1.46,0.70
2018/07/10T02:19:42z,2c:3a:e8:34:ff:6b,2.50i,2.0+OPENLOG+15833 MB+DS3231+BME280+PMSX003A+PMSX003B,85,6,10.55,1014.95,0.00,30128,31,1137,0.00,0.67,1.02,0.00,0.67,1.02,2.09,0.70,0.17,0.81,0.70,0.00,1.00,0.11,0.11,1.00,0.11,0.11,4.26,0.79,1.00,1.00,1.46,0.70
2018/07/10T02:21:02z,2c:3a:e8:34:ff:6b,2.50i,2.0+OPENLOG+15833 MB+DS3231+BME280+PMSX003A+PMSX003B,85,6,10.55,1014.86,0.00,30128,31,1217,0.00,0.67,1.02,0.00,0.67,1.02,3.39,1.13,0.17,0.81,0.70,0.00,1.00,0.11,0.11,1.00,0.11,0.11,2.92,0.97,0.97,1.00,1.46,0.70
2018/07/10T02:22:22z,2c:3a:e8:34:ff:6b,2.50i,2.0+OPENLOG+15833 MB+DS3231+BME280+PMSX003A+PMSX003B,85,6,10.55,1014.95,0.00,30128,31,1297,0.00,0.67,1.02,0.00,0.67,1.02,1.53,0.51,0.17,0.81,0.70,0.00,1.00,0.11,0.11,1.00,0.11,0.11,3.83,1.28,0.97,1.00,1.46,0.70
2018/07/10T02:23:42z,2c:3a:e8:34:ff:6b,2.50i,2.0+OPENLOG+15833 MB+DS3231+BME280+PMSX003A+PMSX003B,85,6,10.55,1014.97,0.00,29408,31,1377,0.00,0.67,1.02,0.00,0.67,1.02,3.57,1.19,0.17,0.81,0.70,0.00,1.00,0.11,0.11,1.00,0.11,0.11,3.83,1.28,0.97,1.00,1.46,0.70
2018/07/10T02:25:02z,2c:3a:e8:34:ff:6b,2.50i,2.0+OPENLOG+15833 MB+DS3231+BME280+PMSX003A+PMSX003B,85,6,10.55,1014.90,0.00,30152,31,1457,0.00,0.67,1.02,0.00,0.67,1.02,7.43,2.48,0.17,0.81,0.70,0.00,1.00,0.11,0.11,1.00,0.11,0.11,21.24,6.05,0.97,1.00,1.46,0.70
2018/07/10T02:26:22z,2c:3a:e8:34:ff:6b,2.50i,2.0+OPENLOG+15833 MB+DS3231+BME280+PMSX003A+PMSX003B,84,6,9.83,1014.83,0.00,30128,31,1537,0.00,0.67,1.02,0.00,0.67,1.02,3.20,0.58,0.17,0.81,0.70,0.00,1.00,0.11,0.11,1.00,0.11,0.11,5.51,1.84,0.97,1.00,1.46,0.70
