UTCDateTime,mac_address,firmware_ver,hardware,current_temp_f,current_humidity,current_dewpoint_f,pressure,adc,mem,rssi,uptime,pm1_0_atm,pm2_5_atm,pm10_0_atm,pm1_0_cf_1,pm2_5_cf_1,pm10_0_cf_1,p_0_3_um,p_0_5_um,p_1_0_um,p_2_5_um,p_5_0_um,p_10_0_um,pm1_0_atm_b,pm2_5_atm_b,pm10_0_atm_b,pm1_0_cf_1_b,pm2_5_cf_1_b,pm10_0_cf_1_b,p_0_3_um_b,p_0_5_um_b,p_1_0_um_b,p_2_5_um_b,p_5_0_um_b,p_10_0_um_b
2018/06/14T17:44:33z,60:1:94:58:d7:ea,2.50i,2.0+OPENLOG+15833 MB+DS3231+BME280+PMSX003A+PMSX003B,71,34,41.22,1015.04,0.02,29848,31,257,1.00,0.04,0.31,1.00,0.04,0.31,176.93,47.73,6.76,0.89,0.36,0.00,0.00,0.44,0.44,0.00,0.44,0.44,175.17,52.49,5.07,0.78,0.60,0.00
2018/06/14T17:45:53z,60:1:94:58:d7:ea,2.50i,2.0+OPENLOG+15833 MB+DS3231+BME280+PMSX003A+PMSX003B,71,33,40.45,1014.45,0.01,29696,31,337,171.46,434.38,528.26,114.26,289.60,352.50,18740.34,9296.74,4504.68,439.30,95.84,16.88,208.74,353.33,376.15,138.82,235.31,250.49,20373.15,9047.26,3110.67,145.33,17.59,2.87
2018/06/14T17:47:13z,60:1:94:58:d7:ea,2.50i,2.0+OPENLOG+15833 MB+DS3231+BME280+PMSX003A+PMSX003B,72,32,40.53,1015.08,0.01,29672,31,417,497.00,741.63,818.63,330.69,493.67,545.02,65535.00,23479.90,5032.59,338.90,80.86,11.25,648.95,873.54,908.66,432.07,581.59,604.88,65535.00,28080.41,5342.51,218.54,33.32,10.68
2018/06/14T17:48:33z,60:1:94:58:d7:ea,2.50i,2.0+OPENLOG+15833 MB+DS3231+BME280+PMSX003A+PMSX003B,73,30,39.74,1015.07,0.01,30128,31,497,385.23,544.65,595.94,256.13,362.29,396.60,60459.37,18544.15,3216.06,234.33,57.92,9.67,480.42,606.00,627.47,319.37,403.24,417.63,64157.92,21599.08,3147.66,107.97,21.71,6.37
2018/06/14T17:49:53z,60:1:94:58:d7:ea,2.50i,2.0+OPENLOG+15833 MB+DS3231+BME280+PMSX003A+PMSX003B,73,25,35.10,1015.01,0.01,30128,31,577,255.61,343.17,372.09,169.54,227.98,247.24,42612.91,12535.80,1759.93,132.70,28.30,5.00,305.72,374.94,390.28,203.11,248.94,259.42,45973.00,14240.64,1629.28,77.36,17.33,4.61
2018/06/14T17:51:13z,60:1:94:58:d7:ea,2.50i,2.0+OPENLOG+15833 MB+DS3231+BME280+PMSX003A+PMSX003B,73,20,29.55,1014.96,0.01,29592,31,657,155.82,205.00,224.70,103.16,135.93,149.00,27055.64,7773.82,989.91,86.27,22.64,4.23,187.69,222.64,231.86,124.58,147.67,153.69,29005.33,8871.03,894.11,40.67,10.78,5.67
2018/06/14T17:52:33z,60:1:94:58:d7:ea,2.50i,2.0+OPENLOG+15833 MB+DS3231+BME280+PMSX003A+PMSX003B,73,18,26.98,1014.96,0.01,29672,31,737,117.77,151.05,166.41,77.64,99.86,109.95,20493.82,5872.48,708.23,57.09,16.86,3.73,147.94,178.25,182.25,97.72,118.06,120.75,22891.67,6979.69,690.39,27.89,5.11,1.22
2018/06/14T17:53:53z,60:1:94:58:d7:ea,2.50i,2.0+OPENLOG+15833 MB+DS3231+BME280+PMSX003A+PMSX003B,74,18,27.80,1014.97,0.01,30128,31,817,104.41,135.39,146.24,68.89,89.39,96.65,18435.39,5273.02,640.17,43.96,10.43,1.61,127.42,151.83,156.64,84.14,100.58,103.78,20267.33,6163.81,607.33,25.22,3.67,0.94
2018/06/14T17:55:13z,60:1:94:58:d7:ea,2.50i,2.0+OPENLOG+15833 MB+DS3231+BME280+PMSX003A+PMSX003B,74,18,27.80,1015.03,0.01,30128,31,897,95.38,123.56,134.56,62.87,81.58,88.93,16724.47,4778.44,555.87,47.16,13.24,2.98,108.57,129.11,131.84,71.65,85.32,87.08,17495.68,5310.73,492.22,20.49,1.41,0.70
2018/06/14T17:56:33z,60:1:94:58:d7:ea,2.50i,2.0+OPENLOG+15833 MB+DS3231+BME280+PMSX003A+PMSX003B,75,18,28.61,1014.59,0.01,29512,31,977,83.61,110.89,122.30,54.93,73.00,81.20,15119.35,4277.02,529.30,42.04,13.96,4.30,97.33,116.00,118.69,64.06,76.61,79.50,15666.92,4762.92,449.44,18.11,2.44,1.22
2018/06/14T17:57:53z,60:1:94:58:d7:ea,2.50i,2.0+OPENLOG+15833 MB+DS3231+BME280+PMSX003A+PMSX003B,75,18,28.61,1014.95,0.01,29672,31,1057,79.17,102.17,112.02,52.04,67.33,76.72,14233.83,4023.09,482.57,32.48,12.43,3.17,89.74,106.63,109.97,59.14,70.37,76.26,14411.06,4362.94,439.86,16.23,1.77,0.63
2018/06/14T17:59:13z,60:1:94:58:d7:ea,2.50i,2.0+OPENLOG+15833 MB+DS3231+BME280+PMSX003A+PMSX003B,75,18,28.61,1014.43,0.01,30128,31,1137,72.60,93.58,100.76,47.62,61.60,72.78,13133.00,3710.58,421.16,27.64,9.07,2.27,82.42,98.14,101.81,53.97,64.56,73.17,13269.08,4028.14,394.50,18.28,2.33,0.61
2018/06/14T18:00:33z,60:1:94:58:d7:ea,2.50i,2.0+OPENLOG+15833 MB+DS3231+BME280+PMSX003A+PMSX003B,74,18,27.80,1013.52,0.01,30128,31,1217,67.28,87.67,94.26,44.12,57.67,70.26,12191.93,3454.02,395.26,26.98,6.56,1.53,79.24,93.50,96.68,51.97,61.56,71.00,12673.85,3863.03,377.15,15.47,3.12,0.59
2018/06/14T18:01:53z,60:1:94:58:d7:ea,2.50i,2.0+OPENLOG+15833 MB+DS3231+BME280+PMSX003A+PMSX003B,76,18,29.43,1014.83,0.01,29592,31,1297,64.07,84.20,90.71,42.04,55.33,68.93,11461.73,3268.58,406.93,27.96,7.60,1.73,71.91,85.11,86.89,47.17,55.94,67.09,11685.69,3551.54,329.31,11.14,2.34,1.03
2018/06/14T18:03:13z,60:1:94:58:d7:ea,2.50i,2.0+OPENLOG+15833 MB+DS3231+BME280+PMSX003A+PMSX003B,75,18,28.61,1014.16,0.01,29696,31,1377,57.53,75.98,80.47,37.56,51.31,64.09,10441.73,2941.78,354.00,24.53,3.24,1.11,66.74,79.46,80.83,43.71,52.71,64.51,10722.43,3272.54,313.06,9.20,0.74,0.74
2018/06/14T18:04:33z,60:1:94:58:d7:ea,2.50i,2.0+OPENLOG+15833 MB+DS3231+BME280+PMSX003A+PMSX003B,76,18,29.43,1014.91,0.01,29672,31,1457,54.27,71.07,77.89,35.61,49.75,63.14,9810.34,2779.50,332.45,28.23,7.36,1.77,64.35,76.47,79.71,42.09,51.68,63.97,10436.82,3152.15,302.65,13.53,3.00,2.00
2018/06/14T18:05:53z,60:1:94:58:d7:ea,2.50i,2.0+OPENLOG+15833 MB+DS3231+BME280+PMSX003A+PMSX003B,76,18,29.43,1014.92,0.01,30128,31,1537,50.91,67.89,75.82,34.18,48.61,62.23,9292.91,2619.95,329.91,29.86,9.36,1.59,60.22,72.81,74.89,39.24,50.22,61.65,9780.32,2957.30,312.92,10.92,1.89,0.54
2018/06/14T18:07:13z,60:1:94:58:d7:ea,2.50i,2.0+OPENLOG+15833 MB+DS3231+BME280+PMSX003A+PMSX003B,76,18,29.43,1014.90,0.01,29640,31,1617,47.25,62.68,69.18,32.73,46.30,58.89,8596.50,2447.23,312.82,23.77,6.50,1.32,54.61,69.56,71.81,35.78,49.28,60.47,8994.08,2707.94,313.50,17.72,2.22,0.44
2018/06/14T18:08:33z,60:1:94:58:d7:ea,2.50i,2.0+OPENLOG+15833 MB+DS3231+BME280+PMSX003A+PMSX003B,77,18,30.25,1014.94,0.01,29696,31,1697,44.17,60.07,65.57,31.65,45.33,56.76,7966.83,2287.98,296.13,29.13,4.48,1.00,52.00,62.63,64.03,34.43,46.60,56.34,8432.83,2555.60,260.57,9.60,0.63,0.17
2018/06/14T18:09:53z,60:1:94:58:d7:ea,2.50i,2.0+OPENLOG+15833 MB+DS3231+BME280+PMSX003A+PMSX003B,77,18,30.25,1014.96,0.01,29672,31,1777,40.85,57.70,63.41,30.41,44.61,55.76,7614.13,2148.91,299.74,25.74,6.26,1.96,48.64,61.22,64.42,33.19,45.86,56.22,8042.67,2446.56,278.56,18.11,3.28,0.50
2018/06/14T18:11:13z,60:1:94:58:d7:ea,2.50i,2.0+OPENLOG+15833 MB+DS3231+BME280+PMSX003A+PMSX003B,77,18,30.25,1014.90,0.01,30128,31,1857,39.11,53.50,60.67,29.72,42.85,54.28,7210.11,2046.24,284.30,24.96,6.74,1.30,48.37,59.11,61.34,33.51,45.23,54.83,7870.80,2383.31,264.57,11.09,2.00,0.11
2018/06/14T18:12:33z,60:1:94:58:d7:ea,2.50i,2.0+OPENLOG+15833 MB+DS3231+BME280+PMSX003A+PMSX003B,77,18,30.25,1014.90,0.01,30128,31,1937,36.41,50.09,53.80,28.52,41.15,50.02,6595.24,1892.07,252.61,20.17,2.65,1.26,43.15,53.32,56.06,31.32,42.68,51.47,7077.44,2140.91,232.88,12.76,3.35,0.82
2018/06/14T18:13:53z,60:1:94:58:d7:ea,2.50i,2.0+OPENLOG+15833 MB+DS3231+BME280+PMSX003A+PMSX003B,77,18,30.25,1014.92,0.01,29592,31,2017,34.98,47.62,55.38,28.00,39.87,51.13,6432.80,1809.69,240.58,28.36,9.42,2.80,39.24,49.73,53.22,29.70,40.97,49.86,6443.68,1968.92,242.89,14.32,2.86,0.70
2018/06/14T18:15:13z,60:1:94:58:d7:ea,2.50i,2.0+OPENLOG+15833 MB+DS3231+BME280+PMSX003A+PMSX003B,77,18,30.25,1014.87,0.01,29672,31,2097,30.43,42.26,48.89,25.79,36.98,47.09,5737.40,1598.43,230.77,21.11,8.72,2.17,37.42,47.64,50.86,28.94,40.03,48.31,6201.08,1882.00,232.39,12.56,2.78,0.83
2018/06/14T18:16:33z,60:1:94:58:d7:ea,2.50i,2.0+OPENLOG+15833 MB+DS3231+BME280+PMSX003A+PMSX003B,78,18,31.06,1014.81,0.01,30128,31,2177,29.57,41.63,47.28,25.39,36.80,46.11,5533.04,1569.04,234.17,15.57,6.22,1.61,35.28,44.19,47.19,27.61,37.94,45.78,5854.50,1775.61,219.67,11.61,4.78,0.67
2018/06/14T18:17:53z,60:1:94:58:d7:ea,2.50i,2.0+OPENLOG+15833 MB+DS3231+BME280+PMSX003A+PMSX003B,78,18,31.06,1014.85,0.01,30128,31,2257,28.26,40.83,46.15,24.39,36.24,45.28,5253.65,1502.37,221.43,23.83,5.87,0.30,33.95,42.92,46.11,27.54,37.57,45.32,5668.86,1711.27,196.89,15.08,2.81,0.76
2018/06/14T18:19:37z,60:1:94:58:d7:ea,2.50i,2.0+OPENLOG+15833 MB+DS3231+BME280+PMSX003A+PMSX003B,77,19,31.58,1014.28,0.01,29672,31,23,15.00,15.00,15.00,15.00,15.00,15.00,0.00,0.00,0.00,0.00,0.00,0.00,26.00,29.00,29.00,23.00,29.00,29.00,0.00,0.00,0.00,0.00,0.00,0.00
2018/06/14T18:20:51z,60:1:94:58:d7:ea,2.50i,2.0+OPENLOG+15833 MB+DS3231+BME280+PMSX003A+PMSX003B,78,18,31.06,1014.83,0.01,30128,31,97,24.63,34.98,39.32,22.54,32.68,39.20,4441.39,1266.24,183.95,16.88,4.63,2.93,30.03,38.30,40.70,25.61,34.79,40.70,5014.45,1511.06,181.58,10.79,3.58,0.67
2018/06/14T18:22:11z,60:1:94:58:d7:ea,2.50i,2.0+OPENLOG+15833 MB+DS3231+BME280+PMSX003A+PMSX003B,78,19,32.40,1014.83,0.01,30128,31,177,22.91,34.43,41.46,21.35,32.30,41.35,4477.17,1261.30,200.43,25.78,8.87,2.26,28.86,38.29,40.71,24.80,34.60,40.69,4788.09,1461.54,196.97,14.74,2.63,0.40
2018/06/14T18:23:31z,60:1:94:58:d7:ea,2.50i,2.0+OPENLOG+15833 MB+DS3231+BME280+PMSX003A+PMSX003B,78,19,32.40,1014.88,0.01,30128,31,257,22.36,33.18,37.95,21.11,31.64,37.95,4269.68,1223.27,190.59,16.18,4.36,1.18,26.76,35.46,38.38,23.38,32.73,38.38,4508.84,1373.95,196.22,14.97,2.22,0.40
2018/06/14T18:24:51z,60:1:94:58:d7:ea,2.50i,2.0+OPENLOG+15833 MB+DS3231+BME280+PMSX003A+PMSX003B,78,19,32.40,1014.89,0.01,29592,31,337,20.66,30.89,36.84,19.93,30.23,36.84,4016.86,1146.00,188.23,16.32,6.86,2.41,25.38,33.03,36.76,22.81,31.62,36.76,4203.73,1277.76,166.08,14.65,4.59,1.35
2018/06/14T18:26:11z,60:1:94:58:d7:ea,2.50i,2.0+OPENLOG+15833 MB+DS3231+BME280+PMSX003A+PMSX003B,78,19,32.40,1014.86,0.01,29488,31,417,20.38,31.00,37.62,19.89,30.13,37.62,3897.06,1115.70,186.00,21.83,8.26,0.89,24.19,32.08,33.03,22.38,31.08,33.03,4006.95,1216.73,175.97,9.46,0.81,1.35
2018/06/14T18:27:31z,60:1:94:58:d7:ea,2.50i,2.0+OPENLOG+15833 MB+DS3231+BME280+PMSX003A+PMSX003B,78,19,32.40,1014.18,0.01,30128,31,497,18.96,27.83,33.61,18.91,27.76,33.61,3633.39,1032.30,170.43,20.30,6.43,2.04,23.57,30.92,34.46,21.95,30.16,34.46,3883.46,1185.86,161.38,14.11,3.62,1.19
2018/06/14T18:28:51z,60:1:94:58:d7:ea,2.50i,2.0+OPENLOG+15833 MB+DS3231+BME280+PMSX003A+PMSX003B,78,19,32.40,1014.82,0.01,30128,31,577,18.06,27.32,33.30,18.06,27.32,33.30,3436.09,973.32,164.09,21.15,6.72,3.19,20.47,27.53,29.39,19.89,27.33,29.39,3495.17,1063.97,137.06,10.78,1.61,0.61
2018/06/14T18:30:11z,60:1:94:58:d7:ea,2.50i,2.0+OPENLOG+15833 MB+DS3231+BME280+PMSX003A+PMSX003B,79,19,33.22,1014.84,0.01,29696,31,657,16.82,25.91,30.73,16.82,25.91,30.73,3181.60,912.93,163.60,18.80,5.33,2.09,19.83,28.36,30.97,19.42,28.14,30.97,3447.75,1051.58,162.75,16.50,2.22,1.17
2018/06/14T18:31:31z,60:1:94:58:d7:ea,2.50i,2.0+OPENLOG+15833 MB+DS3231+BME280+PMSX003A+PMSX003B,79,19,33.22,1014.85,0.01,29696,31,737,16.58,24.02,28.71,16.58,24.02,28.71,3077.33,886.13,154.22,13.82,5.07,2.44,18.95,26.32,28.70,18.78,26.30,28.70,3204.81,977.65,143.00,13.03,3.03,0.81
2018/06/14T18:32:51z,60:1:94:58:d7:ea,2.50i,2.0+OPENLOG+15833 MB+DS3231+BME280+PMSX003A+PMSX003B,78,19,32.40,1014.15,0.01,30128,31,817,14.78,21.67,26.11,14.78,21.67,26.11,2971.30,837.70,142.00,12.61,4.65,0.96,18.00,25.28,28.44,17.94,25.28,28.44,3084.92,933.64,148.22,12.67,3.33,1.22
2018/06/14T18:34:11z,60:1:94:58:d7:ea,2.50i,2.0+OPENLOG+15833 MB+DS3231+BME280+PMSX003A+PMSX003B,77,19,31.58,1013.09,0.01,30128,31,897,14.45,22.18,27.73,14.45,22.18,27.73,2806.77,791.82,152.27,17.32,6.86,1.18,16.69,23.21,26.64,16.69,23.21,26.64,2893.46,890.85,124.72,17.13,2.46,0.62
2018/06/14T18:35:31z,60:1:94:58:d7:ea,2.50i,2.0+OPENLOG+15833 MB+DS3231+BME280+PMSX003A+PMSX003B,79,19,33.22,1014.83,0.01,29640,31,977,12.93,20.59,24.87,12.93,20.59,24.87,2705.09,752.65,135.04,14.65,5.52,1.35,16.58,23.58,25.47,16.58,23.58,25.47,2862.67,881.11,122.08,13.50,0.39,0.62
2018/06/14T18:36:51z,60:1:94:58:d7:ea,2.50i,2.0+OPENLOG+15833 MB+DS3231+BME280+PMSX003A+PMSX003B,78,19,32.40,1014.46,0.01,29696,31,1057,11.96,19.73,23.29,11.96,19.73,23.29,2562.93,719.51,137.56,14.13,3.96,0.98,14.81,22.03,23.65,14.81,22.03,23.65,2611.54,791.22,136.46,12.38,2.00,0.62
2018/06/14T18:38:11z,60:1:94:58:d7:ea,2.50i,2.0+OPENLOG+15833 MB+DS3231+BME280+PMSX003A+PMSX003B,78,19,32.40,1014.12,0.01,30128,31,1137,12.70,21.30,25.47,12.70,21.30,25.47,2496.38,722.21,147.74,14.77,4.89,0.98,14.86,20.19,21.84,14.86,20.19,21.84,2491.62,770.08,106.46,7.24,1.46,0.59
2018/06/14T18:39:31z,60:1:94:58:d7:ea,2.50i,2.0+OPENLOG+15833 MB+DS3231+BME280+PMSX003A+PMSX003B,79,19,33.22,1014.78,0.01,30128,31,1217,11.64,20.73,26.14,11.64,20.73,26.14,2455.64,698.00,149.95,22.09,5.09,1.36,14.05,19.86,22.22,14.05,19.86,22.22,2474.68,755.35,118.11,9.51,2.22,1.62
2018/06/14T18:40:51z,60:1:94:58:d7:ea,2.50i,2.0+OPENLOG+15833 MB+DS3231+BME280+PMSX003A+PMSX003B,79,19,33.22,1014.83,0.01,30128,31,1297,11.39,18.59,21.80,11.39,18.59,21.80,2203.50,638.73,116.14,9.64,4.41,2.50,14.84,19.97,22.74,14.84,19.97,22.74,2468.13,763.92,105.61,13.53,3.26,0.37
2018/06/14T18:42:11z,60:1:94:58:d7:ea,2.50i,2.0+OPENLOG+15833 MB+DS3231+BME280+PMSX003A+PMSX003B,79,19,33.22,1014.79,0.01,29696,31,1377,9.85,15.45,20.13,9.85,15.45,20.13,2016.26,582.38,100.60,16.43,5.36,1.15,11.89,15.92,18.11,11.89,15.92,18.11,2183.92,653.78,91.86,6.00,2.65,1.14
2018/06/14T18:43:31z,60:1:94:58:d7:ea,2.50i,2.0+OPENLOG+15833 MB+DS3231+BME280+PMSX003A+PMSX003B,78,19,32.40,1014.02,0.01,29696,31,1457,10.13,16.55,20.98,10.13,16.55,20.98,2038.47,575.32,119.91,15.49,4.85,1.15,13.18,18.66,20.74,13.18,18.66,20.74,2254.11,681.89,115.21,9.47,2.53,1.79
2018/06/14T18:44:51z,60:1:94:58:d7:ea,2.50i,2.0+OPENLOG+15833 MB+DS3231+BME280+PMSX003A+PMSX003B,78,19,32.40,1014.12,0.01,30128,31,1537,9.43,15.83,21.70,9.43,15.83,21.70,1966.70,564.74,122.87,19.39,5.61,0.78,10.38,16.31,18.44,10.38,16.31,18.44,1864.00,575.15,102.72,13.59,2.56,0.36
2018/06/14T18:46:11z,60:1:94:58:d7:ea,2.50i,2.0+OPENLOG+15833 MB+DS3231+BME280+PMSX003A+PMSX003B,79,19,33.22,1014.84,0.01,30128,31,1617,8.25,14.77,18.12,8.25,14.77,18.12,1721.88,495.88,97.79,12.37,5.04,1.42,11.22,16.33,18.61,11.22,16.33,18.61,1913.00,589.50,92.39,11.39,2.00,1.28
2018/06/14T18:47:31z,60:1:94:58:d7:ea,2.50i,2.0+OPENLOG+15833 MB+DS3231+BME280+PMSX003A+PMSX003B,79,19,33.22,1014.84,0.01,29848,31,1697,8.24,14.28,19.76,8.24,14.28,19.76,1690.70,497.87,100.83,17.91,6.70,1.09,10.56,14.74,18.56,10.56,14.74,18.56,1857.00,576.97,97.26,10.36,4.41,2.51
2018/06/14T18:48:51z,60:1:94:58:d7:ea,2.50i,2.0+OPENLOG+15833 MB+DS3231+BME280+PMSX003A+PMSX003B,79,19,33.22,1014.83,0.01,29696,31,1777,8.33,15.33,18.70,8.33,15.33,18.70,1693.43,495.30,110.61,15.74,3.96,1.09,9.97,14.64,15.50,9.97,14.64,15.50,1714.83,530.06,81.25,10.33,1.28,0.11
2018/06/14T18:50:11z,60:1:94:58:d7:ea,2.50i,2.0+OPENLOG+15833 MB+DS3231+BME280+PMSX003A+PMSX003B,71,19,26.65,1007.36,0.01,30128,31,1857,8.07,14.29,19.53,8.07,14.29,19.53,1663.87,468.58,111.78,16.58,7.47,0.71,8.81,12.54,16.19,8.81,12.54,16.19,1623.16,488.38,78.73,9.73,6.27,0.59
2018/06/14T18:51:31z,60:1:94:58:d7:ea,2.50i,2.0+OPENLOG+15833 MB+DS3231+BME280+PMSX003A+PMSX003B,79,19,33.22,1014.68,0.01,30128,31,1937,7.62,13.23,18.68,7.62,13.23,18.68,1613.11,455.74,103.15,14.34,6.30,2.13,9.57,14.70,17.27,9.57,14.70,17.27,1722.41,531.62,97.86,11.03,2.43,0.92
2018/06/14T18:52:51z,60:1:94:58:d7:ea,2.50i,2.0+OPENLOG+15833 MB+DS3231+BME280+PMSX003A+PMSX003B,79,19,33.22,1014.50,0.01,30128,31,2017,7.59,12.15,14.72,7.59,12.15,14.72,1520.09,439.09,84.91,8.48,4.17,0.52,8.32,12.27,14.81,8.32,12.27,14.81,1521.16,447.89,84.22,9.78,2.32,1.62
2018/06/14T18:54:11z,60:1:94:58:d7:ea,2.50i,2.0+OPENLOG+15833 MB+DS3231+BME280+PMSX003A+PMSX003B,79,19,33.22,1014.41,0.01,29512,31,2097,6.94,13.43,17.02,6.94,13.43,17.02,1487.62,434.26,104.47,12.43,4.21,1.28,8.08,12.10,14.92,8.08,12.10,14.92,1454.54,443.44,83.79,10.05,2.31,1.49
2018/06/14T18:55:31z,60:1:94:58:d7:ea,2.50i,2.0+OPENLOG+15833 MB+DS3231+BME280+PMSX003A+PMSX003B,79,19,33.22,1014.17,0.01,29672,31,2177,7.09,11.65,14.07,7.09,11.65,14.07,1409.48,405.74,83.39,7.52,3.17,1.30,7.51,11.81,14.08,7.51,11.81,14.08,1406.43,426.97,82.92,9.03,2.54,0.59
2018/06/14T18:56:51z,60:1:94:58:d7:ea,2.50i,2.0+OPENLOG+15833 MB+DS3231+BME280+PMSX003A+PMSX003B,80,19,34.04,1014.96,0.01,30128,31,2257,6.20,10.98,14.26,6.20,10.98,14.26,1360.57,399.35,83.65,10.17,3.91,1.26,6.82,10.24,13.97,6.82,10.24,13.97,1370.92,415.13,72.16,10.95,3.42,1.21
2018/06/14T18:58:34z,60:1:94:58:d7:ea,2.50i,2.0+OPENLOG+15833 MB+DS3231+BME280+PMSX003A+PMSX003B,79,19,33.22,1013.90,0.01,29672,31,23,2.00,2.00,2.00,2.00,2.00,2.00,0.00,0.00,0.00,0.00,0.00,0.00,6.00,7.00,7.00,6.00,7.00,7.00,0.00,0.00,0.00,0.00,0.00,0.00
2018/06/14T18:59:49z,60:1:94:58:d7:ea,2.50i,2.0+OPENLOG+15833 MB+DS3231+BME280+PMSX003A+PMSX003B,79,19,33.22,1014.26,0.01,30128,31,97,5.63,9.22,11.95,5.63,9.22,11.95,1241.71,347.66,73.71,8.78,2.20,1.02,7.00,10.69,11.49,7.00,10.69,11.49,1349.66,406.26,74.11,6.46,0.74,0.63
2018/06/14T19:01:09z,60:1:94:58:d7:ea,2.50i,2.0+OPENLOG+15833 MB+DS3231+BME280+PMSX003A+PMSX003B,80,19,34.04,1014.81,0.01,30128,31,177,5.68,11.36,15.57,5.68,11.36,15.57,1262.17,380.30,93.45,16.94,4.21,1.23,6.69,9.61,11.44,6.69,9.61,11.44,1249.92,374.50,54.97,9.94,0.78,0.63
2018/06/14T19:02:29z,60:1:94:58:d7:ea,2.50i,2.0+OPENLOG+15833 MB+DS3231+BME280+PMSX003A+PMSX003B,80,19,34.04,1014.85,0.01,30128,31,257,5.67,9.93,13.07,5.67,9.93,13.07,1266.39,365.70,80.61,9.52,4.61,0.52,7.41,10.72,12.18,7.41,10.72,12.18,1286.92,397.59,77.05,6.51,0.31,0.63
2018/06/14T19:03:49z,60:1:94:58:d7:ea,2.50i,2.0+OPENLOG+15833 MB+DS3231+BME280+PMSX003A+PMSX003B,79,19,33.22,1014.33,0.01,29696,31,337,5.18,10.93,14.40,5.18,10.93,14.40,1201.33,348.67,93.33,15.33,2.53,0.53,6.62,10.35,11.86,6.62,10.35,11.86,1184.76,366.11,69.03,8.32,0.86,0.49
2018/06/14T19:05:09z,60:1:94:58:d7:ea,2.50i,2.0+OPENLOG+15833 MB+DS3231+BME280+PMSX003A+PMSX003B,80,19,34.04,1014.85,0.01,29696,31,417,4.70,10.15,13.04,4.70,10.15,13.04,1136.22,337.74,89.78,14.26,1.61,0.53,6.51,11.37,12.74,6.51,11.37,12.74,1213.54,378.57,84.31,11.37,1.09,0.49
2018/06/14T19:06:29z,60:1:94:58:d7:ea,2.50i,2.0+OPENLOG+15833 MB+DS3231+BME280+PMSX003A+PMSX003B,80,19,34.04,1014.78,0.01,30128,31,497,4.89,9.55,13.34,4.89,9.55,13.34,1095.96,318.26,75.96,11.96,5.19,1.23,5.47,9.03,10.05,5.47,9.03,10.05,1066.50,331.03,65.89,5.63,1.32,0.49
2018/06/14T19:07:49z,60:1:94:58:d7:ea,2.50i,2.0+OPENLOG+15833 MB+DS3231+BME280+PMSX003A+PMSX003B,79,19,33.22,1013.91,0.01,30128,31,577,4.89,10.11,15.60,4.89,10.11,15.60,1165.79,333.91,91.11,14.98,6.43,2.85,6.70,9.92,10.78,6.70,9.92,10.78,1168.30,365.54,62.86,5.57,0.81,0.76
2018/06/14T19:09:09z,60:1:94:58:d7:ea,2.50i,2.0+OPENLOG+15833 MB+DS3231+BME280+PMSX003A+PMSX003B,80,19,34.04,1014.82,0.01,29848,31,657,4.58,8.91,12.29,4.58,8.91,12.29,1038.53,296.40,75.02,10.67,3.96,0.80,5.49,9.05,10.68,5.49,9.05,10.68,1064.27,329.86,76.78,7.03,1.68,0.43
2018/06/14T19:10:29z,60:1:94:58:d7:ea,2.50i,2.0+OPENLOG+15833 MB+DS3231+BME280+PMSX003A+PMSX003B,79,19,33.22,1013.47,0.01,29592,31,737,4.89,10.35,15.37,4.89,10.35,15.37,1121.22,329.78,97.65,14.57,7.04,1.48,4.59,8.70,10.35,4.59,8.70,10.35,1035.65,308.81,67.19,9.19,1.95,0.59
2018/06/14T19:11:49z,60:1:94:58:d7:ea,2.50i,2.0+OPENLOG+15833 MB+DS3231+BME280+PMSX003A+PMSX003B,80,19,34.04,1014.68,0.01,30128,31,817,4.17,9.45,11.47,4.17,9.45,11.47,946.21,280.72,83.66,11.11,2.00,0.51,5.42,6.97,8.53,5.42,6.97,8.53,934.26,293.32,55.26,4.26,1.47,0.63
2018/06/14T19:13:09z,60:1:94:58:d7:ea,2.50i,2.0+OPENLOG+15833 MB+DS3231+BME280+PMSX003A+PMSX003B,80,19,34.04,1014.73,0.01,30128,31,897,3.89,8.57,13.16,3.89,8.57,13.16,1058.45,298.09,76.00,13.45,4.86,0.45,5.86,8.83,9.81,5.86,8.83,9.81,1039.00,319.19,59.11,5.11,0.83,0.63
2018/06/14T19:14:29z,60:1:94:58:d7:ea,2.50i,2.0+OPENLOG+15833 MB+DS3231+BME280+PMSX003A+PMSX003B,80,19,34.04,1014.62,0.01,30128,31,977,3.64,7.60,12.09,3.64,7.60,12.09,946.40,270.76,67.73,13.02,5.64,1.33,5.27,8.92,10.76,5.27,8.92,10.76,1021.54,304.95,65.03,8.38,2.70,0.63
2018/06/14T19:15:49z,60:1:94:58:d7:ea,2.50i,2.0+OPENLOG+15833 MB+DS3231+BME280+PMSX003A+PMSX003B,80,19,34.04,1014.61,0.01,29696,31,1057,2.76,6.61,9.13,2.76,6.61,9.13,880.43,250.43,63.30,8.26,3.13,0.65,4.03,7.03,8.74,4.03,7.03,8.74,821.53,253.18,50.42,7.05,2.84,0.58
2018/06/14T19:17:09z,60:1:94:58:d7:ea,2.50i,2.0+OPENLOG+15833 MB+DS3231+BME280+PMSX003A+PMSX003B,80,19,34.04,1014.59,0.01,29672,31,1137,2.71,7.81,12.79,2.71,7.81,12.79,845.37,242.67,76.67,16.75,6.12,1.96,5.16,9.41,11.78,5.16,9.41,11.78,1029.81,312.65,66.57,13.14,3.14,0.70
2018/06/14T19:18:29z,60:1:94:58:d7:ea,2.50i,2.0+OPENLOG+15833 MB+DS3231+BME280+PMSX003A+PMSX003B,80,19,34.04,1014.63,0.01,30128,31,1217,3.31,7.56,10.58,3.31,7.56,10.58,898.13,255.51,70.40,9.91,3.38,0.53,4.69,8.03,9.47,4.69,8.03,9.47,941.33,285.19,58.89,6.06,0.83,0.83
2018/06/14T19:19:49z,60:1:94:58:d7:ea,2.50i,2.0+OPENLOG+15833 MB+DS3231+BME280+PMSX003A+PMSX003B,79,19,33.22,1014.05,0.01,30128,31,1297,3.28,6.74,11.04,3.28,6.74,11.04,858.52,246.26,61.78,11.87,5.17,1.74,4.18,6.24,7.32,4.18,6.24,7.32,823.26,255.95,43.79,3.37,1.16,0.58
2018/06/14T19:21:09z,60:1:94:58:d7:ea,2.50i,2.0+OPENLOG+15833 MB+DS3231+BME280+PMSX003A+PMSX003B,80,19,34.04,1014.54,0.01,29696,31,1377,3.06,7.26,11.66,3.06,7.26,11.66,797.62,235.57,68.43,14.72,5.19,1.36,4.34,8.58,9.95,4.34,8.58,9.95,876.16,271.87,62.37,10.16,0.74,0.58
2018/06/14T19:22:29z,60:1:94:58:d7:ea,2.50i,2.0+OPENLOG+15833 MB+DS3231+BME280+PMSX003A+PMSX003B,79,19,33.22,1013.86,0.01,29696,31,1457,3.00,6.70,11.72,3.00,6.70,11.72,788.74,232.09,68.43,14.17,7.39,1.78,3.89,6.78,7.19,3.89,6.78,7.19,818.84,258.00,44.70,6.70,0.05,0.58
2018/06/14T19:23:49z,60:1:94:58:d7:ea,2.50i,2.0+OPENLOG+15833 MB+DS3231+BME280+PMSX003A+PMSX003B,80,19,34.04,1014.50,0.01,30128,31,1537,3.11,6.67,9.85,3.11,6.67,9.85,859.70,239.22,54.74,12.39,3.52,1.13,3.61,6.45,9.24,3.61,6.45,9.24,855.79,269.00,58.95,9.79,1.74,0.58
2018/06/14T19:25:09z,60:1:94:58:d7:ea,2.50i,2.0+OPENLOG+15833 MB+DS3231+BME280+PMSX003A+PMSX003B,78,19,32.40,1012.93,0.01,30128,31,1617,3.40,6.72,11.30,3.40,6.72,11.30,781.79,230.85,63.62,12.81,5.49,1.40,3.11,6.58,8.32,3.11,6.58,8.32,783.63,241.53,59.92,6.37,1.74,0.58
2018/06/14T19:26:29z,60:1:94:58:d7:ea,2.50i,2.0+OPENLOG+15833 MB+DS3231+BME280+PMSX003A+PMSX003B,80,19,34.04,1014.39,0.01,30128,31,1697,3.22,6.72,12.37,3.22,6.72,12.37,791.87,233.87,66.83,12.74,7.91,1.17,2.97,5.35,7.14,2.97,5.35,7.14,674.76,205.03,37.76,8.11,1.84,0.97
2018/06/14T19:27:49z,60:1:94:58:d7:ea,2.50i,2.0+OPENLOG+15833 MB+DS3231+BME280+PMSX003A+PMSX003B,80,19,34.04,1014.39,0.01,29696,31,1777,2.82,7.09,10.20,2.82,7.09,10.20,757.60,222.44,65.96,10.89,3.07,1.17,3.87,6.58,6.97,3.87,6.58,6.97,757.34,232.39,43.61,4.37,0.74,0.16
2018/06/14T19:29:09z,60:1:94:58:d7:ea,2.50i,2.0+OPENLOG+15833 MB+DS3231+BME280+PMSX003A+PMSX003B,80,19,34.04,1014.42,0.01,30128,31,1857,2.34,4.55,5.98,2.34,4.55,5.98,596.94,171.28,41.79,4.55,1.06,1.06,3.05,5.30,8.22,3.05,5.30,8.22,660.08,205.70,47.81,8.38,4.38,0.11
2018/06/14T19:30:29z,60:1:94:58:d7:ea,2.50i,2.0+OPENLOG+15833 MB+DS3231+BME280+PMSX003A+PMSX003B,80,19,34.04,1014.39,0.01,30128,31,1937,1.87,5.85,9.11,1.87,5.85,9.11,630.26,177.04,54.13,14.52,2.22,1.17,3.28,6.28,7.58,3.28,6.28,7.58,716.67,225.42,51.83,7.89,0.83,0.11
2018/06/14T19:31:49z,60:1:94:58:d7:ea,2.50i,2.0+OPENLOG+15833 MB+DS3231+BME280+PMSX003A+PMSX003B,80,19,34.04,1014.33,0.01,30128,31,2017,2.39,6.85,12.00,2.39,6.85,12.00,666.91,200.87,68.87,17.65,5.09,2.17,2.84,5.37,6.29,2.84,5.37,6.29,659.05,202.00,43.03,5.79,0.84,0.68
2018/06/14T19:33:09z,60:1:94:58:d7:ea,2.50i,2.0+OPENLOG+15833 MB+DS3231+BME280+PMSX003A+PMSX003B,80,19,34.04,1014.08,0.01,29696,31,2097,2.40,5.93,10.60,2.40,5.93,10.60,644.80,188.27,56.76,14.67,4.71,2.76,3.14,5.19,6.78,3.14,5.19,6.78,665.84,202.68,44.35,4.54,2.05,0.65
2018/06/14T19:34:29z,60:1:94:58:d7:ea,2.50i,2.0+OPENLOG+15833 MB+DS3231+BME280+PMSX003A+PMSX003B,80,19,34.04,1014.28,0.01,29696,31,2177,3.04,6.57,10.32,3.04,6.57,10.32,752.68,218.04,64.30,8.98,5.28,0.47,3.28,5.97,6.22,3.28,5.97,6.22,658.17,205.58,45.50,5.33,2.05,0.65
2018/06/14T19:35:49z,60:1:94:58:d7:ea,2.50i,2.0+OPENLOG+15833 MB+DS3231+BME280+PMSX003A+PMSX003B,80,19,34.04,1014.31,0.01,30128,31,2257,2.32,6.11,7.66,2.32,6.11,7.66,641.87,188.60,58.51,8.47,1.40,0.47,2.69,4.77,5.44,2.69,4.77,5.44,642.08,192.46,37.54,4.21,0.51,0.65
2018/06/14T19:37:32z,60:1:94:58:d7:ea,2.50i,2.0+OPENLOG+15833 MB+DS3231+BME280+PMSX003A+PMSX003B,79,17,30.46,1014.07,0.01,29672,31,23,0.00,0.00,0.00,0.00,0.00,0.00,0.00,0.00,0.00,0.00,0.00,0.00,1.00,1.00,17.00,1.00,1.00,17.00,0.00,0.00,0.00,0.00,0.00,0.00
2018/06/14T19:38:47z,60:1:94:58:d7:ea,2.50i,2.0+OPENLOG+15833 MB+DS3231+BME280+PMSX003A+PMSX003B,79,14,25.73,1014.35,0.01,29944,31,97,0.39,1.68,3.12,0.39,1.68,3.12,334.98,94.78,26.05,3.37,2.29,0.00,0.74,1.29,1.29,0.74,1.29,1.29,359.40,109.14,15.49,0.00,0.00,0.00
2018/06/14T19:40:07z,60:1:94:58:d7:ea,2.50i,2.0+OPENLOG+15833 MB+DS3231+BME280+PMSX003A+PMSX003B,79,11,19.99,1014.26,0.01,30128,31,177,0.26,1.39,3.98,0.26,1.39,3.98,269.48,77.74,24.70,6.87,3.74,1.22,0.30,1.08,1.57,0.30,1.08,1.57,222.41,66.54,19.59,1.57,0.00,0.00
2018/06/14T19:41:27z,60:1:94:58:d7:ea,2.50i,2.0+OPENLOG+15833 MB+DS3231+BME280+PMSX003A+PMSX003B,80,9,16.09,1014.96,0.01,30128,31,257,0.26,1.06,2.32,0.26,1.06,2.32,194.43,50.94,18.72,5.62,0.68,1.22,0.30,0.79,1.18,0.30,0.79,1.18,154.18,46.05,14.68,0.79,0.79,0.79
2018/06/14T19:42:47z,60:1:94:58:d7:ea,2.50i,2.0+OPENLOG+15833 MB+DS3231+BME280+PMSX003A+PMSX003B,80,13,24.74,1014.30,0.01,29696,31,337,0.26,0.87,2.33,0.26,0.87,2.33,187.04,54.26,22.70,4.87,1.83,1.22,0.05,0.43,1.00,0.05,0.43,1.00,145.78,45.89,8.97,0.97,0.97,0.97
2018/06/14T19:44:07z,60:1:94:58:d7:ea,2.50i,2.0+OPENLOG+15833 MB+DS3231+BME280+PMSX003A+PMSX003B,80,18,32.69,1014.33,0.01,29696,31,417,0.30,0.41,0.41,0.30,0.41,0.41,278.48,77.70,8.43,4.87,1.83,1.22,0.41,0.73,0.97,0.41,0.73,0.97,293.76,88.68,5.62,0.49,0.49,0.49
2018/06/14T19:45:27z,60:1:94:58:d7:ea,2.50i,2.0+OPENLOG+15833 MB+DS3231+BME280+PMSX003A+PMSX003B,81,19,34.86,1014.33,0.01,30128,31,497,0.72,0.98,1.72,0.72,0.98,1.72,344.68,86.68,12.81,1.40,0.81,1.22,0.13,0.13,0.13,0.13,0.13,0.13,220.97,65.24,9.63,0.21,0.49,0.49
2018/06/14T19:46:47z,60:1:94:58:d7:ea,2.50i,2.0+OPENLOG+15833 MB+DS3231+BME280+PMSX003A+PMSX003B,80,17,31.27,1014.38,0.01,30128,31,577,418.92,605.38,646.48,278.69,403.04,430.77,57844.90,19698.42,3890.42,207.85,38.77,4.88,635.32,855.16,880.11,422.82,569.52,586.18,61082.25,27327.91,5702.30,174.48,20.23,6.68
2018/06/14T19:48:07z,60:1:94:58:d7:ea,2.50i,2.0+OPENLOG+15833 MB+DS3231+BME280+PMSX003A+PMSX003B,80,15,28.20,1015.08,0.01,29696,31,657,386.71,513.04,541.25,256.96,341.23,360.27,61125.69,18365.85,2673.29,149.17,30.46,5.71,471.25,573.70,591.03,313.48,381.67,393.37,64764.15,21473.68,2657.90,103.32,15.00,7.75
2018/06/14T19:49:27z,60:1:94:58:d7:ea,2.50i,2.0+OPENLOG+15833 MB+DS3231+BME280+PMSX003A+PMSX003B,80,12,22.82,1015.05,0.01,29696,31,737,269.38,344.47,368.98,179.00,229.00,245.23,44670.13,13099.17,1633.32,98.68,25.45,5.53,317.11,378.73,388.00,210.76,251.89,257.92,48303.49,14915.13,1549.73,58.68,7.68,3.95
2018/06/14T19:50:47z,60:1:94:58:d7:ea,2.50i,2.0+OPENLOG+15833 MB+DS3231+BME280+PMSX003A+PMSX003B,79,10,17.77,1014.49,0.01,30128,31,817,164.22,207.29,218.13,108.84,137.47,144.60,28331.40,8142.24,895.56,54.18,12.22,2.31,202.44,236.83,244.53,134.33,157.14,162.28,31713.33,9695.64,891.00,40.28,6.94,1.89
2018/06/14T19:52:07z,60:1:94:58:d7:ea,2.50i,2.0+OPENLOG+15833 MB+DS3231+BME280+PMSX003A+PMSX003B,80,9,16.09,1014.41,0.01,29944,31,897,111.49,138.98,149.19,73.60,91.91,98.72,19654.34,5563.64,577.45,38.55,13.49,3.28,126.92,148.39,152.64,83.69,98.11,101.00,20417.00,6179.31,525.94,22.75,3.78,0.33
2018/06/14T19:53:27z,60:1:94:58:d7:ea,2.50i,2.0+OPENLOG+15833 MB+DS3231+BME280+PMSX003A+PMSX003B,80,9,16.09,1014.37,0.01,29640,31,977,102.47,128.45,136.70,67.55,84.89,90.49,18144.89,5132.47,563.79,33.11,9.79,1.83,117.14,138.38,142.51,77.32,91.59,94.32,19027.30,5754.97,524.51,23.35,3.03,0.86
2018/06/14T19:54:47z,60:1:94:58:d7:ea,2.50i,2.0+OPENLOG+15833 MB+DS3231+BME280+PMSX003A+PMSX003B,80,9,16.09,1014.07,0.01,29696,31,1057,95.39,122.70,130.25,62.80,81.05,86.16,16900.98,4788.50,541.55,38.14,7.82,1.68,111.64,132.58,136.64,73.61,87.64,90.31,18164.92,5475.64,518.75,20.47,3.11,1.56
2018/06/14T19:56:07z,60:1:94:58:d7:ea,2.50i,2.0+OPENLOG+15833 MB+DS3231+BME280+PMSX003A+PMSX003B,80,9,16.09,1014.45,0.01,30128,31,1137,89.95,113.00,119.18,59.20,74.48,79.61,15894.27,4525.34,484.55,28.82,5.09,0.91,104.16,122.95,128.29,68.55,81.21,84.74,16824.63,5086.00,481.58,25.11,6.00,3.47
2018/06/14T19:57:27z,60:1:94:58:d7:ea,2.50i,2.0+OPENLOG+15833 MB+DS3231+BME280+PMSX003A+PMSX003B,80,9,16.09,1014.39,0.01,30128,31,1217,85.38,110.58,118.51,56.16,73.11,79.49,15079.60,4298.00,489.60,39.38,6.04,1.16,101.18,119.45,122.95,66.61,78.92,81.47,16217.61,4907.03,440.61,25.63,1.26,0.42
2018/06/14T19:58:47z,60:1:94:58:d7:ea,2.50i,2.0+OPENLOG+15833 MB+DS3231+BME280+PMSX003A+PMSX003B,80,9,16.09,1014.37,0.01,30128,31,1297,79.98,105.00,114.43,52.64,69.30,77.77,14331.34,4064.82,488.91,40.09,9.32,0.86,96.89,115.27,117.14,63.86,76.00,78.73,15559.46,4720.16,429.41,15.14,1.73,0.42
2018/06/14T20:00:07z,60:1:94:58:d7:ea,2.50i,2.0+OPENLOG+15833 MB+DS3231+BME280+PMSX003A+PMSX003B,80,9,16.09,1014.35,0.01,29592,31,1377,74.30,98.57,111.13,48.74,64.91,76.46,13518.52,3809.89,473.26,41.00,15.96,4.39,89.53,109.44,116.08,59.03,72.28,78.47,14445.08,4380.89,440.81,26.50,7.11,2.72
2018/06/14T20:01:27z,60:1:94:58:d7:ea,2.50i,2.0+OPENLOG+15833 MB+DS3231+BME280+PMSX003A+PMSX003B,80,9,16.09,1014.01,0.01,29672,31,1457,70.78,95.64,108.11,46.24,62.98,75.27,12866.20,3643.36,484.18,42.22,14.62,2.80,83.63,102.21,109.66,54.87,67.32,75.92,13663.66,4158.50,450.87,25.05,6.42,2.63
2018/06/14T20:02:47z,60:1:94:58:d7:ea,2.50i,2.0+OPENLOG+15833 MB+DS3231+BME280+PMSX003A+PMSX003B,80,9,16.09,1013.98,0.01,30128,31,1537,68.52,95.05,106.32,45.05,62.68,74.84,12549.75,3548.00,494.18,45.59,11.73,2.73,79.70,100.11,105.08,52.49,65.97,74.49,12914.19,3941.11,446.46,23.59,5.46,2.38
2018/06/14T20:04:07z,60:1:94:58:d7:ea,2.50i,2.0+OPENLOG+15833 MB+DS3231+BME280+PMSX003A+PMSX003B,80,10,18.53,1014.30,0.01,30128,31,1617,64.33,89.44,99.93,42.18,58.87,72.73,11720.73,3327.16,452.27,47.51,11.20,0.58,78.16,97.59,104.51,51.27,64.30,74.16,12779.35,3902.84,428.57,25.62,8.11,2.49
2018/06/14T20:05:27z,60:1:94:58:d7:ea,2.50i,2.0+OPENLOG+15833 MB+DS3231+BME280+PMSX003A+PMSX003B,80,10,18.53,1014.33,0.01,29696,31,1697,62.18,88.59,106.48,40.86,58.36,74.77,11266.09,3233.73,488.64,58.86,21.09,4.23,72.32,92.84,99.11,47.35,60.95,71.92,11867.11,3612.03,429.57,31.24,7.41,1.78
2018/06/14T20:06:47z,60:1:94:58:d7:ea,2.50i,2.0+OPENLOG+15833 MB+DS3231+BME280+PMSX003A+PMSX003B,80,10,18.53,1014.33,0.01,29696,31,1777,59.78,87.64,102.96,39.20,57.76,73.67,10867.47,3124.58,484.76,56.27,18.27,5.11,70.24,89.41,93.78,46.14,58.97,70.27,11387.19,3486.70,417.70,25.46,2.86,1.78
2018/06/14T20:08:07z,60:1:94:58:d7:ea,2.50i,2.0+OPENLOG+15833 MB+DS3231+BME280+PMSX003A+PMSX003B,80,10,18.53,1014.26,0.01,30128,31,1857,56.89,81.20,95.98,37.18,53.75,71.23,10360.91,2964.95,456.91,48.50,17.32,4.00,67.46,88.00,95.00,44.31,58.06,70.71,10956.43,3341.00,422.20,34.89,6.17,1.77
2018/06/14T20:09:27z,60:1:94:58:d7:ea,2.50i,2.0+OPENLOG+15833 MB+DS3231+BME280+PMSX003A+PMSX003B,80,10,18.53,1013.54,0.01,30128,31,1937,54.68,81.43,93.95,35.80,53.77,70.16,9966.68,2854.91,469.41,53.68,13.09,2.50,63.08,84.27,89.68,41.51,55.43,68.35,10380.00,3180.38,413.32,32.62,4.54,0.86
2018/06/14T20:10:47z,60:1:94:58:d7:ea,2.50i,2.0+OPENLOG+15833 MB+DS3231+BME280+PMSX003A+PMSX003B,80,10,18.53,1014.30,0.01,29696,31,2017,51.29,76.71,92.69,34.38,51.98,69.84,9399.73,2690.49,439.20,58.76,19.33,2.40,62.25,81.00,88.22,40.61,53.39,67.64,10092.83,3084.61,411.14,32.36,7.72,2.28
2018/06/14T20:12:07z,60:1:94:58:d7:ea,2.50i,2.0+OPENLOG+15833 MB+DS3231+BME280+PMSX003A+PMSX003B,80,10,18.53,1014.22,0.01,29696,31,2097,49.30,73.51,91.81,33.74,50.77,69.36,9099.19,2598.45,434.94,58.26,22.21,6.04,58.19,76.49,84.76,38.19,51.86,66.57,9404.27,2878.16,394.49,35.92,7.14,3.46
2018/06/14T20:13:27z,60:1:94:58:d7:ea,2.50i,2.0+OPENLOG+15833 MB+DS3231+BME280+PMSX003A+PMSX003B,80,10,18.53,1014.18,0.01,30128,31,2177,47.41,69.96,83.93,33.07,49.52,65.93,8725.96,2503.13,398.70,49.57,16.35,2.91,56.78,77.62,85.16,37.14,51.97,66.54,9133.13,2804.92,424.54,37.19,6.11,2.05
2018/06/14T20:14:47z,60:1:94:58:d7:ea,2.50i,2.0+OPENLOG+15833 MB+DS3231+BME280+PMSX003A+PMSX003B,79,11,19.99,1012.95,0.01,30128,31,2257,45.74,68.72,82.63,32.37,49.07,65.39,8486.09,2427.74,396.39,48.48,16.48,6.00,53.67,73.64,78.11,35.06,50.47,63.06,8910.17,2730.19,394.42,26.83,5.22,1.50
2018/06/14T20:16:30z,60:1:94:58:d7:ea,2.50i,2.0+OPENLOG+15833 MB+DS3231+BME280+PMSX003A+PMSX003B,80,11,20.76,1013.39,0.01,29672,31,23,28.00,51.00,58.00,24.00,42.00,53.00,0.00,0.00,0.00,0.00,0.00,0.00,29.00,31.00,31.00,25.00,30.00,31.00,0.00,0.00,0.00,0.00,0.00,0.00
2018/06/14T20:17:45z,60:1:94:58:d7:ea,2.50i,2.0+OPENLOG+15833 MB+DS3231+BME280+PMSX003A+PMSX003B,80,11,20.76,1013.83,0.01,30128,31,97,40.45,61.67,74.07,30.27,46.13,61.37,7339.50,2122.45,366.95,44.75,11.85,4.85,48.00,65.97,73.12,33.24,47.76,60.79,7829.91,2384.53,385.26,30.85,6.35,3.65
2018/06/14T20:19:05z,60:1:94:58:d7:ea,2.50i,2.0+OPENLOG+15833 MB+DS3231+BME280+PMSX003A+PMSX003B,80,11,20.76,1013.46,0.01,30128,31,177,38.91,60.23,71.89,29.55,45.34,60.41,7281.89,2085.82,382.00,44.00,12.14,2.32,45.81,62.14,71.43,32.38,46.19,60.08,7659.00,2344.51,336.43,33.41,9.24,1.78
2018/06/14T20:20:25z,60:1:94:58:d7:ea,2.50i,2.0+OPENLOG+15833 MB+DS3231+BME280+PMSX003A+PMSX003B,81,11,21.53,1014.21,0.01,30128,31,257,37.79,56.68,69.77,28.91,43.87,59.23,7001.68,2014.55,350.21,40.55,15.49,4.64,44.39,59.03,64.58,31.67,45.14,56.31,7281.42,2226.06,318.19,23.78,5.39,2.44
2018/06/14T20:21:45z,60:1:94:58:d7:ea,2.50i,2.0+OPENLOG+15833 MB+DS3231+BME280+PMSX003A+PMSX003B,81,11,21.53,1014.09,0.01,29696,31,337,36.83,56.54,68.80,28.80,44.20,58.74,6792.33,1951.28,336.22,47.00,13.30,2.96,41.59,58.49,64.49,30.54,44.73,56.24,7025.51,2129.68,320.14,31.62,4.49,0.59
2018/06/14T20:23:05z,60:1:94:58:d7:ea,2.50i,2.0+OPENLOG+15833 MB+DS3231+BME280+PMSX003A+PMSX003B,80,11,20.76,1013.34,0.01,29672,31,417,34.98,55.05,70.32,27.93,43.48,59.57,6520.64,1876.64,354.91,48.91,16.59,4.59,41.57,56.49,63.54,30.70,44.24,55.86,6726.49,2069.76,311.46,24.65,8.05,3.95
2018/06/14T20:24:25z,60:1:94:58:d7:ea,2.50i,2.0+OPENLOG+15833 MB+DS3231+BME280+PMSX003A+PMSX003B,81,11,21.53,1014.08,0.01,30128,31,497,32.96,51.96,65.36,26.98,41.89,56.73,6254.60,1805.84,343.78,43.24,15.38,2.89,38.31,56.58,64.89,29.11,43.86,56.50,6651.50,2015.75,342.72,37.17,8.89,1.22
2018/06/14T20:25:45z,60:1:94:58:d7:ea,2.50i,2.0+OPENLOG+15833 MB+DS3231+BME280+PMSX003A+PMSX003B,80,11,20.76,1013.34,0.01,30128,31,577,30.53,49.24,62.87,25.73,40.56,55.16,5972.60,1708.31,311.96,45.60,17.91,3.24,37.39,54.61,60.39,28.72,43.08,54.03,6323.58,1924.36,326.92,28.61,5.22,1.56
2018/06/14T20:27:05z,60:1:94:58:d7:ea,2.50i,2.0+OPENLOG+15833 MB+DS3231+BME280+PMSX003A+PMSX003B,81,12,23.60,1014.06,0.01,29696,31,657,30.64,49.60,61.40,25.71,40.73,54.36,5903.00,1679.04,329.29,39.82,15.11,4.00,34.92,51.50,54.97,27.64,41.72,50.72,5930.50,1808.83,299.19,25.47,4.11,0.61
2018/06/14T20:28:25z,60:1:94:58:d7:ea,2.50i,2.0+OPENLOG+15833 MB+DS3231+BME280+PMSX003A+PMSX003B,81,12,23.60,1014.02,0.01,29696,31,737,29.17,48.89,58.02,25.02,40.49,52.53,5673.70,1628.64,315.15,42.21,9.74,1.57,33.62,49.08,54.27,27.43,40.65,50.43,5823.89,1753.65,296.22,22.97,4.81,1.51
2018/06/14T20:29:45z,60:1:94:58:d7:ea,2.50i,2.0+OPENLOG+15833 MB+DS3231+BME280+PMSX003A+PMSX003B,81,12,23.60,1014.12,0.01,30128,31,817,28.57,45.93,56.50,24.72,39.17,51.93,5376.39,1533.80,289.70,40.74,12.17,1.91,33.16,47.43,52.68,27.24,39.73,49.49,5519.76,1671.95,281.73,25.08,5.08,1.78
2018/06/14T20:31:05z,60:1:94:58:d7:ea,2.50i,2.0+OPENLOG+15833 MB+DS3231+BME280+PMSX003A+PMSX003B,81,12,23.60,1014.07,0.01,30128,31,897,27.02,43.09,55.63,23.65,37.67,51.30,5081.15,1469.74,284.09,43.26,14.04,2.30,31.14,44.41,47.97,26.24,38.27,46.62,5163.97,1572.89,255.78,20.86,3.68,1.68
2018/06/14T20:32:25z,60:1:94:58:d7:ea,2.50i,2.0+OPENLOG+15833 MB+DS3231+BME280+PMSX003A+PMSX003B,80,12,22.82,1013.45,0.01,29848,31,977,25.02,39.48,50.48,22.67,35.28,48.09,4743.39,1370.13,259.04,33.26,14.57,3.91,30.33,43.92,48.44,25.75,38.03,46.83,5110.42,1561.14,252.22,22.75,3.61,0.56
2018/06/14T20:33:45z,60:1:94:58:d7:ea,2.50i,2.0+OPENLOG+15833 MB+DS3231+BME280+PMSX003A+PMSX003B,80,12,22.82,1013.44,0.01,29512,31,1057,23.91,41.34,54.25,22.00,36.48,50.30,4676.25,1345.09,288.68,45.41,15.05,4.59,29.35,40.57,47.16,25.24,36.00,46.05,4862.59,1487.00,239.22,24.16,6.76,2.54
2018/06/14T20:35:05z,60:1:94:58:d7:ea,2.50i,2.0+OPENLOG+15833 MB+DS3231+BME280+PMSX003A+PMSX003B,81,12,23.60,1014.05,0.01,30128,31,1137,23.26,38.46,48.41,21.70,34.83,46.78,4412.15,1279.00,257.78,33.91,12.87,2.22,26.08,38.14,43.65,23.16,34.62,43.19,4494.73,1361.08,234.32,21.84,6.27,2.38
2018/06/14T20:36:25z,60:1:94:58:d7:ea,2.50i,2.0+OPENLOG+15833 MB+DS3231+BME280+PMSX003A+PMSX003B,81,12,23.60,1014.06,0.01,30128,31,1217,22.34,36.95,50.27,21.18,33.82,48.02,4347.27,1250.36,250.68,42.86,15.64,3.77,26.56,37.23,42.13,23.67,34.00,42.08,4431.31,1344.26,220.90,22.87,4.62,2.62
2018/06/14T20:37:45z,60:1:94:58:d7:ea,2.50i,2.0+OPENLOG+15833 MB+DS3231+BME280+PMSX003A+PMSX003B,81,12,23.60,1014.05,0.01,30128,31,1297,21.41,37.80,46.04,20.48,34.54,45.22,4067.61,1182.65,261.13,35.78,9.35,2.39,26.84,37.62,40.24,23.57,34.32,40.24,4336.22,1327.35,222.62,14.95,3.14,0.81
2018/06/14T20:39:05z,60:1:94:58:d7:ea,2.50i,2.0+OPENLOG+15833 MB+DS3231+BME280+PMSX003A+PMSX003B,81,12,23.60,1014.01,0.01,29696,31,1377,20.48,34.63,42.70,19.83,32.63,42.52,3967.96,1129.70,226.52,30.48,10.43,2.61,24.75,36.06,39.03,22.72,33.56,39.03,4170.42,1285.89,209.33,18.94,2.78,0.81
2018/06/14T20:40:25z,60:1:94:58:d7:ea,2.50i,2.0+OPENLOG+15833 MB+DS3231+BME280+PMSX003A+PMSX003B,81,12,23.60,1013.98,0.01,29488,31,1457,20.60,34.49,45.17,20.21,32.47,44.70,3858.89,1129.28,233.49,34.21,12.38,1.57,22.76,32.89,38.65,21.49,31.59,38.65,3895.62,1190.59,208.14,19.08,7.14,1.78
2018/06/14T20:41:45z,60:1:94:58:d7:ea,2.50i,2.0+OPENLOG+15833 MB+DS3231+BME280+PMSX003A+PMSX003B,81,12,23.60,1013.98,0.01,30128,31,1537,19.59,32.00,40.30,19.50,30.98,40.05,3722.73,1065.09,209.59,28.45,10.82,1.64,22.20,31.80,35.66,21.17,30.86,35.66,3697.11,1132.06,179.40,19.03,4.34,0.91
2018/06/14T20:43:05z,60:1:94:58:d7:ea,2.50i,2.0+OPENLOG+15833 MB+DS3231+BME280+PMSX003A+PMSX003B,80,12,22.82,1013.35,0.01,30128,31,1617,17.41,29.68,37.68,17.41,29.27,37.68,3479.05,999.00,211.36,27.00,10.14,1.18,20.81,30.56,34.14,20.00,29.81,34.14,3567.58,1094.11,190.86,15.33,2.56,1.39
2018/06/14T20:44:25z,60:1:94:58:d7:ea,2.50i,2.0+OPENLOG+15833 MB+DS3231+BME280+PMSX003A+PMSX003B,81,12,23.60,1013.70,0.01,29384,31,1697,16.59,28.43,35.30,16.59,28.17,35.30,3262.04,944.26,196.00,24.30,7.87,2.26,20.51,29.86,32.73,19.89,29.46,32.73,3521.76,1073.78,188.68,14.16,0.97,1.39
2018/06/14T20:45:45z,60:1:94:58:d7:ea,2.50i,2.0+OPENLOG+15833 MB+DS3231+BME280+PMSX003A+PMSX003B,81,12,23.60,1014.04,0.01,29696,31,1777,16.15,25.78,33.76,16.15,25.78,33.76,3102.65,892.17,173.09,23.74,10.52,3.30,19.05,28.11,31.89,19.00,28.08,31.89,3301.62,1009.73,172.03,19.24,3.41,1.19
2018/06/14T20:47:05z,60:1:94:58:d7:ea,2.50i,2.0+OPENLOG+15833 MB+DS3231+BME280+PMSX003A+PMSX003B,81,12,23.60,1014.02,0.01,30128,31,1857,16.29,28.42,33.73,16.29,28.40,33.73,3257.20,941.24,201.69,24.27,4.62,0.89,18.46,26.19,29.38,18.30,26.16,29.38,3247.86,992.35,144.05,18.11,2.22,1.30
2018/06/14T20:48:25z,60:1:94:58:d7:ea,2.50i,2.0+OPENLOG+15833 MB+DS3231+BME280+PMSX003A+PMSX003B,81,13,25.52,1013.97,0.01,30128,31,1937,16.10,25.17,32.15,16.10,25.17,32.15,3029.25,882.92,180.96,22.08,7.71,2.50,17.33,27.58,31.50,17.33,27.44,31.50,3086.75,940.25,190.42,18.44,3.39,0.72
2018/06/14T20:49:45z,60:1:94:58:d7:ea,2.50i,2.0+OPENLOG+15833 MB+DS3231+BME280+PMSX003A+PMSX003B,81,13,25.52,1013.94,0.01,29640,31,2017,14.69,23.36,31.38,14.69,23.36,31.38,2863.47,823.11,159.73,23.20,9.73,2.71,17.27,24.78,30.22,17.27,24.78,30.22,2985.89,917.00,149.05,21.14,4.59,2.49
2018/06/14T20:51:05z,60:1:94:58:d7:ea,2.50i,2.0+OPENLOG+15833 MB+DS3231+BME280+PMSX003A+PMSX003B,81,13,25.52,1013.98,0.01,29696,31,2097,13.73,23.56,30.23,13.73,23.56,30.23,2721.00,803.67,157.00,21.25,6.87,2.00,16.51,25.19,29.32,16.51,25.19,29.32,2935.70,905.68,159.92,14.70,5.78,1.46
2018/06/14T20:52:25z,60:1:94:58:d7:ea,2.50i,2.0+OPENLOG+15833 MB+DS3231+BME280+PMSX003A+PMSX003B,81,13,25.52,1013.91,0.01,30128,31,2177,13.30,23.32,31.64,13.30,23.32,31.64,2685.96,777.28,169.83,25.53,9.40,2.55,17.18,24.34,26.05,17.18,24.34,26.05,2853.32,880.21,136.34,9.42,1.74,0.16
2018/06/14T20:53:45z,60:1:94:58:d7:ea,2.50i,2.0+OPENLOG+15833 MB+DS3231+BME280+PMSX003A+PMSX003B,80,13,24.74,1013.06,0.01,30128,31,2257,14.20,23.24,28.93,14.20,23.24,28.93,2735.60,790.53,164.62,19.16,6.09,2.22,15.67,23.62,26.23,15.67,23.62,26.23,2688.00,823.90,158.74,13.85,1.38,0.16
2018/06/14T20:55:28z,60:1:94:58:d7:ea,2.50i,2.0+OPENLOG+15833 MB+DS3231+BME280+PMSX003A+PMSX003B,81,13,25.52,1013.91,0.01,29672,31,23,7.00,11.00,11.00,7.00,11.00,11.00,0.00,0.00,0.00,0.00,0.00,0.00,18.00,21.00,21.00,18.00,21.00,21.00,0.00,0.00,0.00,0.00,0.00,0.00
2018/06/14T20:56:43z,60:1:94:58:d7:ea,2.50i,2.0+OPENLOG+15833 MB+DS3231+BME280+PMSX003A+PMSX003B,80,13,24.74,1013.24,0.01,30128,31,97,11.10,19.15,23.41,11.10,19.15,23.41,2180.49,625.80,144.78,14.05,3.46,2.34,13.51,18.89,21.38,13.51,18.89,21.38,2454.89,737.43,110.59,8.54,3.30,0.00
2018/06/14T20:58:03z,60:1:94:58:d7:ea,2.50i,2.0+OPENLOG+15833 MB+DS3231+BME280+PMSX003A+PMSX003B,81,13,25.52,1013.87,0.01,30128,31,177,10.89,19.24,26.80,10.89,19.24,26.80,2236.80,647.24,148.98,23.47,8.13,1.07,13.11,19.63,20.71,13.11,19.63,20.71,2378.05,717.92,120.05,10.37,0.21,0.21
2018/06/14T20:59:23z,60:1:94:58:d7:ea,2.50i,2.0+OPENLOG+15833 MB+DS3231+BME280+PMSX003A+PMSX003B,81,13,25.52,1013.92,0.01,30128,31,257,10.15,18.70,26.33,10.15,18.70,26.33,2205.39,633.26,144.61,26.30,9.22,1.43,13.79,20.58,23.82,13.79,20.58,23.82,2397.55,737.37,123.24,16.16,2.21,2.11
2018/06/14T21:00:43z,60:1:94:58:d7:ea,2.50i,2.0+OPENLOG+15833 MB+DS3231+BME280+PMSX003A+PMSX003B,81,13,25.52,1013.84,0.01,29592,31,337,11.09,18.60,24.00,11.09,18.60,24.00,2160.26,624.47,126.26,20.98,5.74,1.28,13.05,20.49,24.78,13.05,20.49,24.78,2318.84,717.00,139.19,15.51,4.76,2.22
2018/06/14T21:02:03z,60:1:94:58:d7:ea,2.50i,2.0+OPENLOG+15833 MB+DS3231+BME280+PMSX003A+PMSX003B,80,13,24.74,1012.78,0.01,29672,31,417,9.50,16.89,20.50,9.50,16.89,20.50,1954.30,547.87,122.70,15.43,4.00,0.83,12.50,19.74,21.37,12.50,19.74,21.37,2137.82,663.39,123.13,14.21,2.74,2.22
2018/06/14T21:03:23z,60:1:94:58:d7:ea,2.50i,2.0+OPENLOG+15833 MB+DS3231+BME280+PMSX003A+PMSX003B,81,13,25.52,1013.87,0.01,30128,31,497,9.87,15.98,22.72,9.87,15.98,22.72,1858.47,550.17,113.19,22.89,7.83,1.32,10.79,15.95,18.08,10.79,15.95,18.08,1979.53,608.05,99.53,10.26,1.26,1.11
2018/06/14T21:04:43z,60:1:94:58:d7:ea,2.50i,2.0+OPENLOG+15833 MB+DS3231+BME280+PMSX003A+PMSX003B,80,13,24.74,1013.37,0.01,30128,31,577,9.78,16.80,23.53,9.78,16.80,23.53,1968.40,568.84,120.53,17.20,8.84,3.20,11.89,18.00,21.14,11.89,18.00,21.14,2056.22,630.54,110.89,18.70,2.92,0.65
2018/06/14T21:06:03z,60:1:94:58:d7:ea,2.50i,2.0+OPENLOG+15833 MB+DS3231+BME280+PMSX003A+PMSX003B,81,13,25.52,1013.82,0.01,29696,31,657,8.58,17.40,21.02,8.58,17.40,21.02,1813.60,528.27,129.42,19.07,3.96,0.53,10.81,15.83,18.42,10.81,15.83,18.42,1915.67,592.19,90.03,14.33,1.28,0.65
2018/06/14T21:07:23z,60:1:94:58:d7:ea,2.50i,2.0+OPENLOG+15833 MB+DS3231+BME280+PMSX003A+PMSX003B,81,13,25.52,1013.89,0.01,29696,31,737,7.66,16.04,21.06,7.66,16.04,21.06,1783.15,511.02,125.62,18.60,6.21,1.87,9.82,14.24,16.08,9.82,14.24,16.08,1781.21,549.79,90.61,7.74,0.89,0.79
2018/06/14T21:08:43z,60:1:94:58:d7:ea,2.50i,2.0+OPENLOG+15833 MB+DS3231+BME280+PMSX003A+PMSX003B,81,13,25.52,1013.92,0.01,30128,31,817,7.33,13.30,17.80,7.33,13.30,17.80,1608.39,458.65,92.13,15.87,5.57,1.65,9.57,15.24,16.32,9.57,15.24,16.32,1683.73,518.16,91.78,10.81,1.51,0.70
2018/06/14T21:10:03z,60:1:94:58:d7:ea,2.50i,2.0+OPENLOG+15833 MB+DS3231+BME280+PMSX003A+PMSX003B,81,13,25.52,1013.95,0.01,30128,31,897,7.15,14.28,18.65,7.15,14.28,18.65,1675.30,485.04,115.48,15.09,5.57,1.00,9.00,13.51,14.84,9.00,13.51,14.84,1627.05,490.59,88.19,8.27,1.19,0.59
2018/06/14T21:11:23z,60:1:94:58:d7:ea,2.50i,2.0+OPENLOG+15833 MB+DS3231+BME280+PMSX003A+PMSX003B,80,13,24.74,1013.26,0.01,29696,31,977,7.36,12.89,16.34,7.36,12.89,16.34,1632.51,458.34,90.21,14.85,3.83,1.11,9.37,12.08,12.58,9.37,12.08,12.58,1589.84,490.53,68.79,2.32,1.19,0.59
2018/06/14T21:12:43z,60:1:94:58:d7:ea,2.50i,2.0+OPENLOG+15833 MB+DS3231+BME280+PMSX003A+PMSX003B,81,13,25.52,1014.01,0.01,29696,31,1057,7.44,12.04,16.02,7.44,12.04,16.02,1496.53,430.18,82.89,14.76,4.13,1.11,8.95,14.79,17.24,8.95,14.79,17.24,1638.79,508.18,104.05,12.58,1.84,1.21
2018/06/14T21:14:03z,60:1:94:58:d7:ea,2.50i,2.0+OPENLOG+15833 MB+DS3231+BME280+PMSX003A+PMSX003B,81,13,25.52,1013.88,0.01,30128,31,1137,6.54,12.09,15.22,6.54,12.09,15.22,1410.52,419.57,95.57,8.57,3.39,1.39,8.11,11.78,14.59,8.11,11.78,14.59,1471.70,450.27,80.24,10.49,4.38,0.70
2018/06/14T21:15:23z,60:1:94:58:d7:ea,2.50i,2.0+OPENLOG+15833 MB+DS3231+BME280+PMSX003A+PMSX003B,81,13,25.52,1013.92,0.01,30128,31,1217,7.60,11.75,16.19,7.60,11.75,16.19,1511.00,439.63,94.21,11.75,5.29,0.79,7.59,12.43,15.35,7.59,12.43,15.35,1512.81,455.05,88.51,8.59,3.84,0.97
2018/06/14T21:16:43z,60:1:94:58:d7:ea,2.50i,2.0+OPENLOG+15833 MB+DS3231+BME280+PMSX003A+PMSX003B,81,13,25.52,1013.96,0.01,29640,31,1297,5.57,11.49,16.91,5.57,11.49,16.91,1358.94,387.79,94.17,18.47,6.85,1.49,8.24,11.11,13.26,8.24,11.11,13.26,1433.13,443.45,63.08,8.74,1.84,0.68
2018/06/14T21:18:03z,60:1:94:58:d7:ea,2.50i,2.0+OPENLOG+15833 MB+DS3231+BME280+PMSX003A+PMSX003B,81,13,25.52,1013.91,0.01,29696,31,1377,6.20,11.20,12.96,6.20,11.20,12.96,1262.22,369.04,76.96,11.57,1.78,0.96,6.92,10.81,11.92,6.92,10.81,11.92,1321.14,402.43,68.57,7.68,0.22,0.22
2018/06/14T21:19:23z,60:1:94:58:d7:ea,2.50i,2.0+OPENLOG+15833 MB+DS3231+BME280+PMSX003A+PMSX003B,80,14,26.52,1013.28,0.01,30128,31,1457,5.39,10.39,16.24,5.39,10.39,16.24,1251.65,361.00,82.43,17.22,8.26,2.57,7.19,11.28,12.75,7.19,11.28,12.75,1337.92,411.08,67.11,10.67,1.11,0.17
2018/06/14T21:20:43z,60:1:94:58:d7:ea,2.50i,2.0+OPENLOG+15833 MB+DS3231+BME280+PMSX003A+PMSX003B,81,13,25.52,1013.86,0.01,30128,31,1537,5.38,9.66,16.89,5.38,9.66,16.89,1218.51,354.04,74.34,18.00,9.23,2.68,6.77,10.51,12.18,6.77,10.51,12.18,1241.92,382.38,71.54,7.03,1.49,0.87
2018/06/14T21:22:03z,60:1:94:58:d7:ea,2.50i,2.0+OPENLOG+15833 MB+DS3231+BME280+PMSX003A+PMSX003B,81,14,27.31,1013.93,0.01,30128,31,1617,5.35,9.59,13.20,5.35,9.59,13.20,1149.39,332.48,75.48,13.04,3.04,0.74,7.06,10.44,12.17,7.06,10.44,12.17,1310.17,405.33,56.19,7.72,1.17,1.17
2018/06/14T21:23:23z,60:1:94:58:d7:ea,2.50i,2.0+OPENLOG+15833 MB+DS3231+BME280+PMSX003A+PMSX003B,81,14,27.31,1013.62,0.01,29592,31,1697,4.91,9.24,11.96,4.91,9.24,11.96,1130.67,326.40,70.09,10.40,4.31,0.74,6.92,10.51,11.38,6.92,10.51,11.38,1297.46,393.32,63.30,6.32,0.05,0.05
2018/06/14T21:24:43z,60:1:94:58:d7:ea,2.50i,2.0+OPENLOG+15833 MB+DS3231+BME280+PMSX003A+PMSX003B,79,14,25.73,1012.10,0.01,29696,31,1777,5.74,9.72,11.57,5.74,9.72,11.57,1240.72,351.36,75.19,8.17,1.66,0.74,6.31,9.53,11.69,6.31,9.53,11.69,1193.17,355.56,75.42,6.44,3.22,0.67
2018/06/14T21:26:03z,60:1:94:58:d7:ea,2.50i,2.0+OPENLOG+15833 MB+DS3231+BME280+PMSX003A+PMSX003B,81,14,27.31,1013.88,0.01,30128,31,1857,4.54,8.85,15.09,4.54,8.85,15.09,1065.39,304.96,82.35,15.57,7.22,2.74,5.05,8.21,9.11,5.05,8.21,9.11,990.71,303.76,61.97,4.42,1.58,0.67
2018/06/14T21:27:23z,60:1:94:58:d7:ea,2.50i,2.0+OPENLOG+15833 MB+DS3231+BME280+PMSX003A+PMSX003B,80,14,26.52,1013.28,0.01,29944,31,1937,4.62,8.11,11.89,4.62,8.11,11.89,1048.67,292.53,60.31,12.49,3.51,0.89,4.78,8.05,9.14,4.78,8.05,9.14,996.24,303.24,51.00,7.35,0.97,0.67
2018/06/14T21:28:43z,60:1:94:58:d7:ea,2.50i,2.0+OPENLOG+15833 MB+DS3231+BME280+PMSX003A+PMSX003B,81,14,27.31,1013.85,0.01,29592,31,2017,3.91,8.13,12.45,3.91,8.13,12.45,918.64,268.26,72.47,12.64,6.43,1.15,5.53,8.39,9.45,5.53,8.39,9.45,1117.58,345.84,49.21,6.21,1.11,0.74
2018/06/14T21:30:03z,60:1:94:58:d7:ea,2.50i,2.0+OPENLOG+15833 MB+DS3231+BME280+PMSX003A+PMSX003B,81,14,27.31,1013.93,0.01,29696,31,2097,4.39,7.76,11.96,4.39,7.76,11.96,1037.61,299.87,63.26,10.96,4.30,0.48,5.70,10.19,11.08,5.70,10.19,11.08,1115.76,345.95,75.32,9.30,0.65,0.74
2018/06/14T21:31:23z,60:1:94:58:d7:ea,2.50i,2.0+OPENLOG+15833 MB+DS3231+BME280+PMSX003A+PMSX003B,81,14,27.31,1013.52,0.01,30128,31,2177,3.58,7.20,10.42,3.58,7.20,10.42,891.47,266.00,61.11,8.36,4.67,1.07,5.39,8.28,11.36,5.39,8.28,11.36,1002.67,304.89,57.83,11.17,4.22,1.00
2018/06/14T21:32:43z,60:1:94:58:d7:ea,2.50i,2.0+OPENLOG+15833 MB+DS3231+BME280+PMSX003A+PMSX003B,80,14,26.52,1013.21,0.01,30128,31,2257,4.33,8.47,11.82,4.33,8.47,11.82,1007.73,288.53,67.47,9.42,3.11,2.36,4.68,7.37,9.89,4.68,7.37,9.89,936.47,287.42,54.95,6.89,3.11,1.00
2018/06/14T21:34:26z,60:1:94:58:d7:ea,2.50i,2.0+OPENLOG+15833 MB+DS3231+BME280+PMSX003A+PMSX003B,81,14,27.31,1013.79,0.01,29672,31,23,1.00,1.00,1.00,1.00,1.00,1.00,0.00,0.00,0.00,0.00,0.00,0.00,10.00,10.00,10.00,10.00,10.00,10.00,0.00,0.00,0.00,0.00,0.00,0.00
2018/06/14T21:35:40z,60:1:94:58:d7:ea,2.50i,2.0+OPENLOG+15833 MB+DS3231+BME280+PMSX003A+PMSX003B,81,14,27.31,1013.53,0.01,30128,31,97,2.83,6.88,7.51,2.83,6.88,7.51,816.15,230.78,54.44,5.66,0.29,0.29,4.49,6.54,7.30,4.49,6.54,7.30,932.27,284.32,53.84,2.49,1.03,0.00
2018/06/14T21:37:00z,60:1:94:58:d7:ea,2.50i,2.0+OPENLOG+15833 MB+DS3231+BME280+PMSX003A+PMSX003B,80,14,26.52,1013.05,0.01,30128,31,177,2.89,7.09,9.04,2.89,7.09,9.04,812.74,235.30,64.83,9.52,2.52,1.26,3.11,5.67,6.25,3.11,5.67,6.25,767.33,239.03,42.08,4.89,0.67,0.67
2018/06/14T21:38:20z,60:1:94:58:d7:ea,2.50i,2.0+OPENLOG+15833 MB+DS3231+BME280+PMSX003A+PMSX003B,80,14,26.52,1013.00,0.01,30128,31,257,2.66,5.85,10.04,2.66,5.85,10.04,830.94,233.62,52.89,12.64,4.81,1.83,4.16,7.35,8.81,4.16,7.35,8.81,858.57,264.97,52.81,6.22,2.32,0.59
2018/06/14T21:39:40z,60:1:94:58:d7:ea,2.50i,2.0+OPENLOG+15833 MB+DS3231+BME280+PMSX003A+PMSX003B,81,14,27.31,1013.74,0.01,29696,31,337,3.49,5.67,7.13,3.49,5.67,7.13,790.40,223.73,49.07,4.84,1.24,0.04,4.29,6.16,8.00,4.29,6.16,8.00,847.97,259.34,39.66,5.89,1.68,0.68
2018/06/14T21:41:00z,60:1:94:58:d7:ea,2.50i,2.0+OPENLOG+15833 MB+DS3231+BME280+PMSX003A+PMSX003B,81,14,27.31,1013.74,0.01,29672,31,417,2.93,5.89,8.00,2.93,5.89,8.00,822.52,228.04,47.83,5.48,2.96,0.04,3.22,6.30,8.49,3.22,6.30,8.49,793.86,244.30,51.24,9.46,1.73,0.68
2018/06/14T21:42:20z,60:1:94:58:d7:ea,2.50i,2.0+OPENLOG+15833 MB+DS3231+BME280+PMSX003A+PMSX003B,81,14,27.31,1013.74,0.01,30128,31,497,2.96,6.80,11.91,2.96,6.80,11.91,811.30,225.87,65.96,14.57,6.65,0.87,3.89,6.86,8.11,3.89,6.86,8.11,852.24,267.76,61.68,6.05,1.57,0.16
2018/06/14T21:43:40z,60:1:94:58:d7:ea,2.50i,2.0+OPENLOG+15833 MB+DS3231+BME280+PMSX003A+PMSX003B,81,14,27.31,1013.74,0.01,30128,31,577,3.12,6.77,9.98,3.12,6.77,9.98,779.00,227.04,54.83,11.83,3.58,0.50,3.26,5.66,8.21,3.26,5.66,8.21,804.87,244.87,52.55,8.89,2.68,0.16
2018/06/14T21:45:00z,60:1:94:58:d7:ea,2.50i,2.0+OPENLOG+15833 MB+DS3231+BME280+PMSX003A+PMSX003B,80,14,26.52,1013.71,0.01,29696,31,657,3.11,6.70,9.24,3.11,6.70,9.24,770.61,222.57,55.00,8.39,2.83,1.04,3.19,6.50,6.58,3.19,6.50,6.58,748.33,226.67,49.39,5.50,2.68,0.16
2018/06/14T21:46:20z,60:1:94:58:d7:ea,2.50i,2.0+OPENLOG+15833 MB+DS3231+BME280+PMSX003A+PMSX003B,81,14,27.31,1013.73,0.01,29696,31,737,2.22,6.24,9.36,2.22,6.24,9.36,707.73,198.62,57.38,9.64,4.13,1.56,2.89,5.13,6.00,2.89,5.13,6.00,679.74,209.47,40.66,3.84,1.21,0.16
2018/06/14T21:47:40z,60:1:94:58:d7:ea,2.50i,2.0+OPENLOG+15833 MB+DS3231+BME280+PMSX003A+PMSX003B,81,14,27.31,1013.73,0.01,30128,31,817,2.43,5.36,7.94,2.43,5.36,7.94,666.13,192.98,49.32,9.36,2.77,0.60,3.35,5.41,5.73,3.35,5.41,5.73,657.57,198.27,42.00,2.54,1.21,0.16
2018/06/14T21:49:00z,60:1:94:58:d7:ea,2.50i,2.0+OPENLOG+15833 MB+DS3231+BME280+PMSX003A+PMSX003B,80,14,26.52,1012.95,0.01,30128,31,897,3.00,6.35,9.17,3.00,6.35,9.17,719.74,211.17,50.83,12.52,2.09,0.60,2.64,5.36,5.94,2.64,5.36,5.94,660.50,198.92,46.11,4.00,0.61,0.16
2018/06/14T21:50:20z,60:1:94:58:d7:ea,2.50i,2.0+OPENLOG+15833 MB+DS3231+BME280+PMSX003A+PMSX003B,80,14,26.52,1013.05,0.01,29848,31,977,1.93,4.53,6.87,1.93,4.53,6.87,570.00,163.29,43.64,7.29,2.67,0.60,3.08,5.21,5.55,3.08,5.21,5.55,656.61,201.03,31.42,4.16,0.61,0.16
2018/06/14T21:51:40z,60:1:94:58:d7:ea,2.50i,2.0+OPENLOG+15833 MB+DS3231+BME280+PMSX003A+PMSX003B,81,14,27.31,1013.74,0.01,29696,31,1057,1.85,4.45,5.55,1.85,4.45,5.55,615.19,174.98,38.17,4.26,1.96,0.60,2.92,4.71,5.68,2.92,4.71,5.68,570.95,175.97,37.34,3.37,1.53,0.58
2018/06/14T21:53:00z,60:1:94:58:d7:ea,2.50i,2.0+OPENLOG+15833 MB+DS3231+BME280+PMSX003A+PMSX003B,80,14,26.52,1012.87,0.01,29488,31,1137,2.30,3.96,6.00,2.30,3.96,6.00,599.74,168.00,35.83,5.57,3.17,0.74,2.63,6.32,6.89,2.63,6.32,6.89,656.37,199.71,49.63,8.16,0.42,0.26
2018/06/14T21:54:20z,60:1:94:58:d7:ea,2.50i,2.0+OPENLOG+15833 MB+DS3231+BME280+PMSX003A+PMSX003B,81,14,27.31,1013.81,0.01,30128,31,1217,2.19,5.34,7.38,2.19,5.34,7.38,621.83,177.45,54.43,6.26,1.96,0.74,2.92,4.51,6.08,2.92,4.51,6.08,618.73,186.89,38.46,5.30,1.19,0.70
2018/06/14T21:55:40z,60:1:94:58:d7:ea,2.50i,2.0+OPENLOG+15833 MB+DS3231+BME280+PMSX003A+PMSX003B,81,14,27.31,1013.74,0.01,30128,31,1297,2.13,5.57,9.72,2.13,5.57,9.72,667.17,191.65,55.52,8.83,5.22,1.78,2.45,5.24,6.16,2.45,5.24,6.16,592.82,183.03,45.13,5.16,0.63,0.63
2018/06/14T21:57:00z,60:1:94:58:d7:ea,2.50i,2.0+OPENLOG+15833 MB+DS3231+BME280+PMSX003A+PMSX003B,81,14,27.31,1013.83,0.01,29696,31,1377,2.17,4.68,7.06,2.17,4.68,7.06,563.87,167.91,41.36,8.34,2.94,0.55,2.19,3.86,4.73,2.19,3.86,4.73,597.49,189.65,35.38,4.54,0.59,0.63
2018/06/14T21:58:20z,60:1:94:58:d7:ea,2.50i,2.0+OPENLOG+15833 MB+DS3231+BME280+PMSX003A+PMSX003B,81,14,27.31,1013.70,0.01,29696,31,1457,1.93,4.15,6.48,1.93,4.15,6.48,544.17,152.91,36.00,8.35,3.17,0.57,2.11,4.39,5.21,2.11,4.39,5.21,531.87,157.34,35.18,3.32,0.63,0.63
2018/06/14T21:59:40z,60:1:94:58:d7:ea,2.50i,2.0+OPENLOG+15833 MB+DS3231+BME280+PMSX003A+PMSX003B,81,14,27.31,1013.67,0.01,30128,31,1537,1.78,4.63,7.28,1.78,4.63,7.28,620.09,177.04,52.78,9.52,3.39,1.17,2.00,3.86,4.65,2.00,3.86,4.65,508.86,153.89,29.89,4.43,0.70,0.22
2018/06/14T22:01:00z,60:1:94:58:d7:ea,2.50i,2.0+OPENLOG+15833 MB+DS3231+BME280+PMSX003A+PMSX003B,81,14,27.31,1013.73,0.01,30128,31,1617,0.83,3.30,4.89,0.83,3.30,4.89,496.57,140.87,39.70,8.00,1.43,0.78,1.78,3.86,6.11,1.78,3.86,6.11,494.83,152.19,36.44,6.78,2.61,1.67
2018/06/14T22:02:20z,60:1:94:58:d7:ea,2.50i,2.0+OPENLOG+15833 MB+DS3231+BME280+PMSX003A+PMSX003B,81,14,27.31,1013.68,0.01,29696,31,1697,1.51,3.17,4.45,1.51,3.17,4.45,481.53,137.02,34.04,3.19,1.23,0.78,1.55,3.97,6.00,1.55,3.97,6.00,460.74,143.39,38.32,8.37,1.74,0.11
2018/06/14T22:03:40z,60:1:94:58:d7:ea,2.50i,2.0+OPENLOG+15833 MB+DS3231+BME280+PMSX003A+PMSX003B,81,14,27.31,1013.71,0.01,29696,31,1777,0.96,3.36,6.47,0.96,3.36,6.47,464.13,130.13,38.31,9.38,3.73,0.78,1.95,3.27,5.57,1.95,3.27,5.57,440.59,139.08,32.27,5.78,2.49,1.03
2018/06/14T22:05:00z,60:1:94:58:d7:ea,2.50i,2.0+OPENLOG+15833 MB+DS3231+BME280+PMSX003A+PMSX003B,81,14,27.31,1013.63,0.01,30128,31,1857,1.59,3.59,7.46,1.59,3.59,7.46,520.70,150.09,46.43,8.52,4.26,0.78,2.00,4.14,4.36,2.00,4.14,4.36,479.08,147.64,32.83,5.94,2.49,1.03
2018/06/14T22:06:20z,60:1:94:58:d7:ea,2.50i,2.0+OPENLOG+15833 MB+DS3231+BME280+PMSX003A+PMSX003B,81,14,27.31,1013.62,0.01,30128,31,1937,1.36,2.94,4.72,1.36,2.94,4.72,446.17,125.49,30.98,4.51,2.85,0.47,1.64,3.44,4.33,1.64,3.44,4.33,419.38,132.79,33.69,4.82,1.33,1.03
2018/06/14T22:07:40z,60:1:94:58:d7:ea,2.50i,2.0+OPENLOG+15833 MB+DS3231+BME280+PMSX003A+PMSX003B,81,14,27.31,1013.68,0.01,29848,31,2017,1.71,3.49,7.47,1.71,3.49,7.47,496.53,139.20,40.80,8.71,4.22,1.87,1.76,4.46,5.38,1.76,4.46,5.38,442.78,137.54,31.97,8.38,1.35,0.65
2018/06/14T22:09:01z,60:1:94:58:d7:ea,2.50i,2.0+OPENLOG+15833 MB+DS3231+BME280+PMSX003A+PMSX003B,80,14,26.52,1012.83,0.01,29696,31,2097,0.57,3.17,5.52,0.57,3.17,5.52,430.70,119.48,37.83,8.61,1.83,1.22,1.38,3.38,3.70,1.38,3.38,3.70,387.49,121.46,28.43,5.57,1.35,0.65
2018/06/14T22:10:21z,60:1:94:58:d7:ea,2.50i,2.0+OPENLOG+15833 MB+DS3231+BME280+PMSX003A+PMSX003B,81,14,27.31,1013.66,0.01,30128,31,2177,1.49,3.64,4.34,1.49,3.64,4.34,439.66,126.26,32.51,3.15,0.64,0.64,1.42,3.03,3.79,1.42,3.03,3.79,386.68,120.05,22.68,4.63,1.35,0.65
2018/06/14T22:11:41z,60:1:94:58:d7:ea,2.50i,2.0+OPENLOG+15833 MB+DS3231+BME280+PMSX003A+PMSX003B,81,14,27.31,1013.71,0.01,30128,31,2257,0.59,2.74,4.37,0.59,2.74,4.37,416.35,115.00,35.09,5.26,3.00,0.64,0.76,2.19,2.41,0.76,2.19,2.41,351.97,105.00,19.95,1.19,0.43,0.65
2018/06/14T22:13:24z,60:1:94:58:d7:ea,2.50i,2.0+OPENLOG+15833 MB+DS3231+BME280+PMSX003A+PMSX003B,81,14,27.31,1013.60,0.01,29672,31,23,0.00,0.00,0.00,0.00,0.00,0.00,0.00,0.00,0.00,0.00,0.00,0.00,1.00,1.00,1.00,1.00,1.00,1.00,0.00,0.00,0.00,0.00,0.00,0.00
2018/06/14T22:14:38z,60:1:94:58:d7:ea,2.50i,2.0+OPENLOG+15833 MB+DS3231+BME280+PMSX003A+PMSX003B,81,14,27.31,1013.58,0.01,30128,31,97,0.41,1.41,2.46,0.41,1.41,2.46,343.61,95.46,23.02,2.93,0.88,0.00,0.35,1.38,1.73,0.35,1.38,1.73,281.76,90.57,17.65,2.97,0.05,0.05
2018/06/14T22:15:58z,60:1:94:58:d7:ea,2.50i,2.0+OPENLOG+15833 MB+DS3231+BME280+PMSX003A+PMSX003B,79,14,25.73,1012.09,0.01,30128,31,177,0.24,1.70,3.61,0.24,1.70,3.61,314.35,89.13,28.26,3.65,2.87,0.00,0.44,1.42,2.11,0.44,1.42,2.11,304.42,92.28,17.89,1.72,0.89,0.89
2018/06/14T22:17:18z,60:1:94:58:d7:ea,2.50i,2.0+OPENLOG+15833 MB+DS3231+BME280+PMSX003A+PMSX003B,81,14,27.31,1013.53,0.01,30128,31,257,0.64,3.11,5.02,0.64,3.11,5.02,368.04,110.68,39.45,7.87,2.17,0.51,0.62,1.30,2.24,0.62,1.30,2.24,256.46,82.73,22.16,1.89,0.89,0.89
2018/06/14T22:18:38z,60:1:94:58:d7:ea,2.50i,2.0+OPENLOG+15833 MB+DS3231+BME280+PMSX003A+PMSX003B,81,14,27.31,1013.29,0.01,29696,31,337,0.64,1.41,3.02,0.64,1.41,3.02,271.17,81.74,25.78,5.17,1.61,0.48,0.95,2.47,2.53,0.95,2.47,2.53,363.55,111.89,19.53,4.00,0.89,0.89
2018/06/14T22:19:58z,60:1:94:58:d7:ea,2.50i,2.0+OPENLOG+15833 MB+DS3231+BME280+PMSX003A+PMSX003B,81,14,27.31,1013.51,0.01,29696,31,417,0.96,2.35,3.20,0.96,2.35,3.20,349.57,101.70,28.65,1.57,0.91,0.52,1.00,2.46,2.76,1.00,2.46,2.76,316.86,97.97,25.30,3.24,0.89,0.89
2018/06/14T22:21:18z,60:1:94:58:d7:ea,2.50i,2.0+OPENLOG+15833 MB+DS3231+BME280+PMSX003A+PMSX003B,81,15,29.00,1013.10,0.01,30128,31,497,1.11,2.23,3.85,1.11,2.23,3.85,360.64,107.91,24.51,2.98,2.98,0.52,0.86,2.43,3.32,0.86,2.43,3.32,358.78,106.32,26.89,4.59,0.81,0.89
2018/06/14T22:22:38z,60:1:94:58:d7:ea,2.50i,2.0+OPENLOG+15833 MB+DS3231+BME280+PMSX003A+PMSX003B,81,14,27.31,1013.46,0.01,30128,31,577,1.11,2.78,5.02,1.11,2.78,5.02,372.78,105.74,33.04,7.52,2.30,0.70,0.76,1.84,4.45,0.76,1.84,4.45,322.11,99.68,22.47,5.11,2.95,2.32
2018/06/14T22:23:58z,60:1:94:58:d7:ea,2.50i,2.0+OPENLOG+15833 MB+DS3231+BME280+PMSX003A+PMSX003B,81,14,27.31,1013.48,0.01,29696,31,657,0.27,2.69,4.87,0.27,2.69,4.87,350.40,95.87,30.53,7.69,2.04,1.02,1.06,2.64,3.44,1.06,2.64,3.44,376.00,113.50,23.22,4.67,0.61,2.32
2018/06/14T22:25:18z,60:1:94:58:d7:ea,2.50i,2.0+OPENLOG+15833 MB+DS3231+BME280+PMSX003A+PMSX003B,81,14,27.31,1013.38,0.01,29696,31,737,0.83,1.87,3.83,0.83,1.87,3.83,312.26,93.23,24.09,3.79,1.74,1.74,0.84,1.39,2.16,0.84,1.39,2.16,296.29,90.76,15.26,2.21,1.26,2.32
2018/06/14T22:26:38z,60:1:94:58:d7:ea,2.50i,2.0+OPENLOG+15833 MB+DS3231+BME280+PMSX003A+PMSX003B,80,14,26.52,1013.28,0.01,30128,31,817,0.24,1.61,1.74,0.24,1.61,1.74,252.91,64.09,15.22,3.57,1.74,1.74,0.84,1.73,2.62,0.84,1.73,2.62,268.95,81.68,19.24,3.14,0.65,2.32
2018/06/14T22:27:58z,60:1:94:58:d7:ea,2.50i,2.0+OPENLOG+15833 MB+DS3231+BME280+PMSX003A+PMSX003B,81,12,23.60,1014.15,0.01,30128,31,897,0.07,0.82,2.84,0.07,0.82,2.84,195.20,54.36,13.02,4.62,2.09,1.29,0.31,1.58,1.58,0.31,1.58,1.58,223.00,69.61,17.11,1.39,0.65,2.32
2018/06/14T22:29:18z,60:1:94:58:d7:ea,2.50i,2.0+OPENLOG+15833 MB+DS3231+BME280+PMSX003A+PMSX003B,81,10,19.29,1014.07,0.01,29640,31,977,0.07,0.51,1.64,0.07,0.51,1.64,187.66,50.00,11.57,2.94,0.55,1.29,0.31,0.39,1.53,0.31,0.39,1.53,131.45,40.82,12.53,1.95,1.95,2.32
2018/06/14T22:30:38z,60:1:94:58:d7:ea,2.50i,2.0+OPENLOG+15833 MB+DS3231+BME280+PMSX003A+PMSX003B,80,8,13.39,1014.02,0.01,29696,31,1057,0.07,0.87,1.93,0.07,0.87,1.93,136.70,37.74,14.43,3.87,1.61,0.52,0.31,0.16,0.35,0.31,0.16,0.35,79.54,20.27,7.95,1.30,0.38,2.32
2018/06/14T22:31:58z,60:1:94:58:d7:ea,2.50i,2.0+OPENLOG+15833 MB+DS3231+BME280+PMSX003A+PMSX003B,80,7,10.37,1014.12,0.01,29944,31,1137,0.07,0.87,2.02,0.07,0.87,2.02,97.70,24.78,10.30,4.35,2.83,0.09,0.31,0.08,0.08,0.31,0.08,0.08,94.14,29.92,8.49,0.16,0.38,2.32
2018/06/14T22:33:18z,60:1:94:58:d7:ea,2.50i,2.0+OPENLOG+15833 MB+DS3231+BME280+PMSX003A+PMSX003B,80,6,6.94,1014.07,0.01,30128,31,1217,0.07,0.87,0.15,0.07,0.87,0.15,58.57,12.48,5.09,0.61,0.17,0.17,0.31,0.08,0.08,0.31,0.08,0.08,53.37,17.79,7.16,0.16,0.38,2.32
2018/06/14T22:34:38z,60:1:94:58:d7:ea,2.50i,2.0+OPENLOG+15833 MB+DS3231+BME280+PMSX003A+PMSX003B,79,5,2.25,1013.24,0.01,30128,31,1297,0.07,0.62,1.81,0.07,0.62,1.81,109.53,31.87,11.28,3.06,2.09,0.47,0.31,0.43,0.43,0.31,0.43,0.43,68.43,22.81,7.57,1.73,0.38,2.32
2018/06/14T22:35:58z,60:1:94:58:d7:ea,2.50i,2.0+OPENLOG+15833 MB+DS3231+BME280+PMSX003A+PMSX003B,80,5,2.96,1013.99,0.01,29696,31,1377,0.07,0.73,1.56,0.07,0.73,1.56,115.73,32.13,9.29,4.04,1.60,0.47,0.31,0.43,0.59,0.31,0.43,0.59,61.14,19.68,7.68,3.19,0.38,2.32
2018/06/14T22:37:18z,60:1:94:58:d7:ea,2.50i,2.0+OPENLOG+15833 MB+DS3231+BME280+PMSX003A+PMSX003B,80,4,-1.81,1014.02,0.01,29672,31,1457,0.07,0.41,0.83,0.07,0.41,0.83,79.04,18.70,10.96,2.96,0.26,0.47,0.31,0.34,0.34,0.31,0.34,0.34,79.66,26.55,9.58,1.37,0.38,2.32
2018/06/14T22:38:38z,60:1:94:58:d7:ea,2.50i,2.0+OPENLOG+15833 MB+DS3231+BME280+PMSX003A+PMSX003B,79,4,-2.50,1013.23,0.01,30128,31,1537,0.07,0.32,0.55,0.07,0.32,0.55,105.19,21.28,8.89,1.53,0.47,0.47,0.31,0.34,0.34,0.31,0.34,0.34,58.22,18.49,4.65,1.37,0.38,2.32
2018/06/14T22:39:58z,60:1:94:58:d7:ea,2.50i,2.0+OPENLOG+15833 MB+DS3231+BME280+PMSX003A+PMSX003B,78,3,-9.14,1012.49,0.01,30128,31,1617,0.07,0.27,1.07,0.07,0.27,1.07,92.27,23.11,8.62,2.27,0.67,0.67,0.31,0.34,0.18,0.31,0.34,0.18,44.68,14.89,7.58,0.74,0.38,2.32
2018/06/14T22:41:18z,60:1:94:58:d7:ea,2.50i,2.0+OPENLOG+15833 MB+DS3231+BME280+PMSX003A+PMSX003B,80,7,10.37,1012.94,0.01,29696,31,1697,0.07,0.02,0.74,0.07,0.02,0.74,87.65,23.83,9.39,2.61,0.74,0.67,0.31,0.34,0.22,0.31,0.34,0.22,90.00,27.62,8.05,0.65,0.65,2.32
2018/06/14T22:42:38z,60:1:94:58:d7:ea,2.50i,2.0+OPENLOG+15833 MB+DS3231+BME280+PMSX003A+PMSX003B,80,16,29.78,1013.23,0.01,29696,31,1777,0.15,0.17,0.17,0.15,0.17,0.17,270.88,73.08,6.04,2.61,0.74,0.67,0.31,0.25,0.67,0.31,0.25,0.67,231.33,67.39,5.39,1.50,0.56,0.56
2018/06/14T22:43:58z,60:1:94:58:d7:ea,2.50i,2.0+OPENLOG+15833 MB+DS3231+BME280+PMSX003A+PMSX003B,80,18,32.69,1012.64,0.01,30128,31,1857,0.15,0.24,0.43,0.15,0.24,0.43,217.30,55.35,7.43,0.87,0.09,0.67,0.29,0.53,0.61,0.29,0.53,0.61,217.58,62.92,3.63,1.16,0.56,0.56
2018/06/14T22:45:18z,60:1:94:58:d7:ea,2.50i,2.0+OPENLOG+15833 MB+DS3231+BME280+PMSX003A+PMSX003B,81,20,36.16,1013.34,0.01,30128,31,1937,0.17,0.22,0.54,0.17,0.22,0.54,258.39,64.61,4.91,1.30,0.52,0.67,0.13,0.16,0.16,0.13,0.16,0.16,239.21,70.42,4.79,0.16,0.56,0.56
2018/06/14T22:46:38z,60:1:94:58:d7:ea,2.50i,2.0+OPENLOG+15833 MB+DS3231+BME280+PMSX003A+PMSX003B,80,20,35.33,1012.52,0.01,29640,31,2017,0.06,0.36,0.36,0.06,0.36,0.36,204.64,50.85,5.15,1.30,0.52,0.67,0.11,0.17,0.17,0.11,0.17,0.17,205.17,66.14,6.72,0.16,0.56,0.56
2018/06/14T22:47:58z,60:1:94:58:d7:ea,2.50i,2.0+OPENLOG+15833 MB+DS3231+BME280+PMSX003A+PMSX003B,81,20,36.16,1013.30,0.01,29696,31,2097,0.15,0.37,0.52,0.15,0.37,0.52,241.57,56.04,6.91,0.78,0.52,0.67,0.18,0.41,0.41,0.18,0.41,0.41,207.69,59.31,4.10,0.16,0.56,0.56
2018/06/14T22:49:18z,60:1:94:58:d7:ea,2.50i,2.0+OPENLOG+15833 MB+DS3231+BME280+PMSX003A+PMSX003B,81,21,37.39,1012.72,0.01,30128,31,2177,0.16,0.87,0.87,0.16,0.87,0.87,226.67,64.89,11.82,0.62,0.52,0.67,0.62,0.89,0.89,0.62,0.89,0.89,259.05,77.24,6.05,0.16,0.56,0.56
2018/06/14T22:50:38z,60:1:94:58:d7:ea,2.50i,2.0+OPENLOG+15833 MB+DS3231+BME280+PMSX003A+PMSX003B,81,21,37.39,1012.70,0.01,30128,31,2257,0.16,0.51,0.51,0.16,0.51,0.51,230.43,53.40,7.23,0.77,0.52,0.67,0.14,0.36,0.36,0.14,0.36,0.36,201.67,59.03,4.28,0.17,0.56,0.56
2018/06/14T23:32:29z,60:1:94:58:d7:ea,2.50i,2.0+OPENLOG+15833 MB+DS3231+BME280+PMSX003A+PMSX003B,81,12,23.60,1011.64,0.01,29888,31,97,24.77,39.75,46.14,22.45,35.48,45.02,4272.82,1255.77,242.68,29.09,4.73,1.41,30.05,38.55,41.55,25.42,34.72,41.40,4960.13,1518.03,179.25,12.50,3.45,1.75
2018/06/14T23:33:49z,60:1:94:58:d7:ea,2.50i,2.0+OPENLOG+15833 MB+DS3231+BME280+PMSX003A+PMSX003B,83,12,25.16,1012.63,0.01,30072,31,177,25.50,40.52,48.25,22.73,35.89,46.50,4900.09,1397.95,255.18,25.73,8.86,2.00,29.39,40.67,43.97,25.08,36.00,43.50,4919.17,1500.50,251.86,11.44,4.11,1.56
2018/06/14T23:35:09z,60:1:94:58:d7:ea,2.50i,2.0+OPENLOG+15833 MB+DS3231+BME280+PMSX003A+PMSX003B,83,12,25.16,1012.64,0.01,29584,31,257,22.04,35.34,44.43,20.91,32.66,43.91,4211.11,1228.85,244.64,30.60,12.09,2.81,27.30,39.32,44.14,23.70,35.22,43.76,4630.14,1414.57,234.38,20.76,4.70,2.38
2018/06/14T23:36:29z,60:1:94:58:d7:ea,2.50i,2.0+OPENLOG+15833 MB+DS3231+BME280+PMSX003A+PMSX003B,83,12,25.16,1012.62,0.01,29640,31,337,21.81,34.36,42.17,20.55,32.02,41.98,4226.43,1217.70,224.13,27.11,9.36,1.79,26.03,36.46,39.90,22.92,33.36,39.90,4444.85,1356.05,208.49,16.26,2.56,0.62
2018/06/14T23:37:49z,60:1:94:58:d7:ea,2.50i,2.0+OPENLOG+15833 MB+DS3231+BME280+PMSX003A+PMSX003B,82,12,24.38,1011.73,0.01,29616,31,417,20.64,33.93,43.91,19.91,31.91,43.60,4005.47,1159.47,233.91,31.64,12.00,1.91,24.61,34.63,38.42,22.47,32.42,38.42,4081.50,1259.00,212.76,14.84,4.58,1.21
2018/06/14T23:39:09z,60:1:94:58:d7:ea,2.50i,2.0+OPENLOG+15833 MB+DS3231+BME280+PMSX003A+PMSX003B,81,12,23.60,1011.41,0.01,30072,31,497,18.89,30.56,40.60,18.62,29.89,40.33,3716.27,1077.96,217.64,26.27,13.78,2.00,23.51,33.38,36.22,21.84,31.62,36.22,4001.11,1211.41,205.68,15.35,3.35,1.89
2018/06/14T23:40:29z,60:1:94:58:d7:ea,2.50i,2.0+OPENLOG+15833 MB+DS3231+BME280+PMSX003A+PMSX003B,83,12,25.16,1012.58,0.01,30072,31,577,19.09,30.11,36.47,19.02,29.69,36.47,3632.53,1054.13,190.49,21.60,6.40,2.00,21.86,32.22,35.59,20.57,30.76,35.59,3799.22,1154.00,201.57,17.14,3.14,1.51
2018/06/14T23:41:49z,60:1:94:58:d7:ea,2.50i,2.0+OPENLOG+15833 MB+DS3231+BME280+PMSX003A+PMSX003B,83,12,25.16,1012.63,0.01,29640,31,657,17.59,25.72,36.26,17.59,25.72,36.26,3262.57,947.87,180.22,24.48,11.43,3.43,21.86,30.35,32.41,20.76,29.76,32.41,3614.51,1109.22,167.49,16.22,1.24,0.32
2018/06/14T23:43:09z,60:1:94:58:d7:ea,2.50i,2.0+OPENLOG+15833 MB+DS3231+BME280+PMSX003A+PMSX003B,83,12,25.16,1012.72,0.01,29432,31,737,17.22,27.57,33.33,17.22,27.41,33.33,3280.83,944.61,184.74,24.00,4.70,0.87,21.11,29.53,30.50,20.39,29.29,30.50,3483.95,1067.32,158.16,12.05,0.16,0.32
2018/06/14T23:44:29z,60:1:94:58:d7:ea,2.50i,2.0+OPENLOG+15833 MB+DS3231+BME280+PMSX003A+PMSX003B,82,12,24.38,1012.00,0.01,30072,31,817,16.72,25.13,32.07,16.72,25.13,32.07,3107.61,896.39,166.00,20.57,8.74,1.87,19.11,27.43,30.46,18.97,27.43,30.46,3279.00,1015.24,171.57,12.22,3.03,0.22
2018/06/14T23:45:49z,60:1:94:58:d7:ea,2.50i,2.0+OPENLOG+15833 MB+DS3231+BME280+PMSX003A+PMSX003B,82,12,24.38,1011.89,0.01,30072,31,897,14.69,23.09,28.16,14.69,23.09,28.16,2790.67,797.02,156.62,17.07,7.78,0.40,17.46,23.95,26.22,17.46,23.95,26.22,2897.43,886.68,132.84,12.49,1.73,0.22
2018/06/14T23:47:09z,60:1:94:58:d7:ea,2.50i,2.0+OPENLOG+15833 MB+DS3231+BME280+PMSX003A+PMSX003B,82,12,24.38,1011.82,0.01,29536,31,977,13.80,22.91,28.93,13.80,22.91,28.93,2763.39,787.61,154.83,22.09,7.22,2.04,15.37,23.50,25.32,15.37,23.50,25.32,2718.32,832.47,150.76,10.95,1.63,1.21
2018/06/14T23:48:29z,60:1:94:58:d7:ea,2.50i,2.0+OPENLOG+15833 MB+DS3231+BME280+PMSX003A+PMSX003B,83,12,25.16,1012.58,0.01,29640,31,1057,13.09,21.53,27.53,13.09,21.53,27.53,2616.26,768.34,146.47,17.83,7.23,4.21,16.19,25.22,27.03,16.19,25.22,27.03,2824.70,871.51,167.46,13.08,1.68,0.54
2018/06/14T23:49:49z,60:1:94:58:d7:ea,2.50i,2.0+OPENLOG+15833 MB+DS3231+BME280+PMSX003A+PMSX003B,81,13,25.52,1010.70,0.01,29616,31,1137,13.46,23.35,29.35,13.46,23.35,29.35,2707.17,784.35,160.35,22.35,6.35,3.17,14.83,22.14,25.75,14.83,22.14,25.75,2570.17,794.11,136.11,17.17,2.83,0.83
2018/06/14T23:51:09z,60:1:94:58:d7:ea,2.50i,2.0+OPENLOG+15833 MB+DS3231+BME280+PMSX003A+PMSX003B,83,12,25.16,1012.56,0.01,30072,31,1217,11.60,18.82,24.22,11.60,18.82,24.22,2324.80,664.49,132.53,15.87,5.29,1.56,13.13,20.13,22.05,13.13,20.13,22.05,2433.24,736.97,130.97,9.79,1.95,0.58
2018/06/14T23:52:29z,60:1:94:58:d7:ea,2.50i,2.0+OPENLOG+15833 MB+DS3231+BME280+PMSX003A+PMSX003B,83,13,27.09,1012.57,0.01,30072,31,1297,10.68,17.32,21.45,10.68,17.32,21.45,2125.79,598.13,101.74,18.13,5.23,1.49,12.28,18.47,20.14,12.28,18.47,20.14,2269.67,690.39,119.69,10.11,1.89,0.11
2018/06/14T23:53:49z,60:1:94:58:d7:ea,2.50i,2.0+OPENLOG+15833 MB+DS3231+BME280+PMSX003A+PMSX003B,83,13,27.09,1012.55,0.01,29536,31,1377,10.70,17.21,21.53,10.70,17.21,21.53,2109.70,608.26,119.70,17.23,3.36,0.30,12.76,18.51,20.27,12.76,18.51,20.27,2156.59,667.73,113.49,11.51,2.11,0.11
2018/06/14T23:55:09z,60:1:94:58:d7:ea,2.50i,2.0+OPENLOG+15833 MB+DS3231+BME280+PMSX003A+PMSX003B,83,13,27.09,1012.48,0.01,29616,31,1457,10.43,17.07,23.96,10.43,17.07,23.96,2027.74,596.70,127.17,16.00,9.74,2.26,13.58,18.32,20.92,13.58,18.32,20.92,2234.76,687.82,108.74,9.58,2.95,2.16
2018/06/14T23:56:29z,60:1:94:58:d7:ea,2.50i,2.0+OPENLOG+15833 MB+DS3231+BME280+PMSX003A+PMSX003B,82,13,26.31,1011.78,0.01,30072,31,1537,9.91,15.68,20.87,9.91,15.68,20.87,1974.64,560.89,115.06,16.04,6.04,0.55,10.68,15.81,17.51,10.68,15.81,17.51,1921.38,582.16,105.62,8.05,1.95,0.05
2018/06/14T23:57:49z,60:1:94:58:d7:ea,2.50i,2.0+OPENLOG+15833 MB+DS3231+BME280+PMSX003A+PMSX003B,83,13,27.09,1012.56,0.01,30072,31,1617,8.62,14.00,18.53,8.62,14.00,18.53,1884.67,529.78,104.18,15.78,3.87,0.93,10.70,15.49,17.16,10.70,15.49,17.16,1877.59,575.68,87.97,6.81,1.62,0.76
2018/06/14T23:59:09z,60:1:94:58:d7:ea,2.50i,2.0+OPENLOG+15833 MB+DS3231+BME280+PMSX003A+PMSX003B,82,13,26.31,1012.11,0.01,29536,31,1697,8.93,13.93,15.72,8.93,13.93,15.72,1783.70,509.78,89.13,10.39,1.43,0.93,10.05,14.81,15.84,10.05,14.81,15.84,1755.65,538.49,99.84,7.03,0.97,0.76
