UTCDateTime,mac_address,firmware_ver,hardware,current_temp_f,current_humidity,current_dewpoint_f,pressure,adc,mem,rssi,uptime,pm1_0_atm,pm2_5_atm,pm10_0_atm,pm1_0_cf_1,pm2_5_cf_1,pm10_0_cf_1,p_0_3_um,p_0_5_um,p_1_0_um,p_2_5_um,p_5_0_um,p_10_0_um,pm1_0_atm_b,pm2_5_atm_b,pm10_0_atm_b,pm1_0_cf_1_b,pm2_5_cf_1_b,pm10_0_cf_1_b,p_0_3_um_b,p_0_5_um_b,p_1_0_um_b,p_2_5_um_b,p_5_0_um_b,p_10_0_um_b
2018/06/18T20:06:28z,2c:3a:e8:34:ff:b2,2.50i,2.0+OPENLOG+15833 MB+DS3231+BME280+PMSX003A+PMSX003B,70,55,53.09,1009.28,0.02,29672,31,23,1.00,1.00,1.00,1.00,1.00,1.00,0.00,0.00,0.00,0.00,0.00,0.00,0.00,0.00,0.00,0.00,0.00,0.00,0.00,0.00,0.00,0.00,0.00,0.00
2018/06/18T20:07:42z,2c:3a:e8:34:ff:b2,2.50i,2.0+OPENLOG+15833 MB+DS3231+BME280+PMSX003A+PMSX003B,71,55,54.02,1009.24,0.02,30128,31,97,5.12,6.59,6.90,5.12,6.59,6.90,975.95,276.10,20.93,1.27,0.44,0.00,5.32,6.14,6.14,5.32,6.14,6.14,995.03,272.73,22.16,0.00,0.00,0.00
2018/06/18T20:09:02z,2c:3a:e8:34:ff:b2,2.50i,2.0+OPENLOG+15833 MB+DS3231+BME280+PMSX003A+PMSX003B,71,54,53.52,1009.50,0.02,30128,31,177,138.84,209.14,224.41,93.49,140.88,151.16,18265.84,6221.41,1397.69,76.55,22.96,0.90,68.90,103.32,109.75,47.30,70.72,75.32,9947.25,3075.95,677.08,43.63,8.52,1.90
2018/06/18T20:10:22z,2c:3a:e8:34:ff:b2,2.50i,2.0+OPENLOG+15833 MB+DS3231+BME280+PMSX003A+PMSX003B,72,52,53.42,1009.25,0.02,30128,31,257,419.88,632.70,683.98,279.18,420.98,455.26,60556.74,19088.08,3931.66,257.74,75.94,3.28,408.20,631.55,676.58,271.45,419.98,450.23,58638.45,18412.28,4458.95,268.98,59.10,5.72
2018/06/18T20:11:42z,2c:3a:e8:34:ff:b2,2.50i,2.0+OPENLOG+15833 MB+DS3231+BME280+PMSX003A+PMSX003B,73,47,51.59,1009.30,0.02,29696,31,337,300.43,430.28,459.79,199.49,285.96,305.55,48125.17,14402.72,2480.38,174.11,43.60,1.74,304.70,443.11,472.51,202.32,294.76,314.30,45962.76,13967.03,2701.62,172.35,39.16,7.95
2018/06/18T20:13:02z,2c:3a:e8:34:ff:b2,2.50i,2.0+OPENLOG+15833 MB+DS3231+BME280+PMSX003A+PMSX003B,73,43,49.19,1009.37,0.02,29696,31,417,243.35,345.67,376.24,161.35,229.76,250.15,39925.96,11797.39,1948.22,142.72,41.85,2.74,240.42,352.08,381.34,159.21,233.82,253.29,38286.24,11481.55,2133.11,165.34,39.79,12.26
2018/06/18T20:14:22z,2c:3a:e8:34:ff:b2,2.50i,2.0+OPENLOG+15833 MB+DS3231+BME280+PMSX003A+PMSX003B,74,39,47.48,1009.40,0.02,30128,31,497,196.83,281.43,308.35,130.39,186.80,204.89,32909.68,9608.61,1611.13,127.65,36.96,2.76,203.03,290.39,308.84,134.53,192.87,205.05,32617.58,9690.03,1715.29,118.87,25.76,5.66
2018/06/18T20:15:42z,2c:3a:e8:34:ff:b2,2.50i,2.0+OPENLOG+15833 MB+DS3231+BME280+PMSX003A+PMSX003B,75,35,45.50,1009.16,0.02,30128,31,577,143.85,202.26,216.54,95.13,133.93,143.37,24343.04,7079.72,1089.43,79.09,21.37,1.11,139.05,199.32,217.11,91.92,132.08,143.84,23107.38,6803.46,1148.16,93.62,24.30,8.22
2018/06/18T20:17:02z,2c:3a:e8:34:ff:b2,2.50i,2.0+OPENLOG+15833 MB+DS3231+BME280+PMSX003A+PMSX003B,75,34,44.73,1009.16,0.02,29592,31,657,131.96,183.59,202.11,87.13,121.54,133.91,22399.24,6481.07,978.24,83.87,25.13,0.83,132.89,187.78,201.62,87.84,124.46,133.76,21836.43,6389.35,1096.59,74.51,19.97,3.41
2018/06/18T20:18:22z,2c:3a:e8:34:ff:b2,2.50i,2.0+OPENLOG+15833 MB+DS3231+BME280+PMSX003A+PMSX003B,76,33,44.83,1008.96,0.02,29696,31,737,118.49,165.80,180.09,78.31,109.60,119.22,20403.80,5843.62,901.98,65.76,20.49,1.27,120.25,167.97,179.97,79.39,111.17,119.14,19981.42,5857.11,940.11,63.94,16.42,3.78
2018/06/18T20:19:42z,2c:3a:e8:34:ff:b2,2.50i,2.0+OPENLOG+15833 MB+DS3231+BME280+PMSX003A+PMSX003B,76,33,44.83,1009.10,0.02,30128,31,817,111.30,154.09,163.88,73.51,101.98,108.51,18813.42,5435.58,818.21,53.84,13.56,1.09,111.10,155.46,165.82,73.28,102.82,109.79,18419.69,5392.28,872.92,61.92,13.79,1.82
2018/06/18T20:21:02z,2c:3a:e8:34:ff:b2,2.50i,2.0+OPENLOG+15833 MB+DS3231+BME280+PMSX003A+PMSX003B,77,32,44.89,1009.09,0.02,30128,31,897,102.96,144.67,153.98,67.76,95.72,101.83,17689.83,5076.35,783.63,55.48,13.07,1.24,99.57,142.84,156.46,65.30,94.32,103.38,16932.41,4955.22,833.78,69.43,17.95,4.49
2018/06/18T20:22:22z,2c:3a:e8:34:ff:b2,2.50i,2.0+OPENLOG+15833 MB+DS3231+BME280+PMSX003A+PMSX003B,77,32,44.89,1009.07,0.02,29640,31,977,95.42,133.29,142.76,62.96,87.87,94.33,16606.73,4722.87,695.20,53.33,14.64,0.36,94.34,131.46,141.31,62.09,86.83,93.26,15923.14,4623.46,732.80,50.17,14.23,3.34
2018/06/18T20:23:43z,2c:3a:e8:34:ff:b2,2.50i,2.0+OPENLOG+15833 MB+DS3231+BME280+PMSX003A+PMSX003B,78,32,45.76,1009.02,0.02,29696,31,1057,88.96,124.64,133.64,58.33,82.22,88.27,15437.53,4434.49,679.84,44.80,13.98,0.67,88.89,119.64,128.92,58.44,79.08,85.14,14783.33,4280.25,644.94,41.25,13.19,1.47
2018/06/18T20:25:03z,2c:3a:e8:34:ff:b2,2.50i,2.0+OPENLOG+15833 MB+DS3231+BME280+PMSX003A+PMSX003B,78,32,45.76,1008.96,0.02,29672,31,1137,84.36,118.17,127.30,55.53,77.87,84.00,14722.72,4203.06,627.70,46.43,11.47,1.09,81.13,110.34,116.87,53.13,72.63,78.42,13586.76,3947.97,622.00,31.50,9.03,1.16
2018/06/18T20:26:23z,2c:3a:e8:34:ff:b2,2.50i,2.0+OPENLOG+15833 MB+DS3231+BME280+PMSX003A+PMSX003B,78,32,45.76,1008.89,0.02,30128,31,1217,77.85,107.02,117.93,51.20,70.61,79.04,13577.15,3881.43,556.50,39.70,17.91,1.30,79.35,109.00,116.16,52.16,72.11,78.24,13419.41,3898.08,605.41,35.84,9.27,2.43
2018/06/18T20:27:43z,2c:3a:e8:34:ff:b2,2.50i,2.0+OPENLOG+15833 MB+DS3231+BME280+PMSX003A+PMSX003B,79,32,46.63,1008.98,0.02,30128,31,1297,72.91,100.62,107.13,47.82,66.20,74.96,12755.87,3646.64,523.24,36.18,10.00,0.20,71.33,100.36,109.11,46.72,66.14,75.72,12306.25,3543.22,564.44,38.33,12.75,2.92
2018/06/18T20:29:03z,2c:3a:e8:34:ff:b2,2.50i,2.0+OPENLOG+15833 MB+DS3231+BME280+PMSX003A+PMSX003B,79,32,46.63,1008.92,0.02,29696,31,1377,67.85,95.43,103.87,44.43,62.85,73.70,11844.59,3379.96,518.52,38.65,11.89,1.15,67.71,93.14,99.60,44.34,61.09,72.17,11519.57,3330.83,497.66,34.66,8.94,2.66
2018/06/18T20:30:23z,2c:3a:e8:34:ff:b2,2.50i,2.0+OPENLOG+15833 MB+DS3231+BME280+PMSX003A+PMSX003B,79,32,46.63,1009.10,0.02,29696,31,1457,64.61,90.25,95.59,42.18,59.36,70.61,11275.16,3214.07,481.43,29.77,7.52,0.25,62.71,90.66,96.63,41.03,59.57,71.03,10784.23,3133.80,502.29,38.83,8.26,2.00
2018/06/18T20:31:43z,2c:3a:e8:34:ff:b2,2.50i,2.0+OPENLOG+15833 MB+DS3231+BME280+PMSX003A+PMSX003B,79,32,46.63,1008.78,0.02,30128,31,1537,59.09,80.91,85.78,38.69,53.51,66.78,10463.67,2958.78,416.07,21.80,5.96,0.13,58.58,81.63,87.63,38.29,53.97,67.53,10072.66,2907.18,436.11,35.03,8.18,1.32
2018/06/18T20:33:03z,2c:3a:e8:34:ff:b2,2.50i,2.0+OPENLOG+15833 MB+DS3231+BME280+PMSX003A+PMSX003B,80,32,47.50,1008.67,0.02,30128,31,1617,55.98,79.36,84.76,36.44,52.67,66.18,9959.13,2824.51,442.87,27.36,7.93,0.53,55.78,79.11,83.97,36.33,52.64,65.86,9726.25,2773.14,440.22,31.28,6.94,2.11
2018/06/18T20:34:23z,2c:3a:e8:34:ff:b2,2.50i,2.0+OPENLOG+15833 MB+DS3231+BME280+PMSX003A+PMSX003B,80,32,47.50,1009.09,0.02,29592,31,1697,52.24,72.33,76.78,34.48,50.22,62.65,9259.11,2615.83,382.39,22.87,6.78,0.39,53.03,73.42,80.00,34.72,50.42,63.97,9163.75,2647.67,404.25,31.75,9.64,1.78
2018/06/18T20:35:43z,2c:3a:e8:34:ff:b2,2.50i,2.0+OPENLOG+15833 MB+DS3231+BME280+PMSX003A+PMSX003B,80,32,47.50,1009.08,0.02,29696,31,1777,49.48,69.32,74.39,33.52,49.02,61.57,8887.50,2504.61,361.07,25.61,7.50,0.68,49.34,70.06,75.77,33.46,49.43,62.20,8483.23,2468.91,395.74,32.06,6.97,2.14
2018/06/18T20:37:03z,2c:3a:e8:34:ff:b2,2.50i,2.0+OPENLOG+15833 MB+DS3231+BME280+PMSX003A+PMSX003B,81,32,48.37,1009.08,0.02,30128,31,1857,46.40,66.26,72.43,32.57,48.06,60.83,8182.40,2334.77,369.85,29.89,8.38,0.45,46.11,63.08,66.57,32.24,46.43,57.35,7934.68,2289.76,352.14,18.11,4.30,0.22
2018/06/18T20:38:23z,2c:3a:e8:34:ff:b2,2.50i,2.0+OPENLOG+15833 MB+DS3231+BME280+PMSX003A+PMSX003B,81,32,48.37,1009.01,0.02,30128,31,1937,42.98,59.45,64.53,30.83,44.96,56.13,7795.85,2193.13,323.83,24.19,6.40,0.17,44.20,61.66,65.26,31.69,45.86,56.69,7550.06,2185.63,343.51,24.71,5.26,0.37
2018/06/18T20:39:43z,2c:3a:e8:34:ff:b2,2.50i,2.0+OPENLOG+15833 MB+DS3231+BME280+PMSX003A+PMSX003B,81,32,48.37,1009.04,0.02,29640,31,2017,42.20,58.78,63.48,31.02,44.91,55.83,7507.76,2136.65,319.39,21.54,6.22,0.78,40.30,58.59,61.89,30.22,44.89,54.97,7062.89,2046.51,336.16,22.89,4.57,1.14
2018/06/18T20:41:03z,2c:3a:e8:34:ff:b2,2.50i,2.0+OPENLOG+15833 MB+DS3231+BME280+PMSX003A+PMSX003B,81,32,48.37,1009.04,0.02,29696,31,2097,39.18,54.59,59.34,29.68,43.16,53.30,7036.02,1995.57,290.95,20.98,6.86,0.45,39.87,55.68,60.42,29.95,43.42,54.03,6926.92,2002.55,320.76,22.79,6.21,0.92
2018/06/18T20:42:23z,2c:3a:e8:34:ff:b2,2.50i,2.0+OPENLOG+15833 MB+DS3231+BME280+PMSX003A+PMSX003B,81,32,48.37,1008.76,0.02,30128,31,2177,37.38,53.85,57.79,28.83,42.94,52.57,6714.64,1902.38,291.21,20.23,5.53,0.98,36.08,50.53,55.08,28.28,41.47,51.08,6321.50,1804.11,286.42,23.72,7.11,1.39
2018/06/18T20:43:43z,2c:3a:e8:34:ff:b2,2.50i,2.0+OPENLOG+15833 MB+DS3231+BME280+PMSX003A+PMSX003B,82,32,49.24,1009.05,0.02,30128,31,2257,33.72,46.96,50.07,27.35,39.65,47.87,6178.63,1734.17,244.37,16.24,4.33,0.24,34.36,48.06,52.56,27.64,40.06,49.56,6012.08,1736.72,260.31,18.94,5.92,1.67
2018/06/18T20:45:26z,2c:3a:e8:34:ff:b2,2.50i,2.0+OPENLOG+15833 MB+DS3231+BME280+PMSX003A+PMSX003B,82,32,49.24,1009.09,0.02,29672,31,23,27.00,31.00,31.00,24.00,30.00,31.00,0.00,0.00,0.00,0.00,0.00,0.00,24.00,30.00,30.00,22.00,30.00,30.00,0.00,0.00,0.00,0.00,0.00,0.00
2018/06/18T20:46:40z,2c:3a:e8:34:ff:b2,2.50i,2.0+OPENLOG+15833 MB+DS3231+BME280+PMSX003A+PMSX003B,82,32,49.24,1008.85,0.02,30128,31,97,31.02,44.33,47.95,26.05,38.10,46.47,5437.12,1564.60,252.40,15.70,5.07,0.30,29.43,41.31,42.40,25.09,36.34,42.03,5263.54,1511.26,230.89,11.29,1.09,0.00
2018/06/18T20:48:00z,2c:3a:e8:34:ff:b2,2.50i,2.0+OPENLOG+15833 MB+DS3231+BME280+PMSX003A+PMSX003B,82,32,49.24,1008.89,0.02,30128,31,177,28.93,43.41,47.25,24.80,37.52,45.95,5401.36,1527.27,253.34,17.39,6.20,0.34,29.50,43.25,46.47,25.25,37.78,45.58,5293.83,1512.86,245.42,23.08,4.53,0.58
2018/06/18T20:49:20z,2c:3a:e8:34:ff:b2,2.50i,2.0+OPENLOG+15833 MB+DS3231+BME280+PMSX003A+PMSX003B,82,32,49.24,1008.91,0.02,30128,31,257,27.91,43.40,48.62,24.24,37.71,46.93,5226.20,1472.91,255.40,22.91,7.36,1.04,28.00,40.08,42.42,24.19,35.58,42.28,4990.00,1440.67,231.11,15.78,3.11,0.72
2018/06/18T20:50:40z,2c:3a:e8:34:ff:b2,2.50i,2.0+OPENLOG+15833 MB+DS3231+BME280+PMSX003A+PMSX003B,83,32,50.11,1009.06,0.02,29696,31,337,26.86,40.77,43.66,23.75,36.23,43.45,4905.95,1394.75,245.25,17.16,3.70,0.32,26.22,38.14,40.38,22.86,34.22,40.38,4766.11,1377.08,224.43,13.43,3.54,1.24
2018/06/18T20:52:00z,2c:3a:e8:34:ff:b2,2.50i,2.0+OPENLOG+15833 MB+DS3231+BME280+PMSX003A+PMSX003B,82,32,49.24,1008.84,0.02,29512,31,417,26.59,38.50,43.17,23.52,34.74,43.11,4750.57,1359.98,220.87,20.09,6.96,0.57,25.55,37.34,40.89,22.92,34.13,40.89,4549.89,1305.34,229.34,17.05,5.97,0.92
2018/06/18T20:53:20z,2c:3a:e8:34:ff:b2,2.50i,2.0+OPENLOG+15833 MB+DS3231+BME280+PMSX003A+PMSX003B,83,32,50.11,1009.06,0.02,30128,31,497,24.91,37.52,43.80,22.41,34.11,43.54,4606.89,1314.76,230.59,24.11,8.72,1.67,24.16,33.57,36.76,22.16,32.03,36.76,4243.46,1221.84,201.16,10.97,4.27,1.11
2018/06/18T20:54:40z,2c:3a:e8:34:ff:b2,2.50i,2.0+OPENLOG+15833 MB+DS3231+BME280+PMSX003A+PMSX003B,83,32,50.11,1009.02,0.02,30128,31,577,22.35,33.23,37.52,21.15,31.60,37.52,4077.19,1165.71,198.13,16.90,5.96,0.15,22.68,32.86,35.68,21.51,31.62,35.68,3980.51,1157.11,196.65,13.46,3.43,0.76
2018/06/18T20:56:00z,2c:3a:e8:34:ff:b2,2.50i,2.0+OPENLOG+15833 MB+DS3231+BME280+PMSX003A+PMSX003B,83,32,50.11,1008.94,0.02,29592,31,657,22.00,34.53,38.73,20.80,32.64,38.56,4076.07,1165.49,212.36,20.18,5.29,0.44,21.42,31.32,33.84,20.55,30.61,33.84,3835.34,1114.29,181.79,12.39,3.39,0.58
2018/06/18T20:57:20z,2c:3a:e8:34:ff:b2,2.50i,2.0+OPENLOG+15833 MB+DS3231+BME280+PMSX003A+PMSX003B,83,32,50.11,1009.04,0.02,29696,31,737,20.88,32.33,35.50,19.94,31.00,35.50,3932.38,1130.31,209.54,12.06,4.56,0.44,21.89,32.83,38.44,20.92,31.64,38.44,3935.92,1141.44,203.31,20.58,7.83,1.03
2018/06/18T20:58:40z,2c:3a:e8:34:ff:b2,2.50i,2.0+OPENLOG+15833 MB+DS3231+BME280+PMSX003A+PMSX003B,83,32,50.11,1009.05,0.02,30128,31,817,19.13,31.09,35.93,18.89,30.20,35.93,3666.20,1031.62,189.84,22.84,7.78,1.20,19.89,29.73,33.81,19.41,29.30,33.81,3650.35,1056.32,187.38,16.22,5.89,0.95
2018/06/18T21:00:00z,2c:3a:e8:34:ff:b2,2.50i,2.0+OPENLOG+15833 MB+DS3231+BME280+PMSX003A+PMSX003B,83,32,50.11,1009.01,0.02,30128,31,897,18.59,29.26,33.37,18.57,29.13,33.37,3611.22,1011.50,194.80,15.72,6.04,0.52,18.25,28.44,30.31,18.25,28.36,30.31,3404.00,977.08,184.58,11.64,3.03,0.56
2018/06/18T21:01:20z,2c:3a:e8:34:ff:b2,2.50i,2.0+OPENLOG+15833 MB+DS3231+BME280+PMSX003A+PMSX003B,83,32,50.11,1009.00,0.02,29640,31,977,16.85,27.17,31.47,16.85,27.17,31.47,3277.72,924.79,178.30,17.85,6.04,1.00,16.51,24.68,28.08,16.51,24.68,28.08,3029.11,872.73,148.08,15.22,5.19,0.95
2018/06/18T21:02:40z,2c:3a:e8:34:ff:b2,2.50i,2.0+OPENLOG+15833 MB+DS3231+BME280+PMSX003A+PMSX003B,83,32,50.11,1008.81,0.02,29696,31,1057,17.11,27.13,33.52,17.11,27.13,33.52,3268.63,919.04,169.70,24.20,9.24,1.83,15.33,24.53,27.22,15.33,24.53,27.22,2968.67,854.50,172.61,14.47,4.53,0.95
2018/06/18T21:04:00z,2c:3a:e8:34:ff:b2,2.50i,2.0+OPENLOG+15833 MB+DS3231+BME280+PMSX003A+PMSX003B,83,32,50.11,1008.93,0.02,30128,31,1137,15.57,24.15,27.43,15.57,24.15,27.43,2932.09,837.91,165.70,10.15,5.00,0.57,15.92,24.92,27.22,15.92,24.92,27.22,2963.92,863.22,169.41,13.46,3.43,0.65
2018/06/18T21:05:20z,2c:3a:e8:34:ff:b2,2.50i,2.0+OPENLOG+15833 MB+DS3231+BME280+PMSX003A+PMSX003B,83,32,50.11,1008.99,0.02,30128,31,1217,15.72,24.20,26.50,15.72,24.20,26.50,2825.09,822.46,147.72,12.33,3.54,0.57,16.37,24.18,26.47,16.37,24.18,26.47,2890.18,835.47,150.82,13.50,1.97,0.03
2018/06/18T21:06:40z,2c:3a:e8:34:ff:b2,2.50i,2.0+OPENLOG+15833 MB+DS3231+BME280+PMSX003A+PMSX003B,83,32,50.11,1008.80,0.02,30128,31,1297,14.63,22.61,26.13,14.63,22.61,26.13,2777.48,787.52,151.07,12.85,5.85,0.63,14.53,23.19,26.67,14.53,23.19,26.67,2703.92,784.22,152.69,14.56,4.97,1.75
2018/06/18T21:08:00z,2c:3a:e8:34:ff:b2,2.50i,2.0+OPENLOG+15833 MB+DS3231+BME280+PMSX003A+PMSX003B,83,32,50.11,1008.78,0.02,29592,31,1377,13.74,22.62,25.19,13.74,22.62,25.19,2623.28,756.23,145.79,14.47,3.62,0.57,14.53,22.42,24.67,14.53,22.42,24.67,2706.92,788.00,131.92,12.44,3.08,1.25
2018/06/18T21:09:20z,2c:3a:e8:34:ff:b2,2.50i,2.0+OPENLOG+15833 MB+DS3231+BME280+PMSX003A+PMSX003B,83,32,50.11,1008.89,0.02,29672,31,1457,12.47,22.20,26.76,12.47,22.20,26.76,2535.80,722.42,157.56,17.11,7.27,0.87,13.14,20.86,25.86,13.14,20.86,25.86,2492.14,713.31,136.94,18.34,7.77,1.17
2018/06/18T21:10:40z,2c:3a:e8:34:ff:b2,2.50i,2.0+OPENLOG+15833 MB+DS3231+BME280+PMSX003A+PMSX003B,83,32,50.11,1008.88,0.02,30128,31,1537,13.16,22.38,25.96,13.16,22.38,25.96,2540.47,725.82,145.51,17.16,5.51,0.42,12.29,19.51,22.11,12.29,19.51,22.11,2285.14,672.94,131.83,10.89,4.00,0.91
2018/06/18T21:12:00z,2c:3a:e8:34:ff:b2,2.50i,2.0+OPENLOG+15833 MB+DS3231+BME280+PMSX003A+PMSX003B,83,32,50.11,1008.71,0.02,29944,31,1617,11.59,19.13,22.76,11.59,19.13,22.76,2316.39,644.85,132.15,12.11,6.33,0.37,12.11,18.97,20.63,12.11,18.97,20.63,2314.46,663.20,116.89,11.60,3.06,0.03
2018/06/18T21:13:20z,2c:3a:e8:34:ff:b2,2.50i,2.0+OPENLOG+15833 MB+DS3231+BME280+PMSX003A+PMSX003B,83,32,50.11,1008.88,0.02,29696,31,1697,11.49,20.42,23.40,11.49,20.42,23.40,2322.73,651.91,137.33,16.09,4.87,0.24,12.28,19.61,21.39,12.28,19.61,21.39,2272.42,666.08,119.39,10.75,3.14,0.83
2018/06/18T21:14:40z,2c:3a:e8:34:ff:b2,2.50i,2.0+OPENLOG+15833 MB+DS3231+BME280+PMSX003A+PMSX003B,83,32,50.11,1008.90,0.02,29696,31,1777,11.72,18.36,21.26,11.72,18.36,21.26,2275.85,653.02,128.47,11.79,3.68,0.23,9.66,16.74,19.26,9.66,16.74,19.26,1943.83,557.66,112.29,13.40,3.71,1.03
2018/06/18T21:16:00z,2c:3a:e8:34:ff:b2,2.50i,2.0+OPENLOG+15833 MB+DS3231+BME280+PMSX003A+PMSX003B,83,32,50.11,1008.78,0.02,30128,31,1857,11.11,17.37,20.37,11.11,17.37,20.37,2109.07,607.96,120.35,8.80,4.46,0.67,10.17,16.57,18.57,10.17,16.57,18.57,1995.94,570.29,114.60,10.06,3.49,0.31
2018/06/18T21:17:20z,2c:3a:e8:34:ff:b2,2.50i,2.0+OPENLOG+15833 MB+DS3231+BME280+PMSX003A+PMSX003B,83,32,50.11,1008.87,0.02,30128,31,1937,9.81,17.15,20.77,9.81,17.15,20.77,1908.19,557.40,136.11,12.38,4.53,0.72,10.00,16.64,19.17,10.00,16.64,19.17,1974.17,570.22,119.47,9.61,3.64,0.78
2018/06/18T21:18:40z,2c:3a:e8:34:ff:b2,2.50i,2.0+OPENLOG+15833 MB+DS3231+BME280+PMSX003A+PMSX003B,83,32,50.11,1008.84,0.02,29592,31,2017,9.82,17.34,19.68,9.82,17.34,19.68,1922.45,556.64,119.98,11.14,3.98,0.50,9.32,15.94,17.94,9.32,15.94,17.94,1832.12,533.62,104.74,14.59,2.65,0.78
2018/06/18T21:20:00z,2c:3a:e8:34:ff:b2,2.50i,2.0+OPENLOG+15833 MB+DS3231+BME280+PMSX003A+PMSX003B,83,32,50.11,1008.70,0.02,29696,31,2097,10.07,17.15,19.87,10.07,17.15,19.87,2021.35,562.98,120.96,12.13,4.22,0.41,9.56,15.44,17.83,9.56,15.44,17.83,1811.58,519.39,99.58,12.22,3.64,0.39
2018/06/18T21:21:20z,2c:3a:e8:34:ff:b2,2.50i,2.0+OPENLOG+15833 MB+DS3231+BME280+PMSX003A+PMSX003B,84,32,50.98,1008.85,0.02,29944,31,2177,9.04,15.89,18.80,9.04,15.89,18.80,1800.00,515.04,114.64,11.98,4.80,0.56,9.26,15.20,17.51,9.26,15.20,17.51,1819.63,525.77,104.49,11.54,3.29,0.29
2018/06/18T21:22:40z,2c:3a:e8:34:ff:b2,2.50i,2.0+OPENLOG+15833 MB+DS3231+BME280+PMSX003A+PMSX003B,83,32,50.11,1008.76,0.02,30128,31,2257,8.20,13.43,16.07,8.20,13.43,16.07,1661.09,479.41,102.00,8.72,4.17,0.22,9.15,15.06,16.94,9.15,15.06,16.94,1697.12,495.88,98.76,11.03,2.94,0.50
2018/06/18T21:24:24z,2c:3a:e8:34:ff:b2,2.50i,2.0+OPENLOG+15833 MB+DS3231+BME280+PMSX003A+PMSX003B,83,32,50.11,1008.72,0.02,29672,31,23,4.00,7.00,7.00,4.00,7.00,7.00,0.00,0.00,0.00,0.00,0.00,0.00,2.00,4.00,4.00,2.00,4.00,4.00,0.00,0.00,0.00,0.00,0.00,0.00
2018/06/18T21:25:38z,2c:3a:e8:34:ff:b2,2.50i,2.0+OPENLOG+15833 MB+DS3231+BME280+PMSX003A+PMSX003B,84,32,50.98,1008.72,0.02,30128,31,97,7.44,12.80,16.02,7.44,12.80,16.02,1510.76,441.05,83.78,12.51,5.61,0.29,7.55,13.61,14.52,7.55,13.61,14.52,1554.82,446.97,97.15,10.18,1.15,0.00
2018/06/18T21:26:58z,2c:3a:e8:34:ff:b2,2.50i,2.0+OPENLOG+15833 MB+DS3231+BME280+PMSX003A+PMSX003B,84,32,50.98,1008.79,0.02,30128,31,177,6.71,13.42,16.29,6.71,13.42,16.29,1523.94,435.94,106.21,10.40,4.19,0.54,7.58,13.53,17.19,7.58,13.53,17.19,1544.33,444.44,96.08,16.22,5.17,0.69
2018/06/18T21:28:18z,2c:3a:e8:34:ff:b2,2.50i,2.0+OPENLOG+15833 MB+DS3231+BME280+PMSX003A+PMSX003B,84,32,50.98,1008.71,0.02,30128,31,257,6.54,12.65,15.83,6.54,12.65,15.83,1416.98,408.76,101.91,11.33,5.17,0.74,5.94,10.37,13.37,5.94,10.37,13.37,1353.51,388.97,80.54,8.77,4.17,0.69
2018/06/18T21:29:38z,2c:3a:e8:34:ff:b2,2.50i,2.0+OPENLOG+15833 MB+DS3231+BME280+PMSX003A+PMSX003B,84,32,50.98,1008.85,0.02,29696,31,337,7.41,14.30,17.04,7.41,14.30,17.04,1538.41,439.54,108.67,13.33,4.52,0.43,6.44,11.64,12.83,6.44,11.64,12.83,1344.92,395.44,84.06,7.61,1.56,0.58
2018/06/18T21:30:58z,2c:3a:e8:34:ff:b2,2.50i,2.0+OPENLOG+15833 MB+DS3231+BME280+PMSX003A+PMSX003B,83,32,50.11,1008.40,0.02,29672,31,417,6.85,13.61,16.89,6.85,13.61,16.89,1459.30,422.87,109.50,13.02,5.30,0.26,7.00,11.36,12.31,7.00,11.36,12.31,1285.75,388.22,82.97,8.86,1.64,0.08
2018/06/18T21:32:18z,2c:3a:e8:34:ff:b2,2.50i,2.0+OPENLOG+15833 MB+DS3231+BME280+PMSX003A+PMSX003B,84,32,50.98,1008.79,0.02,30128,31,497,6.70,12.87,14.78,6.70,12.87,14.78,1368.65,398.78,96.46,9.13,3.54,0.26,6.50,9.38,11.38,6.50,9.38,11.38,1200.62,350.76,67.94,6.53,2.53,0.08
2018/06/18T21:33:38z,2c:3a:e8:34:ff:b2,2.50i,2.0+OPENLOG+15833 MB+DS3231+BME280+PMSX003A+PMSX003B,84,32,50.98,1008.82,0.02,30128,31,577,5.61,11.46,14.11,5.61,11.46,14.11,1220.61,353.57,87.52,12.91,3.96,0.26,5.53,9.92,12.03,5.53,9.92,12.03,1181.17,343.39,78.11,9.97,3.50,0.33
2018/06/18T21:34:58z,2c:3a:e8:34:ff:b2,2.50i,2.0+OPENLOG+15833 MB+DS3231+BME280+PMSX003A+PMSX003B,84,32,50.98,1008.71,0.02,29696,31,657,5.57,11.43,15.13,5.57,11.43,15.13,1260.20,361.26,88.85,12.24,5.15,0.61,5.64,10.03,10.67,5.64,10.03,10.67,1207.33,348.47,67.83,6.61,1.22,0.33
2018/06/18T21:36:18z,2c:3a:e8:34:ff:b2,2.50i,2.0+OPENLOG+15833 MB+DS3231+BME280+PMSX003A+PMSX003B,84,32,50.98,1008.76,0.02,29696,31,737,5.91,10.00,11.74,5.91,10.00,11.74,1259.55,352.87,69.94,7.51,2.32,0.64,6.14,10.91,13.09,6.14,10.91,13.09,1237.11,356.54,80.49,9.17,3.20,0.40
2018/06/18T21:37:38z,2c:3a:e8:34:ff:b2,2.50i,2.0+OPENLOG+15833 MB+DS3231+BME280+PMSX003A+PMSX003B,83,32,50.11,1008.14,0.02,30128,31,817,5.07,10.52,13.22,5.07,10.52,13.22,1209.26,349.33,92.78,11.93,4.00,0.24,4.94,10.06,11.51,4.94,10.06,11.51,1053.94,313.03,66.69,13.80,2.51,0.31
2018/06/18T21:38:58z,2c:3a:e8:34:ff:b2,2.50i,2.0+OPENLOG+15833 MB+DS3231+BME280+PMSX003A+PMSX003B,84,32,50.98,1008.75,0.02,30128,31,897,4.65,9.98,13.54,4.65,9.98,13.54,1131.13,334.70,81.28,12.76,5.83,0.91,6.20,10.94,12.17,6.20,10.94,12.17,1301.40,365.00,74.11,10.51,1.37,0.06
2018/06/18T21:40:18z,2c:3a:e8:34:ff:b2,2.50i,2.0+OPENLOG+15833 MB+DS3231+BME280+PMSX003A+PMSX003B,84,32,50.98,1008.82,0.02,29592,31,977,5.48,11.15,13.52,5.48,11.15,13.52,1168.24,339.30,84.48,10.70,3.91,1.48,4.25,7.33,8.42,4.25,7.33,8.42,1008.08,280.31,49.67,5.19,1.44,0.58
2018/06/18T21:41:38z,2c:3a:e8:34:ff:b2,2.50i,2.0+OPENLOG+15833 MB+DS3231+BME280+PMSX003A+PMSX003B,84,32,50.98,1008.75,0.02,29696,31,1057,4.42,9.25,14.40,4.42,9.25,14.40,1107.00,317.10,83.54,12.79,7.19,1.31,4.23,7.54,8.83,4.23,7.54,8.83,911.83,268.11,55.51,7.86,1.51,0.31
2018/06/18T21:42:58z,2c:3a:e8:34:ff:b2,2.50i,2.0+OPENLOG+15833 MB+DS3231+BME280+PMSX003A+PMSX003B,84,32,50.98,1008.77,0.02,30128,31,1137,4.23,8.87,12.45,4.23,8.87,12.45,1107.89,314.43,86.98,9.64,5.45,0.53,3.69,7.58,8.44,3.69,7.58,8.44,894.83,266.89,59.81,7.11,1.56,0.42
2018/06/18T21:44:18z,2c:3a:e8:34:ff:b2,2.50i,2.0+OPENLOG+15833 MB+DS3231+BME280+PMSX003A+PMSX003B,84,32,50.98,1008.58,0.02,30128,31,1217,4.41,8.16,11.41,4.41,8.16,11.41,967.16,273.09,68.82,10.36,4.18,1.59,3.78,7.28,8.72,3.78,7.28,8.72,908.33,258.19,61.14,5.81,2.28,0.42
2018/06/18T21:45:38z,2c:3a:e8:34:ff:b2,2.50i,2.0+OPENLOG+15833 MB+DS3231+BME280+PMSX003A+PMSX003B,84,32,50.98,1008.75,0.02,30128,31,1297,4.93,8.82,10.71,4.93,8.82,10.71,1033.67,302.29,73.24,6.89,3.18,1.59,4.92,8.16,11.00,4.92,8.16,11.00,986.03,284.35,63.95,10.43,3.62,1.70
2018/06/18T21:46:58z,2c:3a:e8:34:ff:b2,2.50i,2.0+OPENLOG+15833 MB+DS3231+BME280+PMSX003A+PMSX003B,84,32,50.98,1008.75,0.02,29696,31,1377,3.66,7.77,10.68,3.66,7.77,10.68,902.32,259.80,71.55,10.18,4.68,0.68,3.50,7.03,8.03,3.50,7.03,8.03,843.58,242.92,60.00,5.86,1.75,1.70
2018/06/18T21:48:18z,2c:3a:e8:34:ff:b2,2.50i,2.0+OPENLOG+15833 MB+DS3231+BME280+PMSX003A+PMSX003B,84,32,50.98,1008.70,0.02,29672,31,1457,3.93,8.16,10.96,3.93,8.16,10.96,945.00,266.87,63.58,11.11,4.47,0.62,3.78,7.31,8.06,3.78,7.31,8.06,867.92,252.56,55.94,4.44,1.19,0.31
2018/06/18T21:49:38z,2c:3a:e8:34:ff:b2,2.50i,2.0+OPENLOG+15833 MB+DS3231+BME280+PMSX003A+PMSX003B,84,32,50.98,1008.72,0.02,30128,31,1537,3.32,7.75,10.77,3.32,7.75,10.77,864.07,251.30,66.82,13.07,4.43,0.62,3.73,7.24,8.84,3.73,7.24,8.84,804.89,242.73,52.08,8.00,2.03,0.38
2018/06/18T21:50:58z,2c:3a:e8:34:ff:b2,2.50i,2.0+OPENLOG+15833 MB+DS3231+BME280+PMSX003A+PMSX003B,84,32,50.98,1008.70,0.02,30128,31,1617,3.36,8.02,10.44,3.36,8.02,10.44,790.67,237.02,68.42,12.84,3.22,0.24,3.78,7.08,7.89,3.78,7.08,7.89,844.67,242.97,55.75,6.08,1.33,0.38
2018/06/18T21:52:18z,2c:3a:e8:34:ff:b2,2.50i,2.0+OPENLOG+15833 MB+DS3231+BME280+PMSX003A+PMSX003B,84,32,50.98,1008.72,0.02,29592,31,1697,3.02,7.75,10.86,3.02,7.75,10.86,856.64,244.05,68.45,12.02,5.59,0.59,2.45,5.61,7.42,2.45,5.61,7.42,688.26,196.47,45.74,8.00,2.63,0.55
2018/06/18T21:53:38z,2c:3a:e8:34:ff:b2,2.50i,2.0+OPENLOG+15833 MB+DS3231+BME280+PMSX003A+PMSX003B,84,32,50.98,1008.67,0.02,29672,31,1777,2.61,6.25,8.80,2.61,6.25,8.80,777.68,219.52,50.43,8.70,4.11,1.25,3.08,5.42,7.69,3.08,5.42,7.69,727.50,211.72,43.94,7.56,2.92,0.50
2018/06/18T21:54:58z,2c:3a:e8:34:ff:b2,2.50i,2.0+OPENLOG+15833 MB+DS3231+BME280+PMSX003A+PMSX003B,84,32,50.98,1008.60,0.02,30128,31,1857,2.68,6.45,8.70,2.68,6.45,8.70,757.84,214.45,58.93,9.91,3.55,0.27,2.71,5.87,7.42,2.71,5.87,7.42,653.29,193.37,49.63,7.03,2.13,0.95
2018/06/18T21:56:18z,2c:3a:e8:34:ff:b2,2.50i,2.0+OPENLOG+15833 MB+DS3231+BME280+PMSX003A+PMSX003B,84,32,50.98,1008.71,0.02,30128,31,1937,3.29,6.53,7.82,3.29,6.53,7.82,754.07,220.73,55.27,4.87,2.02,0.11,2.92,5.92,7.94,2.92,5.92,7.94,702.08,207.69,46.75,5.97,3.14,0.08
2018/06/18T21:57:38z,2c:3a:e8:34:ff:b2,2.50i,2.0+OPENLOG+15833 MB+DS3231+BME280+PMSX003A+PMSX003B,84,32,50.98,1008.66,0.02,29592,31,2017,3.00,6.07,8.59,3.00,6.07,8.59,743.11,216.18,54.75,5.75,3.98,1.05,2.24,4.86,6.46,2.24,4.86,6.46,563.84,168.76,37.14,8.16,2.86,0.08
2018/06/18T21:58:58z,2c:3a:e8:34:ff:b2,2.50i,2.0+OPENLOG+15833 MB+DS3231+BME280+PMSX003A+PMSX003B,84,32,50.98,1008.68,0.02,29512,31,2097,2.66,6.39,11.59,2.66,6.39,11.59,737.93,212.84,64.52,12.84,7.77,0.43,2.41,4.49,4.68,2.41,4.49,4.68,677.19,190.00,34.92,1.95,0.49,0.08
2018/06/18T22:00:18z,2c:3a:e8:34:ff:b2,2.50i,2.0+OPENLOG+15833 MB+DS3231+BME280+PMSX003A+PMSX003B,84,32,50.98,1008.67,0.02,30128,31,2177,3.21,6.60,9.33,3.21,6.60,9.33,776.44,223.88,63.72,7.49,4.02,0.93,2.92,4.72,5.50,2.92,4.72,5.50,682.08,191.25,37.31,3.00,0.94,0.08
2018/06/18T22:01:38z,2c:3a:e8:34:ff:b2,2.50i,2.0+OPENLOG+15833 MB+DS3231+BME280+PMSX003A+PMSX003B,84,32,50.98,1008.72,0.02,30128,31,2257,2.25,4.55,6.39,2.25,4.55,6.39,598.70,173.41,40.80,5.18,3.23,0.30,2.82,5.58,8.16,2.82,5.58,8.16,687.08,199.66,48.79,7.68,3.05,1.18
2018/06/18T22:03:23z,2c:3a:e8:34:ff:b2,2.50i,2.0+OPENLOG+15833 MB+DS3231+BME280+PMSX003A+PMSX003B,84,32,50.98,1008.61,0.02,29672,31,24,1.00,1.00,1.00,1.00,1.00,1.00,0.00,0.00,0.00,0.00,0.00,0.00,0.00,0.00,0.00,0.00,0.00,0.00,0.00,0.00,0.00,0.00,0.00,0.00
2018/06/18T22:04:36z,2c:3a:e8:34:ff:b2,2.50i,2.0+OPENLOG+15833 MB+DS3231+BME280+PMSX003A+PMSX003B,84,32,50.98,1008.48,0.02,30128,31,97,1.13,2.59,3.23,1.13,2.59,3.23,486.69,140.49,25.46,2.31,1.05,0.00,0.67,2.61,3.06,0.67,2.61,3.06,437.92,126.08,30.69,1.19,0.53,0.53
2018/06/18T22:05:56z,2c:3a:e8:34:ff:b2,2.50i,2.0+OPENLOG+15833 MB+DS3231+BME280+PMSX003A+PMSX003B,83,32,50.11,1008.33,0.02,30128,31,177,1.18,3.61,6.09,1.18,3.61,6.09,553.50,158.98,48.18,5.73,3.57,0.25,1.19,3.73,5.03,1.19,3.73,5.03,479.92,141.32,37.19,5.62,1.86,0.59
2018/06/18T22:07:16z,2c:3a:e8:34:ff:b2,2.50i,2.0+OPENLOG+15833 MB+DS3231+BME280+PMSX003A+PMSX003B,84,32,50.98,1008.74,0.02,30128,31,257,1.75,4.48,6.34,1.75,4.48,6.34,537.82,157.09,46.39,6.86,3.20,0.25,1.32,2.47,3.45,1.32,2.47,3.45,437.61,128.00,27.92,1.76,1.21,0.50
2018/06/18T22:08:36z,2c:3a:e8:34:ff:b2,2.50i,2.0+OPENLOG+15833 MB+DS3231+BME280+PMSX003A+PMSX003B,84,32,50.98,1008.72,0.02,29696,31,337,2.43,5.43,8.55,2.43,5.43,8.55,690.95,197.84,52.64,6.93,5.02,0.82,1.41,3.14,4.54,1.41,3.14,4.54,507.32,151.24,32.22,4.51,1.62,0.78
2018/06/18T22:09:56z,2c:3a:e8:34:ff:b2,2.50i,2.0+OPENLOG+15833 MB+DS3231+BME280+PMSX003A+PMSX003B,84,32,50.98,1008.71,0.02,29696,31,417,1.48,3.75,5.57,1.48,3.75,5.57,508.91,154.27,36.48,5.61,2.93,0.39,1.70,2.62,3.49,1.70,2.62,3.49,479.35,140.38,20.11,2.32,1.05,0.78
2018/06/18T22:11:16z,2c:3a:e8:34:ff:b2,2.50i,2.0+OPENLOG+15833 MB+DS3231+BME280+PMSX003A+PMSX003B,84,32,50.98,1008.70,0.02,30128,31,497,1.50,3.34,4.05,1.50,3.34,4.05,491.73,137.41,34.48,2.36,1.59,0.41,1.61,3.34,4.26,1.61,3.34,4.26,450.32,131.71,31.18,3.29,1.11,0.50
2018/06/18T22:12:36z,2c:3a:e8:34:ff:b2,2.50i,2.0+OPENLOG+15833 MB+DS3231+BME280+PMSX003A+PMSX003B,84,32,50.98,1008.66,0.02,29944,31,577,1.20,3.82,5.36,1.20,3.82,5.36,447.55,127.91,41.66,5.68,2.14,0.41,1.25,3.44,4.19,1.25,3.44,4.19,432.42,127.06,25.86,5.61,1.28,0.50
2018/06/18T22:13:56z,2c:3a:e8:34:ff:b2,2.50i,2.0+OPENLOG+15833 MB+DS3231+BME280+PMSX003A+PMSX003B,84,33,51.82,1008.51,0.02,29384,31,657,1.07,4.73,5.95,1.07,4.73,5.95,476.86,135.36,44.89,7.23,2.23,0.41,0.90,2.51,3.51,0.90,2.51,3.51,378.15,115.21,26.15,2.33,1.51,0.59
2018/06/18T22:15:16z,2c:3a:e8:34:ff:b2,2.50i,2.0+OPENLOG+15833 MB+DS3231+BME280+PMSX003A+PMSX003B,84,31,50.13,1008.91,0.02,29696,31,737,2.82,4.59,5.16,2.82,4.59,5.16,696.95,196.93,28.32,2.80,0.98,0.41,3.46,4.68,6.14,3.46,4.68,6.14,774.32,219.05,23.46,3.81,1.95,0.46
2018/06/18T22:16:36z,2c:3a:e8:34:ff:b2,2.50i,2.0+OPENLOG+15833 MB+DS3231+BME280+PMSX003A+PMSX003B,83,26,44.59,1008.80,0.02,30128,31,817,0.52,0.86,1.82,0.52,0.86,1.82,375.14,103.70,11.00,1.55,1.20,0.57,1.03,1.50,1.89,1.03,1.50,1.89,376.74,104.34,11.79,1.00,0.42,0.46
2018/06/18T22:17:56z,2c:3a:e8:34:ff:b2,2.50i,2.0+OPENLOG+15833 MB+DS3231+BME280+PMSX003A+PMSX003B,83,22,40.25,1008.70,0.02,30128,31,897,0.18,1.00,1.64,0.18,1.00,1.64,275.05,80.82,14.07,2.73,1.00,0.25,0.38,1.00,1.00,0.38,1.00,1.00,248.51,66.03,12.43,0.51,0.42,0.46
2018/06/18T22:19:16z,2c:3a:e8:34:ff:b2,2.50i,2.0+OPENLOG+15833 MB+DS3231+BME280+PMSX003A+PMSX003B,83,19,36.50,1008.82,0.02,29456,31,977,0.18,0.18,0.18,0.18,0.18,0.18,153.48,39.70,8.82,0.41,1.00,0.25,0.38,1.00,1.00,0.38,1.00,1.00,124.46,36.11,4.35,0.32,0.42,0.46
2018/06/18T22:20:36z,2c:3a:e8:34:ff:b2,2.50i,2.0+OPENLOG+15833 MB+DS3231+BME280+PMSX003A+PMSX003B,83,17,33.70,1008.90,0.02,29696,31,1057,0.18,0.09,0.09,0.18,0.09,0.09,99.33,30.27,3.98,0.58,1.00,0.25,0.38,1.00,1.00,0.38,1.00,1.00,61.18,15.42,2.24,0.37,0.37,0.46
2018/06/18T22:21:56z,2c:3a:e8:34:ff:b2,2.50i,2.0+OPENLOG+15833 MB+DS3231+BME280+PMSX003A+PMSX003B,83,15,30.59,1008.73,0.02,29944,31,1137,0.18,0.09,0.32,0.18,0.09,0.32,73.23,20.80,5.57,0.84,0.59,0.25,0.38,1.00,0.08,0.38,1.00,0.08,58.33,15.67,4.00,0.97,0.08,0.46
2018/06/18T22:23:16z,2c:3a:e8:34:ff:b2,2.50i,2.0+OPENLOG+15833 MB+DS3231+BME280+PMSX003A+PMSX003B,83,14,28.90,1008.85,0.02,30128,31,1217,0.18,0.16,0.60,0.18,0.16,0.60,58.87,18.82,7.07,0.69,0.67,0.67,0.38,1.00,0.08,0.38,1.00,0.08,34.15,10.26,1.51,0.97,0.08,0.46
2018/06/18T22:24:36z,2c:3a:e8:34:ff:b2,2.50i,2.0+OPENLOG+15833 MB+DS3231+BME280+PMSX003A+PMSX003B,83,13,27.09,1008.92,0.02,30128,31,1297,0.18,0.35,0.48,0.18,0.35,0.48,80.41,25.93,7.07,1.63,0.54,0.67,0.38,1.00,0.08,0.38,1.00,0.08,37.83,9.58,1.14,0.97,0.08,0.46
2018/06/18T22:25:56z,2c:3a:e8:34:ff:b2,2.50i,2.0+OPENLOG+15833 MB+DS3231+BME280+PMSX003A+PMSX003B,83,13,27.09,1008.89,0.02,29408,31,1377,0.18,0.35,0.70,0.18,0.35,0.70,60.19,17.70,5.70,1.98,1.11,0.67,0.38,1.00,0.29,0.38,1.00,0.29,79.42,18.13,4.55,0.84,0.29,0.29
2018/06/18T22:27:16z,2c:3a:e8:34:ff:b2,2.50i,2.0+OPENLOG+15833 MB+DS3231+BME280+PMSX003A+PMSX003B,83,24,42.50,1008.62,0.02,30128,31,1457,1.79,2.30,2.77,1.79,2.30,2.77,459.19,131.17,11.09,1.45,1.21,0.67,0.92,1.08,1.08,0.92,1.08,1.08,310.95,75.51,7.24,0.81,0.46,0.29
2018/06/18T22:28:36z,2c:3a:e8:34:ff:b2,2.50i,2.0+OPENLOG+15833 MB+DS3231+BME280+PMSX003A+PMSX003B,83,29,47.48,1008.67,0.02,30128,31,1537,143.65,209.06,224.90,97.04,140.96,151.58,19978.81,6621.44,1368.65,77.92,22.75,1.52,124.50,187.88,202.80,84.18,126.65,136.62,18457.20,5748.02,1359.55,73.95,22.35,2.67
2018/06/18T22:29:56z,2c:3a:e8:34:ff:b2,2.50i,2.0+OPENLOG+15833 MB+DS3231+BME280+PMSX003A+PMSX003B,83,24,42.50,1008.86,0.02,30128,31,1617,461.37,665.81,712.60,306.83,443.23,474.31,64852.33,21352.31,4124.00,234.71,66.23,1.92,445.68,666.07,718.32,296.36,443.36,478.16,62791.64,19994.77,4767.25,268.86,73.39,7.39
2018/06/18T22:31:16z,2c:3a:e8:34:ff:b2,2.50i,2.0+OPENLOG+15833 MB+DS3231+BME280+PMSX003A+PMSX003B,83,20,37.80,1008.77,0.02,29696,31,1697,330.50,436.58,459.06,219.69,290.33,305.27,52357.31,15522.31,2197.37,121.25,33.44,1.50,331.13,451.15,467.98,219.80,299.98,311.23,50067.00,15239.15,2622.48,123.85,21.23,3.17
2018/06/18T22:32:36z,2c:3a:e8:34:ff:b2,2.50i,2.0+OPENLOG+15833 MB+DS3231+BME280+PMSX003A+PMSX003B,83,17,33.70,1008.72,0.02,29696,31,1777,231.39,294.43,309.26,153.65,195.59,205.57,38363.61,11093.13,1330.37,72.80,21.39,1.76,232.42,305.34,316.89,154.29,202.84,210.58,37001.53,10946.55,1595.13,75.05,16.76,2.08
2018/06/18T22:33:56z,2c:3a:e8:34:ff:b2,2.50i,2.0+OPENLOG+15833 MB+DS3231+BME280+PMSX003A+PMSX003B,83,16,32.19,1008.57,0.02,30128,31,1857,154.20,193.37,202.22,101.93,128.22,134.02,26347.30,7495.57,829.20,47.48,11.93,2.78,153.06,197.00,206.11,101.28,130.56,136.69,25205.67,7339.00,933.53,61.00,12.81,1.72
2018/06/18T22:35:16z,2c:3a:e8:34:ff:b2,2.50i,2.0+OPENLOG+15833 MB+DS3231+BME280+PMSX003A+PMSX003B,83,16,32.19,1008.50,0.02,30128,31,1937,137.80,179.40,193.42,91.16,118.69,128.24,24065.93,6801.04,823.38,65.44,19.44,1.27,140.28,183.53,195.75,92.78,121.69,129.72,23167.83,6724.11,881.39,60.92,18.36,5.56
2018/06/18T22:36:36z,2c:3a:e8:34:ff:b2,2.50i,2.0+OPENLOG+15833 MB+DS3231+BME280+PMSX003A+PMSX003B,83,16,32.19,1008.36,0.02,29640,31,2017,129.51,171.91,184.96,85.53,113.93,122.51,22617.20,6423.64,800.42,61.33,19.29,0.87,138.86,181.11,190.68,91.86,120.05,126.49,22761.00,6645.32,916.84,53.05,13.03,2.30
2018/06/18T22:37:56z,2c:3a:e8:34:ff:b2,2.50i,2.0+OPENLOG+15833 MB+DS3231+BME280+PMSX003A+PMSX003B,83,16,32.19,1008.41,0.02,29592,31,2097,121.62,158.45,168.68,80.36,104.85,111.70,21509.94,6033.11,730.74,49.13,14.57,2.00,125.27,163.78,171.86,82.84,108.49,113.86,20921.92,6038.16,814.59,49.62,11.81,1.11
2018/06/18T22:39:16z,2c:3a:e8:34:ff:b2,2.50i,2.0+OPENLOG+15833 MB+DS3231+BME280+PMSX003A+PMSX003B,83,17,33.70,1008.43,0.02,30128,31,2177,115.15,153.28,162.72,76.02,101.36,107.70,20112.32,5675.30,716.89,50.87,14.02,1.23,118.08,155.65,163.05,78.00,102.89,107.95,19727.68,5715.76,764.43,53.19,10.27,2.16
2018/06/18T22:40:36z,2c:3a:e8:34:ff:b2,2.50i,2.0+OPENLOG+15833 MB+DS3231+BME280+PMSX003A+PMSX003B,83,17,33.70,1008.48,0.02,30128,31,2257,105.98,138.93,148.87,69.72,91.76,98.46,18617.94,5262.96,630.89,48.24,14.93,0.76,108.28,142.46,152.28,71.56,94.28,100.87,18265.08,5255.49,712.41,46.21,13.87,1.90
2018/06/18T22:42:20z,2c:3a:e8:34:ff:b2,2.50i,2.0+OPENLOG+15833 MB+DS3231+BME280+PMSX003A+PMSX003B,83,17,33.70,1008.33,0.02,29672,31,23,65.00,92.00,98.00,43.00,61.00,72.00,0.00,0.00,0.00,0.00,0.00,0.00,77.00,98.00,98.00,51.00,65.00,72.00,0.00,0.00,0.00,0.00,0.00,0.00
2018/06/18T22:43:34z,2c:3a:e8:34:ff:b2,2.50i,2.0+OPENLOG+15833 MB+DS3231+BME280+PMSX003A+PMSX003B,83,18,35.13,1008.54,0.02,29672,31,97,87.67,117.49,127.95,57.59,77.38,84.56,15232.38,4274.92,547.64,42.62,14.31,1.51,90.00,117.34,121.80,59.14,77.34,81.11,15145.80,4354.06,594.49,24.74,6.51,2.20
2018/06/18T22:44:54z,2c:3a:e8:34:ff:b2,2.50i,2.0+OPENLOG+15833 MB+DS3231+BME280+PMSX003A+PMSX003B,83,18,35.13,1008.57,0.02,30128,31,177,85.07,114.59,128.65,55.89,75.52,85.52,15026.41,4264.35,562.22,52.17,20.93,1.72,84.64,115.78,124.22,55.56,76.19,82.14,14508.25,4193.06,601.97,48.58,11.75,1.86
2018/06/18T22:46:14z,2c:3a:e8:34:ff:b2,2.50i,2.0+OPENLOG+15833 MB+DS3231+BME280+PMSX003A+PMSX003B,83,18,35.13,1008.35,0.02,30128,31,257,76.05,104.00,116.55,49.89,68.57,78.34,13703.25,3858.86,498.18,49.36,18.86,1.11,82.27,111.70,118.62,54.14,73.76,79.51,13833.41,4016.24,567.49,42.73,9.11,0.95
2018/06/18T22:47:34z,2c:3a:e8:34:ff:b2,2.50i,2.0+OPENLOG+15833 MB+DS3231+BME280+PMSX003A+PMSX003B,83,18,35.13,1008.57,0.02,29696,31,337,70.00,97.82,106.47,45.91,64.29,74.60,12744.20,3587.67,499.00,44.76,10.76,1.40,72.38,97.03,102.76,47.57,64.00,73.78,12441.24,3581.51,493.86,30.38,7.62,1.54
2018/06/18T22:48:54z,2c:3a:e8:34:ff:b2,2.50i,2.0+OPENLOG+15833 MB+DS3231+BME280+PMSX003A+PMSX003B,83,19,36.50,1008.51,0.02,29696,31,417,67.82,92.34,100.16,44.30,60.77,72.61,12162.00,3395.34,450.09,40.02,10.16,2.32,68.49,92.43,101.30,45.05,60.76,73.05,11804.19,3391.70,475.24,38.41,13.41,2.57
2018/06/18T22:50:14z,2c:3a:e8:34:ff:b2,2.50i,2.0+OPENLOG+15833 MB+DS3231+BME280+PMSX003A+PMSX003B,83,19,36.50,1008.47,0.02,30128,31,497,62.73,86.47,96.93,41.07,56.93,71.56,11349.80,3180.16,426.96,41.82,16.07,1.20,65.60,88.29,95.29,42.91,58.00,70.63,11306.40,3234.09,457.17,31.86,9.83,1.77
2018/06/18T22:51:34z,2c:3a:e8:34:ff:b2,2.50i,2.0+OPENLOG+15833 MB+DS3231+BME280+PMSX003A+PMSX003B,83,19,36.50,1008.42,0.02,30128,31,577,58.00,80.58,90.67,37.89,53.38,68.84,10585.73,2953.53,425.29,41.64,14.33,1.11,61.81,82.92,89.59,40.43,54.41,68.32,10625.43,3035.76,423.51,32.43,9.76,1.76
2018/06/18T22:52:54z,2c:3a:e8:34:ff:b2,2.50i,2.0+OPENLOG+15833 MB+DS3231+BME280+PMSX003A+PMSX003B,83,19,36.50,1008.55,0.02,29696,31,657,55.15,78.80,89.13,35.87,52.39,68.04,10112.15,2839.04,412.07,41.15,15.30,1.46,56.86,78.08,84.03,37.28,52.56,66.14,9804.83,2814.83,421.67,27.61,7.75,2.47
2018/06/18T22:54:14z,2c:3a:e8:34:ff:b2,2.50i,2.0+OPENLOG+15833 MB+DS3231+BME280+PMSX003A+PMSX003B,83,19,36.50,1008.48,0.02,29696,31,737,50.70,71.93,80.54,33.91,49.89,64.28,9379.83,2614.17,377.04,35.80,12.57,0.43,54.13,73.82,79.18,35.24,50.84,63.71,9297.55,2689.16,390.24,25.66,6.95,1.68
2018/06/18T22:55:34z,2c:3a:e8:34:ff:b2,2.50i,2.0+OPENLOG+15833 MB+DS3231+BME280+PMSX003A+PMSX003B,83,20,37.80,1008.46,0.02,30128,31,817,49.56,71.31,80.87,33.69,49.93,64.56,9052.00,2556.40,381.84,37.67,13.84,0.82,48.94,69.47,77.00,33.36,49.03,62.72,8574.75,2471.72,372.64,33.39,11.36,2.72
2018/06/18T22:56:54z,2c:3a:e8:34:ff:b2,2.50i,2.0+OPENLOG+15833 MB+DS3231+BME280+PMSX003A+PMSX003B,84,20,38.63,1008.53,0.02,30128,31,897,43.78,64.82,73.89,31.16,47.02,61.13,8222.47,2309.76,351.02,36.18,13.71,1.47,45.94,64.19,69.00,32.33,47.03,58.64,8074.92,2322.78,356.89,24.86,6.08,0.28
2018/06/18T22:58:14z,2c:3a:e8:34:ff:b2,2.50i,2.0+OPENLOG+15833 MB+DS3231+BME280+PMSX003A+PMSX003B,84,20,38.63,1008.56,0.02,29640,31,977,42.93,62.76,73.54,31.20,46.35,60.89,7864.17,2224.02,349.85,40.46,15.80,0.89,43.92,60.81,67.14,31.75,45.92,57.94,7622.42,2173.39,315.53,30.64,8.25,1.61
2018/06/18T22:59:34z,2c:3a:e8:34:ff:b2,2.50i,2.0+OPENLOG+15833 MB+DS3231+BME280+PMSX003A+PMSX003B,84,20,38.63,1008.51,0.02,29696,31,1057,39.25,56.39,65.11,29.80,44.07,56.86,7241.66,2032.55,304.25,32.05,11.93,0.75,39.63,57.42,64.29,29.87,44.42,56.37,6988.74,2009.00,321.26,31.82,10.24,2.58
2018/06/18T23:00:54z,2c:3a:e8:34:ff:b2,2.50i,2.0+OPENLOG+15833 MB+DS3231+BME280+PMSX003A+PMSX003B,83,20,37.80,1008.27,0.02,29672,31,1137,36.68,53.87,60.45,28.53,42.98,54.04,6744.89,1884.45,295.85,32.23,9.11,1.45,37.65,52.78,59.00,28.62,42.16,53.08,6641.43,1922.95,294.05,25.95,7.73,2.38
2018/06/18T23:02:14z,2c:3a:e8:34:ff:b2,2.50i,2.0+OPENLOG+15833 MB+DS3231+BME280+PMSX003A+PMSX003B,84,21,39.88,1008.47,0.02,30128,31,1217,35.56,50.71,58.67,28.20,41.64,53.16,6502.93,1822.44,290.53,29.38,10.93,0.87,35.75,51.86,58.72,28.33,42.22,53.14,6333.67,1818.28,293.03,29.61,9.42,1.39
2018/06/18T23:03:34z,2c:3a:e8:34:ff:b2,2.50i,2.0+OPENLOG+15833 MB+DS3231+BME280+PMSX003A+PMSX003B,84,21,39.88,1008.45,0.02,30128,31,1297,33.36,52.26,62.53,27.45,42.09,55.23,6331.72,1768.21,310.02,41.51,14.23,1.77,33.63,48.53,53.58,27.50,40.32,50.05,5946.39,1706.87,273.97,26.34,7.39,1.74
2018/06/18T23:04:54z,2c:3a:e8:34:ff:b2,2.50i,2.0+OPENLOG+15833 MB+DS3231+BME280+PMSX003A+PMSX003B,84,21,39.88,1008.47,0.02,29512,31,1377,31.04,47.07,52.63,26.26,39.74,49.57,5907.52,1637.78,263.85,24.59,8.63,0.41,31.59,44.32,49.59,26.41,38.19,47.54,5643.89,1621.27,249.65,19.05,7.38,1.86
2018/06/18T23:06:14z,2c:3a:e8:34:ff:b2,2.50i,2.0+OPENLOG+15833 MB+DS3231+BME280+PMSX003A+PMSX003B,84,21,39.88,1008.39,0.02,29696,31,1457,28.73,45.20,53.31,24.73,38.78,49.80,5492.53,1544.82,261.13,32.87,12.20,0.71,29.08,43.17,44.89,25.00,37.56,44.47,5224.42,1507.75,237.50,22.72,2.28,0.58
2018/06/18T23:07:34z,2c:3a:e8:34:ff:b2,2.50i,2.0+OPENLOG+15833 MB+DS3231+BME280+PMSX003A+PMSX003B,84,21,39.88,1008.46,0.02,30128,31,1537,27.89,42.57,48.54,24.09,37.22,46.85,5248.89,1482.57,247.43,25.17,8.85,0.78,28.95,41.95,46.16,24.76,36.84,45.16,5116.78,1485.43,247.54,22.81,5.65,0.49
2018/06/18T23:08:54z,2c:3a:e8:34:ff:b2,2.50i,2.0+OPENLOG+15833 MB+DS3231+BME280+PMSX003A+PMSX003B,84,21,39.88,1008.55,0.02,30128,31,1617,25.86,39.61,47.11,23.18,35.34,46.02,4841.73,1364.93,224.18,29.23,11.48,1.64,26.92,39.17,43.33,23.36,35.00,42.94,4913.08,1420.33,220.89,20.89,5.42,1.44
2018/06/18T23:10:14z,2c:3a:e8:34:ff:b2,2.50i,2.0+OPENLOG+15833 MB+DS3231+BME280+PMSX003A+PMSX003B,84,21,39.88,1008.52,0.02,29696,31,1697,24.20,39.33,45.02,22.24,35.33,44.43,4631.67,1310.76,232.46,26.72,7.54,0.74,25.41,37.49,42.81,23.08,34.16,42.43,4605.97,1318.57,212.46,23.22,8.35,0.76
2018/06/18T23:11:34z,2c:3a:e8:34:ff:b2,2.50i,2.0+OPENLOG+15833 MB+DS3231+BME280+PMSX003A+PMSX003B,84,22,41.08,1008.57,0.02,29696,31,1777,22.17,34.57,44.02,21.20,32.48,43.41,4260.26,1184.48,208.67,33.72,14.02,1.98,22.79,33.32,36.58,21.34,31.53,36.58,4077.71,1197.92,179.03,16.89,4.79,1.21
2018/06/18T23:12:54z,2c:3a:e8:34:ff:b2,2.50i,2.0+OPENLOG+15833 MB+DS3231+BME280+PMSX003A+PMSX003B,84,22,41.08,1008.53,0.02,30128,31,1857,21.46,32.83,39.54,20.72,31.48,39.41,4143.52,1150.26,190.04,24.91,10.26,0.74,22.03,32.64,36.06,21.03,31.50,36.06,3943.33,1141.61,204.14,15.42,5.00,1.31
2018/06/18T23:14:14z,2c:3a:e8:34:ff:b2,2.50i,2.0+OPENLOG+15833 MB+DS3231+BME280+PMSX003A+PMSX003B,84,22,41.08,1008.46,0.02,30128,31,1937,20.24,30.74,36.52,19.87,30.20,36.52,3772.76,1056.96,174.74,25.30,9.09,0.87,20.47,29.58,33.31,19.89,29.33,33.31,3657.83,1064.94,166.47,15.36,5.56,0.61
2018/06/18T23:15:34z,2c:3a:e8:34:ff:b2,2.50i,2.0+OPENLOG+15833 MB+DS3231+BME280+PMSX003A+PMSX003B,84,22,41.08,1008.48,0.02,29640,31,2017,18.27,30.60,35.98,18.27,30.04,35.98,3535.07,1002.20,179.64,24.09,8.40,1.56,20.16,29.89,34.03,19.71,29.45,34.03,3716.13,1060.89,171.58,18.58,5.58,1.11
2018/06/18T23:16:54z,2c:3a:e8:34:ff:b2,2.50i,2.0+OPENLOG+15833 MB+DS3231+BME280+PMSX003A+PMSX003B,84,22,41.08,1008.33,0.02,29696,31,2097,18.09,29.11,37.11,18.09,28.78,37.11,3470.02,983.43,183.87,24.63,11.57,1.13,16.86,25.69,28.00,16.86,25.69,28.00,3254.33,933.92,140.53,13.72,3.39,0.08
2018/06/18T23:18:14z,2c:3a:e8:34:ff:b2,2.50i,2.0+OPENLOG+15833 MB+DS3231+BME280+PMSX003A+PMSX003B,84,22,41.08,1008.51,0.02,30128,31,2177,16.78,27.64,34.64,16.78,27.51,34.64,3242.87,915.18,177.76,28.29,9.29,0.67,16.06,24.89,27.28,16.06,24.89,27.28,3124.50,886.92,150.97,15.00,3.72,0.31
2018/06/18T23:19:34z,2c:3a:e8:34:ff:b2,2.50i,2.0+OPENLOG+15833 MB+DS3231+BME280+PMSX003A+PMSX003B,84,22,41.08,1008.43,0.02,30128,31,2257,16.36,26.23,34.87,16.36,26.23,34.87,3282.89,914.51,170.00,24.53,12.68,3.15,16.05,24.14,28.65,16.05,24.14,28.65,2906.92,837.65,148.95,15.03,7.76,0.68
2018/06/18T23:21:18z,2c:3a:e8:34:ff:b2,2.50i,2.0+OPENLOG+15833 MB+DS3231+BME280+PMSX003A+PMSX003B,84,22,41.08,1008.56,0.02,29672,31,23,12.00,12.00,12.00,12.00,12.00,12.00,0.00,0.00,0.00,0.00,0.00,0.00,6.00,6.00,6.00,6.00,6.00,6.00,0.00,0.00,0.00,0.00,0.00,0.00
2018/06/18T23:22:32z,2c:3a:e8:34:ff:b2,2.50i,2.0+OPENLOG+15833 MB+DS3231+BME280+PMSX003A+PMSX003B,84,23,42.23,1008.47,0.02,30128,31,97,12.13,21.58,25.58,12.13,21.58,25.58,2524.12,715.12,143.75,16.35,6.25,1.08,13.40,20.06,21.40,13.40,20.06,21.40,2564.66,728.71,116.37,8.40,2.03,1.11
2018/06/18T23:23:52z,2c:3a:e8:34:ff:b2,2.50i,2.0+OPENLOG+15833 MB+DS3231+BME280+PMSX003A+PMSX003B,84,23,42.23,1008.55,0.02,29944,31,177,13.39,22.48,27.87,13.39,22.48,27.87,2752.30,774.59,142.39,21.20,7.65,1.04,12.97,21.11,22.54,12.97,21.11,22.54,2606.27,750.49,138.05,10.22,2.32,0.65
2018/06/18T23:25:12z,2c:3a:e8:34:ff:b2,2.50i,2.0+OPENLOG+15833 MB+DS3231+BME280+PMSX003A+PMSX003B,84,23,42.23,1008.61,0.02,29944,31,257,11.20,19.65,25.41,11.20,19.65,25.41,2414.80,677.83,138.30,20.07,8.24,0.52,12.51,19.65,23.78,12.51,19.65,23.78,2334.65,677.00,131.00,14.68,6.32,1.38
2018/06/18T23:26:32z,2c:3a:e8:34:ff:b2,2.50i,2.0+OPENLOG+15833 MB+DS3231+BME280+PMSX003A+PMSX003B,84,23,42.23,1008.38,0.02,29696,31,337,11.70,21.36,29.32,11.70,21.36,29.32,2502.41,693.32,150.16,25.05,12.30,0.75,12.49,20.08,22.76,12.49,20.08,22.76,2373.57,680.41,135.43,13.89,3.95,0.81
2018/06/18T23:27:52z,2c:3a:e8:34:ff:b2,2.50i,2.0+OPENLOG+15833 MB+DS3231+BME280+PMSX003A+PMSX003B,84,23,42.23,1008.39,0.02,29512,31,417,11.85,19.62,26.87,11.85,19.62,26.87,2359.79,667.17,139.21,22.26,10.51,0.77,12.49,19.20,23.80,12.49,19.20,23.80,2362.03,686.40,125.60,14.71,6.60,1.17
2018/06/18T23:29:12z,2c:3a:e8:34:ff:b2,2.50i,2.0+OPENLOG+15833 MB+DS3231+BME280+PMSX003A+PMSX003B,84,23,42.23,1008.51,0.02,30128,31,497,10.65,18.93,23.78,10.65,18.93,23.78,2155.83,624.17,131.85,17.65,7.54,1.33,12.11,19.19,21.86,12.11,19.19,21.86,2265.08,653.46,127.24,12.89,5.00,0.38
2018/06/18T23:30:32z,2c:3a:e8:34:ff:b2,2.50i,2.0+OPENLOG+15833 MB+DS3231+BME280+PMSX003A+PMSX003B,84,23,42.23,1008.31,0.02,30128,31,577,9.89,18.33,22.85,9.89,18.33,22.85,2099.48,597.67,132.48,17.76,6.72,0.63,11.11,17.65,21.30,11.11,17.65,21.30,2118.00,611.32,117.03,15.51,4.73,1.81
2018/06/18T23:31:52z,2c:3a:e8:34:ff:b2,2.50i,2.0+OPENLOG+15833 MB+DS3231+BME280+PMSX003A+PMSX003B,84,23,42.23,1008.50,0.02,29512,31,657,8.60,16.80,21.47,8.60,16.80,21.47,2002.67,556.20,121.09,15.78,6.93,1.04,10.76,14.92,16.92,10.76,14.92,16.92,1960.05,558.76,97.35,7.03,3.11,0.78
2018/06/18T23:33:12z,2c:3a:e8:34:ff:b2,2.50i,2.0+OPENLOG+15833 MB+DS3231+BME280+PMSX003A+PMSX003B,84,23,42.23,1008.43,0.02,29696,31,737,8.68,15.34,20.98,8.68,15.34,20.98,1917.32,545.89,112.94,16.83,8.89,0.36,9.89,15.86,17.49,9.89,15.86,17.49,1849.38,536.81,93.70,10.62,1.89,0.24
2018/06/18T23:34:32z,2c:3a:e8:34:ff:b2,2.50i,2.0+OPENLOG+15833 MB+DS3231+BME280+PMSX003A+PMSX003B,84,23,42.23,1008.53,0.02,29944,31,817,9.29,16.89,22.64,9.29,16.89,22.64,1982.13,560.51,125.04,20.29,8.87,1.36,8.32,12.76,15.89,8.32,12.76,15.89,1568.45,459.97,86.32,10.42,4.68,0.45
2018/06/18T23:35:52z,2c:3a:e8:34:ff:b2,2.50i,2.0+OPENLOG+15833 MB+DS3231+BME280+PMSX003A+PMSX003B,84,24,43.34,1008.31,0.02,30128,31,897,9.27,15.31,19.27,9.27,15.31,19.27,1791.87,505.22,105.44,13.42,6.33,0.02,9.05,13.76,16.18,9.05,13.76,16.18,1611.32,479.29,86.79,12.18,3.16,0.82
2018/06/18T23:37:12z,2c:3a:e8:34:ff:b2,2.50i,2.0+OPENLOG+15833 MB+DS3231+BME280+PMSX003A+PMSX003B,84,24,43.34,1008.54,0.02,29640,31,977,8.30,14.91,20.48,8.30,14.91,20.48,1785.14,497.05,110.77,15.48,8.64,0.32,8.28,13.03,14.47,8.28,13.03,14.47,1601.25,457.61,85.75,9.64,1.78,0.47
2018/06/18T23:38:32z,2c:3a:e8:34:ff:b2,2.50i,2.0+OPENLOG+15833 MB+DS3231+BME280+PMSX003A+PMSX003B,84,24,43.34,1008.45,0.02,29696,31,1057,8.04,13.66,18.51,8.04,13.66,18.51,1695.96,483.00,98.21,15.38,7.28,1.15,7.95,12.58,14.08,7.95,12.58,14.08,1531.42,440.37,88.74,8.66,1.66,0.47
2018/06/18T23:39:52z,2c:3a:e8:34:ff:b2,2.50i,2.0+OPENLOG+15833 MB+DS3231+BME280+PMSX003A+PMSX003B,84,24,43.34,1008.31,0.02,30128,31,1137,6.72,12.77,16.43,6.72,12.77,16.43,1467.70,414.85,94.91,13.04,4.96,1.45,6.31,11.22,15.22,6.31,11.22,15.22,1351.92,390.44,79.22,13.19,6.08,1.14
2018/06/18T23:41:12z,2c:3a:e8:34:ff:b2,2.50i,2.0+OPENLOG+15833 MB+DS3231+BME280+PMSX003A+PMSX003B,84,24,43.34,1008.35,0.02,30128,31,1217,6.54,12.46,16.59,6.54,12.46,16.59,1420.04,402.89,96.91,14.65,6.78,1.02,6.72,11.28,14.67,6.72,11.28,14.67,1390.23,408.21,84.62,10.08,4.90,0.72
2018/06/18T23:42:32z,2c:3a:e8:34:ff:b2,2.50i,2.0+OPENLOG+15833 MB+DS3231+BME280+PMSX003A+PMSX003B,84,24,43.34,1008.43,0.02,30128,31,1297,6.22,13.71,17.89,6.22,13.71,17.89,1412.07,400.31,106.98,17.24,6.24,0.47,6.27,10.03,10.84,6.27,10.03,10.84,1275.00,358.08,63.41,6.08,1.05,0.32
2018/06/18T23:43:52z,2c:3a:e8:34:ff:b2,2.50i,2.0+OPENLOG+15833 MB+DS3231+BME280+PMSX003A+PMSX003B,84,24,43.34,1008.29,0.02,29512,31,1377,6.15,11.83,16.54,6.15,11.83,16.54,1406.54,395.48,95.76,15.24,7.30,0.39,6.42,11.05,14.63,6.42,11.05,14.63,1270.26,379.89,79.55,11.08,5.32,2.39
2018/06/18T23:45:12z,2c:3a:e8:34:ff:b2,2.50i,2.0+OPENLOG+15833 MB+DS3231+BME280+PMSX003A+PMSX003B,84,24,43.34,1008.45,0.02,29672,31,1457,5.50,11.25,15.56,5.50,11.25,15.56,1205.00,350.85,88.23,14.31,6.92,0.58,6.35,9.46,11.08,6.35,9.46,11.08,1244.84,357.92,57.54,6.84,1.81,0.32
2018/06/18T23:46:32z,2c:3a:e8:34:ff:b2,2.50i,2.0+OPENLOG+15833 MB+DS3231+BME280+PMSX003A+PMSX003B,84,24,43.34,1008.51,0.02,30128,31,1537,5.17,10.59,14.13,5.17,10.59,14.13,1226.67,355.93,81.39,13.78,5.28,0.58,5.38,9.11,10.41,5.38,9.11,10.41,1104.08,322.03,63.76,6.78,2.22,0.38
2018/06/18T23:47:52z,2c:3a:e8:34:ff:b2,2.50i,2.0+OPENLOG+15833 MB+DS3231+BME280+PMSX003A+PMSX003B,84,24,43.34,1008.50,0.02,30128,31,1617,5.15,10.74,12.83,5.15,10.74,12.83,1177.30,334.13,80.02,10.65,3.30,0.58,5.03,8.45,10.05,5.03,8.45,10.05,1038.32,300.76,58.29,7.21,2.37,0.97
2018/06/18T23:49:12z,2c:3a:e8:34:ff:b2,2.50i,2.0+OPENLOG+15833 MB+DS3231+BME280+PMSX003A+PMSX003B,84,24,43.34,1008.39,0.02,29696,31,1697,4.93,8.93,11.80,4.93,8.93,11.80,1083.85,311.13,63.52,9.85,4.28,0.58,5.31,9.22,10.25,5.31,9.22,10.25,1086.67,320.83,59.19,7.08,1.11,0.19
2018/06/18T23:50:32z,2c:3a:e8:34:ff:b2,2.50i,2.0+OPENLOG+15833 MB+DS3231+BME280+PMSX003A+PMSX003B,84,24,43.34,1008.32,0.02,29696,31,1777,4.78,8.52,10.96,4.78,8.52,10.96,1032.33,292.11,67.91,8.96,4.09,0.09,4.82,8.21,9.28,4.82,8.21,9.28,1009.00,291.59,53.79,5.41,1.08,0.23
2018/06/18T23:51:52z,2c:3a:e8:34:ff:b2,2.50i,2.0+OPENLOG+15833 MB+DS3231+BME280+PMSX003A+PMSX003B,84,24,43.34,1008.45,0.02,30128,31,1857,4.24,8.02,11.83,4.24,8.02,11.83,914.35,266.28,61.52,11.52,6.72,0.65,4.54,7.73,8.95,4.54,7.73,8.95,1066.05,316.97,54.05,7.00,1.43,0.46
2018/06/18T23:53:12z,2c:3a:e8:34:ff:b2,2.50i,2.0+OPENLOG+15833 MB+DS3231+BME280+PMSX003A+PMSX003B,84,25,44.41,1008.43,0.02,30128,31,1937,4.19,8.28,10.89,4.19,8.28,10.89,995.04,281.91,68.19,9.21,3.62,0.02,4.21,7.82,9.58,4.21,7.82,9.58,924.16,267.34,57.87,7.24,2.74,0.50
2018/06/18T23:54:32z,2c:3a:e8:34:ff:b2,2.50i,2.0+OPENLOG+15833 MB+DS3231+BME280+PMSX003A+PMSX003B,84,25,44.41,1008.22,0.02,29848,31,2017,3.54,6.78,9.59,3.54,6.78,9.59,894.52,251.00,58.63,6.78,3.65,0.46,4.56,7.56,9.22,4.56,7.56,9.22,984.75,285.08,51.39,5.36,2.69,0.50
2018/06/18T23:55:52z,2c:3a:e8:34:ff:b2,2.50i,2.0+OPENLOG+15833 MB+DS3231+BME280+PMSX003A+PMSX003B,84,25,44.41,1008.43,0.02,29696,31,2097,3.04,7.39,10.48,3.04,7.39,10.48,867.07,247.11,61.89,10.41,3.65,0.33,3.51,5.81,7.57,3.51,5.81,7.57,786.73,221.22,40.78,6.73,2.76,0.92
2018/06/18T23:57:12z,2c:3a:e8:34:ff:b2,2.50i,2.0+OPENLOG+15833 MB+DS3231+BME280+PMSX003A+PMSX003B,84,25,44.41,1008.40,0.02,30128,31,2177,3.26,6.33,9.54,3.26,6.33,9.54,754.04,216.48,48.24,10.54,5.48,1.07,3.43,6.35,7.46,3.43,6.35,7.46,800.51,233.00,48.32,7.57,1.51,0.81
2018/06/18T23:58:32z,2c:3a:e8:34:ff:b2,2.50i,2.0+OPENLOG+15833 MB+DS3231+BME280+PMSX003A+PMSX003B,84,25,44.41,1008.53,0.02,30128,31,2257,3.54,6.02,8.67,3.54,6.02,8.67,786.33,225.48,53.35,7.78,4.20,0.35,2.86,5.39,7.06,2.86,5.39,7.06,759.42,209.97,40.17,7.64,2.64,0.47
