UTCDateTime,mac_address,firmware_ver,hardware,current_temp_f,current_humidity,current_dewpoint_f,pressure,adc,mem,rssi,uptime,pm1_0_atm,pm2_5_atm,pm10_0_atm,pm1_0_cf_1,pm2_5_cf_1,pm10_0_cf_1,p_0_3_um,p_0_5_um,p_1_0_um,p_2_5_um,p_5_0_um,p_10_0_um,pm1_0_atm_b,pm2_5_atm_b,pm10_0_atm_b,pm1_0_cf_1_b,pm2_5_cf_1_b,pm10_0_cf_1_b,p_0_3_um_b,p_0_5_um_b,p_1_0_um_b,p_2_5_um_b,p_5_0_um_b,p_10_0_um_b
2018/07/11T19:57:12z,60:1:94:58:d7:e0,2.50i,2.0+OPENLOG+15833 MB+DS3231+BME280+PMSX003A+PMSX003B,70,52,51.57,1013.57,0.04,29408,31,337,120.37,426.61,1085.28,80.30,284.63,723.91,26302.24,8510.04,4840.43,1865.28,669.91,275.74,108.52,427.81,1127.00,72.24,285.31,751.71,24122.93,7881.64,4755.24,1973.43,903.36,182.83
2018/07/11T19:58:31z,60:1:94:58:d7:e0,2.50i,2.0+OPENLOG+15833 MB+DS3231+BME280+PMSX003A+PMSX003B,71,44,47.99,1013.46,0.04,29696,31,417,189.28,620.04,1491.91,125.46,412.61,993.78,40762.24,13027.80,6902.22,2540.28,892.35,369.20,207.68,702.35,1668.89,137.59,467.22,1111.86,41849.84,13526.81,7231.08,2798.70,1243.14,223.95
2018/07/11T19:59:51z,60:1:94:58:d7:e0,2.50i,2.0+OPENLOG+15833 MB+DS3231+BME280+PMSX003A+PMSX003B,71,36,42.70,1013.51,0.03,30128,31,497,149.57,421.64,905.05,98.84,280.16,602.66,30264.27,9482.86,4361.89,1484.98,493.32,192.16,161.78,464.64,1005.81,106.94,309.08,669.92,31910.50,10122.94,4616.56,1654.11,707.14,130.97
2018/07/11T20:01:11z,60:1:94:58:d7:e0,2.50i,2.0+OPENLOG+15833 MB+DS3231+BME280+PMSX003A+PMSX003B,72,30,38.87,1013.39,0.04,29944,31,577,104.32,274.23,554.00,68.70,181.86,368.66,21010.57,6489.09,2718.64,872.05,281.95,113.93,110.03,292.39,579.31,72.58,194.17,385.47,21341.42,6693.36,2776.25,925.36,385.14,67.47
2018/07/11T20:02:32z,60:1:94:58:d7:e0,2.50i,2.0+OPENLOG+15833 MB+DS3231+BME280+PMSX003A+PMSX003B,72,26,35.24,1013.30,0.03,30128,31,657,64.54,162.22,317.33,42.37,107.33,210.61,12899.09,3971.50,1576.85,480.54,153.87,58.83,69.74,176.26,340.68,45.65,116.56,226.29,13530.88,4227.35,1644.97,541.65,218.06,35.50
2018/07/11T20:03:52z,60:1:94:58:d7:e0,2.50i,2.0+OPENLOG+15833 MB+DS3231+BME280+PMSX003A+PMSX003B,73,23,33.01,1012.97,0.03,29696,31,737,39.35,93.20,171.74,29.52,61.30,113.63,7753.83,2380.39,882.46,248.41,78.07,25.87,41.75,101.72,187.64,30.69,67.03,124.33,7991.42,2490.67,907.97,291.19,111.53,12.36
2018/07/11T20:05:12z,60:1:94:58:d7:e0,2.50i,2.0+OPENLOG+15833 MB+DS3231+BME280+PMSX003A+PMSX003B,73,22,31.90,1012.85,0.03,30128,31,817,30.16,69.23,133.07,25.66,48.91,87.86,5997.27,1846.77,655.48,188.64,65.55,24.43,32.14,79.00,145.89,26.46,52.38,96.46,6154.95,1932.14,711.84,226.65,87.62,14.08
2018/07/11T20:06:32z,60:1:94:58:d7:e0,2.50i,2.0+OPENLOG+15833 MB+DS3231+BME280+PMSX003A+PMSX003B,74,23,33.85,1012.90,0.03,30128,31,897,27.98,66.80,120.75,24.20,48.02,80.57,5567.93,1698.11,610.73,179.93,56.43,17.43,30.20,73.43,137.51,25.54,50.63,90.94,5853.09,1823.49,666.69,207.46,86.06,11.31
2018/07/11T20:07:52z,60:1:94:58:d7:e0,2.50i,2.0+OPENLOG+15833 MB+DS3231+BME280+PMSX003A+PMSX003B,74,23,33.85,1012.92,0.03,30128,31,977,25.22,63.64,119.22,22.58,46.71,80.36,5168.40,1587.93,597.60,185.82,53.80,18.67,27.47,67.61,122.33,23.69,48.28,81.14,5330.08,1669.83,613.06,182.83,69.75,14.75
2018/07/11T20:09:12z,60:1:94:58:d7:e0,2.50i,2.0+OPENLOG+15833 MB+DS3231+BME280+PMSX003A+PMSX003B,75,23,34.69,1012.95,0.03,29592,31,1057,23.91,58.44,102.09,22.07,44.67,73.20,4795.80,1461.07,554.64,150.58,43.16,11.11,25.94,62.92,113.92,23.08,46.64,77.72,5022.92,1568.89,562.39,173.42,65.61,8.47
2018/07/11T20:10:32z,60:1:94:58:d7:e0,2.50i,2.0+OPENLOG+15833 MB+DS3231+BME280+PMSX003A+PMSX003B,75,24,35.76,1012.91,0.03,30128,31,1137,22.56,54.20,94.62,21.27,43.11,70.58,4480.87,1366.11,499.78,139.51,36.87,12.22,23.92,59.39,103.33,21.97,45.28,73.86,4643.33,1445.89,530.36,151.81,58.14,8.47
2018/07/11T20:11:52z,60:1:94:58:d7:e0,2.50i,2.0+OPENLOG+15833 MB+DS3231+BME280+PMSX003A+PMSX003B,75,24,35.76,1012.77,0.03,30128,31,1217,21.61,51.74,83.59,20.50,41.93,65.52,4243.30,1300.85,463.70,123.07,28.57,7.48,22.26,53.76,95.34,21.08,42.71,70.71,4352.45,1353.34,487.32,138.39,53.74,3.74
2018/07/11T20:13:12z,60:1:94:58:d7:e0,2.50i,2.0+OPENLOG+15833 MB+DS3231+BME280+PMSX003A+PMSX003B,75,25,36.79,1012.79,0.03,30128,31,1297,18.60,43.79,77.68,18.47,37.85,63.00,3683.68,1135.89,399.38,120.49,28.43,9.53,21.11,49.27,84.92,20.32,40.78,66.46,4029.32,1256.84,432.32,118.19,46.19,7.57
2018/07/11T20:14:32z,60:1:94:58:d7:e0,2.50i,2.0+OPENLOG+15833 MB+DS3231+BME280+PMSX003A+PMSX003B,76,25,37.64,1012.70,0.03,29512,31,1377,19.32,43.73,73.11,19.20,37.93,60.91,3755.25,1147.73,391.84,103.11,27.91,9.82,18.69,44.91,76.57,18.57,38.46,62.57,3581.31,1112.89,392.20,112.03,38.14,7.37
2018/07/11T20:15:52z,60:1:94:58:d7:e0,2.50i,2.0+OPENLOG+15833 MB+DS3231+BME280+PMSX003A+PMSX003B,76,25,37.64,1012.86,0.03,30128,31,1457,16.69,38.33,72.16,16.69,34.69,60.44,3287.87,1004.91,366.49,103.44,33.58,11.53,18.60,43.60,71.69,18.51,37.66,60.09,3566.23,1108.23,387.20,98.63,32.94,6.94
2018/07/11T20:17:12z,60:1:94:58:d7:e0,2.50i,2.0+OPENLOG+15833 MB+DS3231+BME280+PMSX003A+PMSX003B,76,25,37.64,1012.79,0.03,30128,31,1537,15.20,35.14,58.77,15.20,32.64,53.14,3067.16,931.27,317.68,83.75,22.00,7.68,16.86,39.19,67.11,16.86,35.08,57.53,3320.42,1036.50,353.83,95.25,37.94,5.11
2018/07/11T20:18:32z,60:1:94:58:d7:e0,2.50i,2.0+OPENLOG+15833 MB+DS3231+BME280+PMSX003A+PMSX003B,77,26,39.49,1012.82,0.03,30128,31,1617,14.89,34.29,52.16,14.89,32.18,49.09,2940.00,889.82,299.00,69.89,15.56,6.18,14.92,35.58,67.17,14.92,33.06,57.58,2989.08,937.44,334.69,98.89,43.75,5.14
2018/07/11T20:19:52z,60:1:94:58:d7:e0,2.50i,2.0+OPENLOG+15833 MB+DS3231+BME280+PMSX003A+PMSX003B,77,26,39.49,1012.75,0.03,29592,31,1697,12.91,29.91,48.29,12.91,29.47,46.76,2685.40,809.11,266.93,70.04,16.07,6.31,13.03,31.77,56.06,13.03,30.69,51.31,2643.86,815.14,302.26,78.31,28.14,5.51
2018/07/11T20:21:12z,60:1:94:58:d7:e0,2.50i,2.0+OPENLOG+15833 MB+DS3231+BME280+PMSX003A+PMSX003B,77,26,39.49,1012.73,0.03,29696,31,1777,13.09,30.27,53.07,13.09,29.73,49.73,2665.27,808.91,286.62,74.29,21.69,6.82,14.22,34.49,52.24,14.22,32.49,49.24,2759.03,861.78,293.89,72.59,21.43,3.16
2018/07/11T20:22:32z,60:1:94:58:d7:e0,2.50i,2.0+OPENLOG+15833 MB+DS3231+BME280+PMSX003A+PMSX003B,77,26,39.49,1012.69,0.03,30128,31,1857,11.47,27.64,44.33,11.47,27.47,43.09,2364.80,721.36,252.91,61.64,15.58,5.38,11.89,27.19,38.51,11.89,27.11,38.51,2372.11,732.19,228.30,48.27,13.30,1.46
2018/07/11T20:23:52z,60:1:94:58:d7:e0,2.50i,2.0+OPENLOG+15833 MB+DS3231+BME280+PMSX003A+PMSX003B,77,27,40.46,1012.71,0.03,30128,31,1937,10.57,27.14,42.00,10.57,26.95,40.80,2182.09,667.02,247.16,58.55,16.32,5.00,11.69,27.11,44.44,11.69,27.08,44.06,2340.25,727.00,242.03,61.89,19.08,3.00
2018/07/11T20:25:12z,60:1:94:58:d7:e0,2.50i,2.0+OPENLOG+15833 MB+DS3231+BME280+PMSX003A+PMSX003B,77,27,40.46,1012.60,0.03,29696,31,2017,10.71,24.44,41.11,10.71,24.42,40.80,2190.13,672.80,230.87,58.49,14.89,5.58,12.05,25.89,38.89,12.05,25.87,38.76,2352.47,725.00,225.53,47.13,15.34,2.32
2018/07/11T20:26:32z,60:1:94:58:d7:e0,2.50i,2.0+OPENLOG+15833 MB+DS3231+BME280+PMSX003A+PMSX003B,78,27,41.32,1012.68,0.03,29696,31,2097,9.62,22.20,31.89,9.62,22.20,31.89,1970.60,589.60,193.02,39.67,10.91,1.60,10.28,23.49,37.10,10.28,23.49,37.10,2108.85,642.62,218.74,46.95,16.41,2.79
2018/07/11T20:27:52z,60:1:94:58:d7:e0,2.50i,2.0+OPENLOG+15833 MB+DS3231+BME280+PMSX003A+PMSX003B,78,27,41.32,1012.53,0.03,30128,31,2177,8.90,20.63,31.43,8.90,20.63,31.43,1772.20,543.51,185.37,43.24,9.18,3.65,9.39,21.24,32.26,9.39,21.24,32.26,1739.13,551.37,184.92,39.03,14.24,1.45
2018/07/11T20:29:12z,60:1:94:58:d7:e0,2.50i,2.0+OPENLOG+15833 MB+DS3231+BME280+PMSX003A+PMSX003B,78,27,41.32,1012.65,0.03,30128,31,2257,7.89,18.73,29.42,7.89,18.73,29.42,1643.40,501.78,178.29,38.20,8.16,4.64,8.43,20.71,31.26,8.43,20.71,31.26,1674.77,522.29,177.49,45.97,13.14,0.77
2018/07/11T21:11:03z,60:1:94:58:d7:e0,2.50i,2.0+OPENLOG+15833 MB+DS3231+BME280+PMSX003A+PMSX003B,80,11,20.76,1012.43,0.03,30072,31,97,0.00,0.02,0.02,0.00,0.02,0.02,160.64,50.66,0.41,0.00,0.00,0.00,0.00,0.00,0.00,0.00,0.00,0.00,7.54,2.51,0.41,0.00,0.00,0.00
2018/07/11T21:12:23z,60:1:94:58:d7:e0,2.50i,2.0+OPENLOG+15833 MB+DS3231+BME280+PMSX003A+PMSX003B,80,10,18.53,1012.40,0.03,30072,31,177,0.61,0.61,0.61,0.61,0.61,0.61,201.13,66.17,0.67,0.00,0.00,0.00,0.00,0.00,0.00,0.00,0.00,0.00,5.19,1.03,0.41,0.00,0.00,0.00
2018/07/11T21:13:43z,60:1:94:58:d7:e0,2.50i,2.0+OPENLOG+15833 MB+DS3231+BME280+PMSX003A+PMSX003B,80,10,18.53,1012.30,0.03,29640,31,257,0.33,0.33,0.33,0.33,0.33,0.33,228.13,74.87,0.09,0.00,0.00,0.00,0.00,0.00,0.00,0.00,0.00,0.00,7.92,0.64,0.64,0.00,0.00,0.00
2018/07/11T21:15:03z,60:1:94:58:d7:e0,2.50i,2.0+OPENLOG+15833 MB+DS3231+BME280+PMSX003A+PMSX003B,80,10,18.53,1012.29,0.03,29640,31,337,0.67,0.72,0.72,0.67,0.72,0.72,236.48,78.09,0.24,0.00,0.00,0.00,0.00,0.00,0.00,0.00,0.00,0.00,2.68,0.89,0.08,0.08,0.00,0.00
2018/07/11T21:16:23z,60:1:94:58:d7:e0,2.50i,2.0+OPENLOG+15833 MB+DS3231+BME280+PMSX003A+PMSX003B,80,9,16.09,1012.18,0.03,30072,31,417,0.74,0.74,0.74,0.74,0.74,0.74,248.81,80.72,0.24,0.00,0.00,0.00,0.00,0.00,0.00,0.00,0.00,0.00,3.95,1.32,0.08,0.08,0.00,0.00
2018/07/11T21:17:43z,60:1:94:58:d7:e0,2.50i,2.0+OPENLOG+15833 MB+DS3231+BME280+PMSX003A+PMSX003B,80,9,16.09,1012.15,0.03,30072,31,497,0.89,0.89,0.89,0.89,0.89,0.89,277.98,90.34,0.34,0.00,0.00,0.00,0.00,0.00,0.00,0.00,0.00,0.00,2.84,0.95,0.89,0.08,0.00,0.00
2018/07/11T21:19:03z,60:1:94:58:d7:e0,2.50i,2.0+OPENLOG+15833 MB+DS3231+BME280+PMSX003A+PMSX003B,80,23,38.88,1011.84,0.03,29792,31,577,0.76,0.89,0.91,0.76,0.89,0.91,280.70,90.87,2.74,0.46,0.00,0.00,0.03,0.05,0.05,0.03,0.05,0.05,52.78,14.97,0.65,0.03,0.00,0.00
2018/07/11T21:20:23z,60:1:94:58:d7:e0,2.50i,2.0+OPENLOG+15833 MB+DS3231+BME280+PMSX003A+PMSX003B,80,33,48.32,1011.85,0.03,29640,31,657,3.80,4.47,4.93,3.78,4.44,4.93,766.80,230.58,17.04,2.11,0.56,0.33,1.59,2.30,2.38,1.59,2.30,2.38,500.92,150.41,9.08,0.54,0.16,0.00
2018/07/11T21:21:43z,60:1:94:58:d7:e0,2.50i,2.0+OPENLOG+15833 MB+DS3231+BME280+PMSX003A+PMSX003B,80,29,44.90,1012.12,0.03,29616,31,737,205.79,765.94,1841.81,136.48,509.92,1227.13,45921.31,14857.69,8656.29,3237.88,1123.44,466.85,214.03,845.58,2145.55,142.00,562.95,1429.66,48330.95,15787.66,9627.16,3807.89,1777.45,319.45
2018/07/11T21:23:03z,60:1:94:58:d7:e0,2.50i,2.0+OPENLOG+15833 MB+DS3231+BME280+PMSX003A+PMSX003B,80,22,37.75,1012.08,0.03,30072,31,817,198.37,636.72,1435.48,131.72,423.67,956.26,41473.63,13236.41,6893.57,2420.37,835.52,335.02,210.05,670.36,1540.87,139.23,446.56,1026.44,42712.15,13805.38,7140.33,2610.44,1164.64,200.67
2018/07/11T21:24:23z,60:1:94:58:d7:e0,2.50i,2.0+OPENLOG+15833 MB+DS3231+BME280+PMSX003A+PMSX003B,80,18,32.69,1011.96,0.03,30072,31,897,155.59,427.78,891.52,103.04,284.54,593.63,31020.20,9704.52,4371.65,1412.46,482.11,195.78,163.57,441.54,931.57,108.31,293.69,620.31,31926.26,10114.46,4430.23,1498.77,637.43,105.77
2018/07/11T21:25:43z,60:1:94:58:d7:e0,2.50i,2.0+OPENLOG+15833 MB+DS3231+BME280+PMSX003A+PMSX003B,80,15,28.20,1012.07,0.03,29640,31,977,110.70,273.40,520.23,73.17,181.55,346.17,21336.64,6597.40,2623.32,791.21,246.89,91.66,110.57,273.29,527.80,72.91,181.57,351.26,20861.06,6546.63,2582.14,804.69,337.54,57.69
2018/07/11T21:27:03z,60:1:94:58:d7:e0,2.50i,2.0+OPENLOG+15833 MB+DS3231+BME280+PMSX003A+PMSX003B,80,13,24.74,1012.00,0.03,29616,31,1057,69.27,165.16,303.05,45.48,109.45,201.36,13342.16,4093.00,1537.98,449.84,138.02,49.84,73.67,175.56,319.69,48.28,116.42,212.28,13654.75,4263.72,1637.67,467.33,189.83,32.92
2018/07/11T21:28:23z,60:1:94:58:d7:e0,2.50i,2.0+OPENLOG+15833 MB+DS3231+BME280+PMSX003A+PMSX003B,80,12,22.82,1012.06,0.03,30072,31,1137,44.20,103.82,186.77,31.73,68.55,123.73,8542.64,2604.73,961.36,279.00,85.48,28.86,45.19,104.84,187.78,32.00,69.14,124.22,8439.81,2636.19,941.68,272.49,107.46,17.41
2018/07/11T21:29:43z,60:1:94:58:d7:e0,2.50i,2.0+OPENLOG+15833 MB+DS3231+BME280+PMSX003A+PMSX003B,80,12,22.82,1011.50,0.03,30072,31,1217,28.11,66.89,115.75,24.27,48.14,79.07,5555.66,1681.16,626.91,168.45,45.68,19.09,31.06,71.78,131.11,25.89,50.03,86.69,5923.75,1842.58,643.97,187.81,79.56,11.61
2018/07/11T21:31:03z,60:1:94:58:d7:e0,2.50i,2.0+OPENLOG+15833 MB+DS3231+BME280+PMSX003A+PMSX003B,80,12,22.82,1011.64,0.03,29640,31,1297,25.89,60.33,109.96,23.09,45.58,75.93,5096.80,1559.87,573.11,147.33,54.33,20.82,28.14,64.54,114.19,24.43,47.43,77.89,5284.38,1646.03,582.03,157.24,69.24,8.51
2018/07/11T21:32:23z,60:1:94:58:d7:e0,2.50i,2.0+OPENLOG+15833 MB+DS3231+BME280+PMSX003A+PMSX003B,80,12,22.82,1011.50,0.03,29616,31,1377,24.59,56.70,101.00,22.55,44.25,72.91,4739.80,1459.45,530.48,145.59,43.30,12.68,25.84,61.11,111.22,23.08,46.00,76.76,4961.43,1550.05,565.46,154.76,69.11,7.65
2018/07/11T21:33:43z,60:1:94:58:d7:e0,2.50i,2.0+OPENLOG+15833 MB+DS3231+BME280+PMSX003A+PMSX003B,80,13,24.74,1011.51,0.03,30072,31,1457,22.23,52.80,91.75,21.05,42.50,69.11,4407.41,1324.66,484.59,128.09,42.80,14.73,22.80,53.57,95.57,21.40,42.63,70.49,4393.63,1363.23,490.54,134.17,56.20,6.80
2018/07/11T21:35:03z,60:1:94:58:d7:e0,2.50i,2.0+OPENLOG+15833 MB+DS3231+BME280+PMSX003A+PMSX003B,81,13,25.52,1011.56,0.03,30072,31,1537,23.46,53.24,88.70,21.83,42.63,68.11,4538.87,1382.54,484.85,124.74,35.28,11.11,23.49,53.17,85.09,21.91,42.54,66.49,4331.40,1349.60,450.29,116.54,39.80,4.26
2018/07/11T21:36:23z,60:1:94:58:d7:e0,2.50i,2.0+OPENLOG+15833 MB+DS3231+BME280+PMSX003A+PMSX003B,81,14,27.31,1011.49,0.03,29640,31,1617,19.43,44.98,75.89,19.43,38.54,62.28,3782.41,1135.87,437.09,111.65,25.24,7.96,20.03,47.92,82.89,19.56,39.86,65.17,3910.75,1213.78,435.92,117.75,43.75,6.11
2018/07/11T21:37:43z,60:1:94:58:d7:e0,2.50i,2.0+OPENLOG+15833 MB+DS3231+BME280+PMSX003A+PMSX003B,81,14,27.31,1011.51,0.03,29640,31,1697,19.72,45.22,74.22,19.22,38.59,61.54,3813.13,1162.46,420.54,93.24,28.91,12.80,19.72,46.78,74.36,19.08,39.17,61.22,3839.67,1201.14,427.25,101.56,34.25,4.17
2018/07/11T21:39:03z,60:1:94:58:d7:e0,2.50i,2.0+OPENLOG+15833 MB+DS3231+BME280+PMSX003A+PMSX003B,81,14,27.31,1011.52,0.03,30072,31,1777,17.09,38.00,67.35,17.09,34.54,57.76,3357.72,1036.91,358.50,93.35,26.04,8.41,18.56,44.06,72.39,18.56,38.03,60.58,3536.83,1087.11,382.42,101.97,35.64,4.78
2018/07/11T21:40:23z,60:1:94:58:d7:e0,2.50i,2.0+OPENLOG+15833 MB+DS3231+BME280+PMSX003A+PMSX003B,81,15,29.00,1011.52,0.03,30072,31,1857,16.25,37.00,58.98,16.25,33.93,53.36,3234.41,965.39,328.30,79.86,19.23,6.45,16.97,40.67,67.03,16.97,36.19,57.86,3330.92,1033.25,346.36,93.81,34.81,2.42
2018/07/11T21:41:43z,60:1:94:58:d7:e0,2.50i,2.0+OPENLOG+15833 MB+DS3231+BME280+PMSX003A+PMSX003B,81,15,29.00,1011.58,0.03,29536,31,1937,15.36,34.80,56.89,15.36,32.71,52.04,3037.00,929.84,307.67,70.36,25.20,8.27,15.92,34.28,57.19,15.92,32.25,52.14,3005.00,930.53,313.86,75.25,30.00,4.11
2018/07/11T21:43:03z,60:1:94:58:d7:e0,2.50i,2.0+OPENLOG+15833 MB+DS3231+BME280+PMSX003A+PMSX003B,81,15,29.00,1011.44,0.03,29640,31,2017,14.49,33.27,51.87,14.49,31.76,48.93,2853.00,865.18,303.96,69.09,16.24,7.20,14.33,33.92,51.97,14.33,32.00,48.97,2763.58,860.83,299.39,64.33,23.78,4.14
2018/07/11T21:44:23z,60:1:94:58:d7:e0,2.50i,2.0+OPENLOG+15833 MB+DS3231+BME280+PMSX003A+PMSX003B,81,16,30.58,1011.53,0.03,30072,31,2097,14.37,32.80,49.28,14.37,31.35,47.30,2842.76,868.26,275.37,66.63,14.17,5.48,12.83,28.69,45.74,12.83,28.34,44.63,2564.49,792.71,260.94,58.57,18.86,2.57
2018/07/11T21:45:43z,60:1:94:58:d7:e0,2.50i,2.0+OPENLOG+15833 MB+DS3231+BME280+PMSX003A+PMSX003B,81,16,30.58,1011.41,0.03,30072,31,2177,13.67,30.70,41.39,13.67,29.93,41.00,2702.41,818.52,262.39,50.78,8.70,3.00,12.97,31.05,44.81,12.97,30.35,44.22,2528.51,781.95,278.70,57.95,14.43,1.81
2018/07/11T21:47:03z,60:1:94:58:d7:e0,2.50i,2.0+OPENLOG+15833 MB+DS3231+BME280+PMSX003A+PMSX003B,81,16,30.58,1011.48,0.03,29584,31,2257,11.64,26.36,39.80,11.64,26.27,39.73,2290.02,713.25,245.02,49.55,10.11,3.52,12.25,29.61,43.56,12.25,29.25,43.17,2305.58,728.03,258.33,52.03,17.67,3.42
2018/07/11T21:48:23z,60:1:94:58:d7:e0,2.50i,2.0+OPENLOG+15833 MB+DS3231+BME280+PMSX003A+PMSX003B,81,16,30.58,1011.34,0.03,29640,31,2337,11.30,24.89,39.79,11.30,24.89,39.79,2264.30,677.02,225.34,52.94,13.02,2.83,10.03,24.33,38.39,10.03,24.33,38.39,2040.08,636.39,225.39,50.25,18.53,3.58

 ets Jan  8 2013,rst cause:1, boot mode:(3,7)

load 0x4010f000, len 1384, room 16 
tail 8
chksum 0x2d
csum 0x2d
v3de0c112
~ld


AirMonitor Ver: 2.50i
FlashChipRealSize: 2097152
69 31872 time not set:Detecting I2C...
69 31848 time not set:RETRY: Found RTC! ******************
82 31784 2018/07/11T21:48:23z:Found BME280 sensor on 0x76! ******************
3722 31488 2018/07/11T21:48:26z:EEPROM SSID: CenturyLink2595
3724 31448 2018/07/11T21:48:26z:Device: AirMonitor_d7e0
3726 31448 2018/07/11T21:48:26z:MAC: 60:1:94:58:d7:e0
3727 31472 2018/07/11T21:48:26z:setupWiFi, WiFi.begin()
3734 31288 2018/07/11T21:48:26z:setupWiFi Complete.
3736 31288 2018/07/11T21:48:26z:Looking for channel B
6397 31128 2018/07/11T21:48:29z:Attempt 1 took 2656ms. Found PMSX003 type sensor! ******************
6399 31344 2018/07/11T21:48:29z:Looking for channel A
2018/07/11T21:50:01z,60:1:94:58:d7:e0,2.50i,2.0+OPENLOG+15833 MB+DS3231+BME280+PMSX003A+PMSX003B,81,17,32.08,1011.31,0.03,30072,31,97,10.04,21.17,30.23,10.04,21.17,30.23,1973.36,597.98,182.21,35.85,8.83,1.79,9.87,23.30,33.43,9.87,23.30,33.43,1736.87,535.17,183.65,40.52,8.61,1.78
2018/07/11T21:51:21z,60:1:94:58:d7:e0,2.50i,2.0+OPENLOG+15833 MB+DS3231+BME280+PMSX003A+PMSX003B,81,17,32.08,1011.42,0.03,29640,31,177,9.07,20.71,28.64,9.07,20.71,28.64,1841.80,563.62,179.69,35.73,5.82,1.38,10.19,23.75,36.72,10.19,23.75,36.72,1980.92,619.58,200.97,46.64,16.81,3.19
2018/07/11T21:52:41z,60:1:94:58:d7:e0,2.50i,2.0+OPENLOG+15833 MB+DS3231+BME280+PMSX003A+PMSX003B,81,17,32.08,1011.38,0.03,29616,31,257,8.76,19.26,28.61,8.76,19.26,28.61,1855.17,549.93,179.74,32.63,7.20,1.85,8.28,18.69,28.39,8.28,18.69,28.39,1624.83,506.25,169.28,31.28,14.06,1.61
2018/07/11T21:54:01z,60:1:94:58:d7:e0,2.50i,2.0+OPENLOG+15833 MB+DS3231+BME280+PMSX003A+PMSX003B,81,17,32.08,1011.27,0.03,30072,31,337,7.85,17.49,25.70,7.85,17.49,25.70,1642.40,495.26,155.77,31.79,7.09,3.83,8.61,17.47,26.58,8.61,17.47,26.58,1693.67,525.75,155.92,31.44,12.56,0.78
2018/07/11T21:55:21z,60:1:94:58:d7:e0,2.50i,2.0+OPENLOG+15833 MB+DS3231+BME280+PMSX003A+PMSX003B,82,18,34.32,1011.33,0.03,30072,31,417,7.29,17.64,25.11,7.29,17.64,25.11,1536.80,469.76,155.51,32.27,6.24,2.60,8.19,16.92,26.51,8.19,16.92,26.51,1569.57,490.03,145.73,32.14,11.78,1.57
2018/07/11T21:56:41z,60:1:94:58:d7:e0,2.50i,2.0+OPENLOG+15833 MB+DS3231+BME280+PMSX003A+PMSX003B,81,18,33.51,1011.12,0.03,29640,31,497,6.13,14.77,20.62,6.13,14.77,20.62,1337.68,404.40,135.43,26.91,4.49,2.06,6.43,16.00,24.49,6.43,16.00,24.49,1389.49,429.05,141.38,34.59,8.78,1.38
2018/07/11T21:58:01z,60:1:94:58:d7:e0,2.50i,2.0+OPENLOG+15833 MB+DS3231+BME280+PMSX003A+PMSX003B,82,18,34.32,1011.32,0.03,29640,31,577,6.15,15.38,20.68,6.15,15.38,20.68,1398.00,425.38,140.94,26.72,4.81,1.13,6.29,14.34,21.43,6.29,14.34,21.43,1258.63,390.06,123.06,28.49,8.49,1.00
2018/07/11T21:59:21z,60:1:94:58:d7:e0,2.50i,2.0+OPENLOG+15833 MB+DS3231+BME280+PMSX003A+PMSX003B,82,18,34.32,1011.31,0.03,30072,31,657,6.30,13.70,17.55,6.30,13.70,17.55,1201.28,375.45,112.43,19.74,3.49,1.34,6.58,15.75,23.53,6.58,15.75,23.53,1305.67,405.92,141.17,29.58,11.50,0.44
2018/07/11T22:00:41z,60:1:94:58:d7:e0,2.50i,2.0+OPENLOG+15833 MB+DS3231+BME280+PMSX003A+PMSX003B,81,18,33.51,1011.18,0.03,30072,31,737,5.28,10.30,16.39,5.28,10.30,16.39,1078.63,329.76,88.85,21.37,5.93,1.83,6.13,12.18,16.68,6.13,12.18,16.68,1111.82,350.34,110.29,17.63,6.18,0.63
2018/07/11T22:02:01z,60:1:94:58:d7:e0,2.50i,2.0+OPENLOG+15833 MB+DS3231+BME280+PMSX003A+PMSX003B,82,19,35.68,1011.27,0.03,29328,31,817,5.54,12.41,16.57,5.54,12.41,16.57,1109.48,341.96,114.43,19.50,4.09,1.59,5.11,11.35,15.30,5.11,11.35,15.30,1027.86,321.11,101.22,15.46,3.73,0.22
2018/07/11T22:03:21z,60:1:94:58:d7:e0,2.50i,2.0+OPENLOG+15833 MB+DS3231+BME280+PMSX003A+PMSX003B,82,19,35.68,1011.26,0.03,29456,31,897,5.20,10.27,13.49,5.20,10.27,13.49,1018.40,310.64,90.69,12.11,3.18,1.07,4.66,11.11,15.32,4.66,11.11,15.32,946.26,302.29,108.50,18.08,4.53,0.53
2018/07/11T22:04:41z,60:1:94:58:d7:e0,2.50i,2.0+OPENLOG+15833 MB+DS3231+BME280+PMSX003A+PMSX003B,82,19,35.68,1011.20,0.03,29616,31,977,4.85,9.50,12.43,4.85,9.50,12.43,949.57,292.67,81.89,12.76,2.80,0.46,4.82,10.24,15.61,4.82,10.24,15.61,1002.24,310.24,93.05,19.05,6.37,1.24
2018/07/11T22:06:01z,60:1:94:58:d7:e0,2.50i,2.0+OPENLOG+15833 MB+DS3231+BME280+PMSX003A+PMSX003B,82,19,35.68,1011.25,0.03,30072,31,1057,3.72,9.30,12.21,3.72,9.30,12.21,860.55,258.38,80.36,14.98,2.85,1.85,3.51,8.19,12.78,3.51,8.19,12.78,839.43,264.81,85.73,14.38,5.24,0.30
2018/07/11T22:07:21z,60:1:94:58:d7:e0,2.50i,2.0+OPENLOG+15833 MB+DS3231+BME280+PMSX003A+PMSX003B,82,19,35.68,1011.24,0.03,30072,31,1137,4.30,8.33,11.30,4.30,8.33,11.30,908.80,284.09,74.50,10.48,2.65,0.24,3.58,7.50,9.95,3.58,7.50,9.95,850.89,265.39,69.39,9.95,2.95,0.05
2018/07/11T22:08:41z,60:1:94:58:d7:e0,2.50i,2.0+OPENLOG+15833 MB+DS3231+BME280+PMSX003A+PMSX003B,82,19,35.68,1011.17,0.03,29536,31,1217,3.51,8.33,11.47,3.51,8.33,11.47,863.47,265.09,78.71,12.91,2.98,0.60,3.22,8.64,11.75,3.22,8.64,11.75,728.92,229.53,81.06,17.69,3.39,0.50
2018/07/11T22:10:01z,60:1:94:58:d7:e0,2.50i,2.0+OPENLOG+15833 MB+DS3231+BME280+PMSX003A+PMSX003B,82,19,35.68,1011.12,0.03,29616,31,1297,3.25,5.58,8.15,3.25,5.58,8.15,779.12,244.25,56.40,7.65,1.04,0.56,3.61,7.08,10.22,3.61,7.08,10.22,695.67,219.47,72.11,11.67,3.39,0.33
2018/07/11T22:11:21z,60:1:94:58:d7:e0,2.50i,2.0+OPENLOG+15833 MB+DS3231+BME280+PMSX003A+PMSX003B,82,20,36.98,1011.15,0.03,30072,31,1377,2.89,7.55,11.51,2.89,7.55,11.51,756.38,238.11,72.34,16.91,2.79,0.81,2.79,5.63,8.76,2.79,5.63,8.76,730.26,218.82,53.05,11.82,2.03,0.32
2018/07/11T22:12:41z,60:1:94:58:d7:e0,2.50i,2.0+OPENLOG+15833 MB+DS3231+BME280+PMSX003A+PMSX003B,82,20,36.98,1010.95,0.03,30072,31,1457,3.82,7.53,9.76,3.82,7.53,9.76,828.07,261.91,58.93,9.02,1.89,0.49,2.87,6.18,9.34,2.87,6.18,9.34,687.95,214.79,55.53,11.95,4.79,1.84
2018/07/11T22:14:01z,60:1:94:58:d7:e0,2.50i,2.0+OPENLOG+15833 MB+DS3231+BME280+PMSX003A+PMSX003B,82,20,36.98,1011.16,0.03,29536,31,1537,3.00,6.91,8.35,3.00,6.91,8.35,708.00,222.24,63.61,7.59,1.72,0.41,2.00,5.32,6.65,2.00,5.32,6.65,493.95,156.30,54.11,6.92,2.19,0.46
2018/07/11T22:15:21z,60:1:94:58:d7:e0,2.50i,2.0+OPENLOG+15833 MB+DS3231+BME280+PMSX003A+PMSX003B,82,20,36.98,1011.11,0.03,29640,31,1617,2.80,6.29,8.69,2.80,6.29,8.69,627.40,202.89,61.67,10.80,0.98,0.33,2.22,5.69,8.08,2.22,5.69,8.08,536.67,168.94,58.39,10.11,2.50,0.46
2018/07/11T22:16:41z,60:1:94:58:d7:e0,2.50i,2.0+OPENLOG+15833 MB+DS3231+BME280+PMSX003A+PMSX003B,82,20,36.98,1011.07,0.03,30072,31,1697,2.85,5.43,7.45,2.85,5.43,7.45,624.96,191.89,37.62,9.74,1.55,0.55,2.46,5.59,9.00,2.46,5.59,9.00,628.38,189.51,53.78,12.30,4.43,0.43
2018/07/11T22:18:01z,60:1:94:58:d7:e0,2.50i,2.0+OPENLOG+15833 MB+DS3231+BME280+PMSX003A+PMSX003B,82,20,36.98,1011.08,0.03,30072,31,1777,2.51,5.26,7.04,2.51,5.26,7.04,569.23,180.85,44.23,6.87,2.04,1.47,1.82,3.84,5.79,1.82,3.84,5.79,459.16,143.16,33.37,6.95,2.58,0.45
2018/07/11T22:19:21z,60:1:94:58:d7:e0,2.50i,2.0+OPENLOG+15833 MB+DS3231+BME280+PMSX003A+PMSX003B,82,20,36.98,1011.09,0.03,29536,31,1857,2.57,4.65,6.37,2.57,4.65,6.37,525.26,171.24,42.13,6.07,1.39,0.80,2.45,4.87,6.08,2.45,4.87,6.08,541.34,169.34,46.26,4.11,1.61,1.26
2018/07/11T22:20:41z,60:1:94:58:d7:e0,2.50i,2.0+OPENLOG+15833 MB+DS3231+BME280+PMSX003A+PMSX003B,82,20,36.98,1010.85,0.03,29640,31,1937,2.24,4.31,6.00,2.24,4.31,6.00,556.87,174.09,37.09,6.84,1.58,0.53,2.16,3.46,6.92,2.16,3.46,6.92,443.68,139.22,39.27,9.35,4.11,1.26
2018/07/11T22:22:01z,60:1:94:58:d7:e0,2.50i,2.0+OPENLOG+15833 MB+DS3231+BME280+PMSX003A+PMSX003B,82,21,38.22,1011.06,0.03,30072,31,2017,2.30,3.57,4.57,2.30,3.57,4.57,553.72,168.53,30.00,2.68,0.74,0.51,1.36,3.06,3.81,1.36,3.06,3.81,434.50,130.00,33.81,4.69,1.08,1.26
2018/07/11T22:23:21z,60:1:94:58:d7:e0,2.50i,2.0+OPENLOG+15833 MB+DS3231+BME280+PMSX003A+PMSX003B,82,21,38.22,1011.06,0.03,30072,31,2097,2.06,3.40,4.64,2.06,3.40,4.64,552.64,167.06,29.34,3.91,0.23,0.23,1.38,2.46,3.16,1.38,2.46,3.16,360.65,113.89,30.03,3.73,0.92,1.26
2018/07/11T22:24:41z,60:1:94:58:d7:e0,2.50i,2.0+OPENLOG+15833 MB+DS3231+BME280+PMSX003A+PMSX003B,82,21,38.22,1010.93,0.03,29608,31,2177,2.26,4.28,4.76,2.26,4.28,4.76,538.30,164.85,32.39,5.39,0.48,0.15,1.32,2.82,3.92,1.32,2.82,3.92,363.95,115.53,28.50,5.16,0.97,1.26
2018/07/11T22:26:01z,60:1:94:58:d7:e0,2.50i,2.0+OPENLOG+15833 MB+DS3231+BME280+PMSX003A+PMSX003B,82,21,38.22,1010.90,0.03,29352,31,2257,2.35,3.35,4.35,2.35,3.35,4.35,483.52,149.80,26.63,3.78,0.15,0.15,0.74,2.61,3.71,0.74,2.61,3.71,320.45,103.39,34.92,3.29,1.32,1.26
2018/07/11T22:27:21z,60:1:94:58:d7:e0,2.50i,2.0+OPENLOG+15833 MB+DS3231+BME280+PMSX003A+PMSX003B,82,21,38.22,1011.01,0.03,29616,31,2337,1.83,2.63,3.22,1.83,2.63,3.22,451.43,135.87,18.22,2.63,0.65,0.41,0.16,1.14,2.38,0.16,1.14,2.38,299.92,94.78,24.46,3.03,1.57,1.26

 ets Jan  8 2013,rst cause:1, boot mode:(3,7)

load 0x4010f000, len 1384, room 16 
tail 8
chksum 0x2d
csum 0x2d
v3de0c112
~ld


AirMonitor Ver: 2.50i
FlashChipRealSize: 2097152
69 31872 time not set:Detecting I2C...
70 31848 time not set:RETRY: Found RTC! ******************
82 31784 2018/07/11T22:27:21z:Found BME280 sensor on 0x76! ******************
3723 31488 2018/07/11T22:27:25z:EEPROM SSID: CenturyLink2595
3725 31448 2018/07/11T22:27:25z:Device: AirMonitor_d7e0
3727 31448 2018/07/11T22:27:25z:MAC: 60:1:94:58:d7:e0
3728 31472 2018/07/11T22:27:25z:setupWiFi, WiFi.begin()
3735 31288 2018/07/11T22:27:25z:setupWiFi Complete.
3737 31288 2018/07/11T22:27:25z:Looking for channel B
6510 31128 2018/07/11T22:27:27z:Attempt 1 took 2768ms. Found PMSX003 type sensor! ******************
6512 31344 2018/07/11T22:27:27z:Looking for channel A
2018/07/11T22:28:59z,60:1:94:58:d7:e0,2.50i,2.0+OPENLOG+15833 MB+DS3231+BME280+PMSX003A+PMSX003B,82,21,38.22,1010.91,0.03,30072,31,97,1.32,2.70,4.00,1.32,2.70,4.00,403.15,127.68,22.19,4.74,1.45,0.40,0.96,2.31,3.20,0.96,2.31,3.20,329.00,100.13,29.62,3.18,1.27,0.00
2018/07/11T22:30:19z,60:1:94:58:d7:e0,2.50i,2.0+OPENLOG+15833 MB+DS3231+BME280+PMSX003A+PMSX003B,82,21,38.22,1010.91,0.03,29640,31,177,1.13,2.13,2.66,1.13,2.13,2.66,396.51,122.09,21.85,2.43,0.26,0.40,0.22,2.31,3.33,0.22,2.31,3.33,271.08,83.28,29.72,6.92,1.72,0.11
2018/07/11T22:31:39z,60:1:94:58:d7:e0,2.50i,2.0+OPENLOG+15833 MB+DS3231+BME280+PMSX003A+PMSX003B,82,21,38.22,1010.97,0.03,29640,31,257,1.02,2.28,3.15,1.02,2.28,3.15,363.39,115.26,24.07,3.54,0.91,0.40,0.43,1.54,2.38,0.43,1.54,2.38,282.32,91.46,24.11,2.05,0.84,0.11
2018/07/11T22:32:59z,60:1:94:58:d7:e0,2.50i,2.0+OPENLOG+15833 MB+DS3231+BME280+PMSX003A+PMSX003B,82,21,38.22,1010.99,0.03,30072,31,337,1.15,1.72,2.20,1.15,1.72,2.20,348.78,108.93,14.63,1.67,0.24,0.40,0.34,1.08,1.61,0.34,1.08,1.61,236.37,74.29,21.63,1.92,0.68,0.18
2018/07/11T22:34:19z,60:1:94:58:d7:e0,2.50i,2.0+OPENLOG+15833 MB+DS3231+BME280+PMSX003A+PMSX003B,82,21,38.22,1010.96,0.03,30072,31,417,1.53,2.77,3.28,1.53,2.77,3.28,443.81,133.36,17.47,3.00,0.53,0.19,0.37,1.29,2.24,0.37,1.29,2.24,215.29,67.97,18.11,3.08,1.61,0.05
2018/07/11T22:35:39z,60:1:94:58:d7:e0,2.50i,2.0+OPENLOG+15833 MB+DS3231+BME280+PMSX003A+PMSX003B,82,22,39.41,1010.95,0.03,29536,31,497,0.78,1.72,2.24,0.78,1.72,2.24,306.59,97.07,13.35,2.43,0.65,0.20,0.16,1.05,1.51,0.16,1.05,1.51,186.73,60.11,16.32,2.43,0.51,0.05
2018/07/11T22:36:59z,60:1:94:58:d7:e0,2.50i,2.0+OPENLOG+15833 MB+DS3231+BME280+PMSX003A+PMSX003B,82,22,39.41,1010.91,0.03,29640,31,577,1.13,1.67,2.13,1.13,1.67,2.13,312.93,100.27,15.11,1.58,0.27,0.20,0.03,0.42,0.42,0.03,0.42,0.42,164.42,51.92,14.06,0.67,0.51,0.05
2018/07/11T22:38:19z,60:1:94:58:d7:e0,2.50i,2.0+OPENLOG+15833 MB+DS3231+BME280+PMSX003A+PMSX003B,82,22,39.41,1010.81,0.03,30072,31,657,1.24,2.09,2.76,1.24,2.09,2.76,353.28,111.85,14.46,3.28,0.63,0.26,0.84,1.78,2.03,0.84,1.78,2.03,248.68,75.19,16.86,2.95,0.51,0.05
2018/07/11T22:39:39z,60:1:94:58:d7:e0,2.50i,2.0+OPENLOG+15833 MB+DS3231+BME280+PMSX003A+PMSX003B,82,22,39.41,1010.84,0.03,30072,31,737,1.15,1.74,2.26,1.15,1.74,2.26,319.15,101.47,15.40,1.94,0.26,0.26,0.21,0.89,1.42,0.21,0.89,1.42,188.68,58.08,17.26,1.74,1.13,0.05
2018/07/11T22:40:59z,60:1:94:58:d7:e0,2.50i,2.0+OPENLOG+15833 MB+DS3231+BME280+PMSX003A+PMSX003B,82,22,39.41,1010.86,0.03,29792,31,817,0.24,0.50,0.85,0.24,0.50,0.85,286.30,91.00,9.67,1.13,0.39,0.26,0.08,0.92,1.00,0.08,0.92,1.00,214.42,61.29,11.92,0.87,0.24,0.05
2018/07/11T22:42:19z,60:1:94:58:d7:e0,2.50i,2.0+OPENLOG+15833 MB+DS3231+BME280+PMSX003A+PMSX003B,82,22,39.41,1010.87,0.03,29640,31,897,0.85,1.09,1.22,0.85,1.09,1.22,353.22,105.39,7.20,0.72,0.26,0.26,0.08,0.57,0.57,0.08,0.57,0.57,142.62,44.30,8.22,0.68,0.24,0.05
2018/07/11T22:43:39z,60:1:94:58:d7:e0,2.50i,2.0+OPENLOG+15833 MB+DS3231+BME280+PMSX003A+PMSX003B,82,22,39.41,1010.79,0.03,29616,31,977,1.28,1.46,1.70,1.28,1.46,1.70,338.93,105.83,7.57,1.30,0.24,0.26,0.14,0.64,1.11,0.14,0.64,1.11,165.83,52.00,11.61,0.47,0.47,0.47
2018/07/11T22:44:59z,60:1:94:58:d7:e0,2.50i,2.0+OPENLOG+15833 MB+DS3231+BME280+PMSX003A+PMSX003B,82,22,39.41,1010.77,0.03,30072,31,1057,1.02,1.45,1.68,1.02,1.45,1.68,322.91,102.81,9.15,1.38,0.04,0.26,0.14,0.95,1.22,0.14,0.95,1.22,162.41,50.27,12.32,1.62,0.38,0.47
2018/07/11T22:46:19z,60:1:94:58:d7:e0,2.50i,2.0+OPENLOG+15833 MB+DS3231+BME280+PMSX003A+PMSX003B,82,22,39.41,1010.72,0.03,30072,31,1137,1.39,2.02,2.15,1.39,2.02,2.15,383.54,123.35,8.91,1.35,0.04,0.26,0.14,0.79,0.79,0.14,0.79,0.79,149.84,45.53,9.71,0.68,0.38,0.47
2018/07/11T22:47:39z,60:1:94:58:d7:e0,2.50i,2.0+OPENLOG+15833 MB+DS3231+BME280+PMSX003A+PMSX003B,82,22,39.41,1010.82,0.03,29640,31,1217,0.89,1.24,1.53,0.89,1.24,1.53,327.47,104.38,7.47,1.38,0.04,0.26,0.58,0.74,1.13,0.58,0.74,1.13,194.29,62.68,8.71,0.89,0.39,0.47
2018/07/11T22:48:59z,60:1:94:58:d7:e0,2.50i,2.0+OPENLOG+15833 MB+DS3231+BME280+PMSX003A+PMSX003B,82,22,39.41,1010.76,0.03,29616,31,1297,0.60,1.02,1.26,0.60,1.02,1.26,283.47,89.89,8.98,1.83,0.04,0.26,0.58,0.74,0.05,0.58,0.74,0.05,86.19,25.95,5.92,0.05,0.05,0.47
2018/07/11T22:50:19z,60:1:94:58:d7:e0,2.50i,2.0+OPENLOG+15833 MB+DS3231+BME280+PMSX003A+PMSX003B,82,22,39.41,1010.69,0.03,30072,31,1377,0.72,1.15,1.40,0.72,1.15,1.40,298.28,93.91,10.53,1.38,0.04,0.26,0.58,0.31,0.83,0.58,0.31,0.83,117.69,34.03,8.51,1.20,0.86,0.47
2018/07/11T22:51:39z,60:1:94:58:d7:e0,2.50i,2.0+OPENLOG+15833 MB+DS3231+BME280+PMSX003A+PMSX003B,82,22,39.41,1010.69,0.03,30072,31,1457,0.59,0.80,1.93,0.59,0.80,1.93,256.70,78.76,7.67,2.46,1.59,0.26,0.58,0.08,0.57,0.58,0.08,0.57,99.65,27.92,7.54,1.24,0.86,0.47
2018/07/11T22:52:59z,60:1:94:58:d7:e0,2.50i,2.0+OPENLOG+15833 MB+DS3231+BME280+PMSX003A+PMSX003B,82,22,39.41,1010.77,0.03,29456,31,1537,0.87,1.11,1.82,0.87,1.11,1.82,264.40,86.27,8.27,3.09,0.36,0.26,0.58,0.08,0.11,0.58,0.08,0.11,105.24,34.92,4.82,0.29,0.86,0.47
2018/07/11T22:54:19z,60:1:94:58:d7:e0,2.50i,2.0+OPENLOG+15833 MB+DS3231+BME280+PMSX003A+PMSX003B,82,22,39.41,1010.77,0.03,29640,31,1617,0.83,1.00,1.13,0.83,1.00,1.13,278.43,90.04,7.70,1.55,0.36,0.26,0.58,0.03,0.03,0.58,0.03,0.03,125.45,37.79,2.74,0.68,0.86,0.47
2018/07/11T22:55:39z,60:1:94:58:d7:e0,2.50i,2.0+OPENLOG+15833 MB+DS3231+BME280+PMSX003A+PMSX003B,82,23,40.56,1010.64,0.03,30072,31,1697,0.96,1.30,1.30,0.96,1.30,1.30,329.23,103.51,6.28,0.02,0.36,0.26,0.58,0.03,0.03,0.58,0.03,0.03,80.03,21.95,4.54,0.68,0.86,0.47
2018/07/11T22:56:59z,60:1:94:58:d7:e0,2.50i,2.0+OPENLOG+15833 MB+DS3231+BME280+PMSX003A+PMSX003B,82,23,40.56,1010.67,0.03,30072,31,1777,0.57,0.57,0.57,0.57,0.57,0.57,236.15,74.24,3.37,0.02,0.36,0.26,0.58,0.03,0.14,0.58,0.03,0.14,85.92,25.97,3.58,0.94,0.14,0.47
2018/07/11T22:58:19z,60:1:94:58:d7:e0,2.50i,2.0+OPENLOG+15833 MB+DS3231+BME280+PMSX003A+PMSX003B,82,23,40.56,1010.72,0.03,29536,31,1857,0.59,0.96,0.96,0.59,0.96,0.96,259.89,84.02,5.30,0.22,0.36,0.26,0.58,0.03,0.14,0.58,0.03,0.14,65.92,20.78,3.03,0.32,0.14,0.47
2018/07/11T22:59:39z,60:1:94:58:d7:e0,2.50i,2.0+OPENLOG+15833 MB+DS3231+BME280+PMSX003A+PMSX003B,82,23,40.56,1010.69,0.03,29640,31,1937,0.70,1.09,1.09,0.70,1.09,1.09,255.19,80.98,8.00,0.26,0.36,0.26,0.58,0.03,0.14,0.58,0.03,0.14,77.29,24.61,5.71,1.03,0.14,0.47
2018/07/11T23:00:59z,60:1:94:58:d7:e0,2.50i,2.0+OPENLOG+15833 MB+DS3231+BME280+PMSX003A+PMSX003B,82,23,40.56,1010.57,0.03,30072,31,2017,0.38,0.94,0.96,0.38,0.94,0.96,217.15,70.17,6.40,1.45,0.36,0.26,0.58,0.03,0.14,0.58,0.03,0.14,68.05,21.55,4.71,0.68,0.14,0.47
2018/07/11T23:02:19z,60:1:94:58:d7:e0,2.50i,2.0+OPENLOG+15833 MB+DS3231+BME280+PMSX003A+PMSX003B,82,23,40.56,1010.58,0.03,30072,31,2097,0.74,0.98,1.02,0.74,0.98,1.02,245.54,80.28,2.98,0.61,0.26,0.26,0.58,0.03,0.14,0.58,0.03,0.14,82.54,25.19,4.41,0.16,0.14,0.47
2018/07/11T23:03:39z,60:1:94:58:d7:e0,2.50i,2.0+OPENLOG+15833 MB+DS3231+BME280+PMSX003A+PMSX003B,82,23,40.56,1010.58,0.03,29792,31,2177,0.71,1.49,1.49,0.71,1.49,1.49,267.20,87.27,7.76,2.07,0.26,0.26,0.58,0.03,0.50,0.58,0.03,0.50,99.42,30.92,5.92,1.83,0.50,0.47
2018/07/11T23:04:59z,60:1:94:58:d7:e0,2.50i,2.0+OPENLOG+15833 MB+DS3231+BME280+PMSX003A+PMSX003B,82,23,40.56,1010.65,0.03,29640,31,2257,0.38,0.94,0.94,0.38,0.94,0.94,226.98,67.60,4.34,0.55,0.26,0.26,0.58,0.03,0.08,0.58,0.03,0.08,81.32,24.73,5.68,1.00,0.38,0.47
2018/07/11T23:06:19z,60:1:94:58:d7:e0,2.50i,2.0+OPENLOG+15833 MB+DS3231+BME280+PMSX003A+PMSX003B,82,23,40.56,1010.61,0.03,29432,31,2337,0.34,0.43,0.60,0.34,0.43,0.60,187.34,56.64,2.72,0.55,0.26,0.26,0.58,0.13,0.26,0.58,0.13,0.26,77.21,23.89,6.79,0.87,0.38,0.47

 ets Jan  8 2013,rst cause:1, boot mode:(3,7)

load 0x4010f000, len 1384, room 16 
tail 8
chksum 0x2d
csum 0x2d
v3de0c112
~ld


AirMonitor Ver: 2.50i
FlashChipRealSize: 2097152
69 31872 time not set:Detecting I2C...
69 31848 time not set:RETRY: Found RTC! ******************
82 31784 2018/07/11T23:06:19z:Found BME280 sensor on 0x76! ******************
3723 31488 2018/07/11T23:06:23z:EEPROM SSID: CenturyLink2595
3725 31448 2018/07/11T23:06:23z:Device: AirMonitor_d7e0
3727 31448 2018/07/11T23:06:23z:MAC: 60:1:94:58:d7:e0
3728 31472 2018/07/11T23:06:23z:setupWiFi, WiFi.begin()
3735 31288 2018/07/11T23:06:23z:setupWiFi Complete.
3737 31288 2018/07/11T23:06:23z:Looking for channel B
6418 30944 2018/07/11T23:06:25z:Attempt 1 took 2675ms. Found PMSX003 type sensor! ******************
6419 31160 2018/07/11T23:06:25z:Looking for channel A
2018/07/11T23:07:57z,60:1:94:58:d7:e0,2.50i,2.0+OPENLOG+15833 MB+DS3231+BME280+PMSX003A+PMSX003B,82,23,40.56,1010.58,0.03,29888,31,97,0.62,0.69,0.69,0.62,0.69,0.69,281.93,91.00,2.76,0.33,0.00,0.00,0.00,0.00,0.17,0.00,0.00,0.17,66.07,19.85,3.65,0.89,0.48,0.00
2018/07/11T23:09:17z,60:1:94:58:d7:e0,2.50i,2.0+OPENLOG+15833 MB+DS3231+BME280+PMSX003A+PMSX003B,82,23,40.56,1010.51,0.03,29640,31,177,0.36,0.53,0.81,0.36,0.53,0.81,251.74,82.60,5.26,1.34,0.28,0.28,0.00,0.00,0.17,0.00,0.00,0.17,77.84,22.32,1.70,0.32,0.48,0.00
2018/07/11T23:10:37z,60:1:94:58:d7:e0,2.50i,2.0+OPENLOG+15833 MB+DS3231+BME280+PMSX003A+PMSX003B,82,23,40.56,1010.60,0.03,29640,31,257,0.50,0.87,0.91,0.50,0.87,0.91,238.43,75.22,4.07,0.63,0.26,0.28,0.00,0.00,0.17,0.00,0.00,0.17,60.16,19.35,5.89,0.76,0.48,0.00
2018/07/11T23:11:57z,60:1:94:58:d7:e0,2.50i,2.0+OPENLOG+15833 MB+DS3231+BME280+PMSX003A+PMSX003B,82,23,40.56,1010.50,0.03,30072,31,337,0.43,0.46,0.50,0.43,0.46,0.50,226.89,74.20,1.43,0.39,0.26,0.28,0.00,0.00,0.17,0.00,0.00,0.17,29.68,8.81,1.76,0.49,0.48,0.00
2018/07/11T23:13:17z,60:1:94:58:d7:e0,2.50i,2.0+OPENLOG+15833 MB+DS3231+BME280+PMSX003A+PMSX003B,82,23,40.56,1010.42,0.03,29888,31,417,0.24,0.24,0.63,0.24,0.24,0.63,193.76,63.89,3.65,1.09,0.24,0.28,0.00,0.00,0.17,0.00,0.00,0.17,73.89,23.58,3.34,0.11,0.48,0.00
2018/07/11T23:14:37z,60:1:94:58:d7:e0,2.50i,2.0+OPENLOG+15833 MB+DS3231+BME280+PMSX003A+PMSX003B,82,23,40.56,1010.52,0.03,29536,31,497,0.48,0.48,0.48,0.48,0.48,0.48,201.94,66.60,1.81,1.09,0.24,0.28,0.00,0.29,0.45,0.00,0.29,0.45,56.45,16.45,6.79,1.61,0.48,0.00
2018/07/11T23:15:57z,60:1:94:58:d7:e0,2.50i,2.0+OPENLOG+15833 MB+DS3231+BME280+PMSX003A+PMSX003B,82,23,40.56,1010.49,0.03,29640,31,577,0.07,0.24,0.24,0.07,0.24,0.24,157.76,50.54,2.13,0.28,0.24,0.28,0.00,0.29,0.45,0.00,0.29,0.45,49.22,13.43,3.57,0.30,0.48,0.00
2018/07/11T23:17:17z,60:1:94:58:d7:e0,2.50i,2.0+OPENLOG+15833 MB+DS3231+BME280+PMSX003A+PMSX003B,82,23,40.56,1010.42,0.03,30072,31,657,0.11,0.26,0.26,0.11,0.26,0.26,182.93,57.83,0.89,0.28,0.24,0.28,0.00,0.29,0.06,0.00,0.29,0.06,44.08,14.69,4.11,0.72,0.48,0.00
2018/07/11T23:18:37z,60:1:94:58:d7:e0,2.50i,2.0+OPENLOG+15833 MB+DS3231+BME280+PMSX003A+PMSX003B,83,23,41.39,1010.44,0.03,30072,31,737,0.48,0.48,0.54,0.48,0.48,0.54,183.52,57.48,2.02,0.26,0.24,0.28,0.00,0.29,0.06,0.00,0.29,0.06,44.76,14.59,2.00,0.72,0.48,0.00
2018/07/11T23:19:57z,60:1:94:58:d7:e0,2.50i,2.0+OPENLOG+15833 MB+DS3231+BME280+PMSX003A+PMSX003B,82,23,40.56,1010.46,0.03,29792,31,817,0.51,0.57,0.57,0.51,0.57,0.57,253.34,75.30,3.00,0.26,0.24,0.28,0.00,0.29,0.06,0.00,0.29,0.06,51.39,16.18,5.68,0.79,0.32,0.00
2018/07/11T23:21:17z,60:1:94:58:d7:e0,2.50i,2.0+OPENLOG+15833 MB+DS3231+BME280+PMSX003A+PMSX003B,82,24,41.66,1010.32,0.03,29640,31,897,0.13,0.20,0.20,0.13,0.20,0.20,165.20,51.80,3.11,0.24,0.24,0.28,0.00,0.29,0.06,0.00,0.29,0.06,30.39,9.50,1.97,0.16,0.32,0.00
2018/07/11T23:22:37z,60:1:94:58:d7:e0,2.50i,2.0+OPENLOG+15833 MB+DS3231+BME280+PMSX003A+PMSX003B,82,24,41.66,1010.23,0.03,29616,31,977,0.57,0.67,0.72,0.57,0.67,0.72,233.22,75.13,1.85,0.41,0.24,0.28,0.00,0.29,0.06,0.00,0.29,0.06,34.14,9.65,2.19,0.59,0.32,0.00
2018/07/11T23:23:57z,60:1:94:58:d7:e0,2.50i,2.0+OPENLOG+15833 MB+DS3231+BME280+PMSX003A+PMSX003B,82,24,41.66,1010.35,0.03,30072,31,1057,0.28,0.48,0.48,0.28,0.48,0.48,206.93,66.65,1.30,0.76,0.24,0.28,0.00,0.29,0.33,0.00,0.29,0.33,27.67,8.89,1.39,1.08,0.58,0.00
2018/07/11T23:25:17z,60:1:94:58:d7:e0,2.50i,2.0+OPENLOG+15833 MB+DS3231+BME280+PMSX003A+PMSX003B,82,24,41.66,1010.29,0.03,30072,31,1137,0.28,0.28,0.28,0.28,0.28,0.28,261.13,86.70,3.09,0.76,0.24,0.28,0.00,0.29,0.08,0.00,0.29,0.08,41.19,11.22,2.19,0.16,0.08,0.00
2018/07/11T23:26:37z,60:1:94:58:d7:e0,2.50i,2.0+OPENLOG+15833 MB+DS3231+BME280+PMSX003A+PMSX003B,83,24,42.50,1010.36,0.03,29640,31,1217,0.11,0.28,0.34,0.11,0.28,0.34,190.53,57.91,2.34,0.26,0.24,0.28,0.00,0.29,0.08,0.00,0.29,0.08,46.11,14.24,4.16,0.87,0.08,0.00
2018/07/11T23:27:57z,60:1:94:58:d7:e0,2.50i,2.0+OPENLOG+15833 MB+DS3231+BME280+PMSX003A+PMSX003B,83,24,42.50,1010.35,0.03,29640,31,1297,0.89,0.93,0.93,0.89,0.93,0.93,252.78,83.30,1.78,0.26,0.24,0.28,0.00,0.29,0.08,0.00,0.29,0.08,47.84,13.82,2.29,0.87,0.08,0.00
2018/07/11T23:29:17z,60:1:94:58:d7:e0,2.50i,2.0+OPENLOG+15833 MB+DS3231+BME280+PMSX003A+PMSX003B,82,24,41.66,1010.25,0.03,30072,31,1377,0.96,1.09,1.09,0.96,1.09,1.09,305.67,100.72,2.87,0.26,0.24,0.28,0.00,0.29,0.08,0.00,0.29,0.08,32.27,10.24,3.41,0.87,0.08,0.00
2018/07/11T23:30:37z,60:1:94:58:d7:e0,2.50i,2.0+OPENLOG+15833 MB+DS3231+BME280+PMSX003A+PMSX003B,83,24,42.50,1010.37,0.03,30072,31,1457,0.81,0.81,0.81,0.81,0.81,0.81,251.74,83.15,1.21,0.26,0.24,0.28,0.00,0.29,0.08,0.00,0.29,0.08,30.42,9.53,2.67,0.44,0.08,0.00
2018/07/11T23:31:57z,60:1:94:58:d7:e0,2.50i,2.0+OPENLOG+15833 MB+DS3231+BME280+PMSX003A+PMSX003B,82,24,41.66,1010.20,0.03,29328,31,1537,0.35,0.50,0.70,0.35,0.50,0.70,221.15,72.15,1.04,0.70,0.24,0.28,0.00,0.29,0.08,0.00,0.29,0.08,28.62,8.89,0.32,0.44,0.08,0.00
2018/07/11T23:33:17z,60:1:94:58:d7:e0,2.50i,2.0+OPENLOG+15833 MB+DS3231+BME280+PMSX003A+PMSX003B,83,24,42.50,1010.32,0.03,29640,31,1617,0.46,0.54,0.67,0.46,0.54,0.67,260.28,86.67,1.91,0.54,0.24,0.28,0.00,0.29,0.08,0.00,0.29,0.08,30.41,10.14,1.46,0.44,0.08,0.00
2018/07/11T23:34:37z,60:1:94:58:d7:e0,2.50i,2.0+OPENLOG+15833 MB+DS3231+BME280+PMSX003A+PMSX003B,82,24,41.66,1010.35,0.03,30072,31,1697,0.78,0.87,0.87,0.78,0.87,0.87,245.02,80.46,2.41,0.54,0.24,0.28,0.00,0.29,0.08,0.00,0.29,0.08,46.30,15.14,0.86,0.05,0.08,0.00
2018/07/11T23:35:57z,60:1:94:58:d7:e0,2.50i,2.0+OPENLOG+15833 MB+DS3231+BME280+PMSX003A+PMSX003B,83,24,42.50,1010.30,0.03,30072,31,1777,0.81,0.83,0.96,0.81,0.83,0.96,278.94,91.28,3.11,0.66,0.24,0.28,0.00,0.29,0.08,0.00,0.29,0.08,11.45,3.34,0.82,0.05,0.08,0.00
2018/07/11T23:37:17z,60:1:94:58:d7:e0,2.50i,2.0+OPENLOG+15833 MB+DS3231+BME280+PMSX003A+PMSX003B,83,24,42.50,1010.19,0.03,29792,31,1857,0.67,0.85,0.85,0.67,0.85,0.85,249.52,81.83,1.59,0.26,0.24,0.28,0.00,0.29,0.08,0.00,0.29,0.08,33.00,10.11,3.00,0.05,0.08,0.00
2018/07/11T23:38:37z,60:1:94:58:d7:e0,2.50i,2.0+OPENLOG+15833 MB+DS3231+BME280+PMSX003A+PMSX003B,83,24,42.50,1010.30,0.03,29640,31,1937,0.30,0.35,0.35,0.30,0.35,0.35,211.96,70.13,1.11,0.11,0.24,0.28,0.00,0.29,0.08,0.00,0.29,0.08,64.00,17.53,1.50,0.05,0.08,0.00
2018/07/11T23:39:57z,60:1:94:58:d7:e0,2.50i,2.0+OPENLOG+15833 MB+DS3231+BME280+PMSX003A+PMSX003B,83,24,42.50,1010.25,0.03,29616,31,2017,0.48,0.48,0.52,0.48,0.48,0.52,218.35,72.48,0.89,0.24,0.24,0.28,0.00,0.29,0.08,0.00,0.29,0.08,20.11,6.70,1.22,0.05,0.08,0.00
2018/07/11T23:41:17z,60:1:94:58:d7:e0,2.50i,2.0+OPENLOG+15833 MB+DS3231+BME280+PMSX003A+PMSX003B,83,24,42.50,1010.20,0.03,30072,31,2097,0.04,0.11,0.30,0.04,0.11,0.30,185.61,56.98,1.83,0.26,0.24,0.28,0.00,0.29,0.08,0.00,0.29,0.08,22.74,6.79,1.87,0.05,0.08,0.00
2018/07/11T23:42:37z,60:1:94:58:d7:e0,2.50i,2.0+OPENLOG+15833 MB+DS3231+BME280+PMSX003A+PMSX003B,83,24,42.50,1010.17,0.03,30072,31,2177,0.20,0.24,0.24,0.20,0.24,0.24,195.91,61.76,0.96,0.17,0.24,0.28,0.00,0.29,0.08,0.00,0.29,0.08,23.21,7.68,1.53,0.05,0.08,0.00
2018/07/11T23:43:57z,60:1:94:58:d7:e0,2.50i,2.0+OPENLOG+15833 MB+DS3231+BME280+PMSX003A+PMSX003B,83,24,42.50,1010.21,0.03,29536,31,2257,0.20,0.24,0.33,0.20,0.24,0.33,145.11,46.24,2.17,0.78,0.26,0.28,0.00,0.29,0.08,0.00,0.29,0.08,22.30,6.68,2.03,0.05,0.08,0.00
2018/07/11T23:45:17z,60:1:94:58:d7:e0,2.50i,2.0+OPENLOG+15833 MB+DS3231+BME280+PMSX003A+PMSX003B,83,24,42.50,1010.22,0.03,29616,31,2337,0.20,0.11,0.22,0.20,0.11,0.22,174.33,50.87,3.17,0.74,0.39,0.39,0.00,0.29,0.08,0.00,0.29,0.08,26.50,6.36,0.86,0.05,0.08,0.00

 ets Jan  8 2013,rst cause:1, boot mode:(3,7)

load 0x4010f000, len 1384, room 16 
tail 8
chksum 0x2d
csum 0x2d
v3de0c112
~ld


AirMonitor Ver: 2.50i
FlashChipRealSize: 2097152
69 31872 time not set:Detecting I2C...
69 31848 time not set:RETRY: Found RTC! ******************
82 31784 2018/07/11T23:45:17z:Found BME280 sensor on 0x76! ******************
3722 31488 2018/07/11T23:45:21z:EEPROM SSID: CenturyLink2595
3724 31448 2018/07/11T23:45:21z:Device: AirMonitor_d7e0
3726 31448 2018/07/11T23:45:21z:MAC: 60:1:94:58:d7:e0
3727 31472 2018/07/11T23:45:21z:setupWiFi, WiFi.begin()
3734 31288 2018/07/11T23:45:21z:setupWiFi Complete.
3736 31288 2018/07/11T23:45:21z:Looking for channel B
6396 31128 2018/07/11T23:45:24z:Attempt 1 took 2655ms. Found PMSX003 type sensor! ******************
6398 31344 2018/07/11T23:45:24z:Looking for channel A
2018/07/11T23:46:55z,60:1:94:58:d7:e0,2.50i,2.0+OPENLOG+15833 MB+DS3231+BME280+PMSX003A+PMSX003B,83,24,42.50,1010.09,0.03,30072,31,97,0.62,0.67,0.78,0.62,0.67,0.78,294.87,89.02,1.31,0.40,0.00,0.00,0.00,0.00,0.00,0.00,0.00,0.00,25.40,7.57,1.64,0.32,0.32,0.00
2018/07/11T23:48:15z,60:1:94:58:d7:e0,2.50i,2.0+OPENLOG+15833 MB+DS3231+BME280+PMSX003A+PMSX003B,83,24,42.50,1010.05,0.03,29640,31,177,0.21,0.36,0.36,0.21,0.36,0.36,171.70,56.89,1.85,0.15,0.00,0.00,0.00,0.00,0.00,0.00,0.00,0.00,23.76,7.92,1.38,0.32,0.32,0.00
2018/07/11T23:49:35z,60:1:94:58:d7:e0,2.50i,2.0+OPENLOG+15833 MB+DS3231+BME280+PMSX003A+PMSX003B,83,24,42.50,1010.04,0.03,29640,31,257,0.33,0.37,0.37,0.33,0.37,0.37,165.33,53.80,1.80,0.24,0.00,0.00,0.00,0.00,0.00,0.00,0.00,0.00,25.08,8.03,1.69,0.32,0.32,0.00
2018/07/11T23:50:55z,60:1:94:58:d7:e0,2.50i,2.0+OPENLOG+15833 MB+DS3231+BME280+PMSX003A+PMSX003B,83,24,42.50,1010.13,0.03,30072,31,337,0.44,0.51,0.51,0.44,0.51,0.51,198.93,64.69,1.64,0.24,0.00,0.00,0.00,0.00,0.00,0.00,0.00,0.00,18.73,4.30,0.59,0.32,0.32,0.00
2018/07/11T23:52:15z,60:1:94:58:d7:e0,2.50i,2.0+OPENLOG+15833 MB+DS3231+BME280+PMSX003A+PMSX003B,83,24,42.50,1009.96,0.03,29888,31,417,0.47,0.47,0.47,0.47,0.47,0.47,185.36,61.60,0.26,0.24,0.00,0.00,0.00,0.00,0.00,0.00,0.00,0.00,25.42,8.47,1.13,0.32,0.32,0.00
2018/07/11T23:53:35z,60:1:94:58:d7:e0,2.50i,2.0+OPENLOG+15833 MB+DS3231+BME280+PMSX003A+PMSX003B,83,24,42.50,1010.09,0.03,29536,31,497,0.51,0.51,0.51,0.51,0.51,0.51,228.51,70.30,1.30,0.24,0.00,0.00,0.00,0.00,0.00,0.00,0.00,0.00,15.71,5.24,0.84,0.05,0.32,0.00
2018/07/11T23:54:55z,60:1:94:58:d7:e0,2.50i,2.0+OPENLOG+15833 MB+DS3231+BME280+PMSX003A+PMSX003B,83,24,42.50,1010.08,0.03,29640,31,577,0.59,0.59,0.78,0.59,0.59,0.78,241.83,79.15,0.52,0.26,0.00,0.00,0.00,0.00,0.00,0.00,0.00,0.00,13.30,4.11,0.81,0.05,0.32,0.00
2018/07/11T23:56:15z,60:1:94:58:d7:e0,2.50i,2.0+OPENLOG+15833 MB+DS3231+BME280+PMSX003A+PMSX003B,83,24,42.50,1010.12,0.03,30072,31,657,0.71,0.71,0.78,0.71,0.71,0.78,228.33,76.11,1.69,0.09,0.00,0.00,0.00,0.00,0.00,0.00,0.00,0.00,28.08,7.75,0.83,0.05,0.32,0.00
2018/07/11T23:57:35z,60:1:94:58:d7:e0,2.50i,2.0+OPENLOG+15833 MB+DS3231+BME280+PMSX003A+PMSX003B,83,24,42.50,1010.10,0.03,30072,31,737,0.83,0.85,0.85,0.83,0.85,0.85,244.81,81.60,3.06,0.09,0.00,0.00,0.00,0.00,0.00,0.00,0.00,0.00,26.19,7.76,1.14,0.43,0.32,0.00
2018/07/11T23:58:55z,60:1:94:58:d7:e0,2.50i,2.0+OPENLOG+15833 MB+DS3231+BME280+PMSX003A+PMSX003B,83,24,42.50,1010.08,0.03,29792,31,817,0.79,0.79,0.79,0.79,0.79,0.79,244.09,79.11,1.06,0.09,0.00,0.00,0.00,0.00,0.00,0.00,0.00,0.00,25.58,7.55,1.66,0.43,0.32,0.00
