UTCDateTime,mac_address,firmware_ver,hardware,current_temp_f,current_humidity,current_dewpoint_f,pressure,adc,mem,rssi,uptime,pm1_0_atm,pm2_5_atm,pm10_0_atm,pm1_0_cf_1,pm2_5_cf_1,pm10_0_cf_1,p_0_3_um,p_0_5_um,p_1_0_um,p_2_5_um,p_5_0_um,p_10_0_um,pm1_0_atm_b,pm2_5_atm_b,pm10_0_atm_b,pm1_0_cf_1_b,pm2_5_cf_1_b,pm10_0_cf_1_b,p_0_3_um_b,p_0_5_um_b,p_1_0_um_b,p_2_5_um_b,p_5_0_um_b,p_10_0_um_b
2018/06/07T17:31:47z,2c:3a:e8:34:ff:93,2.50i,2.0+OPENLOG+15833 MB+DS3231+BME280+PMSX003A+PMSX003B,71,43,47.38,1009.83,0.01,29672,31,23,0.00,0.00,0.00,0.00,0.00,0.00,0.00,0.00,0.00,0.00,0.00,0.00,0.00,0.00,0.00,0.00,0.00,0.00,0.00,0.00,0.00,0.00,0.00,0.00
2018/06/07T17:33:01z,2c:3a:e8:34:ff:93,2.50i,2.0+OPENLOG+15833 MB+DS3231+BME280+PMSX003A+PMSX003B,71,42,46.76,1009.81,0.01,30128,31,97,0.64,0.67,0.79,0.64,0.67,0.79,238.14,67.64,3.48,0.43,0.43,0.00,0.14,0.86,1.00,0.14,0.86,1.00,264.34,66.86,9.17,0.31,0.31,0.00
2018/06/07T17:34:21z,2c:3a:e8:34:ff:93,2.50i,2.0+OPENLOG+15833 MB+DS3231+BME280+PMSX003A+PMSX003B,72,42,47.66,1009.83,0.01,30128,31,177,0.83,1.80,1.89,0.83,1.80,1.89,349.11,100.65,12.26,1.46,0.43,0.00,0.92,1.08,1.08,0.92,1.08,1.08,331.33,84.75,7.25,0.08,0.31,0.00
2018/06/07T17:41:04z,2c:3a:e8:34:ff:93,2.50i,2.0+OPENLOG+15833 MB+DS3231+BME280+PMSX003A+PMSX003B,73,41,47.91,1009.78,0.01,30128,31,97,1.00,1.14,1.48,1.00,1.14,1.48,343.36,98.66,7.66,0.77,0.34,0.00,2.08,2.60,2.67,2.08,2.60,2.67,1346.18,145.73,10.45,0.70,0.28,0.00
2018/06/07T17:42:24z,2c:3a:e8:34:ff:93,2.50i,2.0+OPENLOG+15833 MB+DS3231+BME280+PMSX003A+PMSX003B,74,39,47.48,1010.12,0.01,29696,31,177,261.85,326.79,336.08,173.98,217.33,223.77,41258.06,12431.00,1498.60,54.85,10.60,0.23,353.95,458.49,473.92,235.18,305.08,315.62,53196.23,16069.97,2137.05,90.51,20.10,3.85
2018/06/07T17:43:44z,2c:3a:e8:34:ff:93,2.50i,2.0+OPENLOG+15833 MB+DS3231+BME280+PMSX003A+PMSX003B,74,33,43.08,1010.08,0.00,29696,31,257,343.65,425.12,437.92,228.27,282.63,291.08,53838.73,16195.47,1912.94,84.65,12.27,0.55,363.73,463.52,474.85,241.73,308.27,315.62,57828.75,16859.22,2170.80,64.93,13.65,3.28
2018/06/07T17:45:04z,2c:3a:e8:34:ff:93,2.50i,2.0+OPENLOG+15833 MB+DS3231+BME280+PMSX003A+PMSX003B,74,27,37.90,1010.02,0.00,30128,31,337,222.83,273.43,282.20,147.83,181.61,187.46,36723.98,10815.76,1147.91,54.78,7.63,0.78,257.39,313.50,318.92,170.67,208.31,211.92,44385.58,12494.39,1268.83,33.94,6.78,1.14
2018/06/07T17:46:24z,2c:3a:e8:34:ff:93,2.50i,2.0+OPENLOG+15833 MB+DS3231+BME280+PMSX003A+PMSX003B,75,23,34.69,1009.71,0.00,30128,31,417,148.09,182.18,187.60,98.00,120.60,124.20,25326.60,7328.80,760.89,31.11,4.89,0.36,171.90,208.59,212.67,113.59,138.15,141.03,31303.08,8527.69,786.90,27.13,4.33,2.51
2018/06/07T17:47:44z,2c:3a:e8:34:ff:93,2.50i,2.0+OPENLOG+15833 MB+DS3231+BME280+PMSX003A+PMSX003B,75,22,33.58,1009.69,0.00,29848,31,497,133.40,161.11,166.56,88.09,106.51,110.27,22751.07,6605.33,638.02,30.73,5.04,0.36,147.63,180.34,182.55,97.58,119.45,121.03,26838.87,7319.95,697.53,25.47,2.63,0.42
2018/06/07T17:49:04z,2c:3a:e8:34:ff:93,2.50i,2.0+OPENLOG+15833 MB+DS3231+BME280+PMSX003A+PMSX003B,75,22,33.58,1009.68,0.00,29696,31,577,129.20,158.83,164.30,85.33,105.22,108.72,21922.44,6358.35,643.80,33.59,7.30,0.04,143.39,176.84,181.03,94.71,117.03,119.84,26113.58,7148.42,710.55,26.68,5.11,1.39
2018/06/07T17:50:24z,2c:3a:e8:34:ff:93,2.50i,2.0+OPENLOG+15833 MB+DS3231+BME280+PMSX003A+PMSX003B,76,22,34.41,1009.69,0.00,29672,31,657,122.67,154.59,160.13,80.93,102.24,105.91,21135.85,6145.59,656.15,36.02,4.98,0.52,136.83,171.08,173.92,90.39,113.22,115.03,25106.00,6818.17,689.83,31.03,3.11,0.72
2018/06/07T17:51:44z,2c:3a:e8:34:ff:93,2.50i,2.0+OPENLOG+15833 MB+DS3231+BME280+PMSX003A+PMSX003B,76,22,34.41,1009.66,0.00,30128,31,737,116.15,143.91,150.63,76.61,95.15,99.61,20219.74,5789.96,617.17,33.74,4.11,0.65,129.51,162.65,166.65,85.41,107.62,110.24,24025.54,6499.30,662.43,26.05,5.41,0.78
2018/06/07T17:53:04z,2c:3a:e8:34:ff:93,2.50i,2.0+OPENLOG+15833 MB+DS3231+BME280+PMSX003A+PMSX003B,76,22,34.41,1009.67,0.00,30128,31,817,112.29,142.98,152.51,74.02,94.58,101.09,19478.13,5603.42,642.44,48.18,8.51,0.62,127.17,157.39,160.25,84.06,104.17,106.03,23077.83,6311.36,646.11,23.81,3.17,0.22
2018/06/07T17:54:24z,2c:3a:e8:34:ff:93,2.50i,2.0+OPENLOG+15833 MB+DS3231+BME280+PMSX003A+PMSX003B,77,22,35.24,1009.71,0.00,29696,31,897,109.04,140.83,148.63,71.98,93.17,98.30,18927.06,5475.43,653.07,39.17,8.09,0.39,119.70,150.92,155.51,79.03,99.65,102.70,21955.22,5979.86,623.65,32.43,4.81,2.16
2018/06/07T17:55:44z,2c:3a:e8:34:ff:93,2.50i,2.0+OPENLOG+15833 MB+DS3231+BME280+PMSX003A+PMSX003B,77,22,35.24,1009.75,0.00,29672,31,977,103.78,131.69,136.64,68.38,86.98,90.22,17788.87,5165.60,595.58,32.56,4.36,0.31,114.61,142.92,147.37,75.68,94.45,97.58,20924.61,5729.24,597.47,24.13,4.55,1.05
2018/06/07T17:57:04z,2c:3a:e8:34:ff:93,2.50i,2.0+OPENLOG+15833 MB+DS3231+BME280+PMSX003A+PMSX003B,77,21,34.08,1009.82,0.00,30128,31,1057,98.27,124.98,132.02,64.71,82.64,87.27,16886.20,4913.16,577.20,33.73,7.31,0.40,109.11,139.81,144.78,71.89,92.33,95.50,20175.33,5499.69,571.47,31.50,5.94,1.81
2018/06/07T17:58:24z,2c:3a:e8:34:ff:93,2.50i,2.0+OPENLOG+15833 MB+DS3231+BME280+PMSX003A+PMSX003B,77,21,34.08,1009.86,0.00,30128,31,1137,93.64,118.58,123.98,61.69,78.24,82.22,16188.73,4677.84,522.04,31.80,4.24,0.22,104.26,130.38,133.87,68.72,85.97,88.41,19100.00,5148.15,550.38,27.21,3.15,1.10
2018/06/07T17:59:44z,2c:3a:e8:34:ff:93,2.50i,2.0+OPENLOG+15833 MB+DS3231+BME280+PMSX003A+PMSX003B,78,21,34.91,1009.87,0.00,29696,31,1217,88.78,115.40,120.00,58.27,76.07,79.76,15430.13,4477.16,525.49,30.62,4.20,0.24,97.73,122.51,125.27,64.49,80.95,82.81,18111.81,4905.97,514.97,17.89,2.41,0.03
2018/06/07T18:01:04z,2c:3a:e8:34:ff:93,2.50i,2.0+OPENLOG+15833 MB+DS3231+BME280+PMSX003A+PMSX003B,78,21,34.91,1009.89,0.00,29696,31,1297,85.04,107.04,112.11,55.91,70.64,76.84,14709.07,4228.29,489.09,23.47,4.91,0.16,93.56,121.19,126.14,61.56,80.06,83.36,17273.75,4703.17,531.39,31.67,6.33,1.39
2018/06/07T18:02:24z,2c:3a:e8:34:ff:93,2.50i,2.0+OPENLOG+15833 MB+DS3231+BME280+PMSX003A+PMSX003B,78,21,34.91,1009.94,0.00,30128,31,1377,79.20,101.13,107.58,52.04,66.73,75.27,13893.20,3987.60,467.93,29.04,5.44,0.16,88.84,113.73,118.27,58.46,75.14,79.27,16429.05,4467.73,484.84,27.11,5.24,0.81
2018/06/07T18:03:44z,2c:3a:e8:34:ff:93,2.50i,2.0+OPENLOG+15833 MB+DS3231+BME280+PMSX003A+PMSX003B,78,21,34.91,1009.91,0.00,30128,31,1457,75.36,97.84,104.27,49.53,64.44,74.16,13119.67,3811.98,459.82,30.44,6.78,0.16,85.30,108.27,111.89,56.24,71.49,76.81,15871.70,4287.35,465.86,19.59,5.27,0.62
2018/06/07T18:05:04z,2c:3a:e8:34:ff:93,2.50i,2.0+OPENLOG+15833 MB+DS3231+BME280+PMSX003A+PMSX003B,78,21,34.91,1009.93,0.00,29592,31,1537,72.38,93.71,100.82,47.51,61.84,72.80,12707.87,3655.31,435.47,34.67,6.31,0.13,80.94,104.49,107.29,53.14,68.83,75.11,15147.00,4078.29,467.40,20.06,4.06,0.94
2018/06/07T18:06:24z,2c:3a:e8:34:ff:93,2.50i,2.0+OPENLOG+15833 MB+DS3231+BME280+PMSX003A+PMSX003B,78,21,34.91,1009.95,0.00,29696,31,1617,70.39,91.68,96.75,46.20,60.34,71.34,12370.16,3578.55,433.91,27.50,3.95,0.48,76.06,99.22,103.92,49.89,65.17,73.75,14425.67,3886.92,458.03,25.47,5.11,0.42
2018/06/07T18:07:44z,2c:3a:e8:34:ff:93,2.50i,2.0+OPENLOG+15833 MB+DS3231+BME280+PMSX003A+PMSX003B,79,21,35.74,1009.92,0.00,29488,31,1697,66.91,85.09,90.51,43.96,56.06,68.96,11610.89,3355.34,378.85,25.47,4.94,1.11,73.14,95.84,99.24,48.00,63.27,72.30,13721.35,3696.89,436.84,24.65,4.24,0.97
2018/06/07T18:09:04z,2c:3a:e8:34:ff:93,2.50i,2.0+OPENLOG+15833 MB+DS3231+BME280+PMSX003A+PMSX003B,79,21,35.74,1009.89,0.00,30128,31,1777,61.09,79.51,83.47,39.98,52.82,65.67,10845.07,3118.71,368.38,21.11,4.36,0.27,70.26,90.29,93.24,46.13,59.39,69.76,13353.08,3578.82,401.66,17.21,4.18,1.16
2018/06/07T18:10:24z,2c:3a:e8:34:ff:93,2.50i,2.0+OPENLOG+15833 MB+DS3231+BME280+PMSX003A+PMSX003B,79,21,35.74,1009.94,0.00,29640,31,1857,60.30,79.70,84.02,39.49,52.79,66.00,10659.83,3080.02,385.49,23.34,4.68,0.19,66.29,85.21,87.53,43.37,56.08,67.61,12397.18,3345.53,387.74,12.95,2.55,0.97
2018/06/07T18:11:44z,2c:3a:e8:34:ff:93,2.50i,2.0+OPENLOG+15833 MB+DS3231+BME280+PMSX003A+PMSX003B,79,21,35.74,1009.95,0.00,29696,31,1937,57.36,73.89,79.24,37.40,50.89,63.84,10062.07,2884.84,345.07,23.58,6.11,0.24,64.03,81.49,84.49,42.14,53.92,66.38,11928.24,3232.51,355.70,15.70,3.70,0.68
2018/06/07T18:13:04z,2c:3a:e8:34:ff:93,2.50i,2.0+OPENLOG+15833 MB+DS3231+BME280+PMSX003A+PMSX003B,79,21,35.74,1009.92,0.00,29672,31,2017,53.70,70.09,73.59,35.32,49.27,61.02,9495.34,2740.91,335.98,18.59,3.91,0.32,60.54,78.51,81.49,39.62,52.54,64.92,11397.41,3088.46,346.00,17.49,4.00,0.68
2018/06/07T18:14:24z,2c:3a:e8:34:ff:93,2.50i,2.0+OPENLOG+15833 MB+DS3231+BME280+PMSX003A+PMSX003B,79,21,35.74,1009.94,0.00,30128,31,2097,51.70,68.59,72.34,34.50,49.05,60.80,9163.57,2631.41,336.57,21.84,2.66,0.11,58.51,75.41,78.82,37.95,51.23,63.28,10998.69,2975.49,359.10,12.05,4.05,0.85
2018/06/07T18:15:44z,2c:3a:e8:34:ff:93,2.50i,2.0+OPENLOG+15833 MB+DS3231+BME280+PMSX003A+PMSX003B,79,21,35.74,1009.91,0.00,30128,31,2177,49.49,64.40,68.28,33.68,47.30,58.55,8776.21,2524.49,311.17,17.77,4.34,0.40,54.70,71.57,73.22,36.05,50.16,61.27,10403.43,2787.08,305.32,14.54,2.54,0.38
2018/06/07T18:17:04z,2c:3a:e8:34:ff:93,2.50i,2.0+OPENLOG+15833 MB+DS3231+BME280+PMSX003A+PMSX003B,80,21,36.56,1009.90,0.00,29696,31,2257,47.36,61.58,65.84,32.93,46.16,57.18,8341.60,2400.58,292.53,21.69,4.76,0.40,52.92,68.29,70.74,35.03,48.97,59.95,10061.21,2677.29,313.68,13.16,3.08,1.26
2018/06/07T18:18:48z,2c:3a:e8:34:ff:93,2.50i,2.0+OPENLOG+15833 MB+DS3231+BME280+PMSX003A+PMSX003B,80,21,36.56,1009.93,0.00,29488,31,23,34.00,42.00,42.00,28.00,37.00,42.00,0.00,0.00,0.00,0.00,0.00,0.00,36.00,40.00,40.00,28.00,36.00,40.00,0.00,0.00,0.00,0.00,0.00,0.00
2018/06/07T18:20:02z,2c:3a:e8:34:ff:93,2.50i,2.0+OPENLOG+15833 MB+DS3231+BME280+PMSX003A+PMSX003B,80,21,36.56,1009.91,0.00,29944,31,97,41.10,53.76,55.61,30.39,42.80,51.20,7083.22,2049.44,243.41,14.46,1.73,0.00,45.11,57.53,58.47,31.86,44.19,52.75,8568.50,2311.56,252.08,9.17,1.11,0.36
2018/06/07T18:21:22z,2c:3a:e8:34:ff:93,2.50i,2.0+OPENLOG+15833 MB+DS3231+BME280+PMSX003A+PMSX003B,80,21,36.56,1009.88,0.00,30128,31,177,41.70,55.13,57.85,30.33,43.17,52.63,7548.20,2165.07,263.07,18.04,2.87,0.00,45.43,59.20,63.03,32.34,45.11,55.54,8758.80,2346.34,275.69,14.83,5.23,1.34
2018/06/07T18:22:42z,2c:3a:e8:34:ff:93,2.50i,2.0+OPENLOG+15833 MB+DS3231+BME280+PMSX003A+PMSX003B,80,21,36.56,1009.89,0.00,30128,31,257,39.17,51.57,54.22,29.85,42.04,50.50,7041.00,2011.22,255.98,10.07,3.20,0.13,43.76,58.03,60.13,31.55,44.71,54.00,8405.13,2265.26,259.18,13.58,2.32,0.50
2018/06/07T18:24:02z,2c:3a:e8:34:ff:93,2.50i,2.0+OPENLOG+15833 MB+DS3231+BME280+PMSX003A+PMSX003B,80,21,36.56,1009.88,0.00,29696,31,337,38.66,49.66,52.48,29.64,41.11,49.41,6951.34,1982.77,236.91,12.61,1.98,0.05,41.87,56.08,59.29,30.47,43.53,53.24,8136.00,2199.92,259.95,15.53,5.03,0.87
2018/06/07T18:25:22z,2c:3a:e8:34:ff:93,2.50i,2.0+OPENLOG+15833 MB+DS3231+BME280+PMSX003A+PMSX003B,80,21,36.56,1009.91,0.00,29672,31,417,36.30,48.64,52.66,28.18,40.39,49.45,6617.32,1913.27,236.57,17.82,3.91,0.41,39.75,51.97,53.97,29.92,42.00,50.03,7792.67,2070.69,231.36,13.14,3.06,0.39
2018/06/07T18:26:42z,2c:3a:e8:34:ff:93,2.50i,2.0+OPENLOG+15833 MB+DS3231+BME280+PMSX003A+PMSX003B,80,21,36.56,1009.90,0.00,30128,31,497,34.02,45.55,48.32,27.60,39.00,46.79,6196.47,1780.60,223.32,13.53,3.47,0.19,39.41,51.00,53.16,29.81,41.49,49.86,7553.35,2007.81,226.16,11.73,3.59,0.84
2018/06/07T18:28:02z,2c:3a:e8:34:ff:93,2.50i,2.0+OPENLOG+15833 MB+DS3231+BME280+PMSX003A+PMSX003B,80,21,36.56,1009.89,0.00,30128,31,577,33.78,44.41,47.13,27.22,38.15,46.02,6134.67,1768.43,213.91,11.76,3.04,0.50,36.63,49.74,51.17,28.63,41.17,48.77,7035.17,1910.20,240.83,9.91,1.94,0.17
2018/06/07T18:29:22z,2c:3a:e8:34:ff:93,2.50i,2.0+OPENLOG+15833 MB+DS3231+BME280+PMSX003A+PMSX003B,80,21,36.56,1009.89,0.00,29592,31,657,31.60,41.43,43.02,26.34,36.40,42.83,5758.40,1643.36,195.94,13.79,1.26,0.50,36.47,48.08,50.84,28.34,40.29,48.53,7025.92,1872.45,224.97,12.71,4.03,0.84
2018/06/07T18:30:42z,2c:3a:e8:34:ff:93,2.50i,2.0+OPENLOG+15833 MB+DS3231+BME280+PMSX003A+PMSX003B,80,21,36.56,1009.87,0.00,29696,31,737,29.82,39.71,42.13,25.27,35.44,42.11,5404.93,1565.42,199.40,11.87,1.89,0.50,34.73,44.57,45.81,27.76,38.38,45.05,6575.35,1789.05,196.22,6.38,1.78,0.84
2018/06/07T18:32:02z,2c:3a:e8:34:ff:93,2.50i,2.0+OPENLOG+15833 MB+DS3231+BME280+PMSX003A+PMSX003B,80,21,36.56,1009.95,0.00,30128,31,817,30.36,40.87,44.28,25.72,36.40,43.87,5470.79,1586.53,196.89,15.87,4.13,0.50,32.26,41.57,43.94,26.86,36.77,43.54,6250.71,1652.49,190.63,10.89,3.49,1.23
2018/06/07T18:33:22z,2c:3a:e8:34:ff:93,2.50i,2.0+OPENLOG+15833 MB+DS3231+BME280+PMSX003A+PMSX003B,81,21,37.39,1009.95,0.00,30128,31,897,28.23,38.18,41.16,24.30,34.64,41.14,5173.43,1486.66,191.32,12.61,3.80,0.11,30.34,39.82,41.79,25.47,35.32,41.74,6076.34,1620.58,188.13,9.71,3.03,0.11
2018/06/07T18:34:42z,2c:3a:e8:34:ff:93,2.50i,2.0+OPENLOG+15833 MB+DS3231+BME280+PMSX003A+PMSX003B,81,21,37.39,1010.02,0.00,29592,31,977,26.65,36.46,39.20,23.33,33.48,39.20,4951.83,1418.28,200.61,11.02,2.76,0.33,29.05,37.70,39.32,24.89,34.24,39.32,5713.54,1519.19,181.86,7.14,1.92,0.89
2018/06/07T18:36:02z,2c:3a:e8:34:ff:93,2.50i,2.0+OPENLOG+15833 MB+DS3231+BME280+PMSX003A+PMSX003B,81,21,37.39,1010.02,0.00,29512,31,1057,26.11,34.82,37.00,22.95,32.48,37.00,4786.50,1371.41,174.07,11.30,2.45,0.33,28.34,37.32,40.74,24.50,34.08,40.74,5516.21,1470.21,186.68,10.34,4.55,0.84
2018/06/07T18:37:22z,2c:3a:e8:34:ff:93,2.50i,2.0+OPENLOG+15833 MB+DS3231+BME280+PMSX003A+PMSX003B,81,21,37.39,1010.00,0.00,30128,31,1137,24.43,33.83,36.76,22.43,31.98,36.76,4486.50,1306.41,181.98,11.98,3.13,0.33,28.61,36.82,38.03,24.61,34.03,38.03,5573.61,1469.79,169.79,6.74,1.32,0.08
2018/06/07T18:38:42z,2c:3a:e8:34:ff:93,2.50i,2.0+OPENLOG+15833 MB+DS3231+BME280+PMSX003A+PMSX003B,81,21,37.39,1009.99,0.00,30128,31,1217,23.41,32.24,34.70,21.91,31.17,34.70,4181.87,1221.20,177.78,11.37,2.78,0.13,26.16,34.35,34.89,22.84,32.08,34.89,5273.43,1423.78,153.68,5.27,0.68,0.35
2018/06/07T18:40:02z,2c:3a:e8:34:ff:93,2.50i,2.0+OPENLOG+15833 MB+DS3231+BME280+PMSX003A+PMSX003B,81,21,37.39,1010.04,0.00,29640,31,1297,22.70,31.23,33.52,21.59,30.39,33.52,4202.32,1197.20,174.45,10.89,2.93,0.13,25.92,32.97,34.41,23.00,31.59,34.41,4938.49,1310.24,151.86,6.51,2.30,0.22
2018/06/07T18:41:22z,2c:3a:e8:34:ff:93,2.50i,2.0+OPENLOG+15833 MB+DS3231+BME280+PMSX003A+PMSX003B,81,21,37.39,1010.04,0.00,29696,31,1377,23.44,30.87,33.20,22.00,30.11,33.20,4162.73,1208.91,154.96,11.62,2.00,0.33,24.37,32.79,34.66,22.26,31.45,34.66,4924.89,1292.74,163.32,8.00,2.39,0.50
2018/06/07T18:42:42z,2c:3a:e8:34:ff:93,2.50i,2.0+OPENLOG+15833 MB+DS3231+BME280+PMSX003A+PMSX003B,81,21,37.39,1010.01,0.00,30128,31,1457,21.74,29.67,30.65,20.74,29.37,30.65,3977.15,1158.54,150.80,7.43,1.20,0.33,24.16,31.89,32.50,22.29,30.87,32.50,4794.87,1266.84,147.71,4.66,0.66,0.37
2018/06/07T18:44:02z,2c:3a:e8:34:ff:93,2.50i,2.0+OPENLOG+15833 MB+DS3231+BME280+PMSX003A+PMSX003B,81,21,37.39,1010.04,0.00,30128,31,1537,21.07,28.09,30.09,20.11,28.02,30.09,3878.74,1115.83,156.80,8.61,1.87,0.33,22.22,29.03,30.62,21.14,28.86,30.62,4454.76,1171.27,131.54,6.86,1.78,0.37
2018/06/07T18:45:22z,2c:3a:e8:34:ff:93,2.50i,2.0+OPENLOG+15833 MB+DS3231+BME280+PMSX003A+PMSX003B,81,21,37.39,1010.07,0.00,30128,31,1617,20.15,26.54,27.78,19.61,26.54,27.78,3735.78,1080.46,128.09,6.13,1.80,0.02,21.67,30.59,32.69,20.72,30.03,32.69,4367.00,1168.77,157.74,10.36,2.79,0.13
2018/06/07T18:46:42z,2c:3a:e8:34:ff:93,2.50i,2.0+OPENLOG+15833 MB+DS3231+BME280+PMSX003A+PMSX003B,81,21,37.39,1010.07,0.00,29696,31,1697,18.45,24.87,27.06,18.26,24.87,27.06,3506.87,1008.89,135.53,8.57,3.15,0.02,20.84,28.34,29.79,20.34,28.13,29.79,4175.76,1100.13,136.95,7.26,1.71,0.45
2018/06/07T18:48:02z,2c:3a:e8:34:ff:93,2.50i,2.0+OPENLOG+15833 MB+DS3231+BME280+PMSX003A+PMSX003B,81,21,37.39,1010.11,0.00,29672,31,1777,18.43,25.39,26.83,18.43,25.39,26.83,3458.35,1001.26,129.67,8.52,1.41,0.20,18.68,26.16,29.21,18.61,26.16,29.21,3862.50,1023.68,128.45,14.13,4.03,0.08
2018/06/07T18:49:22z,2c:3a:e8:34:ff:93,2.50i,2.0+OPENLOG+15833 MB+DS3231+BME280+PMSX003A+PMSX003B,81,21,37.39,1010.03,0.00,30128,31,1857,17.94,24.66,25.85,17.94,24.66,25.85,3268.98,948.11,124.43,8.87,0.55,0.20,19.32,25.32,26.51,18.70,25.32,26.51,3948.81,1047.68,116.92,7.59,1.49,0.08
2018/06/07T18:50:42z,2c:3a:e8:34:ff:93,2.50i,2.0+OPENLOG+15833 MB+DS3231+BME280+PMSX003A+PMSX003B,81,21,37.39,1010.08,0.00,30128,31,1937,17.46,24.41,26.02,17.46,24.41,26.02,3281.22,945.33,131.00,9.02,1.50,0.20,19.72,27.39,28.36,19.33,27.39,28.36,3879.83,1056.00,134.69,9.36,1.08,0.36
2018/06/07T18:52:02z,2c:3a:e8:34:ff:93,2.50i,2.0+OPENLOG+15833 MB+DS3231+BME280+PMSX003A+PMSX003B,81,21,37.39,1010.11,0.00,29696,31,2017,16.98,23.72,25.76,16.98,23.72,25.76,3212.93,913.22,116.72,10.30,1.74,0.39,18.50,25.22,26.00,18.50,25.22,26.00,3621.75,983.08,126.92,3.97,1.31,0.36
2018/06/07T18:53:22z,2c:3a:e8:34:ff:93,2.50i,2.0+OPENLOG+15833 MB+DS3231+BME280+PMSX003A+PMSX003B,81,21,37.39,1010.11,0.00,29696,31,2097,15.85,20.93,22.17,15.85,20.93,22.17,2989.30,854.50,109.15,7.26,1.28,0.39,16.89,23.06,24.08,16.89,23.06,24.08,3481.08,911.03,116.36,5.22,1.53,0.36
2018/06/07T18:54:42z,2c:3a:e8:34:ff:93,2.50i,2.0+OPENLOG+15833 MB+DS3231+BME280+PMSX003A+PMSX003B,81,21,37.39,1010.11,0.00,30128,31,2177,13.80,17.98,19.28,13.80,17.98,19.28,2660.74,760.41,95.74,4.65,1.50,0.39,15.56,21.14,22.22,15.56,21.14,22.22,3302.25,869.06,101.03,7.53,1.00,0.31
2018/06/07T18:56:02z,2c:3a:e8:34:ff:93,2.50i,2.0+OPENLOG+15833 MB+DS3231+BME280+PMSX003A+PMSX003B,81,21,37.39,1010.03,0.00,30128,31,2257,14.22,19.83,20.63,14.22,19.83,20.63,2669.28,769.96,114.52,8.09,0.91,0.39,16.29,22.26,22.58,16.29,22.26,22.58,3433.34,898.53,115.45,3.29,0.53,0.08
2018/06/07T18:57:47z,2c:3a:e8:34:ff:93,2.50i,2.0+OPENLOG+15833 MB+DS3231+BME280+PMSX003A+PMSX003B,81,21,37.39,1010.09,0.00,29672,31,24,8.00,12.00,14.00,8.00,12.00,14.00,0.00,0.00,0.00,0.00,0.00,0.00,10.00,10.00,10.00,10.00,10.00,10.00,0.00,0.00,0.00,0.00,0.00,0.00
2018/06/07T18:59:00z,2c:3a:e8:34:ff:93,2.50i,2.0+OPENLOG+15833 MB+DS3231+BME280+PMSX003A+PMSX003B,81,21,37.39,1010.05,0.00,30128,31,97,12.88,16.73,17.85,12.88,16.73,17.85,2465.18,720.70,86.53,2.97,1.45,0.00,16.03,21.09,21.83,16.03,21.09,21.83,3109.37,861.86,97.46,4.20,1.00,0.00
2018/06/07T19:00:20z,2c:3a:e8:34:ff:93,2.50i,2.0+OPENLOG+15833 MB+DS3231+BME280+PMSX003A+PMSX003B,81,21,37.39,1010.11,0.00,30128,31,177,13.64,18.53,19.42,13.64,18.53,19.42,2566.33,724.22,99.33,7.29,1.42,0.00,14.19,18.65,19.32,14.19,18.65,19.32,2923.38,774.27,90.97,3.70,0.57,0.00
2018/06/07T19:01:40z,2c:3a:e8:34:ff:93,2.50i,2.0+OPENLOG+15833 MB+DS3231+BME280+PMSX003A+PMSX003B,81,21,37.39,1010.09,0.00,30128,31,257,12.57,17.65,20.11,12.57,17.65,20.11,2357.35,688.09,97.93,8.72,3.04,0.78,14.27,19.11,20.00,14.27,19.11,20.00,2905.54,769.92,97.62,4.03,1.14,1.05
2018/06/07T19:03:00z,2c:3a:e8:34:ff:93,2.50i,2.0+OPENLOG+15833 MB+DS3231+BME280+PMSX003A+PMSX003B,81,21,37.39,1010.09,0.00,29592,31,337,11.26,16.78,18.09,11.26,16.78,18.09,2307.59,648.41,90.28,11.15,0.91,0.78,13.33,19.13,19.36,13.33,19.13,19.36,2743.77,740.10,97.21,5.46,0.49,1.05
2018/06/07T19:04:20z,2c:3a:e8:34:ff:93,2.50i,2.0+OPENLOG+15833 MB+DS3231+BME280+PMSX003A+PMSX003B,81,21,37.39,1010.11,0.00,29672,31,417,11.33,16.20,17.96,11.33,16.20,17.96,2229.07,633.50,107.28,6.85,1.41,0.78,12.76,16.14,18.11,12.76,16.14,18.11,2539.86,678.38,80.78,4.97,2.78,0.92
2018/06/07T19:05:40z,2c:3a:e8:34:ff:93,2.50i,2.0+OPENLOG+15833 MB+DS3231+BME280+PMSX003A+PMSX003B,81,21,37.39,1010.11,0.00,30128,31,497,10.59,14.70,16.54,10.59,14.70,16.54,2107.43,606.37,86.30,6.57,2.11,0.78,12.63,17.21,18.61,12.63,17.21,18.61,2584.03,692.50,84.39,6.74,1.50,0.05
2018/06/07T19:07:00z,2c:3a:e8:34:ff:93,2.50i,2.0+OPENLOG+15833 MB+DS3231+BME280+PMSX003A+PMSX003B,81,21,37.39,1010.04,0.00,30128,31,577,10.62,15.11,16.47,10.62,15.11,16.47,2080.53,604.81,90.96,5.81,1.74,0.78,12.11,16.63,18.34,12.11,16.63,18.34,2554.03,661.08,80.55,4.97,2.03,0.74
2018/06/07T19:08:20z,2c:3a:e8:34:ff:93,2.50i,2.0+OPENLOG+15833 MB+DS3231+BME280+PMSX003A+PMSX003B,81,21,37.39,1010.09,0.00,29696,31,657,9.98,15.02,17.43,9.98,15.02,17.43,2040.00,579.37,82.72,11.11,2.76,0.61,11.41,16.65,18.08,11.41,16.65,18.08,2338.30,632.89,97.24,6.95,1.22,0.68
2018/06/07T19:09:40z,2c:3a:e8:34:ff:93,2.50i,2.0+OPENLOG+15833 MB+DS3231+BME280+PMSX003A+PMSX003B,82,21,38.22,1010.14,0.00,29696,31,737,10.41,14.02,14.87,10.41,14.02,14.87,2010.00,572.15,78.78,3.83,1.11,0.61,10.89,13.35,14.05,10.89,13.35,14.05,2265.32,582.03,61.24,3.89,0.65,0.49
2018/06/07T19:11:00z,2c:3a:e8:34:ff:93,2.50i,2.0+OPENLOG+15833 MB+DS3231+BME280+PMSX003A+PMSX003B,82,21,38.22,1010.14,0.00,30128,31,817,9.37,13.57,14.59,9.37,13.57,14.59,1904.74,548.48,79.00,3.89,1.26,0.35,10.69,14.00,14.77,10.69,14.00,14.77,2184.77,579.92,68.90,3.03,0.85,0.18
2018/06/07T19:12:20z,2c:3a:e8:34:ff:93,2.50i,2.0+OPENLOG+15833 MB+DS3231+BME280+PMSX003A+PMSX003B,82,21,38.22,1010.13,0.00,30128,31,897,8.64,12.47,13.19,8.64,12.47,13.19,1734.38,494.89,69.74,5.79,0.23,0.35,9.70,13.51,15.24,9.70,13.51,15.24,2103.41,551.35,70.81,4.68,2.00,0.18
2018/06/07T19:13:40z,2c:3a:e8:34:ff:93,2.50i,2.0+OPENLOG+15833 MB+DS3231+BME280+PMSX003A+PMSX003B,82,21,38.22,1010.12,0.00,29592,31,977,8.64,12.17,13.00,8.64,12.17,13.00,1703.36,481.04,68.64,4.60,1.57,0.35,10.18,14.45,15.39,10.18,14.45,15.39,2178.63,581.03,66.32,4.29,1.29,0.50
2018/06/07T19:15:00z,2c:3a:e8:34:ff:93,2.50i,2.0+OPENLOG+15833 MB+DS3231+BME280+PMSX003A+PMSX003B,82,21,38.22,1010.19,0.00,29696,31,1057,8.64,12.42,13.38,8.64,12.42,13.38,1763.73,499.44,77.51,3.71,0.91,0.35,8.87,12.16,13.61,8.87,12.16,13.61,1879.42,498.39,65.61,5.24,2.18,0.18
2018/06/07T19:16:20z,2c:3a:e8:34:ff:93,2.50i,2.0+OPENLOG+15833 MB+DS3231+BME280+PMSX003A+PMSX003B,82,21,38.22,1010.19,0.00,30128,31,1137,8.67,11.72,13.02,8.67,11.72,13.02,1673.15,477.67,66.13,4.39,1.63,0.39,9.08,12.50,13.22,9.08,12.50,13.22,1933.00,519.36,68.00,3.86,1.22,0.39
2018/06/07T19:17:40z,2c:3a:e8:34:ff:93,2.50i,2.0+OPENLOG+15833 MB+DS3231+BME280+PMSX003A+PMSX003B,82,21,38.22,1010.15,0.00,30128,31,1217,7.46,11.78,12.35,7.46,11.78,12.35,1581.59,451.17,75.80,2.83,0.89,0.39,8.37,11.66,12.92,8.37,11.66,12.92,1894.03,496.84,66.32,5.11,2.03,0.39
2018/06/07T19:19:00z,2c:3a:e8:34:ff:93,2.50i,2.0+OPENLOG+15833 MB+DS3231+BME280+PMSX003A+PMSX003B,82,21,38.22,1010.14,0.00,29640,31,1297,8.35,11.91,13.76,8.35,11.91,13.76,1630.30,472.13,72.76,5.24,2.50,0.39,8.82,12.58,13.87,8.82,12.58,13.87,1943.21,512.05,63.53,7.11,2.00,0.39
2018/06/07T19:20:20z,2c:3a:e8:34:ff:93,2.50i,2.0+OPENLOG+15833 MB+DS3231+BME280+PMSX003A+PMSX003B,82,21,38.22,1010.18,0.00,29592,31,1377,7.89,10.26,11.76,7.89,10.26,11.76,1613.93,465.28,52.61,4.50,0.57,0.39,8.05,11.00,11.79,8.05,11.00,11.79,1768.03,469.74,57.08,2.87,1.18,0.39
2018/06/07T19:21:40z,2c:3a:e8:34:ff:93,2.50i,2.0+OPENLOG+15833 MB+DS3231+BME280+PMSX003A+PMSX003B,82,21,38.22,1010.18,0.00,30128,31,1457,7.13,10.13,11.09,7.13,10.13,11.09,1446.39,413.17,63.91,3.96,1.11,0.39,8.11,11.18,12.45,8.11,11.18,12.45,1738.89,459.08,57.68,4.76,1.82,0.29
2018/06/07T19:23:00z,2c:3a:e8:34:ff:93,2.50i,2.0+OPENLOG+15833 MB+DS3231+BME280+PMSX003A+PMSX003B,82,21,38.22,1010.14,0.00,30128,31,1537,6.70,9.20,9.48,6.70,9.20,9.48,1353.72,382.07,47.43,1.80,0.26,0.39,7.41,10.76,11.35,7.41,10.76,11.35,1638.00,430.78,52.81,4.65,0.73,0.54
2018/06/07T19:24:20z,2c:3a:e8:34:ff:93,2.50i,2.0+OPENLOG+15833 MB+DS3231+BME280+PMSX003A+PMSX003B,82,21,38.22,1010.21,0.00,30128,31,1617,6.80,9.07,10.48,6.80,9.07,10.48,1338.33,380.65,46.00,5.59,1.28,0.15,8.00,10.78,11.43,8.00,10.78,11.43,1668.32,445.41,56.11,3.24,0.68,0.32
2018/06/07T19:25:40z,2c:3a:e8:34:ff:93,2.50i,2.0+OPENLOG+15833 MB+DS3231+BME280+PMSX003A+PMSX003B,82,21,38.22,1010.16,0.00,29592,31,1697,6.96,9.26,9.70,6.96,9.26,9.70,1367.43,391.98,51.00,1.70,0.23,0.23,7.29,9.89,10.29,7.29,9.89,10.29,1563.24,414.58,54.55,2.29,0.32,0.32
2018/06/07T19:27:00z,2c:3a:e8:34:ff:93,2.50i,2.0+OPENLOG+15833 MB+DS3231+BME280+PMSX003A+PMSX003B,82,21,38.22,1010.16,0.00,29488,31,1777,6.64,9.51,10.51,6.64,9.51,10.51,1355.68,398.21,61.94,4.49,0.94,0.23,7.19,10.65,11.38,7.19,10.65,11.38,1544.35,420.46,59.65,4.19,0.78,0.35
2018/06/07T19:28:20z,2c:3a:e8:34:ff:93,2.50i,2.0+OPENLOG+15833 MB+DS3231+BME280+PMSX003A+PMSX003B,82,21,38.22,1010.17,0.00,30128,31,1857,5.43,8.15,9.94,5.43,8.15,9.94,1237.85,359.79,51.94,6.72,2.23,0.23,7.11,9.84,10.35,7.11,9.84,10.35,1537.30,411.22,53.84,3.14,0.35,0.35
2018/06/07T19:29:40z,2c:3a:e8:34:ff:93,2.50i,2.0+OPENLOG+15833 MB+DS3231+BME280+PMSX003A+PMSX003B,82,21,38.22,1010.26,0.00,30128,31,1937,5.63,8.65,9.50,5.63,8.65,9.50,1181.74,338.96,55.83,5.43,1.48,0.23,6.53,9.92,10.42,6.53,9.92,10.42,1529.61,390.26,58.16,4.53,0.21,0.35
2018/06/07T19:31:00z,2c:3a:e8:34:ff:93,2.50i,2.0+OPENLOG+15833 MB+DS3231+BME280+PMSX003A+PMSX003B,82,21,38.22,1010.29,0.00,29696,31,2017,5.13,7.37,7.83,5.13,7.37,7.83,1090.04,310.65,37.70,4.07,0.28,0.23,6.03,8.50,9.13,6.03,8.50,9.13,1308.39,359.63,44.92,2.71,1.42,0.35
2018/06/07T19:32:20z,2c:3a:e8:34:ff:93,2.50i,2.0+OPENLOG+15833 MB+DS3231+BME280+PMSX003A+PMSX003B,82,21,38.22,1010.25,0.00,29696,31,2097,6.02,7.38,7.98,6.02,7.38,7.98,1133.11,337.66,37.15,2.00,0.26,0.23,6.27,8.97,9.43,6.27,8.97,9.43,1423.14,357.95,47.73,3.86,0.70,0.35
2018/06/07T19:33:40z,2c:3a:e8:34:ff:93,2.50i,2.0+OPENLOG+15833 MB+DS3231+BME280+PMSX003A+PMSX003B,82,21,38.22,1010.30,0.00,30128,31,2177,5.39,7.46,9.07,5.39,7.46,9.07,1078.70,309.35,43.22,4.76,2.15,0.39,5.65,7.57,8.16,5.65,7.57,8.16,1311.65,351.00,38.22,2.81,0.65,0.59
2018/06/07T19:35:00z,2c:3a:e8:34:ff:93,2.50i,2.0+OPENLOG+15833 MB+DS3231+BME280+PMSX003A+PMSX003B,82,21,38.22,1010.26,0.00,29944,31,2257,4.96,7.38,8.30,4.96,7.38,8.30,1037.68,300.21,42.57,4.23,0.74,0.39,5.95,9.30,9.89,5.95,9.30,9.89,1471.86,388.65,59.86,3.89,0.54,0.59
2018/06/07T20:16:51z,2c:3a:e8:34:ff:93,2.50i,2.0+OPENLOG+15833 MB+DS3231+BME280+PMSX003A+PMSX003B,82,21,38.22,1010.22,0.00,29888,31,97,1.16,1.78,2.31,1.16,1.78,2.31,427.40,124.00,14.40,1.22,0.16,0.00,1.18,1.89,2.29,1.18,1.89,2.29,435.00,115.53,14.71,0.96,0.40,0.00
2018/06/07T20:18:11z,2c:3a:e8:34:ff:93,2.50i,2.0+OPENLOG+15833 MB+DS3231+BME280+PMSX003A+PMSX003B,82,21,38.22,1010.24,0.00,29640,31,177,1.00,2.74,3.85,1.00,2.74,3.85,452.94,126.02,28.66,5.64,0.98,0.00,0.67,1.97,2.00,0.67,1.97,2.00,463.75,120.36,20.08,0.64,0.33,0.00
2018/06/07T20:19:31z,2c:3a:e8:34:ff:93,2.50i,2.0+OPENLOG+15833 MB+DS3231+BME280+PMSX003A+PMSX003B,82,20,36.98,1010.23,0.00,29640,31,257,1.49,2.43,2.66,1.49,2.43,2.66,416.49,122.70,22.81,2.04,0.34,0.00,1.49,2.51,3.11,1.49,2.51,3.11,490.54,130.27,17.84,2.49,0.76,0.16
2018/06/07T20:20:51z,2c:3a:e8:34:ff:93,2.50i,2.0+OPENLOG+15833 MB+DS3231+BME280+PMSX003A+PMSX003B,82,20,36.98,1010.20,0.00,30072,31,337,0.45,1.53,1.53,0.45,1.53,1.53,402.89,114.13,17.04,1.09,0.34,0.00,0.24,1.29,2.16,0.24,1.29,2.16,455.84,116.32,20.61,1.39,1.11,0.50
2018/06/07T20:22:11z,2c:3a:e8:34:ff:93,2.50i,2.0+OPENLOG+15833 MB+DS3231+BME280+PMSX003A+PMSX003B,82,20,36.98,1010.24,0.00,30072,31,417,1.52,2.17,2.74,1.52,2.17,2.74,416.09,122.30,15.07,1.61,0.74,0.00,1.84,2.63,3.26,1.84,2.63,3.26,537.79,131.53,20.21,2.32,0.76,0.32
2018/06/07T20:23:31z,2c:3a:e8:34:ff:93,2.50i,2.0+OPENLOG+15833 MB+DS3231+BME280+PMSX003A+PMSX003B,82,20,36.98,1010.21,0.00,29584,31,497,1.26,2.28,3.85,1.26,2.28,3.85,375.65,111.04,19.91,3.48,1.89,0.78,1.39,2.72,3.00,1.39,2.72,3.00,450.25,119.94,18.89,2.64,0.42,0.32
2018/06/07T20:24:51z,2c:3a:e8:34:ff:93,2.50i,2.0+OPENLOG+15833 MB+DS3231+BME280+PMSX003A+PMSX003B,82,20,36.98,1010.19,0.00,29640,31,577,0.63,1.63,2.04,0.63,1.63,2.04,391.30,116.15,14.02,2.39,0.39,0.39,1.42,2.42,2.50,1.42,2.42,2.50,489.87,121.29,14.71,0.24,0.16,0.32
2018/06/07T20:26:11z,2c:3a:e8:34:ff:93,2.50i,2.0+OPENLOG+15833 MB+DS3231+BME280+PMSX003A+PMSX003B,82,20,36.98,1010.25,0.00,29616,31,657,1.65,2.59,3.00,1.65,2.59,3.00,498.26,144.43,24.33,1.78,0.35,0.39,0.84,2.11,2.68,0.84,2.11,2.68,431.84,112.68,23.24,2.45,0.42,0.32
2018/06/07T20:27:31z,2c:3a:e8:34:ff:93,2.50i,2.0+OPENLOG+15833 MB+DS3231+BME280+PMSX003A+PMSX003B,82,21,38.22,1010.18,0.00,30072,31,737,1.34,1.94,2.74,1.34,1.94,2.74,380.94,107.51,16.23,2.30,0.66,0.06,0.82,1.92,2.32,0.82,1.92,2.32,417.00,109.03,17.05,1.68,0.39,0.32
2018/06/07T20:28:51z,2c:3a:e8:34:ff:93,2.50i,2.0+OPENLOG+15833 MB+DS3231+BME280+PMSX003A+PMSX003B,82,20,36.98,1010.26,0.00,30072,31,817,1.15,2.15,2.79,1.15,2.15,2.79,391.21,109.87,21.38,1.57,1.00,0.23,0.94,2.28,2.28,0.94,2.28,2.28,437.50,111.14,17.72,2.42,0.39,0.32
2018/06/07T20:30:11z,2c:3a:e8:34:ff:93,2.50i,2.0+OPENLOG+15833 MB+DS3231+BME280+PMSX003A+PMSX003B,82,20,36.98,1010.17,0.00,29640,31,897,0.74,1.93,2.52,0.74,1.93,2.52,355.63,100.67,16.20,3.89,0.59,0.23,1.08,2.00,2.89,1.08,2.00,2.89,394.58,104.82,19.76,2.13,1.63,0.32
2018/06/07T20:31:31z,2c:3a:e8:34:ff:93,2.50i,2.0+OPENLOG+15833 MB+DS3231+BME280+PMSX003A+PMSX003B,82,20,36.98,1010.16,0.00,29616,31,977,1.27,2.60,2.93,1.27,2.60,2.93,369.27,110.16,20.16,1.49,0.31,0.23,0.82,1.82,2.63,0.82,1.82,2.63,393.55,105.29,20.47,1.26,0.45,0.11
2018/06/07T20:32:51z,2c:3a:e8:34:ff:93,2.50i,2.0+OPENLOG+15833 MB+DS3231+BME280+PMSX003A+PMSX003B,82,20,36.98,1010.17,0.00,30072,31,1057,0.67,1.41,1.67,0.67,1.41,1.67,278.67,80.67,15.89,1.26,0.39,0.23,1.32,2.68,2.92,1.32,2.68,2.92,459.79,121.58,17.24,1.66,0.50,0.11
2018/06/07T20:34:11z,2c:3a:e8:34:ff:93,2.50i,2.0+OPENLOG+15833 MB+DS3231+BME280+PMSX003A+PMSX003B,82,20,36.98,1010.21,0.00,30072,31,1137,0.83,1.83,2.26,0.83,1.83,2.26,357.59,102.52,18.98,2.35,0.24,0.23,1.75,2.75,2.75,1.75,2.75,2.75,491.67,133.75,19.64,0.78,0.06,0.11
2018/06/07T20:35:31z,2c:3a:e8:34:ff:93,2.50i,2.0+OPENLOG+15833 MB+DS3231+BME280+PMSX003A+PMSX003B,82,21,38.22,1010.31,0.00,29536,31,1217,0.91,1.85,1.85,0.91,1.85,1.85,333.06,96.34,14.64,0.89,0.24,0.23,0.74,1.24,1.50,0.74,1.24,1.50,400.26,96.13,12.26,1.18,0.06,0.11
2018/06/07T20:36:51z,2c:3a:e8:34:ff:93,2.50i,2.0+OPENLOG+15833 MB+DS3231+BME280+PMSX003A+PMSX003B,82,20,36.98,1010.36,0.00,29640,31,1297,0.91,1.50,1.89,0.91,1.50,1.89,284.93,81.85,15.07,1.41,0.39,0.23,0.66,1.45,1.53,0.66,1.45,1.53,286.18,76.08,10.76,0.37,0.06,0.11
2018/06/07T20:38:11z,2c:3a:e8:34:ff:93,2.50i,2.0+OPENLOG+15833 MB+DS3231+BME280+PMSX003A+PMSX003B,83,20,37.80,1010.23,0.00,29888,31,1377,0.66,1.28,1.43,0.66,1.28,1.43,267.06,73.28,9.11,1.60,0.34,0.23,0.71,1.53,1.79,0.71,1.53,1.79,364.50,96.95,16.42,0.95,0.39,0.11
2018/06/07T20:39:31z,2c:3a:e8:34:ff:93,2.50i,2.0+OPENLOG+15833 MB+DS3231+BME280+PMSX003A+PMSX003B,82,21,38.22,1010.14,0.00,30072,31,1457,0.83,1.41,1.70,0.83,1.41,1.70,337.04,94.46,14.89,1.07,0.28,0.23,0.83,1.67,1.78,0.83,1.67,1.78,342.42,88.08,14.83,0.97,0.39,0.11
2018/06/07T20:40:51z,2c:3a:e8:34:ff:93,2.50i,2.0+OPENLOG+15833 MB+DS3231+BME280+PMSX003A+PMSX003B,83,21,39.05,1010.22,0.00,30072,31,1537,0.83,1.51,1.87,0.83,1.51,1.87,292.79,82.70,13.62,2.02,0.26,0.23,1.18,1.71,1.92,1.18,1.71,1.92,345.87,98.18,16.03,0.37,0.29,0.11
2018/06/07T20:42:11z,2c:3a:e8:34:ff:93,2.50i,2.0+OPENLOG+15833 MB+DS3231+BME280+PMSX003A+PMSX003B,83,21,39.05,1010.15,0.00,29536,31,1617,0.80,1.76,2.91,0.80,1.76,2.91,321.98,90.30,17.63,3.46,1.26,0.23,0.68,1.79,1.95,0.68,1.79,1.95,292.89,83.74,13.71,3.03,0.16,0.16
2018/06/07T20:43:31z,2c:3a:e8:34:ff:93,2.50i,2.0+OPENLOG+15833 MB+DS3231+BME280+PMSX003A+PMSX003B,83,21,39.05,1010.20,0.00,30072,31,1697,0.76,1.59,1.85,0.76,1.59,1.85,265.50,78.91,12.98,2.33,1.26,0.23,0.87,1.42,1.58,0.87,1.42,1.58,305.76,88.50,11.61,1.08,0.08,0.08
2018/06/07T20:44:51z,2c:3a:e8:34:ff:93,2.50i,2.0+OPENLOG+15833 MB+DS3231+BME280+PMSX003A+PMSX003B,83,21,39.05,1010.15,0.00,30072,31,1777,0.77,1.38,2.30,0.77,1.38,2.30,322.60,92.43,16.68,1.74,1.51,0.23,0.33,1.50,1.50,0.33,1.50,1.50,288.00,75.58,15.64,1.25,0.08,0.08
2018/06/07T20:46:11z,2c:3a:e8:34:ff:93,2.50i,2.0+OPENLOG+15833 MB+DS3231+BME280+PMSX003A+PMSX003B,83,21,39.05,1010.11,0.00,30072,31,1857,0.70,1.35,2.33,0.70,1.35,2.33,285.65,87.52,15.24,2.54,1.00,0.23,0.32,1.55,2.21,0.32,1.55,2.21,307.97,81.13,18.66,1.63,1.00,0.08
2018/06/07T20:47:31z,2c:3a:e8:34:ff:93,2.50i,2.0+OPENLOG+15833 MB+DS3231+BME280+PMSX003A+PMSX003B,83,21,39.05,1010.09,0.00,29640,31,1937,0.72,1.91,2.21,0.72,1.91,2.21,294.06,85.00,19.06,2.70,1.00,0.23,0.42,1.13,1.39,0.42,1.13,1.39,276.71,71.45,13.13,1.32,0.66,0.08
2018/06/07T20:48:51z,2c:3a:e8:34:ff:93,2.50i,2.0+OPENLOG+15833 MB+DS3231+BME280+PMSX003A+PMSX003B,83,20,37.80,1010.06,0.00,29640,31,2017,0.85,1.63,1.72,0.85,1.63,1.72,285.33,82.80,16.33,0.74,0.33,0.23,0.71,0.97,1.16,0.71,0.97,1.16,300.87,75.58,10.66,1.13,0.39,0.08
2018/06/07T20:50:11z,2c:3a:e8:34:ff:93,2.50i,2.0+OPENLOG+15833 MB+DS3231+BME280+PMSX003A+PMSX003B,83,20,37.80,1010.11,0.00,30072,31,2097,0.89,1.59,2.39,0.89,1.59,2.39,274.30,81.41,14.72,3.78,1.11,0.23,0.69,1.00,1.00,0.69,1.00,1.00,272.75,68.31,14.81,0.19,0.39,0.08
2018/06/07T20:51:31z,2c:3a:e8:34:ff:93,2.50i,2.0+OPENLOG+15833 MB+DS3231+BME280+PMSX003A+PMSX003B,83,20,37.80,1009.99,0.00,30072,31,2177,0.20,0.78,0.91,0.20,0.78,0.91,241.80,67.87,9.78,0.80,0.20,0.23,0.62,1.00,1.32,0.62,1.00,1.32,252.41,71.30,12.46,1.24,0.39,0.08
2018/06/07T20:52:51z,2c:3a:e8:34:ff:93,2.50i,2.0+OPENLOG+15833 MB+DS3231+BME280+PMSX003A+PMSX003B,83,20,37.80,1010.13,0.00,29536,31,2257,0.43,0.89,2.04,0.43,0.89,2.04,268.89,79.07,16.22,3.02,1.37,0.23,0.34,1.08,1.87,0.34,1.08,1.87,273.39,66.42,12.97,2.68,1.29,0.50
2018/06/07T20:54:11z,2c:3a:e8:34:ff:93,2.50i,2.0+OPENLOG+15833 MB+DS3231+BME280+PMSX003A+PMSX003B,83,20,37.80,1010.09,0.00,29640,31,2337,0.23,1.00,1.72,0.23,1.00,1.72,234.64,66.38,12.06,1.55,0.91,0.38,0.34,0.55,0.89,0.34,0.55,0.89,232.18,63.58,8.42,1.37,0.84,0.50

 ets Jan  8 2013,rst cause:1, boot mode:(3,7)

load 0x4010f000, len 1384, room 16 
tail 8
chksum 0x2d
csum 0x2d
v3de0c112
~ld


AirMonitor Ver: 2.50i
FlashChipRealSize: 2097152
69 31872 time not set:Detecting I2C...
70 31848 time not set:RETRY: Found RTC! ******************
83 31784 2018/06/07T20:54:11z:Found BME280 sensor on 0x76! ******************
3723 31504 2018/06/07T20:54:15z:EEPROM SSID: 
3725 31448 2018/06/07T20:54:15z:Device: AirMonitor_ff93
3727 31448 2018/06/07T20:54:15z:MAC: 2c:3a:e8:34:ff:93
3728 31472 2018/06/07T20:54:15z:setupWiFi Complete.
3731 31472 2018/06/07T20:54:15z:Looking for channel B
6365 30944 2018/06/07T20:54:17z:Attempt 1 took 2629ms. Found PMSX003 type sensor! ******************
6367 31160 2018/06/07T20:54:17z:Looking for channel A
11369 31184 2018/06/07T20:54:23z:Retry 1
2018/06/07T20:55:49z,2c:3a:e8:34:ff:93,2.50i,2.0+OPENLOG+15833 MB+DS3231+BME280+PMSX003A+PMSX003B,83,21,39.05,1010.05,0.00,30072,31,97,0.14,0.39,0.45,0.14,0.39,0.45,234.14,68.16,4.91,0.50,0.25,0.25,0.00,0.57,1.24,0.00,0.57,1.24,247.71,66.86,11.69,1.36,0.64,0.00
2018/06/07T20:57:09z,2c:3a:e8:34:ff:93,2.50i,2.0+OPENLOG+15833 MB+DS3231+BME280+PMSX003A+PMSX003B,83,20,37.80,1010.01,0.00,30072,31,177,0.06,1.00,1.32,0.06,1.00,1.32,220.79,64.68,12.00,1.45,0.25,0.25,0.00,0.50,1.21,0.00,0.50,1.21,218.29,55.82,11.45,1.63,0.95,0.00
2018/06/07T20:58:29z,2c:3a:e8:34:ff:93,2.50i,2.0+OPENLOG+15833 MB+DS3231+BME280+PMSX003A+PMSX003B,83,20,37.80,1009.98,0.00,29584,31,257,0.47,1.09,1.77,0.47,1.09,1.77,247.09,72.45,13.06,1.89,0.49,0.25,0.65,1.54,1.92,0.65,1.54,1.92,290.03,77.38,15.89,2.11,0.35,0.00
2018/06/07T20:59:49z,2c:3a:e8:34:ff:93,2.50i,2.0+OPENLOG+15833 MB+DS3231+BME280+PMSX003A+PMSX003B,83,20,37.80,1009.98,0.00,29456,31,337,0.47,0.72,0.98,0.47,0.72,0.98,162.51,48.81,8.57,2.19,0.04,0.25,0.65,0.39,0.47,0.65,0.39,0.47,233.21,59.92,10.79,0.82,0.35,0.00
2018/06/07T21:01:09z,2c:3a:e8:34:ff:93,2.50i,2.0+OPENLOG+15833 MB+DS3231+BME280+PMSX003A+PMSX003B,83,20,37.80,1009.93,0.00,29616,31,417,0.47,0.89,1.66,0.47,0.89,1.66,190.40,54.72,10.91,3.23,0.34,0.25,0.65,1.21,1.50,0.65,1.21,1.50,253.97,64.11,13.37,0.58,0.32,0.00
2018/06/07T21:02:29z,2c:3a:e8:34:ff:93,2.50i,2.0+OPENLOG+15833 MB+DS3231+BME280+PMSX003A+PMSX003B,83,20,37.80,1010.03,0.00,30072,31,497,0.47,0.30,0.87,0.47,0.30,0.87,162.33,42.63,9.65,1.59,0.76,0.25,0.65,1.08,1.41,0.65,1.08,1.41,209.27,61.86,13.24,0.89,0.65,0.00
2018/06/07T21:03:49z,2c:3a:e8:34:ff:93,2.50i,2.0+OPENLOG+15833 MB+DS3231+BME280+PMSX003A+PMSX003B,83,20,37.80,1009.94,0.00,30072,31,577,0.47,1.11,1.41,0.47,1.11,1.41,198.20,56.11,17.54,2.39,0.52,0.25,0.08,0.39,0.81,0.08,0.39,0.81,207.75,56.56,5.92,1.08,0.42,0.33
2018/06/07T21:05:09z,2c:3a:e8:34:ff:93,2.50i,2.0+OPENLOG+15833 MB+DS3231+BME280+PMSX003A+PMSX003B,83,21,39.05,1009.96,0.00,29640,31,657,0.47,0.80,1.36,0.47,0.80,1.36,208.93,61.82,12.04,2.27,0.93,0.25,0.24,0.87,1.42,0.24,0.87,1.42,225.55,62.08,12.39,1.34,0.79,0.33
2018/06/07T21:06:29z,2c:3a:e8:34:ff:93,2.50i,2.0+OPENLOG+15833 MB+DS3231+BME280+PMSX003A+PMSX003B,83,21,39.05,1009.92,0.00,29640,31,737,0.28,0.87,1.13,0.28,0.87,1.13,230.35,68.72,11.02,1.22,0.46,0.25,0.24,0.89,1.63,0.24,0.89,1.63,210.24,58.08,14.34,1.47,0.82,0.50
2018/06/07T21:07:49z,2c:3a:e8:34:ff:93,2.50i,2.0+OPENLOG+15833 MB+DS3231+BME280+PMSX003A+PMSX003B,83,20,37.80,1009.85,0.00,30072,31,817,0.28,0.45,0.70,0.28,0.45,0.70,144.70,43.81,10.02,0.83,0.19,0.25,0.24,0.82,1.47,0.24,0.82,1.47,256.11,72.68,13.87,1.26,0.79,0.32
2018/06/07T21:09:09z,2c:3a:e8:34:ff:93,2.50i,2.0+OPENLOG+15833 MB+DS3231+BME280+PMSX003A+PMSX003B,83,21,39.05,1009.89,0.00,29888,31,897,0.28,0.64,1.00,0.28,0.64,1.00,150.06,44.26,11.17,0.74,0.36,0.25,0.30,0.65,1.05,0.30,0.65,1.05,242.84,59.41,7.76,0.86,0.46,0.32
2018/06/07T21:10:29z,2c:3a:e8:34:ff:93,2.50i,2.0+OPENLOG+15833 MB+DS3231+BME280+PMSX003A+PMSX003B,83,21,39.05,1009.85,0.00,29536,31,977,0.28,0.26,0.52,0.28,0.26,0.52,149.09,47.11,6.96,0.57,0.26,0.25,0.30,0.47,0.53,0.30,0.47,0.53,157.58,44.53,10.03,0.89,0.46,0.32
2018/06/07T21:11:49z,2c:3a:e8:34:ff:93,2.50i,2.0+OPENLOG+15833 MB+DS3231+BME280+PMSX003A+PMSX003B,83,20,37.80,1009.86,0.00,29640,31,1057,0.28,0.53,1.47,0.28,0.53,1.47,158.60,46.76,8.11,2.62,1.31,0.25,0.30,0.97,1.11,0.30,0.97,1.11,192.08,57.34,12.58,0.39,0.46,0.32
2018/06/07T21:13:09z,2c:3a:e8:34:ff:93,2.50i,2.0+OPENLOG+15833 MB+DS3231+BME280+PMSX003A+PMSX003B,83,21,39.05,1009.89,0.00,30072,31,1137,0.28,0.67,0.87,0.28,0.67,0.87,143.80,44.20,10.61,2.70,0.41,0.25,0.29,1.13,1.76,0.29,1.13,1.76,250.50,69.45,8.74,2.08,0.74,0.32
2018/06/07T21:14:29z,2c:3a:e8:34:ff:93,2.50i,2.0+OPENLOG+15833 MB+DS3231+BME280+PMSX003A+PMSX003B,83,20,37.80,1009.87,0.00,30072,31,1217,0.28,0.61,0.93,0.28,0.61,0.93,180.72,51.72,9.63,1.26,0.41,0.25,0.29,0.86,0.86,0.29,0.86,0.86,236.84,59.43,9.32,0.73,0.74,0.32
2018/06/07T21:15:49z,2c:3a:e8:34:ff:93,2.50i,2.0+OPENLOG+15833 MB+DS3231+BME280+PMSX003A+PMSX003B,83,20,37.80,1009.86,0.00,29584,31,1297,0.28,0.55,0.94,0.28,0.55,0.94,176.23,52.89,13.38,1.32,0.87,0.25,0.29,0.19,0.19,0.29,0.19,0.19,133.14,37.43,4.70,0.27,0.11,0.32
2018/06/07T21:17:09z,2c:3a:e8:34:ff:93,2.50i,2.0+OPENLOG+15833 MB+DS3231+BME280+PMSX003A+PMSX003B,83,21,39.05,1009.89,0.00,29536,31,1377,0.28,0.53,0.83,0.28,0.53,0.83,154.60,45.91,14.68,0.74,0.23,0.25,0.16,0.47,0.47,0.16,0.47,0.47,151.89,46.18,12.03,0.18,0.05,0.32
2018/06/07T21:18:03z,2c:3a:e8:34:ff:93,2.50i,2.0+OPENLOG+15833 MB+DS3231+BME280+PMSX003A+PMSX003B,83,21,39.05,1009.93,0.00,29672,31,28,1.00,1.00,1.00,1.00,1.00,1.00,0.00,0.00,0.00,0.00,0.00,0.00,0.00,0.00,0.00,0.00,0.00,0.00,0.00,0.00,0.00,0.00,0.00,0.00
2018/06/07T21:19:23z,2c:3a:e8:34:ff:93,2.50i,2.0+OPENLOG+15833 MB+DS3231+BME280+PMSX003A+PMSX003B,83,20,37.80,1009.85,0.00,30128,31,107,1.00,0.33,0.33,1.00,0.33,0.33,158.07,46.76,9.91,1.18,0.00,0.00,0.00,0.08,0.08,0.00,0.08,0.08,131.92,35.19,10.41,1.78,0.41,0.00
2018/06/07T21:20:43z,2c:3a:e8:34:ff:93,2.50i,2.0+OPENLOG+15833 MB+DS3231+BME280+PMSX003A+PMSX003B,83,21,39.05,1009.86,0.00,29456,31,187,0.30,0.81,1.06,0.30,0.81,1.06,215.55,64.62,14.91,1.60,0.26,0.00,0.00,0.08,0.08,0.00,0.08,0.08,150.24,42.57,6.76,1.78,0.41,0.00
2018/06/07T21:22:03z,2c:3a:e8:34:ff:93,2.50i,2.0+OPENLOG+15833 MB+DS3231+BME280+PMSX003A+PMSX003B,83,21,39.05,1009.84,0.00,29696,31,267,0.13,0.57,0.64,0.13,0.57,0.64,177.89,50.74,9.74,0.51,0.26,0.00,0.00,0.24,0.32,0.00,0.24,0.32,142.62,41.08,4.38,0.38,0.38,0.00
2018/06/07T21:23:23z,2c:3a:e8:34:ff:93,2.50i,2.0+OPENLOG+15833 MB+DS3231+BME280+PMSX003A+PMSX003B,83,21,39.05,1009.84,0.00,30128,31,347,0.13,0.51,0.57,0.13,0.51,0.57,127.21,37.79,8.15,0.64,0.26,0.00,0.00,0.61,1.32,0.00,0.61,1.32,194.53,50.32,16.58,1.89,0.50,0.00
2018/06/07T21:24:43z,2c:3a:e8:34:ff:93,2.50i,2.0+OPENLOG+15833 MB+DS3231+BME280+PMSX003A+PMSX003B,83,21,39.05,1009.80,0.00,30128,31,427,0.13,0.76,0.80,0.13,0.76,0.80,148.24,42.26,10.35,1.11,0.24,0.00,0.00,0.41,0.43,0.00,0.41,0.43,201.97,53.30,12.54,0.08,0.05,0.00
2018/06/07T21:26:03z,2c:3a:e8:34:ff:93,2.50i,2.0+OPENLOG+15833 MB+DS3231+BME280+PMSX003A+PMSX003B,83,21,39.05,1009.88,0.00,30128,31,507,0.04,0.43,0.85,0.04,0.43,0.85,160.72,47.23,7.87,1.13,0.17,0.00,0.00,0.08,0.38,0.00,0.08,0.38,163.62,40.43,5.57,0.51,0.30,0.00
2018/06/07T21:27:23z,2c:3a:e8:34:ff:93,2.50i,2.0+OPENLOG+15833 MB+DS3231+BME280+PMSX003A+PMSX003B,83,21,39.05,1009.82,0.00,29512,31,587,0.04,0.50,0.98,0.04,0.50,0.98,166.24,47.85,10.33,1.72,0.30,0.00,0.00,0.11,0.14,0.00,0.11,0.14,149.27,40.68,8.35,0.49,0.30,0.00
2018/06/07T21:28:43z,2c:3a:e8:34:ff:93,2.50i,2.0+OPENLOG+15833 MB+DS3231+BME280+PMSX003A+PMSX003B,83,21,39.05,1009.86,0.00,29488,31,667,0.04,0.50,0.41,0.04,0.50,0.41,136.57,41.02,5.09,0.78,0.54,0.00,0.00,0.53,0.84,0.00,0.53,0.84,151.89,43.76,9.71,1.92,0.30,0.00
2018/06/07T21:30:03z,2c:3a:e8:34:ff:93,2.50i,2.0+OPENLOG+15833 MB+DS3231+BME280+PMSX003A+PMSX003B,83,21,39.05,1009.73,0.00,30128,31,747,0.13,0.47,0.87,0.13,0.47,0.87,192.83,58.89,14.53,0.91,0.47,0.00,0.00,0.79,0.89,0.00,0.79,0.89,152.84,42.61,7.50,1.13,0.11,0.00
2018/06/07T21:31:23z,2c:3a:e8:34:ff:93,2.50i,2.0+OPENLOG+15833 MB+DS3231+BME280+PMSX003A+PMSX003B,83,21,39.05,1009.83,0.00,30128,31,827,0.07,0.82,1.09,0.07,0.82,1.09,132.47,39.69,13.93,1.71,0.47,0.00,0.00,0.14,0.14,0.00,0.14,0.14,134.92,35.92,5.24,0.54,0.08,0.00
2018/06/07T21:32:43z,2c:3a:e8:34:ff:93,2.50i,2.0+OPENLOG+15833 MB+DS3231+BME280+PMSX003A+PMSX003B,83,21,39.05,1009.80,0.00,29592,31,907,0.59,1.04,1.30,0.59,1.04,1.30,237.46,69.87,10.52,0.85,0.20,0.00,0.00,0.35,0.49,0.00,0.35,0.49,145.86,41.59,10.59,0.35,0.08,0.00
2018/06/07T21:34:03z,2c:3a:e8:34:ff:93,2.50i,2.0+OPENLOG+15833 MB+DS3231+BME280+PMSX003A+PMSX003B,83,21,39.05,1009.78,0.00,29696,31,987,0.59,0.04,0.19,0.59,0.04,0.19,119.11,34.36,8.60,0.72,0.19,0.00,0.00,0.29,0.29,0.00,0.29,0.29,144.32,36.45,7.66,0.45,0.08,0.00
2018/06/07T21:35:23z,2c:3a:e8:34:ff:93,2.50i,2.0+OPENLOG+15833 MB+DS3231+BME280+PMSX003A+PMSX003B,83,21,39.05,1009.80,0.00,30128,31,1067,0.59,0.11,0.11,0.59,0.11,0.11,122.17,36.74,9.96,0.72,0.19,0.00,0.00,0.58,0.66,0.00,0.58,0.66,157.11,44.95,9.89,1.18,0.32,0.00
2018/06/07T21:36:43z,2c:3a:e8:34:ff:93,2.50i,2.0+OPENLOG+15833 MB+DS3231+BME280+PMSX003A+PMSX003B,83,21,39.05,1009.78,0.00,29944,31,1147,0.59,0.11,0.24,0.59,0.11,0.24,117.26,33.59,6.11,1.24,0.19,0.00,0.00,0.27,0.62,0.00,0.27,0.62,176.59,48.38,8.14,0.59,0.59,0.00
2018/06/07T21:38:03z,2c:3a:e8:34:ff:93,2.50i,2.0+OPENLOG+15833 MB+DS3231+BME280+PMSX003A+PMSX003B,83,21,39.05,1009.75,0.00,29848,31,1227,0.59,0.35,0.76,0.59,0.35,0.76,134.41,40.65,8.48,2.33,0.59,0.00,0.00,0.43,0.43,0.00,0.43,0.43,149.43,34.89,7.32,0.95,0.03,0.00
2018/06/07T21:39:23z,2c:3a:e8:34:ff:93,2.50i,2.0+OPENLOG+15833 MB+DS3231+BME280+PMSX003A+PMSX003B,83,21,39.05,1009.80,0.00,29592,31,1307,0.02,0.02,0.02,0.02,0.02,0.02,162.33,48.85,8.26,2.33,0.59,0.00,0.00,0.03,0.03,0.00,0.03,0.03,168.00,46.26,5.39,0.26,0.03,0.00
2018/06/07T21:40:43z,2c:3a:e8:34:ff:93,2.50i,2.0+OPENLOG+15833 MB+DS3231+BME280+PMSX003A+PMSX003B,83,21,39.05,1009.78,0.00,30128,31,1387,0.02,0.26,0.72,0.02,0.26,0.72,113.87,32.35,10.61,1.59,0.54,0.00,0.00,0.03,0.32,0.00,0.03,0.32,123.63,33.55,5.84,0.50,0.32,0.00
2018/06/07T21:42:03z,2c:3a:e8:34:ff:93,2.50i,2.0+OPENLOG+15833 MB+DS3231+BME280+PMSX003A+PMSX003B,83,21,39.05,1009.77,0.00,30128,31,1467,0.02,0.64,0.77,0.02,0.64,0.77,170.36,46.38,12.62,0.94,0.64,0.00,0.00,0.08,0.08,0.00,0.08,0.08,131.53,31.74,5.13,0.71,0.13,0.13
2018/06/07T21:43:23z,2c:3a:e8:34:ff:93,2.50i,2.0+OPENLOG+15833 MB+DS3231+BME280+PMSX003A+PMSX003B,83,21,39.05,1009.77,0.00,29944,31,1547,0.13,0.28,0.93,0.13,0.28,0.93,173.22,46.96,10.52,1.63,1.11,0.00,0.00,0.08,0.36,0.00,0.08,0.36,153.50,38.33,4.03,0.47,0.47,0.47
2018/06/07T21:44:43z,2c:3a:e8:34:ff:93,2.50i,2.0+OPENLOG+15833 MB+DS3231+BME280+PMSX003A+PMSX003B,83,21,39.05,1009.71,0.00,29696,31,1627,0.13,0.30,1.21,0.13,0.30,1.21,144.89,42.13,12.13,3.06,1.57,0.26,0.00,0.51,0.78,0.00,0.51,0.78,149.43,37.38,9.19,0.97,0.30,0.47
2018/06/07T21:46:03z,2c:3a:e8:34:ff:93,2.50i,2.0+OPENLOG+15833 MB+DS3231+BME280+PMSX003A+PMSX003B,83,21,39.05,1009.74,0.00,29696,31,1707,0.13,0.13,0.33,0.13,0.13,0.33,106.96,31.76,9.17,1.15,0.26,0.26,0.00,0.05,0.05,0.00,0.05,0.05,124.42,29.74,5.24,0.87,0.30,0.47
2018/06/07T21:47:23z,2c:3a:e8:34:ff:93,2.50i,2.0+OPENLOG+15833 MB+DS3231+BME280+PMSX003A+PMSX003B,83,21,39.05,1009.72,0.00,30128,31,1787,0.13,0.33,0.50,0.13,0.33,0.50,116.15,30.67,9.93,1.52,0.26,0.26,0.21,0.21,0.21,0.21,0.21,0.21,163.34,48.50,8.92,0.61,0.30,0.47
2018/06/07T21:48:43z,2c:3a:e8:34:ff:93,2.50i,2.0+OPENLOG+15833 MB+DS3231+BME280+PMSX003A+PMSX003B,83,21,39.05,1009.73,0.00,30128,31,1867,0.13,0.24,0.50,0.13,0.24,0.50,145.50,40.83,9.83,1.04,0.26,0.26,0.21,0.22,0.22,0.21,0.22,0.22,154.92,43.11,11.72,0.39,0.30,0.47
2018/06/07T21:50:03z,2c:3a:e8:34:ff:93,2.50i,2.0+OPENLOG+15833 MB+DS3231+BME280+PMSX003A+PMSX003B,83,21,39.05,1009.73,0.00,29592,31,1947,0.04,0.22,0.43,0.04,0.22,0.43,135.65,40.78,7.85,1.04,0.28,0.26,0.21,0.37,0.89,0.21,0.37,0.89,112.66,29.47,9.89,1.32,0.53,0.34
2018/06/07T21:51:23z,2c:3a:e8:34:ff:93,2.50i,2.0+OPENLOG+15833 MB+DS3231+BME280+PMSX003A+PMSX003B,83,21,39.05,1009.72,0.00,29696,31,2027,0.04,0.19,0.62,0.04,0.19,0.62,102.89,28.85,5.62,1.91,0.53,0.26,0.21,0.37,0.89,0.21,0.37,0.89,97.66,24.66,7.24,0.50,0.53,0.34
2018/06/07T21:52:43z,2c:3a:e8:34:ff:93,2.50i,2.0+OPENLOG+15833 MB+DS3231+BME280+PMSX003A+PMSX003B,83,21,39.05,1009.74,0.00,30128,31,2107,0.02,0.02,0.65,0.02,0.02,0.65,128.74,39.20,6.57,1.50,1.17,0.26,0.21,0.08,0.08,0.21,0.08,0.08,110.19,26.59,3.86,0.68,0.53,0.34
2018/06/07T21:54:03z,2c:3a:e8:34:ff:93,2.50i,2.0+OPENLOG+15833 MB+DS3231+BME280+PMSX003A+PMSX003B,83,21,39.05,1009.76,0.00,30128,31,2187,0.02,0.11,0.21,0.02,0.11,0.21,119.43,35.57,6.66,0.83,1.17,0.26,0.21,0.14,0.14,0.21,0.14,0.14,91.46,24.62,6.41,0.81,0.53,0.34
2018/06/07T21:55:23z,2c:3a:e8:34:ff:93,2.50i,2.0+OPENLOG+15833 MB+DS3231+BME280+PMSX003A+PMSX003B,83,21,39.05,1009.77,0.00,29640,31,2267,0.02,0.30,0.30,0.02,0.30,0.30,118.11,36.76,11.76,1.65,1.17,0.26,0.11,0.41,0.51,0.11,0.41,0.51,176.84,48.62,8.95,0.95,0.53,0.34
2018/06/07T21:57:06z,2c:3a:e8:34:ff:93,2.50i,2.0+OPENLOG+15833 MB+DS3231+BME280+PMSX003A+PMSX003B,83,21,39.05,1009.72,0.00,29672,31,23,0.00,0.00,0.00,0.00,0.00,0.00,0.00,0.00,0.00,0.00,0.00,0.00,0.00,0.00,0.00,0.00,0.00,0.00,0.00,0.00,0.00,0.00,0.00,0.00
2018/06/07T21:58:21z,2c:3a:e8:34:ff:93,2.50i,2.0+OPENLOG+15833 MB+DS3231+BME280+PMSX003A+PMSX003B,83,21,39.05,1009.72,0.00,30128,31,97,0.00,0.22,0.44,0.00,0.22,0.44,77.49,22.44,6.61,1.22,0.15,0.00,0.00,0.00,0.00,0.00,0.00,0.00,102.58,26.67,4.86,0.67,0.67,0.33
2018/06/07T21:59:41z,2c:3a:e8:34:ff:93,2.50i,2.0+OPENLOG+15833 MB+DS3231+BME280+PMSX003A+PMSX003B,83,21,39.05,1009.65,0.00,30128,31,177,0.00,0.39,0.46,0.00,0.39,0.46,98.80,30.13,9.83,1.70,0.26,0.00,0.00,0.14,0.14,0.00,0.14,0.14,118.86,30.97,9.11,0.76,0.67,0.33
2018/06/07T22:01:01z,2c:3a:e8:34:ff:93,2.50i,2.0+OPENLOG+15833 MB+DS3231+BME280+PMSX003A+PMSX003B,83,21,39.05,1009.62,0.00,30128,31,257,0.00,0.04,0.04,0.00,0.04,0.04,93.59,30.54,5.65,0.89,0.41,0.00,0.00,0.14,0.11,0.00,0.14,0.11,102.73,23.49,5.92,0.62,0.32,0.32
2018/06/07T22:02:21z,2c:3a:e8:34:ff:93,2.50i,2.0+OPENLOG+15833 MB+DS3231+BME280+PMSX003A+PMSX003B,83,21,39.05,1009.63,0.00,29696,31,337,0.00,0.06,0.40,0.00,0.06,0.40,80.81,26.13,8.55,0.72,0.32,0.00,0.00,0.14,0.08,0.00,0.14,0.08,104.43,28.11,10.46,0.68,0.32,0.32
2018/06/07T22:03:41z,2c:3a:e8:34:ff:93,2.50i,2.0+OPENLOG+15833 MB+DS3231+BME280+PMSX003A+PMSX003B,83,21,39.05,1009.59,0.00,29696,31,417,0.00,0.06,0.33,0.00,0.06,0.33,85.89,23.78,4.96,1.80,0.32,0.00,0.00,0.47,0.55,0.00,0.47,0.55,127.42,27.92,8.82,1.16,0.47,0.32
2018/06/07T22:05:01z,2c:3a:e8:34:ff:93,2.50i,2.0+OPENLOG+15833 MB+DS3231+BME280+PMSX003A+PMSX003B,83,21,39.05,1009.63,0.00,30128,31,497,0.00,0.06,0.30,0.00,0.06,0.30,87.46,25.33,7.22,0.87,0.37,0.00,0.00,0.47,0.16,0.00,0.47,0.16,114.24,31.30,7.57,1.03,0.35,0.32
2018/06/07T22:06:21z,2c:3a:e8:34:ff:93,2.50i,2.0+OPENLOG+15833 MB+DS3231+BME280+PMSX003A+PMSX003B,83,21,39.05,1009.61,0.00,29944,31,577,0.00,0.06,0.30,0.00,0.06,0.30,107.61,30.76,5.02,1.50,0.37,0.00,0.00,0.41,1.22,0.00,0.41,1.22,108.73,29.05,10.16,2.35,1.38,0.73
2018/06/07T22:07:41z,2c:3a:e8:34:ff:93,2.50i,2.0+OPENLOG+15833 MB+DS3231+BME280+PMSX003A+PMSX003B,83,21,39.05,1009.54,0.00,29696,31,657,0.00,0.37,0.67,0.00,0.37,0.67,123.91,34.17,10.30,0.41,0.41,0.30,0.00,0.03,0.46,0.00,0.03,0.46,125.59,32.22,9.62,1.24,0.35,0.35
2018/06/07T22:09:01z,2c:3a:e8:34:ff:93,2.50i,2.0+OPENLOG+15833 MB+DS3231+BME280+PMSX003A+PMSX003B,83,21,39.05,1009.57,0.00,29696,31,737,0.00,0.33,0.98,0.00,0.33,0.98,106.50,31.04,8.20,1.87,0.83,0.30,0.00,0.24,0.74,0.00,0.24,0.74,135.79,36.32,10.05,0.61,0.61,0.35
2018/06/07T22:10:21z,2c:3a:e8:34:ff:93,2.50i,2.0+OPENLOG+15833 MB+DS3231+BME280+PMSX003A+PMSX003B,83,21,39.05,1009.57,0.00,30128,31,817,0.00,0.07,0.20,0.00,0.07,0.20,111.26,30.57,8.61,0.91,0.37,0.30,0.00,0.13,0.45,0.00,0.13,0.45,111.16,29.89,6.21,0.66,0.55,0.18
2018/06/07T22:11:41z,2c:3a:e8:34:ff:93,2.50i,2.0+OPENLOG+15833 MB+DS3231+BME280+PMSX003A+PMSX003B,83,21,39.05,1009.61,0.00,30128,31,897,0.00,0.26,0.34,0.00,0.26,0.34,90.64,29.06,7.47,0.89,0.23,0.30,0.00,0.08,0.32,0.00,0.08,0.32,100.86,28.43,5.59,0.81,0.08,0.08
2018/06/07T22:13:01z,2c:3a:e8:34:ff:93,2.50i,2.0+OPENLOG+15833 MB+DS3231+BME280+PMSX003A+PMSX003B,83,21,39.05,1009.62,0.00,29640,31,977,0.00,0.26,0.72,0.00,0.26,0.72,113.11,34.21,8.26,1.98,0.51,0.30,0.00,0.08,0.08,0.00,0.08,0.08,134.83,37.81,6.14,0.17,0.08,0.08
2018/06/07T22:14:21z,2c:3a:e8:34:ff:93,2.50i,2.0+OPENLOG+15833 MB+DS3231+BME280+PMSX003A+PMSX003B,83,21,39.05,1009.67,0.00,29592,31,1057,0.00,0.45,0.96,0.00,0.45,0.96,139.34,40.57,9.74,0.81,0.77,0.38,0.00,0.08,0.08,0.00,0.08,0.08,94.97,26.00,3.00,0.76,0.08,0.08
2018/06/07T22:15:41z,2c:3a:e8:34:ff:93,2.50i,2.0+OPENLOG+15833 MB+DS3231+BME280+PMSX003A+PMSX003B,83,21,39.05,1009.66,0.00,29672,31,1137,0.00,0.45,0.17,0.00,0.45,0.17,108.65,31.74,4.37,0.39,0.77,0.38,0.00,0.08,0.08,0.00,0.08,0.08,99.55,26.11,4.89,0.58,0.08,0.08
2018/06/07T22:17:01z,2c:3a:e8:34:ff:93,2.50i,2.0+OPENLOG+15833 MB+DS3231+BME280+PMSX003A+PMSX003B,83,21,39.05,1009.57,0.00,30128,31,1217,0.00,0.33,0.63,0.00,0.33,0.63,100.70,30.70,6.93,2.43,0.35,0.38,0.00,0.08,0.14,0.00,0.08,0.14,76.54,21.32,7.30,1.00,0.59,0.08
2018/06/07T22:18:21z,2c:3a:e8:34:ff:93,2.50i,2.0+OPENLOG+15833 MB+DS3231+BME280+PMSX003A+PMSX003B,83,21,39.05,1009.65,0.00,30128,31,1297,0.16,0.20,0.40,0.16,0.20,0.40,125.87,38.58,7.64,1.13,0.35,0.38,0.00,0.11,0.11,0.00,0.11,0.11,102.73,31.03,7.95,0.32,0.59,0.08
2018/06/07T22:19:41z,2c:3a:e8:34:ff:93,2.50i,2.0+OPENLOG+15833 MB+DS3231+BME280+PMSX003A+PMSX003B,83,21,39.05,1009.65,0.00,29592,31,1377,0.16,0.20,0.20,0.16,0.20,0.20,91.96,25.46,5.98,0.59,0.35,0.38,0.00,0.11,0.05,0.00,0.11,0.05,100.97,28.11,2.61,0.13,0.13,0.08
2018/06/07T22:21:01z,2c:3a:e8:34:ff:93,2.50i,2.0+OPENLOG+15833 MB+DS3231+BME280+PMSX003A+PMSX003B,83,21,39.05,1009.61,0.00,29672,31,1457,0.16,0.20,0.19,0.16,0.20,0.19,88.85,27.47,5.51,0.91,0.35,0.38,0.00,0.11,0.05,0.00,0.11,0.05,65.61,20.08,5.03,0.05,0.05,0.08
2018/06/07T22:22:21z,2c:3a:e8:34:ff:93,2.50i,2.0+OPENLOG+15833 MB+DS3231+BME280+PMSX003A+PMSX003B,83,21,39.05,1009.61,0.00,30128,31,1537,0.16,0.32,0.87,0.16,0.32,0.87,69.32,21.17,8.53,2.36,0.36,0.38,0.00,0.11,0.05,0.00,0.11,0.05,81.79,21.45,5.53,0.05,0.05,0.08
2018/06/07T22:23:41z,2c:3a:e8:34:ff:93,2.50i,2.0+OPENLOG+15833 MB+DS3231+BME280+PMSX003A+PMSX003B,83,21,39.05,1009.65,0.00,30128,31,1617,0.16,0.13,0.30,0.16,0.13,0.30,72.70,20.55,5.02,1.11,0.26,0.38,0.00,0.03,0.03,0.00,0.03,0.03,122.00,29.25,7.94,0.05,0.05,0.08
2018/06/07T22:25:01z,2c:3a:e8:34:ff:93,2.50i,2.0+OPENLOG+15833 MB+DS3231+BME280+PMSX003A+PMSX003B,83,21,39.05,1009.59,0.00,29696,31,1697,0.16,0.17,0.24,0.16,0.17,0.24,138.59,37.54,8.93,1.07,0.26,0.38,0.00,0.03,0.86,0.00,0.03,0.86,92.27,24.14,6.54,2.22,1.46,0.49
2018/06/07T22:26:21z,2c:3a:e8:34:ff:93,2.50i,2.0+OPENLOG+15833 MB+DS3231+BME280+PMSX003A+PMSX003B,83,21,39.05,1009.61,0.00,29512,31,1777,0.16,0.17,0.24,0.16,0.17,0.24,73.96,20.37,4.33,0.63,0.26,0.38,0.00,0.03,0.05,0.00,0.03,0.05,65.05,16.53,4.42,0.53,0.53,0.49
2018/06/07T22:27:41z,2c:3a:e8:34:ff:93,2.50i,2.0+OPENLOG+15833 MB+DS3231+BME280+PMSX003A+PMSX003B,83,20,37.80,1009.51,0.00,30128,31,1857,0.16,0.17,0.30,0.16,0.17,0.30,71.67,20.28,6.52,1.80,0.46,0.38,0.00,0.03,0.08,0.00,0.03,0.08,98.68,25.82,7.05,0.87,0.29,0.49
2018/06/07T22:29:01z,2c:3a:e8:34:ff:93,2.50i,2.0+OPENLOG+15833 MB+DS3231+BME280+PMSX003A+PMSX003B,83,20,37.80,1009.49,0.00,30128,31,1937,0.16,0.23,0.72,0.16,0.23,0.72,82.53,26.11,8.77,1.79,0.64,0.38,0.00,0.03,0.08,0.00,0.03,0.08,90.97,24.27,3.24,0.49,0.29,0.49
2018/06/07T22:30:21z,2c:3a:e8:34:ff:93,2.50i,2.0+OPENLOG+15833 MB+DS3231+BME280+PMSX003A+PMSX003B,83,20,37.80,1009.53,0.00,29384,31,2017,0.16,0.32,0.32,0.16,0.32,0.32,96.64,28.66,10.57,1.17,0.26,0.38,0.00,0.41,0.57,0.00,0.41,0.57,116.76,33.70,11.43,1.19,0.16,0.49
2018/06/07T22:31:41z,2c:3a:e8:34:ff:93,2.50i,2.0+OPENLOG+15833 MB+DS3231+BME280+PMSX003A+PMSX003B,83,21,39.05,1009.54,0.00,29696,31,2097,0.16,0.23,0.57,0.16,0.23,0.57,95.81,28.11,7.85,0.60,0.45,0.38,0.00,0.53,0.63,0.00,0.53,0.63,136.82,38.39,8.58,0.63,0.05,0.49
2018/06/07T22:33:01z,2c:3a:e8:34:ff:93,2.50i,2.0+OPENLOG+15833 MB+DS3231+BME280+PMSX003A+PMSX003B,83,20,37.80,1009.52,0.00,30128,31,2177,0.16,0.23,0.13,0.16,0.23,0.13,73.50,20.43,4.85,0.87,0.24,0.38,0.00,0.14,0.22,0.00,0.14,0.22,105.65,25.08,7.41,1.03,0.32,0.32
2018/06/07T22:34:21z,2c:3a:e8:34:ff:93,2.50i,2.0+OPENLOG+15833 MB+DS3231+BME280+PMSX003A+PMSX003B,83,20,37.80,1009.52,0.00,30128,31,2257,0.16,0.23,0.13,0.16,0.23,0.13,77.09,23.09,5.63,0.52,0.52,0.38,0.00,0.14,0.22,0.00,0.14,0.22,119.19,34.08,9.14,1.32,0.86,0.32
2018/06/07T22:36:09z,2c:3a:e8:34:ff:93,2.50i,2.0+OPENLOG+15833 MB+DS3231+BME280+PMSX003A+PMSX003B,83,21,39.05,1009.52,0.00,29672,31,28,0.00,0.00,0.00,0.00,0.00,0.00,0.00,0.00,0.00,0.00,0.00,0.00,0.00,0.00,0.00,0.00,0.00,0.00,0.00,0.00,0.00,0.00,0.00,0.00
2018/06/07T22:37:29z,2c:3a:e8:34:ff:93,2.50i,2.0+OPENLOG+15833 MB+DS3231+BME280+PMSX003A+PMSX003B,83,20,37.80,1009.53,0.00,30128,31,107,0.00,0.07,0.27,0.00,0.07,0.27,70.13,19.09,6.31,0.69,0.31,0.00,0.00,0.16,0.16,0.00,0.16,0.16,81.49,20.05,4.16,0.24,0.00,0.00
2018/06/07T22:38:49z,2c:3a:e8:34:ff:93,2.50i,2.0+OPENLOG+15833 MB+DS3231+BME280+PMSX003A+PMSX003B,83,20,37.80,1009.49,0.00,29640,31,187,0.00,0.07,0.47,0.00,0.07,0.47,87.64,25.04,8.87,1.64,0.40,0.00,0.00,0.03,0.30,0.00,0.03,0.30,78.97,22.00,6.03,1.19,0.35,0.35
2018/06/07T22:40:09z,2c:3a:e8:34:ff:93,2.50i,2.0+OPENLOG+15833 MB+DS3231+BME280+PMSX003A+PMSX003B,83,20,37.80,1009.52,0.00,29696,31,267,0.00,0.07,0.28,0.00,0.07,0.28,60.85,16.70,3.70,0.85,0.28,0.00,0.00,0.47,0.68,0.00,0.47,0.68,99.47,28.82,9.76,1.92,0.29,0.29
2018/06/07T22:41:29z,2c:3a:e8:34:ff:93,2.50i,2.0+OPENLOG+15833 MB+DS3231+BME280+PMSX003A+PMSX003B,83,20,37.80,1009.51,0.00,29672,31,347,0.00,0.07,0.13,0.00,0.07,0.13,65.09,18.48,4.83,1.83,0.33,0.00,0.00,0.47,0.68,0.00,0.47,0.68,61.42,16.18,3.92,1.92,0.29,0.29
2018/06/07T22:42:49z,2c:3a:e8:34:ff:93,2.50i,2.0+OPENLOG+15833 MB+DS3231+BME280+PMSX003A+PMSX003B,83,20,37.80,1009.48,0.00,30128,31,427,0.00,0.09,0.09,0.00,0.09,0.09,89.74,26.57,6.59,1.02,0.33,0.00,0.00,0.47,0.24,0.00,0.47,0.24,66.65,19.41,8.41,0.84,0.35,0.29
2018/06/07T22:44:09z,2c:3a:e8:34:ff:93,2.50i,2.0+OPENLOG+15833 MB+DS3231+BME280+PMSX003A+PMSX003B,83,20,37.80,1009.52,0.00,30128,31,507,0.00,0.09,0.09,0.00,0.09,0.09,91.63,28.63,6.59,0.37,0.33,0.00,0.00,0.47,0.24,0.00,0.47,0.24,81.65,22.24,4.97,0.84,0.35,0.29
2018/06/07T22:45:29z,2c:3a:e8:34:ff:93,2.50i,2.0+OPENLOG+15833 MB+DS3231+BME280+PMSX003A+PMSX003B,83,20,37.80,1009.52,0.00,29696,31,587,0.00,0.09,0.35,0.00,0.09,0.35,75.59,21.91,6.07,1.61,0.33,0.00,0.00,0.47,0.35,0.00,0.47,0.35,78.16,17.22,4.38,1.00,0.68,0.27
2018/06/07T22:46:49z,2c:3a:e8:34:ff:93,2.50i,2.0+OPENLOG+15833 MB+DS3231+BME280+PMSX003A+PMSX003B,83,20,37.80,1009.49,0.00,29672,31,667,0.00,0.09,0.17,0.00,0.09,0.17,61.89,17.28,4.93,1.54,0.24,0.00,0.00,0.47,0.55,0.00,0.47,0.55,78.16,18.84,3.76,1.63,0.63,0.32
2018/06/07T22:48:09z,2c:3a:e8:34:ff:93,2.50i,2.0+OPENLOG+15833 MB+DS3231+BME280+PMSX003A+PMSX003B,83,26,44.59,1009.48,0.00,30128,31,747,1.36,1.72,1.72,1.36,1.72,1.72,354.70,99.70,11.34,0.53,0.26,0.00,1.30,1.84,2.00,1.30,1.84,2.00,1091.19,125.89,10.78,1.32,0.63,0.32
2018/06/07T22:49:29z,2c:3a:e8:34:ff:93,2.50i,2.0+OPENLOG+15833 MB+DS3231+BME280+PMSX003A+PMSX003B,83,27,45.59,1009.50,0.00,30128,31,827,2.13,2.72,3.04,2.13,2.72,3.04,511.66,149.11,14.85,0.74,0.40,0.00,2.24,3.41,3.95,2.24,3.41,3.95,619.54,163.92,24.54,1.76,0.70,0.38
2018/06/07T22:50:49z,2c:3a:e8:34:ff:93,2.50i,2.0+OPENLOG+15833 MB+DS3231+BME280+PMSX003A+PMSX003B,83,27,45.59,1009.53,0.00,29592,31,907,1.76,2.61,2.61,1.76,2.61,2.61,498.07,146.93,16.15,1.11,0.40,0.00,2.97,3.32,3.32,2.97,3.32,3.32,704.27,188.19,12.51,0.43,0.70,0.38
2018/06/07T22:52:09z,2c:3a:e8:34:ff:93,2.50i,2.0+OPENLOG+15833 MB+DS3231+BME280+PMSX003A+PMSX003B,83,28,46.55,1009.54,0.00,29592,31,987,2.37,3.26,3.26,2.37,3.26,3.26,559.17,163.11,21.85,1.07,0.40,0.00,2.59,4.03,4.18,2.59,4.03,4.18,710.00,192.46,21.31,1.49,0.70,0.38
2018/06/07T22:53:29z,2c:3a:e8:34:ff:93,2.50i,2.0+OPENLOG+15833 MB+DS3231+BME280+PMSX003A+PMSX003B,83,28,46.55,1009.54,0.00,30128,31,1067,2.67,3.22,3.22,2.67,3.22,3.22,563.27,161.67,21.16,1.07,0.40,0.00,2.24,3.65,4.16,2.24,3.65,4.16,676.46,182.81,28.76,1.00,0.76,0.38
2018/06/07T22:54:49z,2c:3a:e8:34:ff:93,2.50i,2.0+OPENLOG+15833 MB+DS3231+BME280+PMSX003A+PMSX003B,83,28,46.55,1009.50,0.00,30128,31,1147,2.15,3.09,3.09,2.15,3.09,3.09,570.46,162.76,13.93,0.13,0.40,0.00,2.03,3.16,3.16,2.03,3.16,3.16,602.84,153.46,20.73,0.32,0.76,0.38
2018/06/07T22:56:09z,2c:3a:e8:34:ff:93,2.50i,2.0+OPENLOG+15833 MB+DS3231+BME280+PMSX003A+PMSX003B,83,28,46.55,1009.83,0.00,29640,31,1227,165.81,200.62,202.75,110.42,133.85,135.37,25971.56,7837.62,880.50,20.88,1.71,0.00,125.64,163.05,166.97,83.77,108.85,111.69,20305.69,5916.23,845.59,25.74,4.74,0.18
2018/06/07T22:57:29z,2c:3a:e8:34:ff:93,2.50i,2.0+OPENLOG+15833 MB+DS3231+BME280+PMSX003A+PMSX003B,83,24,42.50,1009.80,0.00,29592,31,1307,320.50,391.15,402.27,212.81,259.94,267.37,51427.50,15355.87,1687.38,57.94,8.88,0.62,352.21,432.95,441.08,234.10,287.95,293.38,57761.23,16736.38,1836.54,52.77,9.69,2.23
2018/06/07T22:58:49z,2c:3a:e8:34:ff:93,2.50i,2.0+OPENLOG+15833 MB+DS3231+BME280+PMSX003A+PMSX003B,83,19,36.50,1009.76,0.00,29672,31,1387,226.25,275.23,283.42,150.27,182.79,188.29,37477.00,10981.52,1116.96,48.98,9.19,0.35,251.51,306.90,312.67,166.90,204.03,207.82,43907.69,12250.05,1216.95,45.72,5.64,0.72
2018/06/07T23:00:09z,2c:3a:e8:34:ff:93,2.50i,2.0+OPENLOG+15833 MB+DS3231+BME280+PMSX003A+PMSX003B,83,16,32.19,1009.39,0.00,30128,31,1467,138.14,166.93,172.91,91.32,110.52,114.43,23600.52,6849.66,647.45,30.89,6.43,0.39,159.72,191.92,196.86,105.78,127.14,130.53,29151.08,7910.00,698.50,27.69,6.83,1.03
2018/06/07T23:01:29z,2c:3a:e8:34:ff:93,2.50i,2.0+OPENLOG+15833 MB+DS3231+BME280+PMSX003A+PMSX003B,83,16,32.19,1009.34,0.00,30128,31,1547,120.75,149.52,157.39,79.59,98.82,104.14,20874.89,6013.34,637.09,38.48,8.75,0.16,133.34,162.34,168.50,88.11,107.45,111.61,24666.08,6672.29,617.42,25.71,8.00,2.03
2018/06/07T23:02:49z,2c:3a:e8:34:ff:93,2.50i,2.0+OPENLOG+15833 MB+DS3231+BME280+PMSX003A+PMSX003B,83,16,32.19,1009.33,0.00,29384,31,1627,118.62,148.04,155.24,78.33,97.80,102.76,20661.13,5949.89,631.58,37.18,6.49,0.18,130.78,164.75,171.42,86.28,108.94,113.31,24536.17,6620.64,657.11,37.97,9.03,3.25
2018/06/07T23:04:09z,2c:3a:e8:34:ff:93,2.50i,2.0+OPENLOG+15833 MB+DS3231+BME280+PMSX003A+PMSX003B,83,16,32.19,1009.36,0.00,29696,31,1707,112.76,144.17,152.28,74.46,95.20,100.78,19739.61,5691.30,631.61,43.52,9.46,0.33,123.43,155.54,161.14,81.70,103.00,106.68,22899.49,6165.22,622.11,38.62,6.70,2.41
2018/06/07T23:05:29z,2c:3a:e8:34:ff:93,2.50i,2.0+OPENLOG+15833 MB+DS3231+BME280+PMSX003A+PMSX003B,83,16,32.19,1009.41,0.00,30128,31,1787,108.09,140.26,147.54,71.33,92.76,97.54,18952.17,5461.07,645.67,42.39,7.13,0.33,121.09,153.46,161.74,80.00,101.69,107.14,22522.63,6077.60,637.17,41.14,9.40,1.97
2018/06/07T23:06:49z,2c:3a:e8:34:ff:93,2.50i,2.0+OPENLOG+15833 MB+DS3231+BME280+PMSX003A+PMSX003B,83,16,32.19,1009.44,0.00,30128,31,1867,103.84,133.61,142.75,68.39,88.27,94.23,18224.18,5241.05,600.39,41.91,9.20,0.33,112.36,146.03,153.64,74.03,96.44,101.47,21137.08,5693.78,633.69,40.94,9.19,0.86
2018/06/07T23:08:09z,2c:3a:e8:34:ff:93,2.50i,2.0+OPENLOG+15833 MB+DS3231+BME280+PMSX003A+PMSX003B,83,16,32.19,1009.40,0.00,29384,31,1947,99.06,126.17,135.32,65.40,83.47,89.57,17136.70,4964.68,576.26,43.79,10.00,0.74,108.03,139.54,145.23,71.06,92.06,95.91,20563.54,5511.63,593.97,32.31,6.91,1.06
2018/06/07T23:09:29z,2c:3a:e8:34:ff:93,2.50i,2.0+OPENLOG+15833 MB+DS3231+BME280+PMSX003A+PMSX003B,83,16,32.19,1009.28,0.00,29696,31,2027,94.27,124.53,131.00,62.09,82.40,86.58,16504.40,4777.02,580.24,40.24,6.71,0.16,105.11,136.49,141.68,69.19,90.27,93.70,19706.59,5284.84,583.22,38.35,7.59,2.46
2018/06/07T23:10:49z,2c:3a:e8:34:ff:93,2.50i,2.0+OPENLOG+15833 MB+DS3231+BME280+PMSX003A+PMSX003B,83,16,32.19,1009.22,0.00,30128,31,2107,90.00,119.11,128.49,59.09,78.53,84.70,15961.85,4608.13,563.11,49.09,8.51,0.38,101.64,133.78,143.78,67.00,88.47,95.22,18995.75,5132.50,602.64,43.83,13.39,4.11
2018/06/07T23:12:09z,2c:3a:e8:34:ff:93,2.50i,2.0+OPENLOG+15833 MB+DS3231+BME280+PMSX003A+PMSX003B,83,16,32.19,1009.26,0.00,30128,31,2187,87.20,117.93,129.27,57.40,77.93,85.53,15349.47,4435.93,592.98,52.80,12.51,0.22,94.49,126.22,132.70,62.32,83.43,87.76,17963.03,4820.11,595.54,39.08,7.32,3.16
2018/06/07T23:13:29z,2c:3a:e8:34:ff:93,2.50i,2.0+OPENLOG+15833 MB+DS3231+BME280+PMSX003A+PMSX003B,84,16,32.99,1009.26,0.00,30128,31,2267,81.42,110.20,118.82,53.44,72.84,79.60,14339.47,4149.62,540.24,44.56,7.93,0.40,92.68,120.68,127.24,61.03,79.87,84.08,17300.76,4653.45,524.13,39.05,9.24,1.34
2018/06/07T23:15:12z,2c:3a:e8:34:ff:93,2.50i,2.0+OPENLOG+15833 MB+DS3231+BME280+PMSX003A+PMSX003B,84,16,32.99,1009.34,0.00,29672,31,23,54.00,82.00,86.00,35.00,54.00,67.00,0.00,0.00,0.00,0.00,0.00,0.00,56.00,72.00,72.00,37.00,50.00,61.00,0.00,0.00,0.00,0.00,0.00,0.00
2018/06/07T23:16:26z,2c:3a:e8:34:ff:93,2.50i,2.0+OPENLOG+15833 MB+DS3231+BME280+PMSX003A+PMSX003B,84,16,32.99,1009.34,0.00,30128,31,97,74.63,99.05,107.29,48.93,65.34,75.10,12735.51,3675.61,483.83,36.83,8.34,0.54,80.76,110.18,117.76,52.88,72.62,79.06,15447.35,4162.35,524.09,36.79,10.35,1.59
2018/06/07T23:17:46z,2c:3a:e8:34:ff:93,2.50i,2.0+OPENLOG+15833 MB+DS3231+BME280+PMSX003A+PMSX003B,84,16,32.99,1009.39,0.00,30128,31,177,70.20,97.02,105.23,46.14,63.82,74.25,12667.98,3651.59,495.41,43.70,9.05,0.34,76.61,103.76,110.00,50.29,68.37,75.76,14659.97,3955.84,493.11,33.66,7.63,2.13
2018/06/07T23:19:06z,2c:3a:e8:34:ff:93,2.50i,2.0+OPENLOG+15833 MB+DS3231+BME280+PMSX003A+PMSX003B,84,17,34.51,1009.39,0.00,30128,31,257,68.31,93.80,102.00,44.84,61.89,73.47,12077.20,3488.89,480.73,40.07,8.78,0.34,73.94,99.40,107.06,48.51,65.34,74.91,14258.91,3795.23,460.69,38.11,10.29,2.77
2018/06/07T23:20:26z,2c:3a:e8:34:ff:93,2.50i,2.0+OPENLOG+15833 MB+DS3231+BME280+PMSX003A+PMSX003B,84,17,34.51,1009.31,0.00,29696,31,337,64.36,90.67,99.04,42.36,59.89,72.20,11585.73,3341.40,474.69,45.58,6.51,0.22,70.81,97.47,105.53,46.58,64.25,74.78,13517.83,3635.94,465.69,39.86,10.83,3.89
2018/06/07T23:21:46z,2c:3a:e8:34:ff:93,2.50i,2.0+OPENLOG+15833 MB+DS3231+BME280+PMSX003A+PMSX003B,84,17,34.51,1009.35,0.00,29696,31,417,61.32,83.77,92.43,40.09,55.17,69.55,10920.00,3138.60,417.57,41.47,8.83,0.40,68.58,95.11,101.05,44.89,62.68,73.03,13200.95,3556.16,444.84,35.97,7.84,2.47
2018/06/07T23:23:06z,2c:3a:e8:34:ff:93,2.50i,2.0+OPENLOG+15833 MB+DS3231+BME280+PMSX003A+PMSX003B,84,17,34.51,1009.35,0.00,30128,31,497,59.11,81.76,91.40,38.62,53.87,69.31,10468.47,3041.93,433.84,41.69,10.47,0.53,65.75,87.06,92.61,43.22,57.31,69.81,12663.67,3368.47,396.75,25.61,7.31,1.31
2018/06/07T23:24:26z,2c:3a:e8:34:ff:93,2.50i,2.0+OPENLOG+15833 MB+DS3231+BME280+PMSX003A+PMSX003B,84,17,34.51,1009.34,0.00,30128,31,577,56.98,78.46,86.22,37.33,52.43,66.98,10148.87,2910.13,416.52,36.46,8.20,0.72,61.13,84.45,90.74,40.13,55.68,68.87,11714.84,3153.79,410.82,31.84,6.87,1.89
2018/06/07T23:25:46z,2c:3a:e8:34:ff:93,2.50i,2.0+OPENLOG+15833 MB+DS3231+BME280+PMSX003A+PMSX003B,84,17,34.51,1009.32,0.00,29640,31,657,53.24,75.31,82.49,34.98,51.42,65.44,9625.27,2762.11,402.22,37.47,7.49,0.36,59.86,82.51,89.49,39.24,54.54,68.46,11533.95,3105.19,407.57,30.73,9.57,2.62
2018/06/07T23:27:06z,2c:3a:e8:34:ff:93,2.50i,2.0+OPENLOG+15833 MB+DS3231+BME280+PMSX003A+PMSX003B,84,17,34.51,1009.31,0.00,29696,31,737,52.33,72.89,81.15,34.78,50.63,64.67,9330.78,2703.11,393.54,37.46,8.48,0.41,56.92,78.61,87.86,37.25,52.42,67.58,11042.08,2975.19,383.94,33.67,12.50,3.50
2018/06/07T23:28:26z,2c:3a:e8:34:ff:93,2.50i,2.0+OPENLOG+15833 MB+DS3231+BME280+PMSX003A+PMSX003B,84,17,34.51,1009.29,0.00,30128,31,817,48.53,68.98,74.76,33.51,49.07,61.93,8797.20,2513.82,360.82,37.16,3.87,0.09,55.14,75.59,82.00,36.11,51.46,65.05,10470.65,2830.65,381.35,29.38,8.59,1.41
2018/06/07T23:29:46z,2c:3a:e8:34:ff:93,2.50i,2.0+OPENLOG+15833 MB+DS3231+BME280+PMSX003A+PMSX003B,84,17,34.51,1009.35,0.00,30128,31,897,47.49,67.09,72.60,33.11,48.42,60.87,8490.53,2461.76,370.27,26.16,5.80,0.22,51.86,70.36,74.44,34.56,49.31,61.56,9987.83,2662.19,338.22,23.00,4.67,1.11
2018/06/07T23:31:06z,2c:3a:e8:34:ff:93,2.50i,2.0+OPENLOG+15833 MB+DS3231+BME280+PMSX003A+PMSX003B,84,17,34.51,1009.32,0.00,29640,31,977,46.02,63.80,68.63,32.35,46.78,58.43,8322.39,2396.43,342.48,24.59,4.41,0.13,48.34,68.32,74.76,32.84,48.26,61.37,9558.16,2535.95,355.29,31.68,8.58,2.55
2018/06/07T23:32:26z,2c:3a:e8:34:ff:93,2.50i,2.0+OPENLOG+15833 MB+DS3231+BME280+PMSX003A+PMSX003B,84,17,34.51,1009.34,0.00,29592,31,1057,42.66,60.53,65.91,30.91,45.45,56.91,7701.00,2235.47,316.98,30.89,5.04,0.34,47.89,67.35,75.73,32.97,48.30,62.03,9317.84,2491.05,342.84,35.76,11.84,3.11
2018/06/07T23:33:46z,2c:3a:e8:34:ff:93,2.50i,2.0+OPENLOG+15833 MB+DS3231+BME280+PMSX003A+PMSX003B,84,17,34.51,1009.37,0.00,29672,31,1137,40.98,57.87,64.00,30.29,44.51,56.07,7515.20,2156.69,316.91,27.73,5.56,0.42,46.61,62.79,68.18,32.55,46.39,58.26,8934.55,2389.84,296.79,23.92,7.66,1.42
2018/06/07T23:35:07z,2c:3a:e8:34:ff:93,2.50i,2.0+OPENLOG+15833 MB+DS3231+BME280+PMSX003A+PMSX003B,84,17,34.51,1009.41,0.00,30128,31,1217,40.07,58.20,64.96,30.24,44.76,56.67,7237.53,2091.09,322.96,32.31,6.93,0.40,45.97,62.86,66.38,32.27,46.57,57.27,8822.11,2367.16,303.14,21.03,4.22,1.43
2018/06/07T23:36:27z,2c:3a:e8:34:ff:93,2.50i,2.0+OPENLOG+15833 MB+DS3231+BME280+PMSX003A+PMSX003B,84,17,34.51,1009.42,0.00,30128,31,1297,37.45,55.53,61.91,28.91,43.77,55.06,6841.79,1971.17,313.74,33.47,6.66,0.09,42.53,60.58,66.68,31.00,45.66,57.58,8263.26,2214.26,313.71,30.84,7.66,1.76
2018/06/07T23:37:47z,2c:3a:e8:34:ff:93,2.50i,2.0+OPENLOG+15833 MB+DS3231+BME280+PMSX003A+PMSX003B,84,17,34.51,1009.40,0.00,29408,31,1377,36.82,51.48,57.30,28.50,42.00,52.32,6678.95,1923.66,276.89,27.59,5.18,1.09,40.78,58.53,63.03,30.61,44.97,55.64,7865.33,2137.69,294.22,24.03,5.17,1.22
2018/06/07T23:39:07z,2c:3a:e8:34:ff:93,2.50i,2.0+OPENLOG+15833 MB+DS3231+BME280+PMSX003A+PMSX003B,84,17,34.51,1009.32,0.00,29696,31,1457,35.87,53.82,59.47,28.22,43.13,53.64,6559.87,1909.00,292.13,31.71,5.02,0.16,40.87,57.39,62.29,30.61,44.63,55.24,7822.18,2117.84,290.68,22.97,6.47,1.03
2018/06/07T23:40:27z,2c:3a:e8:34:ff:93,2.50i,2.0+OPENLOG+15833 MB+DS3231+BME280+PMSX003A+PMSX003B,84,17,34.51,1009.29,0.00,30128,31,1537,32.40,48.53,52.38,26.96,40.32,49.49,5974.47,1729.62,269.66,21.81,3.66,0.53,36.76,52.51,54.95,28.43,42.08,50.70,7282.38,1947.68,268.38,19.24,3.51,0.46
2018/06/07T23:41:47z,2c:3a:e8:34:ff:93,2.50i,2.0+OPENLOG+15833 MB+DS3231+BME280+PMSX003A+PMSX003B,84,17,34.51,1009.34,0.00,30128,31,1617,32.05,47.39,51.66,26.55,39.70,48.75,6050.32,1737.23,264.45,22.57,4.70,0.59,36.16,48.76,52.35,28.27,40.57,49.46,6991.22,1856.97,227.65,21.11,4.54,1.65
2018/06/07T23:43:07z,2c:3a:e8:34:ff:93,2.50i,2.0+OPENLOG+15833 MB+DS3231+BME280+PMSX003A+PMSX003B,84,17,34.51,1009.32,0.00,29848,31,1697,31.46,45.98,51.61,26.50,39.24,49.00,5809.37,1666.35,268.26,22.13,7.48,0.39,34.13,49.24,51.53,27.55,40.66,48.82,6784.11,1813.11,258.79,16.50,2.29,0.32
2018/06/07T23:44:27z,2c:3a:e8:34:ff:93,2.50i,2.0+OPENLOG+15833 MB+DS3231+BME280+PMSX003A+PMSX003B,84,17,34.51,1009.36,0.00,29512,31,1777,29.72,43.13,48.11,25.26,37.43,46.38,5567.30,1590.28,231.98,26.34,4.96,0.45,32.46,45.77,48.92,26.92,39.10,47.26,6440.00,1726.13,238.38,15.49,3.56,0.74
2018/06/07T23:45:47z,2c:3a:e8:34:ff:93,2.50i,2.0+OPENLOG+15833 MB+DS3231+BME280+PMSX003A+PMSX003B,84,17,34.51,1009.38,0.00,30128,31,1857,28.09,41.91,45.22,24.31,36.62,44.51,5249.53,1524.40,234.02,21.07,3.73,0.11,31.06,43.97,46.89,25.97,38.03,45.81,6157.83,1649.22,233.94,14.72,3.94,0.92
2018/06/07T23:47:07z,2c:3a:e8:34:ff:93,2.50i,2.0+OPENLOG+15833 MB+DS3231+BME280+PMSX003A+PMSX003B,84,17,34.51,1009.37,0.00,30128,31,1937,28.78,41.38,45.07,24.80,36.42,44.44,5308.13,1538.67,231.76,19.00,4.18,0.22,30.88,43.15,46.71,25.65,37.29,45.41,6260.12,1662.35,227.06,17.00,4.41,1.59
2018/06/07T23:48:27z,2c:3a:e8:34:ff:93,2.50i,2.0+OPENLOG+15833 MB+DS3231+BME280+PMSX003A+PMSX003B,84,17,34.51,1009.35,0.00,30128,31,2017,26.27,39.80,43.71,23.18,35.40,43.51,4912.13,1421.96,215.33,23.36,4.24,0.47,28.33,41.03,45.11,24.64,36.42,44.50,5676.42,1513.25,216.61,19.06,5.14,0.97
2018/06/07T23:49:47z,2c:3a:e8:34:ff:93,2.50i,2.0+OPENLOG+15833 MB+DS3231+BME280+PMSX003A+PMSX003B,84,17,34.51,1009.32,0.00,29592,31,2097,25.40,38.08,41.06,22.75,34.60,40.88,4790.69,1373.58,214.33,18.48,2.85,0.47,28.16,40.45,45.37,24.00,35.87,44.50,5671.11,1517.03,218.66,18.87,6.76,1.58
2018/06/07T23:51:07z,2c:3a:e8:34:ff:93,2.50i,2.0+OPENLOG+15833 MB+DS3231+BME280+PMSX003A+PMSX003B,84,17,34.51,1009.33,0.00,29672,31,2177,23.51,35.96,39.45,21.60,33.17,39.45,4485.70,1294.77,211.43,22.57,2.79,0.47,27.42,39.87,41.76,24.03,35.71,41.58,5457.79,1467.13,216.84,13.74,2.34,0.39
2018/06/07T23:52:27z,2c:3a:e8:34:ff:93,2.50i,2.0+OPENLOG+15833 MB+DS3231+BME280+PMSX003A+PMSX003B,84,17,34.51,1009.35,0.00,30128,31,2257,22.61,32.78,36.65,21.22,31.00,36.65,4349.61,1244.15,175.57,18.89,5.41,0.24,25.35,36.46,40.00,22.95,33.73,40.00,5155.05,1351.08,179.97,20.81,4.51,0.97
2018/06/07T23:54:10z,2c:3a:e8:34:ff:93,2.50i,2.0+OPENLOG+15833 MB+DS3231+BME280+PMSX003A+PMSX003B,84,18,35.95,1009.31,0.00,29672,31,23,19.00,32.00,32.00,19.00,31.00,32.00,0.00,0.00,0.00,0.00,0.00,0.00,20.50,23.00,23.00,20.00,23.00,23.00,0.00,0.00,0.00,0.00,0.00,0.00
2018/06/07T23:55:24z,2c:3a:e8:34:ff:93,2.50i,2.0+OPENLOG+15833 MB+DS3231+BME280+PMSX003A+PMSX003B,84,18,35.95,1009.37,0.00,30128,31,97,21.12,29.85,34.90,20.12,29.51,34.90,3786.88,1108.63,171.90,17.98,4.34,0.95,22.66,30.86,34.23,21.09,29.89,34.23,4403.31,1204.14,158.34,11.31,3.06,0.77
2018/06/07T23:56:44z,2c:3a:e8:34:ff:93,2.50i,2.0+OPENLOG+15833 MB+DS3231+BME280+PMSX003A+PMSX003B,84,18,35.95,1009.31,0.00,30128,31,177,20.56,31.49,36.53,20.00,30.60,36.53,3839.47,1120.60,192.16,21.40,6.09,0.53,23.58,34.61,39.32,22.03,32.37,39.32,4769.37,1272.18,195.11,17.95,5.45,1.08
2018/06/07T23:58:04z,2c:3a:e8:34:ff:93,2.50i,2.0+OPENLOG+15833 MB+DS3231+BME280+PMSX003A+PMSX003B,84,18,35.95,1009.31,0.00,29944,31,257,19.80,30.59,33.91,19.35,29.80,33.91,3741.91,1093.91,195.28,18.00,3.15,0.26,21.24,31.03,32.19,20.24,30.11,32.19,4367.19,1171.70,157.62,8.08,1.78,0.30
2018/06/07T23:59:24z,2c:3a:e8:34:ff:93,2.50i,2.0+OPENLOG+15833 MB+DS3231+BME280+PMSX003A+PMSX003B,84,18,35.95,1009.35,0.00,29696,31,337,19.18,27.76,30.98,18.91,27.64,30.98,3563.33,1035.40,159.09,16.09,3.07,0.64,21.19,29.24,30.97,20.19,28.84,30.97,4380.57,1158.00,155.03,5.78,2.54,0.30
