Instrument Name,DustTrak DRX
Model Number,8533
Serial Number,8533103404
Firmware Version,3.0
Calibration Date,03/12/2014
Test Name,MANUAL_024
Test Start Time,10:34:48
Test Start Date,06/15/2018
Test Length [D:H:M],1:0:53
Test Interval [M:S],1:0
PM1 Average [mg/m3],0.038
PM1 Minimum [mg/m3],0.000
PM1 Maximum [mg/m3],2.14
PM1 TWA [mg/m3],0.116
PM2.5 Average [mg/m3],0.039
PM2.5 Minimum [mg/m3],0.000
PM2.5 Maximum [mg/m3],2.16
PM2.5 TWA [mg/m3],0.117
PM4 Average [mg/m3],0.039
PM4 Minimum [mg/m3],0.000
PM4 Maximum [mg/m3],2.16
PM4 TWA [mg/m3],0.117
PM10 Average [mg/m3],0.039
PM10 Minimum [mg/m3],0.000
PM10 Maximum [mg/m3],2.16
PM10 TWA [mg/m3],0.117
TOTAL Average [mg/m3],0.039
TOTAL Minimum [mg/m3],0.000
TOTAL Maximum [mg/m3],2.16
TOTAL TWA [mg/m3],0.117
Photometric User Cal,1.00
Size Correction User Cal,1.00
Flow User Cal,0.00
Errors,
Number of Samples,1493

Elapsed Time [s],PM1 [mg/m3],PM2.5 [mg/m3],PM4 [mg/m3],PM10 [mg/m3],TOTAL [mg/m3],Alarms,Errors
60,0.405,0.405,0.405,0.405,0.405,,
120,0.621,0.622,0.622,0.622,0.622,,
180,0.488,0.489,0.489,0.489,0.489,,
240,0.301,0.302,0.302,0.302,0.302,,
300,0.206,0.207,0.207,0.207,0.207,,
360,0.210,0.210,0.210,0.210,0.210,,
420,0.206,0.207,0.207,0.207,0.207,,
480,0.201,0.203,0.203,0.203,0.203,,
540,0.198,0.199,0.199,0.199,0.199,,
600,0.190,0.192,0.192,0.192,0.192,,
660,0.186,0.187,0.187,0.187,0.187,,
720,0.179,0.180,0.180,0.180,0.180,,
780,0.173,0.175,0.175,0.175,0.175,,
840,0.165,0.166,0.166,0.166,0.166,,
900,0.159,0.160,0.160,0.160,0.160,,
960,0.152,0.154,0.154,0.154,0.154,,
1020,0.148,0.149,0.149,0.149,0.149,,
1080,0.142,0.143,0.144,0.144,0.144,,
1140,0.136,0.138,0.138,0.138,0.138,,
1200,0.130,0.131,0.132,0.132,0.132,,
1260,0.124,0.125,0.125,0.125,0.125,,
1320,0.119,0.120,0.121,0.121,0.121,,
1380,0.115,0.116,0.116,0.116,0.116,,
1440,0.110,0.111,0.111,0.111,0.111,,
1500,0.105,0.105,0.105,0.105,0.105,,
1560,0.099,0.100,0.100,0.100,0.100,,
1620,0.096,0.097,0.097,0.097,0.097,,
1680,0.091,0.092,0.092,0.092,0.092,,
1740,0.088,0.089,0.089,0.089,0.089,,
1800,0.084,0.085,0.085,0.085,0.085,,
1860,0.080,0.081,0.081,0.081,0.081,,
1920,0.077,0.078,0.078,0.078,0.078,,
1980,0.075,0.076,0.076,0.076,0.076,,
2040,0.072,0.073,0.073,0.073,0.073,,
2100,0.070,0.070,0.071,0.071,0.071,,
2160,0.067,0.068,0.068,0.068,0.068,,
2220,0.065,0.066,0.066,0.066,0.066,,
2280,0.062,0.063,0.063,0.063,0.063,,
2340,0.060,0.060,0.060,0.060,0.060,,
2400,0.058,0.058,0.058,0.058,0.058,,
2460,0.056,0.057,0.057,0.057,0.057,,
2520,0.056,0.056,0.056,0.056,0.056,,
2580,0.055,0.056,0.056,0.056,0.056,,
2640,0.054,0.054,0.054,0.054,0.054,,
2700,0.052,0.053,0.053,0.053,0.053,,
2760,0.051,0.051,0.051,0.051,0.051,,
2820,0.051,0.051,0.051,0.051,0.051,,
2880,0.049,0.050,0.050,0.050,0.050,,
2940,0.049,0.050,0.050,0.050,0.050,,
3000,0.048,0.049,0.049,0.049,0.049,,
3060,0.046,0.047,0.047,0.047,0.047,,
3120,0.046,0.047,0.047,0.047,0.047,,
3180,0.044,0.045,0.045,0.045,0.045,,
3240,0.043,0.044,0.044,0.044,0.044,,
3300,0.043,0.043,0.043,0.043,0.043,,
3360,0.040,0.041,0.041,0.041,0.041,,
3420,0.039,0.040,0.040,0.040,0.040,,
3480,0.037,0.037,0.037,0.037,0.037,,
3540,0.036,0.036,0.036,0.036,0.036,,
3600,0.035,0.035,0.035,0.035,0.035,,
3660,0.033,0.034,0.034,0.034,0.034,,
3720,0.032,0.032,0.032,0.032,0.032,,
3780,0.032,0.032,0.032,0.032,0.032,,
3840,0.031,0.031,0.031,0.031,0.031,,
3900,0.030,0.030,0.030,0.030,0.030,,
3960,0.029,0.029,0.029,0.029,0.029,,
4020,0.027,0.028,0.028,0.028,0.028,,
4080,0.027,0.027,0.027,0.027,0.027,,
4140,0.025,0.026,0.026,0.026,0.026,,
4200,0.024,0.025,0.025,0.025,0.025,,
4260,0.023,0.024,0.024,0.024,0.024,,
4320,0.022,0.023,0.023,0.023,0.023,,
4380,0.021,0.022,0.022,0.022,0.022,,
4440,0.021,0.021,0.021,0.021,0.021,,
4500,0.020,0.020,0.020,0.020,0.020,,
4560,0.019,0.020,0.020,0.020,0.020,,
4620,0.018,0.019,0.019,0.019,0.019,,
4680,0.019,0.019,0.019,0.019,0.019,,
4740,0.019,0.019,0.019,0.019,0.019,,
4800,0.019,0.019,0.019,0.019,0.019,,
4860,0.019,0.020,0.020,0.020,0.020,,
4920,0.020,0.020,0.020,0.020,0.020,,
4980,0.019,0.020,0.020,0.020,0.020,,
5040,0.019,0.019,0.019,0.019,0.019,,
5100,0.019,0.019,0.019,0.019,0.019,,
5160,0.018,0.019,0.019,0.019,0.019,,
5220,0.018,0.018,0.018,0.018,0.018,,
5280,0.017,0.017,0.017,0.017,0.017,,
5340,0.016,0.016,0.016,0.016,0.016,,
5400,0.016,0.017,0.017,0.017,0.017,,
5460,0.015,0.016,0.016,0.016,0.016,,
5520,0.015,0.016,0.016,0.016,0.016,,
5580,0.015,0.015,0.015,0.015,0.015,,
5640,0.014,0.015,0.015,0.015,0.015,,
5700,0.014,0.015,0.015,0.015,0.015,,
5760,0.014,0.014,0.014,0.014,0.014,,
5820,0.013,0.013,0.013,0.013,0.013,,
5880,0.013,0.013,0.013,0.013,0.013,,
5940,0.012,0.012,0.012,0.012,0.012,,
6000,0.012,0.012,0.012,0.012,0.012,,
6060,0.011,0.011,0.011,0.011,0.011,,
6120,0.011,0.011,0.011,0.011,0.011,,
6180,0.011,0.011,0.011,0.011,0.011,,
6240,0.011,0.011,0.011,0.011,0.011,,
6300,0.010,0.010,0.010,0.010,0.010,,
6360,0.009,0.010,0.010,0.010,0.010,,
6420,0.009,0.009,0.009,0.009,0.009,,
6480,0.005,0.005,0.005,0.005,0.005,,
6540,0.003,0.003,0.003,0.003,0.003,,
6600,0.002,0.002,0.002,0.002,0.002,,
6660,0.001,0.001,0.001,0.001,0.001,,
6720,0.000,0.000,0.000,0.000,0.000,,
6780,0.000,0.000,0.000,0.000,0.000,,
6840,0.000,0.000,0.000,0.000,0.000,,
6900,0.000,0.000,0.000,0.000,0.000,,
6960,0.000,0.000,0.000,0.000,0.000,,
7020,0.000,0.000,0.000,0.000,0.000,,
7080,0.000,0.000,0.000,0.000,0.000,,
7140,0.000,0.000,0.000,0.000,0.000,,
7200,0.000,0.000,0.000,0.000,0.000,,
7260,0.000,0.000,0.000,0.000,0.000,,
7320,0.000,0.000,0.000,0.000,0.000,,
7380,0.000,0.000,0.000,0.000,0.000,,
7440,0.105,0.105,0.105,0.105,0.105,,
7500,1.47,1.48,1.48,1.48,1.48,,
7560,1.63,1.64,1.64,1.64,1.64,,
7620,1.01,1.01,1.01,1.01,1.01,,
7680,0.637,0.639,0.639,0.639,0.639,,
7740,0.403,0.405,0.405,0.405,0.405,,
7800,0.257,0.258,0.258,0.258,0.258,,
7860,0.191,0.192,0.192,0.192,0.192,,
7920,0.205,0.206,0.206,0.206,0.206,,
7980,0.212,0.213,0.213,0.213,0.213,,
8040,0.214,0.215,0.215,0.215,0.215,,
8100,0.213,0.214,0.214,0.214,0.214,,
8160,0.210,0.211,0.211,0.211,0.211,,
8220,0.203,0.204,0.204,0.204,0.204,,
8280,0.197,0.198,0.198,0.198,0.198,,
8340,0.193,0.194,0.194,0.194,0.194,,
8400,0.188,0.189,0.189,0.189,0.189,,
8460,0.184,0.185,0.185,0.185,0.185,,
8520,0.179,0.180,0.180,0.180,0.180,,
8580,0.168,0.169,0.169,0.169,0.169,,
8640,0.165,0.166,0.166,0.166,0.166,,
8700,0.159,0.160,0.160,0.160,0.160,,
8760,0.155,0.155,0.155,0.155,0.155,,
8820,0.153,0.154,0.154,0.154,0.154,,
8880,0.146,0.147,0.147,0.147,0.147,,
8940,0.143,0.144,0.144,0.144,0.144,,
9000,0.138,0.139,0.139,0.139,0.139,,
9060,0.131,0.132,0.132,0.132,0.132,,
9120,0.129,0.129,0.129,0.129,0.129,,
9180,0.124,0.125,0.125,0.125,0.125,,
9240,0.119,0.120,0.120,0.120,0.120,,
9300,0.113,0.114,0.114,0.114,0.114,,
9360,0.110,0.111,0.111,0.111,0.111,,
9420,0.106,0.107,0.107,0.107,0.107,,
9480,0.103,0.103,0.103,0.103,0.103,,
9540,0.098,0.099,0.099,0.099,0.099,,
9600,0.094,0.094,0.094,0.094,0.094,,
9660,0.091,0.091,0.091,0.091,0.091,,
9720,0.086,0.087,0.087,0.087,0.087,,
9780,0.085,0.085,0.085,0.085,0.085,,
9840,0.080,0.081,0.081,0.081,0.081,,
9900,0.079,0.079,0.079,0.079,0.079,,
9960,0.075,0.076,0.076,0.076,0.076,,
10020,0.073,0.073,0.073,0.073,0.073,,
10080,0.070,0.070,0.070,0.070,0.070,,
10140,0.067,0.067,0.067,0.067,0.067,,
10200,0.065,0.065,0.065,0.065,0.065,,
10260,0.061,0.062,0.062,0.062,0.062,,
10320,0.059,0.060,0.060,0.060,0.060,,
10380,0.057,0.057,0.057,0.057,0.057,,
10440,0.055,0.056,0.056,0.056,0.056,,
10500,0.052,0.053,0.053,0.053,0.053,,
10560,0.050,0.050,0.050,0.050,0.050,,
10620,0.048,0.049,0.049,0.049,0.049,,
10680,0.047,0.047,0.047,0.047,0.047,,
10740,0.045,0.045,0.045,0.045,0.045,,
10800,0.044,0.044,0.044,0.044,0.044,,
10860,0.042,0.042,0.042,0.042,0.042,,
10920,0.040,0.040,0.040,0.040,0.040,,
10980,0.039,0.040,0.040,0.040,0.040,,
11040,0.037,0.037,0.037,0.037,0.037,,
11100,0.036,0.036,0.036,0.036,0.036,,
11160,0.035,0.035,0.035,0.035,0.035,,
11220,0.033,0.034,0.034,0.034,0.034,,
11280,0.032,0.032,0.032,0.032,0.032,,
11340,0.032,0.032,0.032,0.032,0.032,,
11400,0.030,0.031,0.031,0.031,0.031,,
11460,0.030,0.030,0.030,0.030,0.030,,
11520,0.029,0.029,0.029,0.029,0.029,,
11580,0.028,0.028,0.028,0.028,0.028,,
11640,0.027,0.027,0.027,0.027,0.027,,
11700,0.026,0.027,0.027,0.027,0.027,,
11760,0.026,0.026,0.026,0.026,0.026,,
11820,0.025,0.025,0.025,0.025,0.025,,
11880,0.024,0.025,0.025,0.025,0.025,,
11940,0.023,0.023,0.023,0.023,0.023,,
12000,0.022,0.022,0.022,0.022,0.022,,
12060,0.022,0.022,0.022,0.022,0.022,,
12120,0.021,0.021,0.021,0.021,0.021,,
12180,0.021,0.021,0.021,0.021,0.021,,
12240,0.020,0.021,0.021,0.021,0.021,,
12300,0.019,0.020,0.020,0.020,0.020,,
12360,0.019,0.019,0.019,0.019,0.019,,
12420,0.018,0.018,0.018,0.018,0.018,,
12480,0.017,0.017,0.017,0.017,0.017,,
12540,0.017,0.017,0.017,0.017,0.017,,
12600,0.016,0.016,0.016,0.016,0.016,,
12660,0.016,0.016,0.016,0.016,0.016,,
12720,0.015,0.015,0.015,0.015,0.015,,
12780,0.015,0.015,0.015,0.015,0.015,,
12840,0.014,0.014,0.014,0.014,0.014,,
12900,0.014,0.014,0.014,0.014,0.014,,
12960,0.013,0.013,0.013,0.013,0.013,,
13020,0.013,0.013,0.013,0.013,0.013,,
13080,0.013,0.013,0.013,0.013,0.013,,
13140,0.012,0.012,0.012,0.012,0.012,,
13200,0.012,0.013,0.013,0.013,0.013,,
13260,0.012,0.012,0.012,0.012,0.012,,
13320,0.012,0.012,0.012,0.012,0.012,,
13380,0.012,0.012,0.012,0.012,0.012,,
13440,0.011,0.011,0.011,0.011,0.011,,
13500,0.011,0.011,0.011,0.011,0.011,,
13560,0.011,0.011,0.011,0.011,0.011,,
13620,0.010,0.011,0.011,0.011,0.011,,
13680,0.010,0.010,0.010,0.010,0.010,,
13740,0.010,0.010,0.010,0.010,0.010,,
13800,0.010,0.010,0.010,0.010,0.010,,
13860,0.010,0.010,0.010,0.010,0.010,,
13920,0.009,0.010,0.010,0.010,0.010,,
13980,0.009,0.009,0.009,0.009,0.009,,
14040,0.009,0.009,0.009,0.009,0.009,,
14100,0.009,0.010,0.010,0.010,0.010,,
14160,0.009,0.009,0.009,0.009,0.009,,
14220,0.008,0.009,0.009,0.009,0.009,,
14280,0.009,0.009,0.009,0.009,0.009,,
14340,0.009,0.009,0.009,0.009,0.009,,
14400,0.008,0.009,0.009,0.009,0.009,,
14460,0.008,0.008,0.008,0.008,0.008,,
14520,0.008,0.008,0.008,0.008,0.008,,
14580,0.008,0.008,0.008,0.008,0.008,,
14640,0.008,0.008,0.008,0.008,0.008,,
14700,0.008,0.008,0.008,0.008,0.008,,
14760,0.007,0.007,0.007,0.007,0.007,,
14820,0.007,0.007,0.007,0.007,0.007,,
14880,0.008,0.008,0.008,0.008,0.008,,
14940,0.007,0.007,0.007,0.007,0.007,,
15000,0.007,0.007,0.007,0.007,0.007,,
15060,0.007,0.007,0.007,0.007,0.007,,
15120,0.006,0.007,0.007,0.007,0.007,,
15180,0.007,0.007,0.007,0.007,0.007,,
15240,0.006,0.006,0.006,0.006,0.006,,
15300,0.006,0.006,0.006,0.006,0.006,,
15360,0.007,0.007,0.007,0.007,0.007,,
15420,0.006,0.006,0.006,0.006,0.006,,
15480,0.006,0.006,0.006,0.006,0.006,,
15540,0.006,0.006,0.006,0.006,0.006,,
15600,0.006,0.006,0.006,0.006,0.006,,
15660,0.006,0.006,0.006,0.006,0.006,,
15720,0.006,0.006,0.006,0.006,0.006,,
15780,0.006,0.006,0.006,0.006,0.006,,
15840,0.006,0.006,0.006,0.006,0.006,,
15900,0.006,0.006,0.006,0.006,0.006,,
15960,0.005,0.006,0.006,0.006,0.006,,
16020,0.005,0.005,0.005,0.005,0.005,,
16080,0.005,0.005,0.005,0.005,0.005,,
16140,0.003,0.003,0.003,0.003,0.003,,
16200,0.003,0.003,0.003,0.003,0.003,,
16260,0.002,0.003,0.003,0.003,0.003,,
16320,0.003,0.003,0.003,0.003,0.003,,
16380,0.003,0.003,0.003,0.003,0.003,,
16440,0.003,0.003,0.003,0.003,0.003,,
16500,0.003,0.003,0.003,0.003,0.003,,
16560,0.003,0.003,0.003,0.003,0.003,,
16620,0.003,0.004,0.004,0.004,0.004,,
16680,0.006,0.006,0.006,0.006,0.006,,
16740,0.480,0.481,0.482,0.482,0.482,,
16800,1.78,1.79,1.79,1.79,1.79,,
16860,1.86,1.87,1.87,1.87,1.87,,
16920,1.56,1.56,1.56,1.56,1.56,,
16980,0.943,0.944,0.944,0.944,0.944,,
17040,0.596,0.597,0.597,0.597,0.597,,
17100,0.375,0.376,0.376,0.376,0.376,,
17160,0.248,0.249,0.249,0.249,0.249,,
17220,0.205,0.205,0.205,0.205,0.205,,
17280,0.220,0.221,0.221,0.221,0.221,,
17340,0.220,0.221,0.221,0.221,0.221,,
17400,0.216,0.217,0.217,0.217,0.217,,
17460,0.206,0.208,0.208,0.208,0.208,,
17520,0.197,0.198,0.198,0.198,0.198,,
17580,0.187,0.188,0.188,0.188,0.188,,
17640,0.182,0.183,0.183,0.183,0.183,,
17700,0.175,0.176,0.176,0.176,0.176,,
17760,0.163,0.164,0.164,0.164,0.164,,
17820,0.154,0.155,0.155,0.155,0.155,,
17880,0.147,0.148,0.148,0.148,0.148,,
17940,0.140,0.141,0.141,0.141,0.141,,
18000,0.131,0.132,0.132,0.132,0.132,,
18060,0.125,0.125,0.125,0.125,0.125,,
18120,0.118,0.119,0.119,0.119,0.119,,
18180,0.112,0.113,0.113,0.113,0.113,,
18240,0.106,0.107,0.107,0.107,0.107,,
18300,0.101,0.101,0.101,0.101,0.101,,
18360,0.097,0.097,0.097,0.097,0.097,,
18420,0.092,0.092,0.092,0.092,0.092,,
18480,0.086,0.086,0.086,0.086,0.086,,
18540,0.083,0.083,0.083,0.083,0.083,,
18600,0.078,0.079,0.079,0.079,0.079,,
18660,0.074,0.075,0.075,0.075,0.075,,
18720,0.071,0.072,0.072,0.072,0.072,,
18780,0.068,0.069,0.069,0.069,0.069,,
18840,0.065,0.065,0.065,0.065,0.065,,
18900,0.061,0.061,0.061,0.061,0.061,,
18960,0.059,0.059,0.059,0.059,0.059,,
19020,0.057,0.057,0.057,0.057,0.057,,
19080,0.054,0.054,0.054,0.054,0.054,,
19140,0.052,0.053,0.053,0.053,0.053,,
19200,0.050,0.050,0.050,0.050,0.050,,
19260,0.048,0.049,0.049,0.049,0.049,,
19320,0.046,0.046,0.046,0.046,0.046,,
19380,0.044,0.044,0.044,0.044,0.044,,
19440,0.042,0.042,0.042,0.042,0.042,,
19500,0.041,0.041,0.041,0.041,0.041,,
19560,0.040,0.040,0.040,0.040,0.040,,
19620,0.038,0.038,0.038,0.038,0.038,,
19680,0.037,0.037,0.037,0.037,0.037,,
19740,0.036,0.036,0.036,0.036,0.036,,
19800,0.035,0.035,0.035,0.035,0.035,,
19860,0.033,0.033,0.033,0.033,0.033,,
19920,0.032,0.032,0.032,0.032,0.032,,
19980,0.030,0.030,0.030,0.030,0.030,,
20040,0.030,0.030,0.030,0.030,0.030,,
20100,0.029,0.029,0.029,0.029,0.029,,
20160,0.028,0.028,0.028,0.028,0.028,,
20220,0.027,0.027,0.027,0.027,0.027,,
20280,0.027,0.027,0.027,0.027,0.027,,
20340,0.026,0.026,0.026,0.026,0.026,,
20400,0.025,0.025,0.025,0.025,0.025,,
20460,0.023,0.024,0.024,0.024,0.024,,
20520,0.023,0.023,0.023,0.023,0.023,,
20580,0.023,0.023,0.023,0.023,0.023,,
20640,0.022,0.022,0.022,0.022,0.022,,
20700,0.021,0.021,0.021,0.021,0.021,,
20760,0.020,0.021,0.021,0.021,0.021,,
20820,0.020,0.021,0.021,0.021,0.021,,
20880,0.019,0.019,0.019,0.019,0.019,,
20940,0.019,0.019,0.019,0.019,0.019,,
21000,0.018,0.018,0.018,0.018,0.018,,
21060,0.018,0.018,0.018,0.018,0.018,,
21120,0.017,0.017,0.017,0.017,0.017,,
21180,0.017,0.017,0.017,0.017,0.017,,
21240,0.016,0.017,0.017,0.017,0.017,,
21300,0.016,0.016,0.016,0.016,0.016,,
21360,0.016,0.016,0.016,0.016,0.016,,
21420,0.015,0.015,0.015,0.015,0.015,,
21480,0.015,0.015,0.015,0.015,0.015,,
21540,0.015,0.015,0.015,0.015,0.015,,
21600,0.014,0.014,0.014,0.014,0.014,,
21660,0.014,0.014,0.014,0.014,0.014,,
21720,0.013,0.014,0.014,0.014,0.014,,
21780,0.013,0.013,0.013,0.013,0.013,,
21840,0.013,0.013,0.013,0.013,0.013,,
21900,0.013,0.013,0.013,0.013,0.013,,
21960,0.012,0.012,0.012,0.012,0.012,,
22020,0.012,0.012,0.012,0.012,0.012,,
22080,0.012,0.012,0.012,0.012,0.012,,
22140,0.011,0.011,0.011,0.011,0.011,,
22200,0.011,0.011,0.011,0.011,0.011,,
22260,0.011,0.011,0.011,0.011,0.011,,
22320,0.010,0.010,0.010,0.010,0.010,,
22380,0.010,0.010,0.010,0.010,0.010,,
22440,0.010,0.010,0.010,0.010,0.010,,
22500,0.009,0.010,0.010,0.010,0.010,,
22560,0.008,0.008,0.008,0.008,0.008,,
22620,0.005,0.005,0.005,0.005,0.005,,
22680,0.003,0.003,0.003,0.003,0.003,,
22740,0.002,0.003,0.003,0.003,0.003,,
22800,0.002,0.002,0.002,0.002,0.002,,
22860,0.001,0.001,0.001,0.001,0.001,,
22920,0.001,0.001,0.001,0.001,0.001,,
22980,0.001,0.001,0.001,0.001,0.001,,
23040,0.347,0.347,0.348,0.348,0.348,,
23100,1.31,1.31,1.31,1.31,1.31,,
23160,0.891,0.892,0.892,0.892,0.892,,
23220,0.574,0.575,0.575,0.575,0.575,,
23280,0.370,0.370,0.370,0.370,0.370,,
23340,0.245,0.245,0.245,0.245,0.245,,
23400,0.169,0.169,0.169,0.169,0.169,,
23460,0.121,0.121,0.121,0.121,0.121,,
23520,0.092,0.093,0.093,0.093,0.093,,
23580,0.071,0.072,0.072,0.072,0.072,,
23640,0.054,0.055,0.055,0.055,0.055,,
23700,0.044,0.044,0.044,0.044,0.044,,
23760,0.036,0.036,0.036,0.036,0.036,,
23820,0.028,0.028,0.028,0.028,0.028,,
23880,0.027,0.027,0.027,0.027,0.027,,
23940,0.024,0.024,0.024,0.024,0.024,,
24000,0.022,0.023,0.023,0.023,0.023,,
24060,0.023,0.023,0.023,0.023,0.023,,
24120,0.021,0.022,0.022,0.022,0.022,,
24180,0.019,0.020,0.020,0.020,0.020,,
24240,0.019,0.019,0.019,0.019,0.019,,
24300,0.020,0.020,0.020,0.020,0.020,,
24360,0.020,0.020,0.020,0.020,0.020,,
24420,0.020,0.021,0.021,0.021,0.021,,
24480,0.018,0.019,0.019,0.019,0.019,,
24540,0.016,0.017,0.017,0.017,0.017,,
24600,0.014,0.015,0.015,0.015,0.015,,
24660,0.016,0.016,0.016,0.016,0.016,,
24720,0.015,0.015,0.015,0.015,0.015,,
24780,0.015,0.015,0.015,0.015,0.015,,
24840,0.014,0.014,0.014,0.014,0.014,,
24900,0.012,0.013,0.013,0.013,0.013,,
24960,0.012,0.012,0.012,0.012,0.012,,
25020,0.012,0.012,0.012,0.012,0.012,,
25080,0.011,0.012,0.012,0.012,0.012,,
25140,0.011,0.012,0.012,0.012,0.012,,
25200,0.011,0.011,0.011,0.011,0.011,,
25260,0.010,0.010,0.010,0.010,0.010,,
25320,0.009,0.009,0.009,0.009,0.009,,
25380,0.008,0.008,0.008,0.008,0.008,,
25440,0.008,0.008,0.008,0.008,0.008,,
25500,0.243,0.244,0.244,0.244,0.244,,
25560,2.14,2.16,2.16,2.16,2.16,,
25620,1.78,1.80,1.80,1.80,1.80,,
25680,1.16,1.18,1.18,1.18,1.18,,
25740,0.768,0.776,0.777,0.777,0.777,,
25800,0.521,0.528,0.528,0.528,0.528,,
25860,0.424,0.429,0.430,0.430,0.430,,
25920,0.445,0.451,0.451,0.451,0.451,,
25980,0.445,0.452,0.452,0.452,0.452,,
26040,0.440,0.447,0.447,0.447,0.447,,
26100,0.420,0.427,0.427,0.427,0.427,,
26160,0.404,0.410,0.410,0.410,0.410,,
26220,0.388,0.394,0.395,0.395,0.395,,
26280,0.368,0.374,0.374,0.374,0.374,,
26340,0.352,0.358,0.358,0.358,0.358,,
26400,0.338,0.343,0.344,0.344,0.344,,
26460,0.325,0.330,0.330,0.331,0.331,,
26520,0.310,0.315,0.315,0.315,0.315,,
26580,0.300,0.305,0.305,0.305,0.305,,
26640,0.285,0.289,0.289,0.289,0.289,,
26700,0.273,0.277,0.278,0.278,0.278,,
26760,0.260,0.264,0.264,0.264,0.264,,
26820,0.246,0.249,0.250,0.250,0.250,,
26880,0.232,0.236,0.236,0.236,0.236,,
26940,0.222,0.225,0.225,0.225,0.225,,
27000,0.210,0.214,0.214,0.214,0.214,,
27060,0.199,0.202,0.202,0.202,0.202,,
27120,0.189,0.191,0.191,0.191,0.191,,
27180,0.181,0.183,0.183,0.183,0.183,,
27240,0.172,0.174,0.174,0.174,0.174,,
27300,0.163,0.165,0.165,0.165,0.165,,
27360,0.155,0.157,0.157,0.157,0.157,,
27420,0.148,0.150,0.151,0.151,0.151,,
27480,0.140,0.142,0.142,0.142,0.142,,
27540,0.132,0.134,0.134,0.134,0.134,,
27600,0.125,0.126,0.126,0.126,0.126,,
27660,0.119,0.120,0.120,0.120,0.120,,
27720,0.113,0.115,0.115,0.115,0.115,,
27780,0.108,0.109,0.109,0.109,0.109,,
27840,0.103,0.104,0.104,0.104,0.104,,
27900,0.096,0.097,0.097,0.097,0.097,,
27960,0.091,0.093,0.093,0.093,0.093,,
28020,0.087,0.088,0.088,0.088,0.088,,
28080,0.082,0.083,0.083,0.083,0.083,,
28140,0.079,0.080,0.080,0.080,0.080,,
28200,0.074,0.075,0.075,0.075,0.075,,
28260,0.072,0.073,0.073,0.073,0.073,,
28320,0.068,0.069,0.069,0.069,0.069,,
28380,0.065,0.066,0.066,0.066,0.066,,
28440,0.062,0.063,0.063,0.063,0.063,,
28500,0.060,0.060,0.060,0.060,0.060,,
28560,0.057,0.057,0.057,0.057,0.057,,
28620,0.056,0.056,0.056,0.056,0.056,,
28680,0.053,0.053,0.053,0.053,0.053,,
28740,0.051,0.051,0.051,0.051,0.051,,
28800,0.048,0.049,0.049,0.049,0.049,,
28860,0.046,0.046,0.046,0.046,0.046,,
28920,0.045,0.045,0.045,0.045,0.045,,
28980,0.043,0.043,0.043,0.043,0.043,,
29040,0.040,0.041,0.041,0.041,0.041,,
29100,0.039,0.039,0.039,0.039,0.039,,
29160,0.038,0.038,0.038,0.038,0.038,,
29220,0.036,0.037,0.037,0.037,0.037,,
29280,0.035,0.035,0.035,0.035,0.035,,
29340,0.034,0.035,0.035,0.035,0.035,,
29400,0.033,0.034,0.034,0.034,0.034,,
29460,0.031,0.031,0.031,0.031,0.031,,
29520,0.031,0.031,0.031,0.031,0.031,,
29580,0.029,0.030,0.030,0.030,0.030,,
29640,0.029,0.029,0.029,0.029,0.029,,
29700,0.028,0.028,0.028,0.028,0.028,,
29760,0.026,0.026,0.026,0.026,0.026,,
29820,0.026,0.027,0.027,0.027,0.027,,
29880,0.025,0.025,0.025,0.025,0.025,,
29940,0.024,0.024,0.024,0.024,0.024,,
30000,0.023,0.023,0.023,0.023,0.023,,
30060,0.023,0.023,0.023,0.023,0.023,,
30120,0.022,0.022,0.022,0.022,0.022,,
30180,0.021,0.021,0.021,0.021,0.021,,
30240,0.021,0.021,0.021,0.021,0.021,,
30300,0.020,0.021,0.021,0.021,0.021,,
30360,0.019,0.020,0.020,0.020,0.020,,
30420,0.019,0.019,0.019,0.019,0.019,,
30480,0.019,0.020,0.020,0.020,0.020,,
30540,0.018,0.018,0.018,0.018,0.018,,
30600,0.018,0.018,0.018,0.018,0.018,,
30660,0.017,0.017,0.017,0.017,0.017,,
30720,0.018,0.018,0.018,0.018,0.018,,
30780,0.017,0.017,0.017,0.017,0.017,,
30840,0.017,0.017,0.017,0.017,0.017,,
30900,0.016,0.016,0.016,0.016,0.016,,
30960,0.016,0.016,0.016,0.016,0.016,,
31020,0.016,0.016,0.016,0.016,0.016,,
31080,0.015,0.015,0.015,0.015,0.015,,
31140,0.015,0.015,0.015,0.015,0.015,,
31200,0.014,0.014,0.014,0.014,0.014,,
31260,0.014,0.015,0.015,0.015,0.015,,
31320,0.014,0.014,0.014,0.014,0.014,,
31380,0.014,0.014,0.014,0.014,0.014,,
31440,0.013,0.013,0.013,0.013,0.013,,
31500,0.013,0.013,0.013,0.013,0.013,,
31560,0.012,0.012,0.012,0.012,0.012,,
31620,0.012,0.012,0.012,0.012,0.012,,
31680,0.012,0.012,0.012,0.012,0.012,,
31740,0.012,0.012,0.012,0.012,0.012,,
31800,0.012,0.012,0.012,0.012,0.012,,
31860,0.012,0.012,0.012,0.012,0.012,,
31920,0.012,0.012,0.012,0.012,0.012,,
31980,0.012,0.012,0.012,0.012,0.012,,
32040,0.011,0.011,0.011,0.011,0.011,,
32100,0.011,0.011,0.011,0.011,0.011,,
32160,0.011,0.011,0.011,0.011,0.011,,
32220,0.011,0.011,0.011,0.011,0.011,,
32280,0.011,0.011,0.011,0.011,0.011,,
32340,0.010,0.010,0.010,0.010,0.010,,
32400,0.011,0.011,0.011,0.011,0.011,,
32460,0.010,0.011,0.011,0.011,0.011,,
32520,0.010,0.011,0.011,0.011,0.011,,
32580,0.010,0.011,0.011,0.011,0.011,,
32640,0.010,0.010,0.010,0.010,0.010,,
32700,0.009,0.010,0.010,0.010,0.010,,
32760,0.010,0.010,0.010,0.010,0.010,,
32820,0.009,0.009,0.009,0.009,0.009,,
32880,0.009,0.009,0.009,0.009,0.009,,
32940,0.009,0.009,0.009,0.009,0.009,,
33000,0.009,0.009,0.009,0.009,0.009,,
33060,0.009,0.009,0.009,0.009,0.009,,
33120,0.009,0.009,0.009,0.009,0.009,,
33180,0.009,0.009,0.009,0.009,0.009,,
33240,0.009,0.009,0.009,0.009,0.009,,
33300,0.008,0.009,0.009,0.009,0.009,,
33360,0.008,0.008,0.008,0.008,0.008,,
33420,0.008,0.009,0.009,0.009,0.009,,
33480,0.008,0.008,0.008,0.008,0.008,,
33540,0.008,0.008,0.008,0.008,0.008,,
33600,0.008,0.008,0.008,0.008,0.008,,
33660,0.008,0.008,0.008,0.008,0.008,,
33720,0.007,0.008,0.008,0.008,0.008,,
33780,0.007,0.007,0.007,0.007,0.007,,
33840,0.007,0.007,0.007,0.007,0.007,,
33900,0.007,0.007,0.007,0.007,0.007,,
33960,0.007,0.007,0.007,0.007,0.007,,
34020,0.007,0.007,0.007,0.007,0.007,,
34080,0.007,0.007,0.007,0.007,0.007,,
34140,0.006,0.007,0.007,0.007,0.007,,
34200,0.006,0.006,0.006,0.006,0.006,,
34260,0.006,0.006,0.006,0.006,0.006,,
34320,0.006,0.006,0.006,0.006,0.006,,
34380,0.006,0.006,0.006,0.006,0.006,,
34440,0.006,0.006,0.006,0.006,0.006,,
34500,0.006,0.007,0.007,0.007,0.007,,
34560,0.006,0.007,0.007,0.007,0.007,,
34620,0.006,0.006,0.006,0.006,0.006,,
34680,0.006,0.006,0.006,0.006,0.006,,
34740,0.005,0.005,0.005,0.005,0.005,,
34800,0.006,0.006,0.006,0.006,0.006,,
34860,0.005,0.005,0.005,0.005,0.005,,
34920,0.005,0.005,0.005,0.005,0.005,,
34980,0.005,0.005,0.005,0.005,0.005,,
35040,0.005,0.005,0.005,0.005,0.005,,
35100,0.005,0.005,0.005,0.005,0.005,,
35160,0.005,0.005,0.005,0.005,0.005,,
35220,0.005,0.005,0.005,0.005,0.005,,
35280,0.005,0.005,0.005,0.005,0.005,,
35340,0.005,0.005,0.005,0.005,0.005,,
35400,0.005,0.005,0.005,0.005,0.005,,
35460,0.004,0.004,0.004,0.004,0.004,,
35520,0.005,0.005,0.005,0.005,0.005,,
35580,0.005,0.005,0.005,0.005,0.005,,
35640,0.004,0.005,0.005,0.005,0.005,,
35700,0.004,0.005,0.005,0.005,0.005,,
35760,0.004,0.004,0.004,0.004,0.004,,
35820,0.004,0.004,0.004,0.004,0.004,,
35880,0.004,0.004,0.004,0.004,0.004,,
35940,0.004,0.004,0.004,0.004,0.004,,
36000,0.004,0.004,0.004,0.004,0.004,,
36060,0.004,0.004,0.004,0.004,0.004,,
36120,0.004,0.004,0.004,0.004,0.004,,
36180,0.004,0.004,0.004,0.004,0.004,,
36240,0.004,0.004,0.004,0.004,0.004,,
36300,0.004,0.004,0.004,0.004,0.004,,
36360,0.004,0.004,0.004,0.004,0.004,,
36420,0.003,0.003,0.003,0.003,0.003,,
36480,0.003,0.003,0.003,0.003,0.003,,
36540,0.004,0.004,0.004,0.004,0.004,,
36600,0.003,0.003,0.003,0.003,0.003,,
36660,0.003,0.003,0.003,0.003,0.003,,
36720,0.003,0.003,0.003,0.003,0.003,,
36780,0.003,0.003,0.003,0.003,0.003,,
36840,0.003,0.003,0.003,0.003,0.003,,
36900,0.003,0.003,0.003,0.003,0.003,,
36960,0.003,0.003,0.003,0.003,0.003,,
37020,0.003,0.003,0.003,0.003,0.003,,
37080,0.003,0.003,0.003,0.003,0.003,,
37140,0.003,0.003,0.003,0.003,0.003,,
37200,0.003,0.003,0.003,0.003,0.003,,
37260,0.003,0.003,0.003,0.003,0.003,,
37320,0.003,0.003,0.003,0.003,0.003,,
37380,0.003,0.003,0.003,0.003,0.003,,
37440,0.002,0.003,0.003,0.003,0.003,,
37500,0.002,0.002,0.002,0.002,0.002,,
37560,0.002,0.002,0.002,0.002,0.002,,
37620,0.002,0.002,0.002,0.002,0.002,,
37680,0.002,0.003,0.003,0.003,0.003,,
37740,0.002,0.003,0.003,0.003,0.003,,
37800,0.002,0.002,0.002,0.002,0.002,,
37860,0.002,0.002,0.002,0.002,0.002,,
37920,0.002,0.002,0.002,0.002,0.002,,
37980,0.002,0.002,0.002,0.002,0.002,,
38040,0.002,0.002,0.002,0.002,0.002,,
38100,0.002,0.002,0.002,0.002,0.002,,
38160,0.002,0.002,0.002,0.002,0.002,,
38220,0.002,0.002,0.002,0.002,0.002,,
38280,0.002,0.002,0.002,0.002,0.002,,
38340,0.002,0.002,0.002,0.002,0.002,,
38400,0.002,0.002,0.002,0.002,0.002,,
38460,0.002,0.002,0.002,0.002,0.002,,
38520,0.002,0.002,0.002,0.002,0.002,,
38580,0.002,0.002,0.002,0.002,0.002,,
38640,0.001,0.002,0.002,0.002,0.002,,
38700,0.002,0.002,0.002,0.002,0.002,,
38760,0.002,0.002,0.002,0.002,0.002,,
38820,0.002,0.002,0.002,0.002,0.002,,
38880,0.001,0.001,0.001,0.001,0.001,,
38940,0.002,0.002,0.002,0.002,0.002,,
39000,0.001,0.001,0.001,0.001,0.001,,
39060,0.002,0.002,0.002,0.002,0.002,,
39120,0.001,0.002,0.002,0.002,0.002,,
39180,0.001,0.001,0.001,0.001,0.001,,
39240,0.001,0.001,0.001,0.001,0.001,,
39300,0.001,0.001,0.001,0.001,0.001,,
39360,0.001,0.002,0.002,0.002,0.002,,
39420,0.001,0.001,0.001,0.001,0.001,,
39480,0.001,0.001,0.001,0.001,0.001,,
39540,0.001,0.001,0.001,0.001,0.001,,
39600,0.001,0.001,0.001,0.001,0.001,,
39660,0.001,0.001,0.001,0.001,0.001,,
39720,0.001,0.001,0.001,0.001,0.001,,
39780,0.001,0.001,0.001,0.001,0.001,,
39840,0.001,0.001,0.001,0.001,0.001,,
39900,0.001,0.001,0.001,0.001,0.001,,
39960,0.001,0.001,0.001,0.001,0.001,,
40020,0.001,0.001,0.001,0.001,0.001,,
40080,0.001,0.001,0.001,0.001,0.001,,
40140,0.001,0.001,0.001,0.001,0.001,,
40200,0.001,0.001,0.001,0.001,0.001,,
40260,0.001,0.001,0.001,0.001,0.001,,
40320,0.001,0.001,0.001,0.001,0.001,,
40380,0.001,0.001,0.001,0.001,0.001,,
40440,0.001,0.001,0.001,0.001,0.001,,
40500,0.001,0.001,0.001,0.001,0.001,,
40560,0.001,0.001,0.001,0.001,0.001,,
40620,0.001,0.001,0.001,0.001,0.001,,
40680,0.001,0.001,0.001,0.001,0.001,,
40740,0.001,0.001,0.001,0.001,0.001,,
40800,0.000,0.001,0.001,0.001,0.001,,
40860,0.001,0.001,0.001,0.001,0.001,,
40920,0.001,0.001,0.001,0.001,0.001,,
40980,0.001,0.001,0.001,0.001,0.001,,
41040,0.001,0.001,0.001,0.001,0.001,,
41100,0.001,0.001,0.001,0.001,0.001,,
41160,0.001,0.001,0.001,0.001,0.001,,
41220,0.001,0.001,0.001,0.001,0.001,,
41280,0.001,0.001,0.001,0.001,0.001,,
41340,0.001,0.001,0.001,0.001,0.001,,
41400,0.001,0.001,0.001,0.001,0.001,,
41460,0.001,0.001,0.001,0.001,0.001,,
41520,0.000,0.001,0.001,0.001,0.001,,
41580,0.000,0.001,0.001,0.001,0.001,,
41640,0.001,0.001,0.001,0.001,0.001,,
41700,0.001,0.001,0.001,0.001,0.001,,
41760,0.000,0.001,0.001,0.001,0.001,,
41820,0.000,0.001,0.001,0.001,0.001,,
41880,0.001,0.001,0.001,0.001,0.001,,
41940,0.001,0.001,0.001,0.001,0.001,,
42000,0.000,0.000,0.000,0.000,0.000,,
42060,0.000,0.000,0.000,0.000,0.000,,
42120,0.000,0.001,0.001,0.001,0.001,,
42180,0.000,0.000,0.000,0.000,0.000,,
42240,0.000,0.000,0.000,0.000,0.000,,
42300,0.000,0.000,0.000,0.000,0.000,,
42360,0.000,0.000,0.000,0.000,0.000,,
42420,0.000,0.000,0.000,0.000,0.000,,
42480,0.000,0.000,0.000,0.000,0.000,,
42540,0.000,0.000,0.000,0.000,0.000,,
42600,0.000,0.000,0.000,0.000,0.000,,
42660,0.000,0.000,0.000,0.000,0.000,,
42720,0.000,0.000,0.000,0.000,0.000,,
42780,0.000,0.000,0.000,0.000,0.000,,
42840,0.000,0.000,0.000,0.000,0.000,,
42900,0.000,0.000,0.000,0.000,0.000,,
42960,0.000,0.000,0.000,0.000,0.000,,
43020,0.000,0.000,0.000,0.000,0.000,,
43080,0.000,0.000,0.000,0.000,0.000,,
43140,0.000,0.000,0.000,0.000,0.000,,
43200,0.000,0.000,0.000,0.000,0.000,,
43260,0.000,0.000,0.000,0.000,0.000,,
43320,0.000,0.000,0.000,0.000,0.000,,
43380,0.000,0.000,0.000,0.000,0.000,,
43440,0.000,0.000,0.000,0.000,0.000,,
43500,0.000,0.000,0.000,0.000,0.000,,
43560,0.000,0.000,0.000,0.000,0.000,,
43620,0.000,0.000,0.000,0.000,0.000,,
43680,0.000,0.000,0.000,0.000,0.000,,
43740,0.000,0.000,0.000,0.000,0.000,,
43800,0.000,0.000,0.000,0.000,0.000,,
43860,0.000,0.000,0.000,0.000,0.000,,
43920,0.000,0.000,0.000,0.000,0.000,,
43980,0.000,0.000,0.000,0.000,0.000,,
44040,0.000,0.000,0.000,0.000,0.000,,
44100,0.000,0.000,0.000,0.000,0.000,,
44160,0.000,0.000,0.000,0.000,0.000,,
44220,0.000,0.000,0.000,0.000,0.000,,
44280,0.000,0.000,0.000,0.000,0.000,,
44340,0.000,0.000,0.000,0.000,0.000,,
44400,0.000,0.000,0.000,0.000,0.000,,
44460,0.000,0.000,0.000,0.000,0.000,,
44520,0.000,0.000,0.000,0.000,0.000,,
44580,0.000,0.000,0.000,0.000,0.000,,
44640,0.000,0.000,0.000,0.000,0.000,,
44700,0.000,0.000,0.000,0.000,0.000,,
44760,0.000,0.000,0.000,0.000,0.000,,
44820,0.000,0.000,0.000,0.000,0.000,,
44880,0.000,0.000,0.000,0.000,0.000,,
44940,0.000,0.000,0.000,0.000,0.000,,
45000,0.000,0.000,0.000,0.000,0.000,,
45060,0.000,0.000,0.000,0.000,0.000,,
45120,0.000,0.000,0.000,0.000,0.000,,
45180,0.000,0.000,0.000,0.000,0.000,,
45240,0.000,0.000,0.000,0.000,0.000,,
45300,0.000,0.000,0.000,0.000,0.000,,
45360,0.000,0.000,0.000,0.000,0.000,,
45420,0.000,0.000,0.000,0.000,0.000,,
45480,0.000,0.000,0.000,0.000,0.000,,
45540,0.000,0.000,0.000,0.000,0.000,,
45600,0.000,0.000,0.000,0.000,0.000,,
45660,0.000,0.000,0.000,0.000,0.000,,
45720,0.000,0.000,0.000,0.000,0.000,,
45780,0.000,0.000,0.000,0.000,0.000,,
45840,0.000,0.000,0.000,0.000,0.000,,
45900,0.000,0.000,0.000,0.000,0.000,,
45960,0.000,0.000,0.000,0.000,0.000,,
46020,0.000,0.000,0.000,0.000,0.000,,
46080,0.000,0.000,0.000,0.000,0.000,,
46140,0.000,0.000,0.000,0.000,0.000,,
46200,0.000,0.000,0.000,0.000,0.000,,
46260,0.000,0.000,0.000,0.000,0.000,,
46320,0.000,0.000,0.000,0.000,0.000,,
46380,0.000,0.000,0.000,0.000,0.000,,
46440,0.000,0.000,0.000,0.000,0.000,,
46500,0.000,0.000,0.000,0.000,0.000,,
46560,0.000,0.000,0.000,0.000,0.000,,
46620,0.000,0.000,0.000,0.000,0.000,,
46680,0.000,0.000,0.000,0.000,0.000,,
46740,0.000,0.000,0.000,0.000,0.000,,
46800,0.000,0.000,0.000,0.000,0.000,,
46860,0.000,0.000,0.000,0.000,0.000,,
46920,0.000,0.000,0.000,0.000,0.000,,
46980,0.000,0.000,0.000,0.000,0.000,,
47040,0.000,0.000,0.000,0.000,0.000,,
47100,0.000,0.000,0.000,0.000,0.000,,
47160,0.000,0.000,0.000,0.000,0.000,,
47220,0.000,0.000,0.000,0.000,0.000,,
47280,0.000,0.000,0.000,0.000,0.000,,
47340,0.000,0.000,0.000,0.000,0.000,,
47400,0.000,0.000,0.000,0.000,0.000,,
47460,0.000,0.000,0.000,0.000,0.000,,
47520,0.000,0.000,0.000,0.000,0.000,,
47580,0.000,0.000,0.000,0.000,0.000,,
47640,0.000,0.000,0.000,0.000,0.000,,
47700,0.000,0.000,0.000,0.000,0.000,,
47760,0.000,0.000,0.000,0.000,0.000,,
47820,0.000,0.000,0.000,0.000,0.000,,
47880,0.000,0.000,0.000,0.000,0.000,,
47940,0.000,0.000,0.000,0.000,0.000,,
48000,0.000,0.000,0.000,0.000,0.000,,
48060,0.000,0.000,0.000,0.000,0.000,,
48120,0.000,0.000,0.000,0.000,0.000,,
48180,0.000,0.000,0.000,0.000,0.000,,
48240,0.000,0.000,0.000,0.000,0.000,,
48300,0.000,0.000,0.000,0.000,0.000,,
48360,0.000,0.000,0.000,0.000,0.000,,
48420,0.000,0.000,0.000,0.000,0.000,,
48480,0.000,0.000,0.000,0.000,0.000,,
48540,0.000,0.000,0.000,0.000,0.000,,
48600,0.000,0.000,0.000,0.000,0.000,,
48660,0.000,0.000,0.000,0.000,0.000,,
48720,0.000,0.000,0.000,0.000,0.000,,
48780,0.000,0.000,0.000,0.000,0.000,,
48840,0.000,0.000,0.000,0.000,0.000,,
48900,0.000,0.000,0.000,0.000,0.000,,
48960,0.000,0.000,0.000,0.000,0.000,,
49020,0.000,0.000,0.000,0.000,0.000,,
49080,0.000,0.000,0.000,0.000,0.000,,
49140,0.000,0.000,0.000,0.000,0.000,,
49200,0.000,0.000,0.000,0.000,0.000,,
49260,0.000,0.000,0.000,0.000,0.000,,
49320,0.000,0.000,0.000,0.000,0.000,,
49380,0.000,0.000,0.000,0.000,0.000,,
49440,0.000,0.000,0.000,0.000,0.000,,
49500,0.000,0.000,0.000,0.000,0.000,,
49560,0.000,0.000,0.000,0.000,0.000,,
49620,0.000,0.000,0.000,0.000,0.000,,
49680,0.000,0.000,0.000,0.000,0.000,,
49740,0.000,0.000,0.000,0.000,0.000,,
49800,0.000,0.000,0.000,0.000,0.000,,
49860,0.000,0.000,0.000,0.000,0.000,,
49920,0.000,0.000,0.000,0.000,0.000,,
49980,0.000,0.000,0.000,0.000,0.000,,
50040,0.000,0.000,0.000,0.000,0.000,,
50100,0.000,0.000,0.000,0.000,0.000,,
50160,0.000,0.000,0.000,0.000,0.000,,
50220,0.000,0.000,0.000,0.000,0.000,,
50280,0.000,0.000,0.000,0.000,0.000,,
50340,0.000,0.000,0.000,0.000,0.000,,
50400,0.000,0.000,0.000,0.000,0.000,,
50460,0.000,0.000,0.000,0.000,0.000,,
50520,0.000,0.000,0.000,0.000,0.000,,
50580,0.000,0.000,0.000,0.000,0.000,,
50640,0.000,0.000,0.000,0.000,0.000,,
50700,0.000,0.000,0.000,0.000,0.000,,
50760,0.000,0.000,0.000,0.000,0.000,,
50820,0.000,0.000,0.000,0.000,0.000,,
50880,0.000,0.000,0.000,0.000,0.000,,
50940,0.000,0.000,0.000,0.000,0.000,,
51000,0.000,0.000,0.000,0.000,0.000,,
51060,0.000,0.000,0.000,0.000,0.000,,
51120,0.000,0.000,0.000,0.000,0.000,,
51180,0.000,0.000,0.000,0.000,0.000,,
51240,0.000,0.000,0.000,0.000,0.000,,
51300,0.000,0.000,0.000,0.000,0.000,,
51360,0.000,0.000,0.000,0.000,0.000,,
51420,0.000,0.000,0.000,0.000,0.000,,
51480,0.000,0.000,0.000,0.000,0.000,,
51540,0.000,0.000,0.000,0.000,0.000,,
51600,0.000,0.000,0.000,0.000,0.000,,
51660,0.000,0.000,0.000,0.000,0.000,,
51720,0.000,0.000,0.000,0.000,0.000,,
51780,0.000,0.000,0.000,0.000,0.000,,
51840,0.000,0.000,0.000,0.000,0.000,,
51900,0.000,0.000,0.000,0.000,0.000,,
51960,0.000,0.000,0.000,0.000,0.000,,
52020,0.000,0.000,0.000,0.000,0.000,,
52080,0.000,0.000,0.000,0.000,0.000,,
52140,0.000,0.000,0.000,0.000,0.000,,
52200,0.000,0.000,0.000,0.000,0.000,,
52260,0.000,0.000,0.000,0.000,0.000,,
52320,0.000,0.000,0.000,0.000,0.000,,
52380,0.000,0.000,0.000,0.000,0.000,,
52440,0.000,0.000,0.000,0.000,0.000,,
52500,0.000,0.000,0.000,0.000,0.000,,
52560,0.000,0.000,0.000,0.000,0.000,,
52620,0.000,0.000,0.000,0.000,0.000,,
52680,0.000,0.000,0.000,0.000,0.000,,
52740,0.000,0.000,0.000,0.000,0.000,,
52800,0.000,0.000,0.000,0.000,0.000,,
52860,0.000,0.000,0.000,0.000,0.000,,
52920,0.000,0.000,0.000,0.000,0.000,,
52980,0.000,0.000,0.000,0.000,0.000,,
53040,0.000,0.000,0.000,0.000,0.000,,
53100,0.000,0.000,0.000,0.000,0.000,,
53160,0.000,0.000,0.000,0.000,0.000,,
53220,0.000,0.000,0.000,0.000,0.000,,
53280,0.000,0.000,0.000,0.000,0.000,,
53340,0.000,0.000,0.000,0.000,0.000,,
53400,0.000,0.000,0.000,0.000,0.000,,
53460,0.000,0.000,0.000,0.000,0.000,,
53520,0.000,0.000,0.000,0.000,0.000,,
53580,0.000,0.000,0.000,0.000,0.000,,
53640,0.000,0.000,0.000,0.000,0.000,,
53700,0.000,0.000,0.000,0.000,0.000,,
53760,0.000,0.000,0.000,0.000,0.000,,
53820,0.000,0.000,0.000,0.000,0.000,,
53880,0.000,0.000,0.000,0.000,0.000,,
53940,0.000,0.000,0.000,0.000,0.000,,
54000,0.000,0.000,0.000,0.000,0.000,,
54060,0.000,0.000,0.000,0.000,0.000,,
54120,0.000,0.000,0.000,0.000,0.000,,
54180,0.000,0.000,0.000,0.000,0.000,,
54240,0.000,0.000,0.000,0.000,0.000,,
54300,0.000,0.000,0.000,0.000,0.000,,
54360,0.000,0.000,0.000,0.000,0.000,,
54420,0.000,0.000,0.000,0.000,0.000,,
54480,0.000,0.000,0.000,0.000,0.000,,
54540,0.000,0.000,0.000,0.000,0.000,,
54600,0.000,0.000,0.000,0.000,0.000,,
54660,0.000,0.000,0.000,0.000,0.000,,
54720,0.000,0.000,0.000,0.000,0.000,,
54780,0.000,0.000,0.000,0.000,0.000,,
54840,0.000,0.000,0.000,0.000,0.000,,
54900,0.000,0.000,0.000,0.000,0.000,,
54960,0.000,0.000,0.000,0.000,0.000,,
55020,0.000,0.000,0.000,0.000,0.000,,
55080,0.000,0.000,0.000,0.000,0.000,,
55140,0.000,0.000,0.000,0.000,0.000,,
55200,0.000,0.000,0.000,0.000,0.000,,
55260,0.000,0.000,0.000,0.000,0.000,,
55320,0.000,0.000,0.000,0.000,0.000,,
55380,0.000,0.000,0.000,0.000,0.000,,
55440,0.000,0.000,0.000,0.000,0.000,,
55500,0.000,0.000,0.000,0.000,0.000,,
55560,0.000,0.000,0.000,0.000,0.000,,
55620,0.000,0.000,0.000,0.000,0.000,,
55680,0.000,0.000,0.000,0.000,0.000,,
55740,0.000,0.000,0.000,0.000,0.000,,
55800,0.000,0.000,0.000,0.000,0.000,,
55860,0.000,0.000,0.000,0.000,0.000,,
55920,0.000,0.000,0.000,0.000,0.000,,
55980,0.000,0.000,0.000,0.000,0.000,,
56040,0.000,0.000,0.000,0.000,0.000,,
56100,0.000,0.000,0.000,0.000,0.000,,
56160,0.000,0.000,0.000,0.000,0.000,,
56220,0.000,0.000,0.000,0.000,0.000,,
56280,0.000,0.000,0.000,0.000,0.000,,
56340,0.000,0.000,0.000,0.000,0.000,,
56400,0.000,0.000,0.000,0.000,0.000,,
56460,0.000,0.000,0.000,0.000,0.000,,
56520,0.000,0.000,0.000,0.000,0.000,,
56580,0.000,0.000,0.000,0.000,0.000,,
56640,0.000,0.000,0.000,0.000,0.000,,
56700,0.000,0.000,0.000,0.000,0.000,,
56760,0.000,0.000,0.000,0.000,0.000,,
56820,0.000,0.000,0.000,0.000,0.000,,
56880,0.000,0.000,0.000,0.000,0.000,,
56940,0.000,0.000,0.000,0.000,0.000,,
57000,0.000,0.000,0.000,0.000,0.000,,
57060,0.000,0.000,0.000,0.000,0.000,,
57120,0.000,0.000,0.000,0.000,0.000,,
57180,0.000,0.000,0.000,0.000,0.000,,
57240,0.000,0.000,0.000,0.000,0.000,,
57300,0.000,0.000,0.000,0.000,0.000,,
57360,0.000,0.000,0.000,0.000,0.000,,
57420,0.000,0.000,0.000,0.000,0.000,,
57480,0.000,0.000,0.000,0.000,0.000,,
57540,0.000,0.000,0.000,0.000,0.000,,
57600,0.000,0.000,0.000,0.000,0.000,,
57660,0.000,0.000,0.000,0.000,0.000,,
57720,0.000,0.000,0.000,0.000,0.000,,
57780,0.000,0.000,0.000,0.000,0.000,,
57840,0.000,0.000,0.000,0.000,0.000,,
57900,0.000,0.000,0.000,0.000,0.000,,
57960,0.000,0.000,0.000,0.000,0.000,,
58020,0.000,0.000,0.000,0.000,0.000,,
58080,0.000,0.000,0.000,0.000,0.000,,
58140,0.000,0.000,0.000,0.000,0.000,,
58200,0.000,0.000,0.000,0.000,0.000,,
58260,0.000,0.000,0.000,0.000,0.000,,
58320,0.000,0.000,0.000,0.000,0.000,,
58380,0.000,0.000,0.000,0.000,0.000,,
58440,0.000,0.000,0.000,0.000,0.000,,
58500,0.000,0.000,0.000,0.000,0.000,,
58560,0.000,0.000,0.000,0.000,0.000,,
58620,0.000,0.000,0.000,0.000,0.000,,
58680,0.000,0.000,0.000,0.000,0.000,,
58740,0.000,0.000,0.000,0.000,0.000,,
58800,0.000,0.000,0.000,0.000,0.000,,
58860,0.000,0.000,0.000,0.000,0.000,,
58920,0.000,0.000,0.000,0.000,0.000,,
58980,0.000,0.000,0.000,0.000,0.000,,
59040,0.000,0.000,0.000,0.000,0.000,,
59100,0.000,0.000,0.000,0.000,0.000,,
59160,0.000,0.000,0.000,0.000,0.000,,
59220,0.000,0.000,0.000,0.000,0.000,,
59280,0.000,0.000,0.000,0.000,0.000,,
59340,0.000,0.000,0.000,0.000,0.000,,
59400,0.000,0.000,0.000,0.000,0.000,,
59460,0.000,0.000,0.000,0.000,0.000,,
59520,0.000,0.000,0.000,0.000,0.000,,
59580,0.000,0.000,0.000,0.000,0.000,,
59640,0.000,0.000,0.000,0.000,0.000,,
59700,0.000,0.000,0.000,0.000,0.000,,
59760,0.000,0.000,0.000,0.000,0.000,,
59820,0.000,0.000,0.000,0.000,0.000,,
59880,0.000,0.000,0.000,0.000,0.000,,
59940,0.000,0.000,0.000,0.000,0.000,,
60000,0.000,0.000,0.000,0.000,0.000,,
60060,0.000,0.000,0.000,0.000,0.000,,
60120,0.000,0.000,0.000,0.000,0.000,,
60180,0.000,0.000,0.000,0.000,0.000,,
60240,0.000,0.000,0.000,0.000,0.000,,
60300,0.000,0.000,0.000,0.000,0.000,,
60360,0.000,0.000,0.000,0.000,0.000,,
60420,0.000,0.000,0.000,0.000,0.000,,
60480,0.000,0.000,0.000,0.000,0.000,,
60540,0.000,0.000,0.000,0.000,0.000,,
60600,0.000,0.000,0.000,0.000,0.000,,
60660,0.000,0.000,0.000,0.000,0.000,,
60720,0.000,0.000,0.000,0.000,0.000,,
60780,0.000,0.000,0.000,0.000,0.000,,
60840,0.000,0.000,0.000,0.000,0.000,,
60900,0.000,0.000,0.000,0.000,0.000,,
60960,0.000,0.000,0.000,0.000,0.000,,
61020,0.000,0.000,0.000,0.000,0.000,,
61080,0.000,0.000,0.000,0.000,0.000,,
61140,0.000,0.000,0.000,0.000,0.000,,
61200,0.000,0.000,0.000,0.000,0.000,,
61260,0.000,0.000,0.000,0.000,0.000,,
61320,0.000,0.000,0.000,0.000,0.000,,
61380,0.000,0.000,0.000,0.000,0.000,,
61440,0.000,0.000,0.000,0.000,0.000,,
61500,0.000,0.000,0.000,0.000,0.000,,
61560,0.000,0.000,0.000,0.000,0.000,,
61620,0.000,0.000,0.000,0.000,0.000,,
61680,0.000,0.000,0.000,0.000,0.000,,
61740,0.000,0.000,0.000,0.000,0.000,,
61800,0.000,0.000,0.000,0.000,0.000,,
61860,0.000,0.000,0.000,0.000,0.000,,
61920,0.000,0.000,0.000,0.000,0.000,,
61980,0.000,0.000,0.000,0.000,0.000,,
62040,0.000,0.000,0.000,0.000,0.000,,
62100,0.000,0.000,0.000,0.000,0.000,,
62160,0.000,0.000,0.000,0.000,0.000,,
62220,0.000,0.000,0.000,0.000,0.000,,
62280,0.000,0.000,0.000,0.000,0.000,,
62340,0.000,0.000,0.000,0.000,0.000,,
62400,0.000,0.000,0.000,0.000,0.000,,
62460,0.000,0.000,0.000,0.000,0.000,,
62520,0.000,0.000,0.000,0.000,0.000,,
62580,0.000,0.000,0.000,0.000,0.000,,
62640,0.000,0.000,0.000,0.000,0.000,,
62700,0.000,0.000,0.000,0.000,0.000,,
62760,0.000,0.000,0.000,0.000,0.000,,
62820,0.000,0.000,0.000,0.000,0.000,,
62880,0.000,0.000,0.000,0.000,0.000,,
62940,0.000,0.000,0.000,0.000,0.000,,
63000,0.000,0.000,0.000,0.000,0.000,,
63060,0.000,0.000,0.000,0.000,0.000,,
63120,0.000,0.000,0.000,0.000,0.000,,
63180,0.000,0.000,0.000,0.000,0.000,,
63240,0.000,0.000,0.000,0.000,0.000,,
63300,0.000,0.000,0.000,0.000,0.000,,
63360,0.000,0.000,0.000,0.000,0.000,,
63420,0.000,0.000,0.000,0.000,0.000,,
63480,0.000,0.000,0.000,0.000,0.000,,
63540,0.000,0.000,0.000,0.000,0.000,,
63600,0.000,0.000,0.000,0.000,0.000,,
63660,0.000,0.000,0.000,0.000,0.000,,
63720,0.000,0.000,0.000,0.000,0.000,,
63780,0.000,0.000,0.000,0.000,0.000,,
63840,0.000,0.000,0.000,0.000,0.000,,
63900,0.000,0.000,0.000,0.000,0.000,,
63960,0.000,0.000,0.000,0.000,0.000,,
64020,0.000,0.000,0.000,0.000,0.000,,
64080,0.000,0.000,0.000,0.000,0.000,,
64140,0.000,0.000,0.000,0.000,0.000,,
64200,0.000,0.000,0.000,0.000,0.000,,
64260,0.000,0.000,0.000,0.000,0.000,,
64320,0.000,0.000,0.000,0.000,0.000,,
64380,0.000,0.000,0.000,0.000,0.000,,
64440,0.000,0.000,0.000,0.000,0.000,,
64500,0.000,0.000,0.000,0.000,0.000,,
64560,0.000,0.000,0.000,0.000,0.000,,
64620,0.000,0.000,0.000,0.000,0.000,,
64680,0.000,0.000,0.000,0.000,0.000,,
64740,0.000,0.000,0.000,0.000,0.000,,
64800,0.000,0.000,0.000,0.000,0.000,,
64860,0.000,0.000,0.000,0.000,0.000,,
64920,0.000,0.000,0.000,0.000,0.000,,
64980,0.000,0.000,0.000,0.000,0.000,,
65040,0.000,0.000,0.000,0.000,0.000,,
65100,0.000,0.000,0.000,0.000,0.000,,
65160,0.000,0.000,0.000,0.000,0.000,,
65220,0.000,0.000,0.000,0.000,0.000,,
65280,0.000,0.000,0.000,0.000,0.000,,
65340,0.000,0.000,0.000,0.000,0.000,,
65400,0.000,0.000,0.000,0.000,0.000,,
65460,0.000,0.000,0.000,0.000,0.000,,
65520,0.000,0.000,0.000,0.000,0.000,,
65580,0.000,0.000,0.000,0.000,0.000,,
65640,0.000,0.000,0.000,0.000,0.000,,
65700,0.000,0.000,0.000,0.000,0.000,,
65760,0.000,0.000,0.000,0.000,0.000,,
65820,0.000,0.000,0.000,0.000,0.000,,
65880,0.000,0.000,0.000,0.000,0.000,,
65940,0.000,0.000,0.000,0.000,0.000,,
66000,0.000,0.000,0.000,0.000,0.000,,
66060,0.000,0.000,0.000,0.000,0.000,,
66120,0.000,0.000,0.000,0.000,0.000,,
66180,0.000,0.000,0.000,0.000,0.000,,
66240,0.000,0.000,0.000,0.000,0.000,,
66300,0.000,0.000,0.000,0.000,0.000,,
66360,0.000,0.000,0.000,0.000,0.000,,
66420,0.000,0.000,0.000,0.000,0.000,,
66480,0.000,0.000,0.000,0.000,0.000,,
66540,0.000,0.000,0.000,0.000,0.000,,
66600,0.000,0.000,0.000,0.000,0.000,,
66660,0.000,0.000,0.000,0.000,0.000,,
66720,0.000,0.000,0.000,0.000,0.000,,
66780,0.000,0.000,0.000,0.000,0.000,,
66840,0.000,0.000,0.000,0.000,0.000,,
66900,0.000,0.000,0.000,0.000,0.000,,
66960,0.000,0.000,0.000,0.000,0.000,,
67020,0.000,0.000,0.000,0.000,0.000,,
67080,0.000,0.000,0.000,0.000,0.000,,
67140,0.000,0.000,0.000,0.000,0.000,,
67200,0.000,0.000,0.000,0.000,0.000,,
67260,0.000,0.000,0.000,0.000,0.000,,
67320,0.000,0.000,0.000,0.000,0.000,,
67380,0.000,0.000,0.000,0.000,0.000,,
67440,0.000,0.000,0.000,0.000,0.000,,
67500,0.000,0.000,0.000,0.000,0.000,,
67560,0.000,0.000,0.000,0.000,0.000,,
67620,0.000,0.000,0.000,0.000,0.000,,
67680,0.000,0.000,0.000,0.000,0.000,,
67740,0.000,0.000,0.000,0.000,0.000,,
67800,0.000,0.000,0.000,0.000,0.000,,
67860,0.000,0.000,0.000,0.000,0.000,,
67920,0.000,0.000,0.000,0.000,0.000,,
67980,0.000,0.000,0.000,0.000,0.000,,
68040,0.000,0.000,0.000,0.000,0.000,,
68100,0.000,0.000,0.000,0.000,0.000,,
68160,0.000,0.000,0.000,0.000,0.000,,
68220,0.000,0.000,0.000,0.000,0.000,,
68280,0.000,0.000,0.000,0.000,0.000,,
68340,0.000,0.000,0.000,0.000,0.000,,
68400,0.000,0.000,0.000,0.000,0.000,,
68460,0.000,0.000,0.000,0.000,0.000,,
68520,0.000,0.000,0.000,0.000,0.000,,
68580,0.000,0.000,0.000,0.000,0.000,,
68640,0.000,0.000,0.000,0.000,0.000,,
68700,0.000,0.000,0.000,0.000,0.000,,
68760,0.000,0.000,0.000,0.000,0.000,,
68820,0.000,0.000,0.000,0.000,0.000,,
68880,0.000,0.000,0.000,0.000,0.000,,
68940,0.000,0.000,0.000,0.000,0.000,,
69000,0.000,0.000,0.000,0.000,0.000,,
69060,0.000,0.000,0.000,0.000,0.000,,
69120,0.000,0.000,0.000,0.000,0.000,,
69180,0.000,0.000,0.000,0.000,0.000,,
69240,0.000,0.000,0.000,0.000,0.000,,
69300,0.000,0.000,0.000,0.000,0.000,,
69360,0.000,0.000,0.000,0.000,0.000,,
69420,0.000,0.000,0.000,0.000,0.000,,
69480,0.000,0.000,0.000,0.000,0.000,,
69540,0.000,0.000,0.000,0.000,0.000,,
69600,0.000,0.000,0.000,0.000,0.000,,
69660,0.000,0.000,0.000,0.000,0.000,,
69720,0.000,0.000,0.000,0.000,0.000,,
69780,0.000,0.000,0.000,0.000,0.000,,
69840,0.000,0.000,0.000,0.000,0.000,,
69900,0.000,0.000,0.000,0.000,0.000,,
69960,0.000,0.000,0.000,0.000,0.000,,
70020,0.000,0.000,0.000,0.000,0.000,,
70080,0.000,0.000,0.000,0.000,0.000,,
70140,0.000,0.000,0.000,0.000,0.000,,
70200,0.000,0.000,0.000,0.000,0.000,,
70260,0.000,0.000,0.000,0.000,0.000,,
70320,0.000,0.000,0.000,0.000,0.000,,
70380,0.000,0.000,0.000,0.000,0.000,,
70440,0.000,0.000,0.000,0.000,0.000,,
70500,0.000,0.000,0.000,0.000,0.000,,
70560,0.000,0.000,0.000,0.000,0.000,,
70620,0.000,0.000,0.000,0.000,0.000,,
70680,0.000,0.000,0.000,0.000,0.000,,
70740,0.000,0.000,0.000,0.000,0.000,,
70800,0.000,0.000,0.000,0.000,0.000,,
70860,0.000,0.000,0.000,0.000,0.000,,
70920,0.000,0.000,0.000,0.000,0.000,,
70980,0.000,0.000,0.000,0.000,0.000,,
71040,0.000,0.000,0.000,0.000,0.000,,
71100,0.000,0.000,0.000,0.000,0.000,,
71160,0.000,0.000,0.000,0.000,0.000,,
71220,0.000,0.000,0.000,0.000,0.000,,
71280,0.000,0.000,0.000,0.000,0.000,,
71340,0.000,0.000,0.000,0.000,0.000,,
71400,0.000,0.000,0.000,0.000,0.000,,
71460,0.000,0.000,0.000,0.000,0.000,,
71520,0.000,0.000,0.000,0.000,0.000,,
71580,0.000,0.000,0.000,0.000,0.000,,
71640,0.000,0.000,0.000,0.000,0.000,,
71700,0.000,0.000,0.000,0.000,0.000,,
71760,0.000,0.000,0.000,0.000,0.000,,
71820,0.000,0.000,0.000,0.000,0.000,,
71880,0.000,0.000,0.000,0.000,0.000,,
71940,0.000,0.000,0.000,0.000,0.000,,
72000,0.000,0.000,0.000,0.000,0.000,,
72060,0.000,0.000,0.000,0.000,0.000,,
72120,0.000,0.000,0.000,0.000,0.000,,
72180,0.000,0.000,0.000,0.000,0.000,,
72240,0.000,0.000,0.000,0.000,0.000,,
72300,0.000,0.000,0.000,0.000,0.000,,
72360,0.000,0.000,0.000,0.000,0.000,,
72420,0.000,0.000,0.000,0.000,0.000,,
72480,0.000,0.000,0.000,0.000,0.000,,
72540,0.000,0.000,0.000,0.000,0.000,,
72600,0.000,0.000,0.000,0.000,0.000,,
72660,0.000,0.000,0.000,0.000,0.000,,
72720,0.000,0.000,0.000,0.000,0.000,,
72780,0.000,0.000,0.000,0.000,0.000,,
72840,0.000,0.000,0.000,0.000,0.000,,
72900,0.000,0.000,0.000,0.000,0.000,,
72960,0.000,0.000,0.000,0.000,0.000,,
73020,0.000,0.000,0.000,0.000,0.000,,
73080,0.000,0.000,0.000,0.000,0.000,,
73140,0.000,0.000,0.000,0.000,0.000,,
73200,0.000,0.000,0.000,0.000,0.000,,
73260,0.000,0.000,0.000,0.000,0.000,,
73320,0.000,0.000,0.000,0.000,0.000,,
73380,0.000,0.000,0.000,0.000,0.000,,
73440,0.000,0.000,0.000,0.000,0.000,,
73500,0.000,0.000,0.000,0.000,0.000,,
73560,0.000,0.000,0.000,0.000,0.000,,
73620,0.000,0.000,0.000,0.000,0.000,,
73680,0.000,0.000,0.000,0.000,0.000,,
73740,0.000,0.000,0.000,0.000,0.000,,
73800,0.000,0.000,0.000,0.000,0.000,,
73860,0.000,0.000,0.000,0.000,0.000,,
73920,0.000,0.000,0.000,0.000,0.000,,
73980,0.000,0.000,0.000,0.000,0.000,,
74040,0.000,0.000,0.000,0.000,0.000,,
74100,0.000,0.000,0.000,0.000,0.000,,
74160,0.000,0.000,0.000,0.000,0.000,,
74220,0.000,0.000,0.000,0.000,0.000,,
74280,0.000,0.000,0.000,0.000,0.000,,
74340,0.000,0.000,0.000,0.000,0.000,,
74400,0.000,0.000,0.000,0.000,0.000,,
74460,0.000,0.000,0.000,0.000,0.000,,
74520,0.000,0.000,0.000,0.000,0.000,,
74580,0.000,0.000,0.000,0.000,0.000,,
74640,0.000,0.000,0.000,0.000,0.000,,
74700,0.000,0.000,0.000,0.000,0.000,,
74760,0.000,0.000,0.000,0.000,0.000,,
74820,0.000,0.000,0.000,0.000,0.000,,
74880,0.000,0.000,0.000,0.000,0.000,,
74940,0.000,0.000,0.000,0.000,0.000,,
75000,0.000,0.000,0.000,0.000,0.000,,
75060,0.000,0.000,0.000,0.000,0.000,,
75120,0.000,0.000,0.000,0.000,0.000,,
75180,0.000,0.000,0.000,0.000,0.000,,
75240,0.000,0.000,0.000,0.000,0.000,,
75300,0.000,0.000,0.000,0.000,0.000,,
75360,0.000,0.000,0.000,0.000,0.000,,
75420,0.000,0.000,0.000,0.000,0.000,,
75480,0.000,0.000,0.000,0.000,0.000,,
75540,0.000,0.000,0.000,0.000,0.000,,
75600,0.000,0.000,0.000,0.000,0.000,,
75660,0.000,0.000,0.000,0.000,0.000,,
75720,0.000,0.000,0.000,0.000,0.000,,
75780,0.000,0.000,0.000,0.000,0.000,,
75840,0.000,0.000,0.000,0.000,0.000,,
75900,0.000,0.000,0.000,0.000,0.000,,
75960,0.000,0.000,0.000,0.000,0.000,,
76020,0.000,0.000,0.000,0.000,0.000,,
76080,0.000,0.000,0.000,0.000,0.000,,
76140,0.000,0.000,0.000,0.000,0.000,,
76200,0.000,0.000,0.000,0.000,0.000,,
76260,0.000,0.000,0.000,0.000,0.000,,
76320,0.000,0.000,0.000,0.000,0.000,,
76380,0.000,0.000,0.000,0.000,0.000,,
76440,0.000,0.000,0.000,0.000,0.000,,
76500,0.000,0.000,0.000,0.000,0.000,,
76560,0.000,0.000,0.000,0.000,0.000,,
76620,0.000,0.000,0.000,0.000,0.000,,
76680,0.000,0.000,0.000,0.000,0.000,,
76740,0.000,0.000,0.000,0.000,0.000,,
76800,0.000,0.000,0.000,0.000,0.000,,
76860,0.000,0.000,0.000,0.000,0.000,,
76920,0.000,0.000,0.000,0.000,0.000,,
76980,0.000,0.000,0.000,0.000,0.000,,
77040,0.000,0.000,0.000,0.000,0.000,,
77100,0.000,0.000,0.000,0.000,0.000,,
77160,0.000,0.000,0.000,0.000,0.000,,
77220,0.000,0.000,0.000,0.000,0.000,,
77280,0.000,0.000,0.000,0.000,0.000,,
77340,0.000,0.000,0.000,0.000,0.000,,
77400,0.000,0.000,0.000,0.000,0.000,,
77460,0.000,0.000,0.000,0.000,0.000,,
77520,0.000,0.000,0.000,0.000,0.000,,
77580,0.000,0.000,0.000,0.000,0.000,,
77640,0.000,0.000,0.000,0.000,0.000,,
77700,0.000,0.000,0.000,0.000,0.000,,
77760,0.000,0.000,0.000,0.000,0.000,,
77820,0.000,0.000,0.000,0.000,0.000,,
77880,0.000,0.000,0.000,0.000,0.000,,
77940,0.000,0.000,0.000,0.000,0.000,,
78000,0.000,0.000,0.000,0.000,0.000,,
78060,0.000,0.000,0.000,0.000,0.000,,
78120,0.000,0.000,0.000,0.000,0.000,,
78180,0.000,0.000,0.000,0.000,0.000,,
78240,0.000,0.000,0.000,0.000,0.000,,
78300,0.000,0.000,0.000,0.000,0.000,,
78360,0.000,0.000,0.000,0.000,0.000,,
78420,0.000,0.000,0.000,0.000,0.000,,
78480,0.000,0.000,0.000,0.000,0.000,,
78540,0.000,0.000,0.000,0.000,0.000,,
78600,0.000,0.000,0.000,0.000,0.000,,
78660,0.000,0.000,0.000,0.000,0.000,,
78720,0.000,0.000,0.000,0.000,0.000,,
78780,0.000,0.000,0.000,0.000,0.000,,
78840,0.000,0.000,0.000,0.000,0.000,,
78900,0.000,0.000,0.000,0.000,0.000,,
78960,0.000,0.000,0.000,0.000,0.000,,
79020,0.000,0.000,0.000,0.000,0.000,,
79080,0.000,0.000,0.000,0.000,0.000,,
79140,0.000,0.000,0.000,0.000,0.000,,
79200,0.000,0.000,0.000,0.000,0.000,,
79260,0.000,0.000,0.000,0.000,0.000,,
79320,0.000,0.000,0.000,0.000,0.000,,
79380,0.000,0.000,0.000,0.000,0.000,,
79440,0.000,0.000,0.000,0.000,0.000,,
79500,0.000,0.000,0.000,0.000,0.000,,
79560,0.000,0.000,0.000,0.000,0.000,,
79620,0.000,0.000,0.000,0.000,0.000,,
79680,0.000,0.000,0.000,0.000,0.000,,
79740,0.000,0.000,0.000,0.000,0.000,,
79800,0.000,0.000,0.000,0.000,0.000,,
79860,0.000,0.000,0.000,0.000,0.000,,
79920,0.000,0.000,0.000,0.000,0.000,,
79980,0.000,0.000,0.000,0.000,0.000,,
80040,0.000,0.000,0.000,0.000,0.000,,
80100,0.000,0.000,0.000,0.000,0.000,,
80160,0.000,0.000,0.000,0.000,0.000,,
80220,0.000,0.000,0.000,0.000,0.000,,
80280,0.000,0.000,0.000,0.000,0.000,,
80340,0.000,0.000,0.000,0.000,0.000,,
80400,0.000,0.000,0.000,0.000,0.000,,
80460,0.000,0.000,0.000,0.000,0.000,,
80520,0.000,0.000,0.000,0.000,0.000,,
80580,0.000,0.000,0.000,0.000,0.000,,
80640,0.000,0.000,0.000,0.000,0.000,,
80700,0.000,0.000,0.000,0.000,0.000,,
80760,0.000,0.000,0.000,0.000,0.000,,
80820,0.000,0.000,0.000,0.000,0.000,,
80880,0.000,0.000,0.000,0.000,0.000,,
80940,0.000,0.000,0.000,0.000,0.000,,
81000,0.000,0.000,0.000,0.000,0.000,,
81060,0.000,0.000,0.000,0.000,0.000,,
81120,0.000,0.000,0.000,0.000,0.000,,
81180,0.000,0.000,0.000,0.000,0.000,,
81240,0.000,0.000,0.000,0.000,0.000,,
81300,0.000,0.000,0.000,0.000,0.000,,
81360,0.000,0.000,0.000,0.000,0.000,,
81420,0.000,0.000,0.000,0.000,0.000,,
81480,0.000,0.000,0.000,0.000,0.000,,
81540,0.000,0.000,0.000,0.000,0.000,,
81600,0.000,0.000,0.000,0.000,0.000,,
81660,0.000,0.000,0.000,0.000,0.000,,
81720,0.000,0.000,0.000,0.000,0.000,,
81780,0.000,0.000,0.000,0.000,0.000,,
81840,0.000,0.000,0.000,0.000,0.000,,
81900,0.000,0.000,0.000,0.000,0.000,,
81960,0.000,0.000,0.000,0.000,0.000,,
82020,0.000,0.000,0.000,0.000,0.000,,
82080,0.000,0.000,0.000,0.000,0.000,,
82140,0.000,0.000,0.000,0.000,0.000,,
82200,0.000,0.000,0.000,0.000,0.000,,
82260,0.000,0.000,0.000,0.000,0.000,,
82320,0.000,0.000,0.000,0.000,0.000,,
82380,0.000,0.000,0.000,0.000,0.000,,
82440,0.000,0.000,0.000,0.000,0.000,,
82500,0.000,0.000,0.000,0.000,0.000,,
82560,0.000,0.000,0.000,0.000,0.000,,
82620,0.000,0.000,0.000,0.000,0.000,,
82680,0.000,0.000,0.000,0.000,0.000,,
82740,0.000,0.000,0.000,0.000,0.000,,
82800,0.000,0.000,0.000,0.000,0.000,,
82860,0.000,0.000,0.000,0.000,0.000,,
82920,0.000,0.000,0.000,0.000,0.000,,
82980,0.000,0.000,0.000,0.000,0.000,,
83040,0.000,0.000,0.000,0.000,0.000,,
83100,0.000,0.000,0.000,0.000,0.000,,
83160,0.000,0.000,0.000,0.000,0.000,,
83220,0.000,0.000,0.000,0.000,0.000,,
83280,0.000,0.000,0.000,0.000,0.000,,
83340,0.000,0.000,0.000,0.000,0.000,,
83400,0.000,0.000,0.000,0.000,0.000,,
83460,0.000,0.000,0.000,0.000,0.000,,
83520,0.000,0.000,0.000,0.000,0.000,,
83580,0.000,0.000,0.000,0.000,0.000,,
83640,0.000,0.000,0.000,0.000,0.000,,
83700,0.000,0.000,0.000,0.000,0.000,,
83760,0.000,0.000,0.000,0.000,0.000,,
83820,0.000,0.000,0.000,0.000,0.000,,
83880,0.000,0.000,0.000,0.000,0.000,,
83940,0.000,0.000,0.000,0.000,0.000,,
84000,0.000,0.000,0.000,0.000,0.000,,
84060,0.000,0.000,0.000,0.000,0.000,,
84120,0.000,0.000,0.000,0.000,0.000,,
84180,0.000,0.000,0.000,0.000,0.000,,
84240,0.000,0.000,0.000,0.000,0.000,,
84300,0.000,0.000,0.000,0.000,0.000,,
84360,0.000,0.000,0.000,0.000,0.000,,
84420,0.000,0.000,0.000,0.000,0.000,,
84480,0.000,0.000,0.000,0.000,0.000,,
84540,0.000,0.000,0.000,0.000,0.000,,
84600,0.000,0.000,0.000,0.000,0.000,,
84660,0.000,0.000,0.000,0.000,0.000,,
84720,0.000,0.000,0.000,0.000,0.000,,
84780,0.000,0.000,0.000,0.000,0.000,,
84840,0.000,0.000,0.000,0.000,0.000,,
84900,0.000,0.000,0.000,0.000,0.000,,
84960,0.000,0.000,0.000,0.000,0.000,,
85020,0.000,0.000,0.000,0.000,0.000,,
85080,0.000,0.000,0.000,0.000,0.000,,
85140,0.000,0.000,0.000,0.000,0.000,,
85200,0.000,0.000,0.000,0.000,0.000,,
85260,0.000,0.000,0.000,0.000,0.000,,
85320,0.000,0.000,0.000,0.000,0.000,,
85380,0.000,0.000,0.000,0.000,0.000,,
85440,0.000,0.000,0.000,0.000,0.000,,
85500,0.000,0.000,0.000,0.000,0.000,,
85560,0.000,0.000,0.000,0.000,0.000,,
85620,0.000,0.000,0.000,0.000,0.000,,
85680,0.000,0.000,0.000,0.000,0.000,,
85740,0.000,0.000,0.000,0.000,0.000,,
85800,0.000,0.000,0.000,0.000,0.000,,
85860,0.000,0.000,0.000,0.000,0.000,,
85920,0.000,0.000,0.000,0.000,0.000,,
85980,0.000,0.000,0.000,0.000,0.000,,
86040,0.000,0.000,0.000,0.000,0.000,,
86100,0.000,0.000,0.000,0.000,0.000,,
86160,0.000,0.000,0.000,0.000,0.000,,
86220,0.000,0.000,0.000,0.000,0.000,,
86280,0.000,0.000,0.000,0.000,0.000,,
86340,0.000,0.000,0.000,0.000,0.000,,
86400,0.000,0.000,0.000,0.000,0.000,,
86460,0.000,0.000,0.000,0.000,0.000,,
86520,0.000,0.000,0.000,0.000,0.000,,
86580,0.000,0.000,0.000,0.000,0.000,,
86640,0.000,0.000,0.000,0.000,0.000,,
86700,0.000,0.000,0.000,0.000,0.000,,
86760,0.000,0.000,0.000,0.000,0.000,,
86820,0.000,0.000,0.000,0.000,0.000,,
86880,0.000,0.000,0.000,0.000,0.000,,
86940,0.000,0.000,0.000,0.000,0.000,,
87000,0.000,0.000,0.000,0.000,0.000,,
87060,0.000,0.000,0.000,0.000,0.000,,
87120,0.000,0.000,0.000,0.000,0.000,,
87180,0.000,0.000,0.000,0.000,0.000,,
87240,0.000,0.000,0.000,0.000,0.000,,
87300,0.000,0.000,0.000,0.000,0.000,,
87360,0.000,0.000,0.000,0.000,0.000,,
87420,0.000,0.000,0.000,0.000,0.000,,
87480,0.000,0.000,0.000,0.000,0.000,,
87540,0.000,0.000,0.000,0.000,0.000,,
87600,0.000,0.000,0.000,0.000,0.000,,
87660,0.000,0.000,0.000,0.000,0.000,,
87720,0.000,0.000,0.000,0.000,0.000,,
87780,0.000,0.000,0.000,0.000,0.000,,
87840,0.000,0.000,0.000,0.000,0.000,,
87900,0.000,0.000,0.000,0.000,0.000,,
87960,0.000,0.000,0.000,0.000,0.000,,
88020,0.000,0.000,0.000,0.000,0.000,,
88080,0.000,0.000,0.000,0.000,0.000,,
88140,0.000,0.000,0.000,0.000,0.000,,
88200,0.000,0.000,0.000,0.000,0.000,,
88260,0.000,0.000,0.000,0.000,0.000,,
88320,0.000,0.000,0.000,0.000,0.000,,
88380,0.000,0.000,0.000,0.000,0.000,,
88440,0.000,0.000,0.000,0.000,0.000,,
88500,0.000,0.000,0.000,0.000,0.000,,
88560,0.000,0.000,0.000,0.000,0.000,,
88620,0.000,0.000,0.000,0.000,0.000,,
88680,0.000,0.000,0.000,0.000,0.000,,
88740,0.000,0.000,0.000,0.000,0.000,,
88800,0.000,0.000,0.000,0.000,0.000,,
88860,0.000,0.000,0.000,0.000,0.000,,
88920,0.000,0.000,0.000,0.000,0.000,,
88980,0.000,0.000,0.000,0.000,0.000,,
89040,0.000,0.000,0.000,0.000,0.000,,
89100,0.000,0.000,0.000,0.000,0.000,,
89160,0.000,0.000,0.000,0.000,0.000,,
89220,0.000,0.000,0.000,0.000,0.000,,
89280,0.000,0.000,0.000,0.000,0.000,,
89340,0.000,0.000,0.000,0.000,0.000,,
89400,0.000,0.000,0.000,0.000,0.000,,
89460,0.000,0.000,0.000,0.000,0.000,,
89520,0.000,0.000,0.000,0.000,0.000,,
89580,0.000,0.000,0.000,0.000,0.000,,
