Instrument Name,DustTrak DRX
Model Number,8533
Serial Number,8533103404
Firmware Version,3.0
Calibration Date,03/12/2014
Test Name,MANUAL_021
Test Start Time,17:37:52
Test Start Date,06/11/2018
Test Length [D:H:M],1:15:52
Test Interval [M:S],1:0
PM1 Average [mg/m3],0.022
PM1 Minimum [mg/m3],0.000
PM1 Maximum [mg/m3],1.29
PM1 TWA [mg/m3],0.042
PM2.5 Average [mg/m3],0.023
PM2.5 Minimum [mg/m3],0.000
PM2.5 Maximum [mg/m3],1.29
PM2.5 TWA [mg/m3],0.043
PM4 Average [mg/m3],0.023
PM4 Minimum [mg/m3],0.000
PM4 Maximum [mg/m3],1.29
PM4 TWA [mg/m3],0.043
PM10 Average [mg/m3],0.023
PM10 Minimum [mg/m3],0.000
PM10 Maximum [mg/m3],1.29
PM10 TWA [mg/m3],0.043
TOTAL Average [mg/m3],0.023
TOTAL Minimum [mg/m3],0.000
TOTAL Maximum [mg/m3],1.29
TOTAL TWA [mg/m3],0.043
Photometric User Cal,1.00
Size Correction User Cal,1.00
Flow User Cal,0.00
Errors,
Number of Samples,2392

Elapsed Time [s],PM1 [mg/m3],PM2.5 [mg/m3],PM4 [mg/m3],PM10 [mg/m3],TOTAL [mg/m3],Alarms,Errors
60,0.003,0.003,0.003,0.003,0.003,,
120,0.608,0.608,0.608,0.609,0.609,,
180,1.29,1.29,1.29,1.29,1.29,,
240,0.941,0.942,0.943,0.943,0.943,,
300,0.613,0.615,0.615,0.615,0.615,,
360,0.390,0.392,0.392,0.392,0.392,,
420,0.254,0.255,0.255,0.255,0.255,,
480,0.188,0.189,0.189,0.189,0.189,,
540,0.184,0.185,0.186,0.186,0.186,,
600,0.184,0.186,0.186,0.186,0.186,,
660,0.179,0.180,0.180,0.180,0.180,,
720,0.170,0.171,0.171,0.171,0.171,,
780,0.161,0.163,0.163,0.163,0.163,,
840,0.152,0.154,0.154,0.154,0.154,,
900,0.144,0.145,0.145,0.145,0.145,,
960,0.138,0.139,0.140,0.140,0.140,,
1020,0.132,0.134,0.134,0.134,0.134,,
1080,0.126,0.127,0.127,0.127,0.127,,
1140,0.120,0.121,0.121,0.121,0.121,,
1200,0.116,0.117,0.117,0.117,0.117,,
1260,0.111,0.113,0.113,0.113,0.113,,
1320,0.106,0.107,0.107,0.107,0.107,,
1380,0.100,0.102,0.102,0.102,0.102,,
1440,0.097,0.099,0.099,0.099,0.099,,
1500,0.094,0.095,0.095,0.095,0.095,,
1560,0.090,0.091,0.091,0.091,0.091,,
1620,0.086,0.087,0.088,0.088,0.088,,
1680,0.083,0.084,0.084,0.084,0.084,,
1740,0.080,0.081,0.081,0.081,0.081,,
1800,0.078,0.079,0.079,0.079,0.079,,
1860,0.074,0.075,0.076,0.076,0.076,,
1920,0.072,0.073,0.073,0.073,0.073,,
1980,0.069,0.069,0.070,0.070,0.070,,
2040,0.067,0.068,0.068,0.068,0.068,,
2100,0.065,0.065,0.066,0.066,0.066,,
2160,0.063,0.064,0.064,0.064,0.064,,
2220,0.060,0.061,0.061,0.061,0.061,,
2280,0.059,0.059,0.060,0.060,0.060,,
2340,0.057,0.058,0.058,0.058,0.058,,
2400,0.055,0.055,0.055,0.055,0.055,,
2460,0.053,0.054,0.054,0.054,0.054,,
2520,0.051,0.052,0.052,0.052,0.052,,
2580,0.050,0.050,0.050,0.050,0.050,,
2640,0.049,0.049,0.049,0.049,0.049,,
2700,0.047,0.047,0.047,0.047,0.047,,
2760,0.045,0.046,0.046,0.046,0.046,,
2820,0.044,0.044,0.044,0.044,0.044,,
2880,0.043,0.043,0.043,0.043,0.043,,
2940,0.041,0.042,0.042,0.042,0.042,,
3000,0.040,0.041,0.041,0.041,0.041,,
3060,0.038,0.039,0.039,0.039,0.039,,
3120,0.037,0.038,0.038,0.038,0.038,,
3180,0.036,0.037,0.037,0.037,0.037,,
3240,0.035,0.036,0.036,0.036,0.036,,
3300,0.035,0.035,0.035,0.035,0.035,,
3360,0.033,0.034,0.034,0.034,0.034,,
3420,0.033,0.033,0.033,0.033,0.033,,
3480,0.032,0.032,0.032,0.032,0.032,,
3540,0.031,0.031,0.031,0.031,0.031,,
3600,0.029,0.030,0.030,0.030,0.030,,
3660,0.029,0.029,0.029,0.029,0.029,,
3720,0.028,0.028,0.028,0.028,0.028,,
3780,0.028,0.028,0.028,0.028,0.028,,
3840,0.026,0.027,0.027,0.027,0.027,,
3900,0.026,0.026,0.026,0.026,0.026,,
3960,0.025,0.025,0.025,0.025,0.025,,
4020,0.025,0.025,0.025,0.025,0.025,,
4080,0.024,0.024,0.024,0.024,0.024,,
4140,0.023,0.023,0.023,0.023,0.023,,
4200,0.022,0.022,0.022,0.022,0.022,,
4260,0.022,0.022,0.022,0.022,0.022,,
4320,0.022,0.022,0.022,0.022,0.022,,
4380,0.021,0.021,0.021,0.021,0.021,,
4440,0.020,0.021,0.021,0.021,0.021,,
4500,0.020,0.020,0.020,0.020,0.020,,
4560,0.020,0.020,0.020,0.020,0.020,,
4620,0.019,0.019,0.019,0.019,0.019,,
4680,0.018,0.018,0.018,0.018,0.018,,
4740,0.018,0.018,0.018,0.018,0.018,,
4800,0.017,0.018,0.018,0.018,0.018,,
4860,0.017,0.017,0.017,0.017,0.017,,
4920,0.017,0.017,0.017,0.017,0.017,,
4980,0.016,0.016,0.016,0.016,0.016,,
5040,0.016,0.016,0.016,0.016,0.016,,
5100,0.015,0.015,0.015,0.015,0.015,,
5160,0.015,0.015,0.015,0.015,0.015,,
5220,0.015,0.015,0.015,0.015,0.015,,
5280,0.014,0.014,0.014,0.014,0.014,,
5340,0.014,0.014,0.014,0.014,0.014,,
5400,0.014,0.014,0.014,0.014,0.014,,
5460,0.013,0.013,0.013,0.013,0.013,,
5520,0.013,0.013,0.013,0.013,0.013,,
5580,0.013,0.013,0.013,0.013,0.013,,
5640,0.013,0.013,0.013,0.013,0.013,,
5700,0.012,0.012,0.012,0.012,0.012,,
5760,0.012,0.012,0.012,0.012,0.012,,
5820,0.012,0.012,0.012,0.012,0.012,,
5880,0.011,0.011,0.011,0.011,0.011,,
5940,0.011,0.011,0.011,0.011,0.011,,
6000,0.011,0.011,0.011,0.011,0.011,,
6060,0.010,0.010,0.010,0.010,0.010,,
6120,0.010,0.010,0.010,0.010,0.010,,
6180,0.010,0.010,0.010,0.010,0.010,,
6240,0.010,0.010,0.010,0.010,0.010,,
6300,0.009,0.010,0.010,0.010,0.010,,
6360,0.009,0.009,0.009,0.009,0.009,,
6420,0.009,0.009,0.009,0.009,0.009,,
6480,0.009,0.009,0.009,0.009,0.009,,
6540,0.009,0.009,0.009,0.009,0.009,,
6600,0.008,0.009,0.009,0.009,0.009,,
6660,0.008,0.008,0.008,0.008,0.008,,
6720,0.008,0.008,0.008,0.008,0.008,,
6780,0.008,0.008,0.008,0.008,0.008,,
6840,0.008,0.008,0.008,0.008,0.008,,
6900,0.008,0.008,0.008,0.008,0.008,,
6960,0.008,0.008,0.008,0.008,0.008,,
7020,0.007,0.007,0.007,0.007,0.007,,
7080,0.007,0.007,0.007,0.007,0.007,,
7140,0.007,0.007,0.007,0.007,0.007,,
7200,0.006,0.006,0.006,0.006,0.006,,
7260,0.006,0.006,0.006,0.006,0.006,,
7320,0.005,0.005,0.005,0.005,0.005,,
7380,0.004,0.004,0.004,0.004,0.004,,
7440,0.003,0.003,0.003,0.003,0.003,,
7500,0.002,0.002,0.002,0.002,0.002,,
7560,0.002,0.002,0.002,0.002,0.002,,
7620,0.002,0.002,0.002,0.002,0.002,,
7680,0.001,0.001,0.001,0.001,0.001,,
7740,0.001,0.001,0.001,0.001,0.001,,
7800,0.001,0.001,0.001,0.001,0.001,,
7860,0.001,0.001,0.001,0.001,0.001,,
7920,0.001,0.001,0.001,0.001,0.001,,
7980,0.001,0.001,0.001,0.001,0.001,,
8040,0.002,0.002,0.002,0.002,0.002,,
8100,0.145,0.147,0.147,0.147,0.147,,
8160,0.273,0.276,0.277,0.277,0.277,,
8220,0.196,0.198,0.199,0.199,0.199,,
8280,0.192,0.194,0.195,0.195,0.195,,
8340,0.187,0.189,0.189,0.189,0.189,,
8400,0.181,0.183,0.183,0.183,0.183,,
8460,0.175,0.177,0.178,0.178,0.178,,
8520,0.173,0.175,0.176,0.176,0.176,,
8580,0.171,0.174,0.174,0.174,0.174,,
8640,0.169,0.171,0.171,0.171,0.171,,
8700,0.168,0.170,0.171,0.171,0.171,,
8760,0.167,0.170,0.170,0.170,0.170,,
8820,0.165,0.167,0.168,0.168,0.168,,
8880,0.163,0.165,0.165,0.165,0.165,,
8940,0.162,0.164,0.165,0.165,0.165,,
9000,0.160,0.163,0.163,0.163,0.163,,
9060,0.159,0.162,0.162,0.162,0.162,,
9120,0.156,0.159,0.159,0.159,0.159,,
9180,0.156,0.159,0.159,0.159,0.159,,
9240,0.153,0.156,0.156,0.156,0.156,,
9300,0.154,0.157,0.157,0.157,0.157,,
9360,0.150,0.152,0.152,0.152,0.152,,
9420,0.148,0.151,0.151,0.151,0.151,,
9480,0.147,0.150,0.150,0.150,0.150,,
9540,0.141,0.144,0.144,0.144,0.144,,
9600,0.142,0.145,0.145,0.145,0.145,,
9660,0.138,0.141,0.141,0.141,0.141,,
9720,0.136,0.139,0.139,0.139,0.139,,
9780,0.133,0.136,0.136,0.136,0.136,,
9840,0.131,0.134,0.134,0.134,0.134,,
9900,0.129,0.132,0.132,0.132,0.132,,
9960,0.125,0.128,0.128,0.128,0.128,,
10020,0.123,0.125,0.126,0.126,0.126,,
10080,0.119,0.121,0.121,0.122,0.122,,
10140,0.117,0.120,0.120,0.120,0.120,,
10200,0.113,0.116,0.116,0.116,0.116,,
10260,0.113,0.115,0.116,0.116,0.116,,
10320,0.108,0.111,0.111,0.111,0.111,,
10380,0.105,0.108,0.108,0.108,0.108,,
10440,0.103,0.106,0.106,0.106,0.106,,
10500,0.100,0.103,0.103,0.103,0.103,,
10560,0.098,0.101,0.101,0.101,0.101,,
10620,0.095,0.098,0.098,0.098,0.098,,
10680,0.092,0.095,0.095,0.095,0.095,,
10740,0.091,0.094,0.094,0.094,0.094,,
10800,0.090,0.092,0.092,0.092,0.092,,
10860,0.088,0.091,0.091,0.091,0.091,,
10920,0.087,0.089,0.089,0.089,0.089,,
10980,0.085,0.088,0.088,0.088,0.088,,
11040,0.083,0.085,0.085,0.085,0.085,,
11100,0.081,0.084,0.084,0.084,0.084,,
11160,0.079,0.081,0.081,0.081,0.081,,
11220,0.079,0.081,0.082,0.082,0.082,,
11280,0.077,0.079,0.079,0.079,0.079,,
11340,0.075,0.077,0.077,0.077,0.077,,
11400,0.073,0.076,0.076,0.076,0.076,,
11460,0.072,0.074,0.075,0.075,0.075,,
11520,0.070,0.072,0.073,0.073,0.073,,
11580,0.068,0.071,0.071,0.071,0.071,,
11640,0.066,0.068,0.068,0.068,0.068,,
11700,0.064,0.067,0.067,0.067,0.067,,
11760,0.064,0.066,0.066,0.066,0.066,,
11820,0.062,0.065,0.065,0.065,0.065,,
11880,0.061,0.063,0.064,0.064,0.064,,
11940,0.061,0.063,0.063,0.063,0.063,,
12000,0.058,0.060,0.060,0.060,0.060,,
12060,0.059,0.061,0.061,0.061,0.061,,
12120,0.057,0.059,0.059,0.059,0.059,,
12180,0.057,0.059,0.059,0.059,0.059,,
12240,0.055,0.057,0.057,0.057,0.057,,
12300,0.055,0.057,0.057,0.057,0.057,,
12360,0.054,0.056,0.056,0.056,0.056,,
12420,0.052,0.055,0.055,0.055,0.055,,
12480,0.050,0.052,0.052,0.052,0.052,,
12540,0.049,0.051,0.051,0.051,0.051,,
12600,0.048,0.050,0.050,0.051,0.051,,
12660,0.047,0.049,0.049,0.049,0.049,,
12720,0.046,0.048,0.048,0.048,0.048,,
12780,0.045,0.047,0.047,0.047,0.047,,
12840,0.045,0.047,0.047,0.047,0.047,,
12900,0.044,0.045,0.045,0.045,0.045,,
12960,0.042,0.044,0.044,0.044,0.044,,
13020,0.043,0.044,0.044,0.044,0.044,,
13080,0.041,0.042,0.043,0.043,0.043,,
13140,0.039,0.041,0.041,0.041,0.041,,
13200,0.039,0.041,0.041,0.041,0.041,,
13260,0.039,0.040,0.041,0.041,0.041,,
13320,0.037,0.038,0.038,0.038,0.038,,
13380,0.038,0.039,0.039,0.039,0.039,,
13440,0.037,0.038,0.038,0.038,0.038,,
13500,0.035,0.037,0.037,0.037,0.037,,
13560,0.034,0.036,0.036,0.036,0.036,,
13620,0.035,0.036,0.036,0.036,0.036,,
13680,0.035,0.036,0.036,0.036,0.036,,
13740,0.033,0.034,0.034,0.034,0.034,,
13800,0.032,0.033,0.033,0.033,0.033,,
13860,0.031,0.032,0.033,0.033,0.033,,
13920,0.031,0.032,0.032,0.032,0.032,,
13980,0.029,0.030,0.031,0.031,0.031,,
14040,0.029,0.030,0.030,0.030,0.030,,
14100,0.029,0.030,0.030,0.030,0.030,,
14160,0.028,0.029,0.029,0.029,0.029,,
14220,0.028,0.029,0.029,0.029,0.029,,
14280,0.026,0.027,0.027,0.027,0.027,,
14340,0.026,0.027,0.027,0.027,0.027,,
14400,0.024,0.025,0.025,0.025,0.025,,
14460,0.024,0.025,0.025,0.025,0.025,,
14520,0.024,0.025,0.025,0.025,0.025,,
14580,0.023,0.024,0.024,0.024,0.024,,
14640,0.022,0.023,0.023,0.023,0.023,,
14700,0.021,0.022,0.022,0.022,0.022,,
14760,0.022,0.022,0.023,0.023,0.023,,
14820,0.020,0.021,0.021,0.021,0.021,,
14880,0.020,0.020,0.021,0.021,0.021,,
14940,0.019,0.020,0.020,0.020,0.020,,
15000,0.019,0.020,0.020,0.020,0.020,,
15060,0.018,0.018,0.018,0.018,0.018,,
15120,0.018,0.018,0.018,0.018,0.018,,
15180,0.017,0.017,0.017,0.017,0.017,,
15240,0.016,0.017,0.017,0.017,0.017,,
15300,0.017,0.017,0.017,0.017,0.017,,
15360,0.016,0.017,0.017,0.017,0.017,,
15420,0.016,0.016,0.017,0.017,0.017,,
15480,0.016,0.016,0.016,0.016,0.016,,
15540,0.015,0.016,0.016,0.016,0.016,,
15600,0.015,0.016,0.016,0.016,0.016,,
15660,0.014,0.015,0.015,0.015,0.015,,
15720,0.014,0.015,0.015,0.015,0.015,,
15780,0.014,0.015,0.015,0.015,0.015,,
15840,0.014,0.014,0.014,0.014,0.014,,
15900,0.013,0.014,0.014,0.014,0.014,,
15960,0.013,0.013,0.013,0.013,0.013,,
16020,0.013,0.013,0.013,0.013,0.013,,
16080,0.012,0.013,0.013,0.013,0.013,,
16140,0.012,0.012,0.012,0.012,0.012,,
16200,0.012,0.012,0.012,0.012,0.012,,
16260,0.011,0.012,0.012,0.012,0.012,,
16320,0.011,0.012,0.012,0.012,0.012,,
16380,0.010,0.011,0.011,0.011,0.011,,
16440,0.011,0.011,0.011,0.011,0.011,,
16500,0.011,0.011,0.012,0.012,0.012,,
16560,0.010,0.011,0.011,0.011,0.011,,
16620,0.010,0.010,0.010,0.010,0.010,,
16680,0.010,0.010,0.010,0.010,0.010,,
16740,0.010,0.010,0.010,0.010,0.010,,
16800,0.009,0.010,0.010,0.010,0.010,,
16860,0.009,0.010,0.010,0.010,0.010,,
16920,0.009,0.009,0.009,0.009,0.009,,
16980,0.009,0.009,0.009,0.009,0.009,,
17040,0.009,0.009,0.009,0.009,0.009,,
17100,0.008,0.009,0.009,0.009,0.009,,
17160,0.009,0.009,0.009,0.009,0.009,,
17220,0.008,0.008,0.008,0.008,0.008,,
17280,0.008,0.008,0.008,0.008,0.008,,
17340,0.008,0.008,0.008,0.008,0.008,,
17400,0.008,0.008,0.008,0.008,0.008,,
17460,0.007,0.008,0.008,0.008,0.008,,
17520,0.007,0.007,0.007,0.007,0.007,,
17580,0.007,0.008,0.008,0.008,0.008,,
17640,0.007,0.007,0.007,0.007,0.007,,
17700,0.008,0.008,0.008,0.008,0.008,,
17760,0.007,0.007,0.007,0.007,0.007,,
17820,0.007,0.007,0.007,0.007,0.007,,
17880,0.007,0.007,0.007,0.007,0.007,,
17940,0.006,0.007,0.007,0.007,0.007,,
18000,0.006,0.006,0.007,0.007,0.007,,
18060,0.006,0.006,0.006,0.006,0.006,,
18120,0.006,0.006,0.006,0.006,0.006,,
18180,0.006,0.007,0.007,0.007,0.007,,
18240,0.006,0.006,0.006,0.006,0.006,,
18300,0.006,0.006,0.006,0.006,0.006,,
18360,0.006,0.006,0.006,0.006,0.006,,
18420,0.006,0.006,0.006,0.006,0.006,,
18480,0.005,0.006,0.006,0.006,0.006,,
18540,0.006,0.006,0.006,0.006,0.006,,
18600,0.005,0.006,0.006,0.006,0.006,,
18660,0.005,0.006,0.006,0.006,0.006,,
18720,0.005,0.005,0.005,0.005,0.005,,
18780,0.005,0.005,0.005,0.005,0.005,,
18840,0.005,0.005,0.005,0.005,0.005,,
18900,0.005,0.005,0.005,0.005,0.005,,
18960,0.005,0.005,0.005,0.005,0.005,,
19020,0.004,0.005,0.005,0.005,0.005,,
19080,0.004,0.004,0.004,0.004,0.004,,
19140,0.005,0.005,0.005,0.005,0.005,,
19200,0.005,0.005,0.005,0.005,0.005,,
19260,0.005,0.005,0.005,0.005,0.005,,
19320,0.005,0.005,0.005,0.005,0.005,,
19380,0.004,0.004,0.004,0.004,0.004,,
19440,0.004,0.004,0.004,0.004,0.004,,
19500,0.004,0.005,0.005,0.005,0.005,,
19560,0.004,0.004,0.004,0.004,0.004,,
19620,0.004,0.004,0.004,0.004,0.004,,
19680,0.004,0.004,0.004,0.004,0.004,,
19740,0.004,0.004,0.004,0.004,0.004,,
19800,0.004,0.004,0.004,0.004,0.004,,
19860,0.004,0.004,0.004,0.004,0.004,,
19920,0.004,0.004,0.004,0.004,0.004,,
19980,0.004,0.004,0.004,0.004,0.004,,
20040,0.004,0.004,0.004,0.004,0.004,,
20100,0.004,0.004,0.004,0.004,0.004,,
20160,0.004,0.004,0.004,0.004,0.004,,
20220,0.004,0.004,0.004,0.004,0.004,,
20280,0.003,0.003,0.003,0.003,0.003,,
20340,0.004,0.004,0.004,0.004,0.004,,
20400,0.003,0.003,0.003,0.003,0.003,,
20460,0.003,0.003,0.003,0.003,0.003,,
20520,0.003,0.003,0.003,0.003,0.003,,
20580,0.003,0.003,0.003,0.003,0.003,,
20640,0.003,0.003,0.003,0.003,0.003,,
20700,0.003,0.003,0.003,0.003,0.003,,
20760,0.003,0.003,0.003,0.003,0.003,,
20820,0.003,0.003,0.003,0.003,0.003,,
20880,0.003,0.003,0.003,0.003,0.003,,
20940,0.003,0.003,0.003,0.003,0.003,,
21000,0.003,0.003,0.003,0.003,0.003,,
21060,0.003,0.003,0.003,0.003,0.003,,
21120,0.003,0.003,0.003,0.003,0.003,,
21180,0.003,0.003,0.003,0.003,0.003,,
21240,0.003,0.003,0.003,0.003,0.003,,
21300,0.003,0.003,0.003,0.003,0.003,,
21360,0.003,0.003,0.003,0.003,0.003,,
21420,0.003,0.003,0.003,0.003,0.003,,
21480,0.002,0.002,0.002,0.002,0.002,,
21540,0.003,0.003,0.003,0.003,0.003,,
21600,0.002,0.002,0.002,0.002,0.002,,
21660,0.003,0.003,0.003,0.003,0.003,,
21720,0.002,0.003,0.003,0.003,0.003,,
21780,0.002,0.002,0.002,0.002,0.002,,
21840,0.002,0.003,0.003,0.003,0.003,,
21900,0.002,0.002,0.002,0.002,0.002,,
21960,0.002,0.002,0.002,0.002,0.002,,
22020,0.002,0.002,0.002,0.002,0.002,,
22080,0.002,0.002,0.002,0.002,0.002,,
22140,0.002,0.002,0.002,0.002,0.002,,
22200,0.002,0.002,0.002,0.002,0.002,,
22260,0.002,0.002,0.002,0.002,0.002,,
22320,0.002,0.002,0.002,0.002,0.002,,
22380,0.002,0.002,0.002,0.002,0.002,,
22440,0.002,0.002,0.002,0.002,0.002,,
22500,0.002,0.002,0.002,0.002,0.002,,
22560,0.002,0.002,0.002,0.002,0.002,,
22620,0.002,0.002,0.002,0.002,0.002,,
22680,0.002,0.002,0.002,0.002,0.002,,
22740,0.002,0.002,0.002,0.002,0.002,,
22800,0.002,0.002,0.002,0.002,0.002,,
22860,0.002,0.002,0.002,0.002,0.002,,
22920,0.002,0.002,0.002,0.002,0.002,,
22980,0.002,0.002,0.002,0.002,0.002,,
23040,0.002,0.002,0.002,0.002,0.002,,
23100,0.002,0.002,0.002,0.002,0.002,,
23160,0.002,0.002,0.002,0.002,0.002,,
23220,0.002,0.002,0.002,0.002,0.002,,
23280,0.002,0.002,0.002,0.002,0.002,,
23340,0.002,0.002,0.002,0.002,0.002,,
23400,0.002,0.002,0.002,0.002,0.002,,
23460,0.002,0.002,0.002,0.002,0.002,,
23520,0.002,0.002,0.002,0.002,0.002,,
23580,0.002,0.002,0.002,0.002,0.002,,
23640,0.002,0.002,0.002,0.002,0.002,,
23700,0.002,0.002,0.002,0.002,0.002,,
23760,0.002,0.002,0.002,0.002,0.002,,
23820,0.002,0.002,0.002,0.002,0.002,,
23880,0.002,0.002,0.002,0.002,0.002,,
23940,0.002,0.002,0.002,0.002,0.002,,
24000,0.002,0.002,0.002,0.002,0.002,,
24060,0.002,0.002,0.002,0.002,0.002,,
24120,0.002,0.002,0.002,0.002,0.002,,
24180,0.002,0.002,0.002,0.002,0.002,,
24240,0.002,0.002,0.002,0.002,0.002,,
24300,0.002,0.002,0.002,0.002,0.002,,
24360,0.002,0.002,0.002,0.002,0.002,,
24420,0.002,0.002,0.002,0.002,0.002,,
24480,0.002,0.002,0.002,0.002,0.002,,
24540,0.002,0.002,0.002,0.002,0.002,,
24600,0.001,0.002,0.002,0.002,0.002,,
24660,0.002,0.002,0.002,0.002,0.002,,
24720,0.001,0.001,0.001,0.001,0.001,,
24780,0.001,0.002,0.002,0.002,0.002,,
24840,0.002,0.002,0.002,0.002,0.002,,
24900,0.002,0.002,0.002,0.002,0.002,,
24960,0.002,0.002,0.002,0.002,0.002,,
25020,0.001,0.001,0.001,0.001,0.001,,
25080,0.002,0.002,0.002,0.002,0.002,,
25140,0.001,0.002,0.002,0.002,0.002,,
25200,0.002,0.002,0.002,0.002,0.002,,
25260,0.001,0.001,0.001,0.001,0.001,,
25320,0.001,0.001,0.001,0.001,0.001,,
25380,0.001,0.001,0.001,0.001,0.001,,
25440,0.001,0.001,0.001,0.001,0.001,,
25500,0.001,0.001,0.001,0.001,0.001,,
25560,0.001,0.001,0.001,0.001,0.001,,
25620,0.001,0.001,0.001,0.001,0.001,,
25680,0.001,0.001,0.001,0.001,0.001,,
25740,0.002,0.002,0.002,0.002,0.002,,
25800,0.001,0.001,0.001,0.001,0.001,,
25860,0.001,0.001,0.001,0.001,0.001,,
25920,0.001,0.001,0.001,0.001,0.001,,
25980,0.001,0.001,0.001,0.001,0.001,,
26040,0.001,0.001,0.002,0.002,0.002,,
26100,0.001,0.001,0.001,0.001,0.001,,
26160,0.001,0.001,0.001,0.001,0.001,,
26220,0.001,0.001,0.001,0.001,0.001,,
26280,0.001,0.001,0.001,0.001,0.001,,
26340,0.001,0.001,0.001,0.001,0.001,,
26400,0.001,0.001,0.001,0.001,0.001,,
26460,0.001,0.001,0.001,0.001,0.001,,
26520,0.001,0.001,0.001,0.001,0.001,,
26580,0.001,0.001,0.001,0.001,0.001,,
26640,0.001,0.001,0.001,0.001,0.001,,
26700,0.001,0.001,0.001,0.001,0.001,,
26760,0.001,0.001,0.001,0.001,0.001,,
26820,0.001,0.001,0.001,0.001,0.001,,
26880,0.001,0.001,0.001,0.001,0.001,,
26940,0.001,0.001,0.001,0.001,0.001,,
27000,0.001,0.001,0.001,0.001,0.001,,
27060,0.001,0.001,0.001,0.001,0.001,,
27120,0.001,0.001,0.001,0.001,0.001,,
27180,0.001,0.001,0.001,0.001,0.001,,
27240,0.001,0.001,0.001,0.001,0.001,,
27300,0.001,0.001,0.001,0.001,0.001,,
27360,0.001,0.001,0.001,0.001,0.001,,
27420,0.001,0.001,0.001,0.001,0.001,,
27480,0.001,0.001,0.001,0.001,0.001,,
27540,0.001,0.001,0.001,0.001,0.001,,
27600,0.001,0.001,0.001,0.001,0.001,,
27660,0.001,0.001,0.001,0.001,0.001,,
27720,0.001,0.001,0.001,0.001,0.001,,
27780,0.001,0.001,0.001,0.001,0.001,,
27840,0.001,0.001,0.001,0.001,0.001,,
27900,0.001,0.001,0.001,0.001,0.001,,
27960,0.001,0.001,0.001,0.001,0.001,,
28020,0.001,0.001,0.001,0.001,0.001,,
28080,0.001,0.001,0.001,0.001,0.001,,
28140,0.001,0.001,0.001,0.001,0.001,,
28200,0.001,0.001,0.001,0.001,0.001,,
28260,0.001,0.001,0.001,0.001,0.001,,
28320,0.001,0.001,0.001,0.001,0.001,,
28380,0.001,0.001,0.001,0.001,0.001,,
28440,0.001,0.001,0.001,0.001,0.001,,
28500,0.001,0.001,0.001,0.001,0.001,,
28560,0.001,0.001,0.001,0.001,0.001,,
28620,0.001,0.001,0.001,0.001,0.001,,
28680,0.001,0.001,0.001,0.001,0.001,,
28740,0.001,0.001,0.001,0.001,0.001,,
28800,0.001,0.001,0.001,0.001,0.001,,
28860,0.001,0.001,0.001,0.001,0.001,,
28920,0.001,0.001,0.001,0.001,0.001,,
28980,0.001,0.001,0.001,0.001,0.001,,
29040,0.001,0.001,0.001,0.001,0.001,,
29100,0.001,0.001,0.001,0.001,0.001,,
29160,0.001,0.001,0.001,0.001,0.001,,
29220,0.001,0.001,0.001,0.001,0.001,,
29280,0.001,0.001,0.001,0.001,0.001,,
29340,0.001,0.001,0.001,0.001,0.001,,
29400,0.001,0.001,0.001,0.001,0.001,,
29460,0.001,0.001,0.001,0.001,0.001,,
29520,0.001,0.001,0.001,0.001,0.001,,
29580,0.001,0.001,0.001,0.001,0.001,,
29640,0.001,0.001,0.001,0.001,0.001,,
29700,0.001,0.001,0.001,0.001,0.001,,
29760,0.001,0.001,0.001,0.001,0.001,,
29820,0.001,0.001,0.001,0.001,0.001,,
29880,0.001,0.001,0.001,0.001,0.001,,
29940,0.001,0.001,0.001,0.001,0.001,,
30000,0.001,0.001,0.001,0.001,0.001,,
30060,0.001,0.001,0.001,0.001,0.001,,
30120,0.001,0.001,0.001,0.001,0.001,,
30180,0.001,0.001,0.001,0.001,0.001,,
30240,0.001,0.001,0.001,0.001,0.001,,
30300,0.001,0.001,0.001,0.001,0.001,,
30360,0.001,0.001,0.001,0.001,0.001,,
30420,0.001,0.001,0.001,0.001,0.001,,
30480,0.001,0.001,0.001,0.001,0.001,,
30540,0.001,0.001,0.001,0.001,0.001,,
30600,0.001,0.001,0.001,0.001,0.001,,
30660,0.001,0.001,0.001,0.001,0.001,,
30720,0.001,0.001,0.001,0.001,0.001,,
30780,0.001,0.001,0.001,0.001,0.001,,
30840,0.001,0.001,0.001,0.001,0.001,,
30900,0.001,0.001,0.001,0.001,0.001,,
30960,0.001,0.001,0.001,0.001,0.001,,
31020,0.001,0.001,0.001,0.001,0.001,,
31080,0.001,0.001,0.001,0.001,0.001,,
31140,0.001,0.001,0.001,0.001,0.001,,
31200,0.001,0.001,0.001,0.001,0.001,,
31260,0.001,0.001,0.001,0.001,0.001,,
31320,0.001,0.001,0.001,0.001,0.001,,
31380,0.001,0.001,0.001,0.001,0.001,,
31440,0.001,0.001,0.001,0.001,0.001,,
31500,0.001,0.001,0.001,0.001,0.001,,
31560,0.001,0.001,0.001,0.001,0.001,,
31620,0.001,0.001,0.001,0.001,0.001,,
31680,0.001,0.001,0.001,0.001,0.001,,
31740,0.001,0.001,0.001,0.001,0.001,,
31800,0.001,0.001,0.001,0.001,0.001,,
31860,0.001,0.001,0.001,0.001,0.001,,
31920,0.001,0.001,0.001,0.001,0.001,,
31980,0.001,0.001,0.001,0.001,0.001,,
32040,0.001,0.001,0.001,0.001,0.001,,
32100,0.001,0.001,0.001,0.001,0.001,,
32160,0.001,0.001,0.001,0.001,0.001,,
32220,0.001,0.001,0.001,0.001,0.001,,
32280,0.001,0.001,0.001,0.001,0.001,,
32340,0.001,0.001,0.001,0.001,0.001,,
32400,0.001,0.001,0.001,0.001,0.001,,
32460,0.001,0.001,0.001,0.001,0.001,,
32520,0.001,0.001,0.001,0.001,0.001,,
32580,0.001,0.001,0.001,0.001,0.001,,
32640,0.001,0.001,0.001,0.001,0.001,,
32700,0.001,0.001,0.001,0.001,0.001,,
32760,0.001,0.001,0.001,0.001,0.001,,
32820,0.001,0.001,0.001,0.001,0.001,,
32880,0.001,0.001,0.001,0.001,0.001,,
32940,0.001,0.001,0.001,0.001,0.001,,
33000,0.001,0.001,0.001,0.001,0.001,,
33060,0.001,0.001,0.001,0.001,0.001,,
33120,0.001,0.001,0.001,0.001,0.001,,
33180,0.001,0.001,0.001,0.001,0.001,,
33240,0.001,0.001,0.001,0.001,0.001,,
33300,0.001,0.001,0.001,0.001,0.001,,
33360,0.001,0.001,0.001,0.001,0.001,,
33420,0.001,0.001,0.001,0.001,0.001,,
33480,0.001,0.001,0.001,0.001,0.001,,
33540,0.001,0.001,0.001,0.001,0.001,,
33600,0.001,0.001,0.001,0.001,0.001,,
33660,0.001,0.001,0.001,0.001,0.001,,
33720,0.001,0.001,0.001,0.001,0.001,,
33780,0.001,0.001,0.001,0.001,0.001,,
33840,0.001,0.001,0.001,0.001,0.001,,
33900,0.001,0.001,0.001,0.001,0.001,,
33960,0.001,0.001,0.001,0.001,0.001,,
34020,0.001,0.001,0.001,0.001,0.001,,
34080,0.001,0.001,0.001,0.001,0.001,,
34140,0.001,0.001,0.001,0.001,0.001,,
34200,0.001,0.001,0.001,0.001,0.001,,
34260,0.001,0.001,0.001,0.001,0.001,,
34320,0.001,0.001,0.001,0.001,0.001,,
34380,0.001,0.001,0.001,0.001,0.001,,
34440,0.001,0.001,0.001,0.001,0.001,,
34500,0.001,0.001,0.001,0.001,0.001,,
34560,0.001,0.001,0.001,0.001,0.001,,
34620,0.001,0.001,0.001,0.001,0.001,,
34680,0.001,0.001,0.001,0.001,0.001,,
34740,0.001,0.001,0.001,0.001,0.001,,
34800,0.001,0.001,0.001,0.001,0.001,,
34860,0.001,0.001,0.001,0.001,0.001,,
34920,0.001,0.001,0.001,0.001,0.001,,
34980,0.001,0.001,0.001,0.001,0.001,,
35040,0.001,0.001,0.001,0.001,0.001,,
35100,0.001,0.001,0.001,0.001,0.001,,
35160,0.001,0.001,0.001,0.001,0.001,,
35220,0.001,0.001,0.001,0.001,0.001,,
35280,0.001,0.001,0.001,0.001,0.001,,
35340,0.001,0.001,0.001,0.001,0.001,,
35400,0.001,0.001,0.001,0.001,0.001,,
35460,0.001,0.001,0.001,0.001,0.001,,
35520,0.001,0.001,0.001,0.001,0.001,,
35580,0.001,0.001,0.001,0.001,0.001,,
35640,0.001,0.001,0.001,0.001,0.001,,
35700,0.001,0.001,0.001,0.001,0.001,,
35760,0.001,0.001,0.001,0.001,0.001,,
35820,0.001,0.001,0.001,0.001,0.001,,
35880,0.001,0.001,0.001,0.001,0.001,,
35940,0.001,0.001,0.001,0.001,0.001,,
36000,0.001,0.001,0.001,0.001,0.001,,
36060,0.001,0.001,0.001,0.001,0.001,,
36120,0.001,0.001,0.001,0.001,0.001,,
36180,0.001,0.001,0.001,0.001,0.001,,
36240,0.001,0.001,0.001,0.001,0.001,,
36300,0.001,0.001,0.001,0.001,0.001,,
36360,0.001,0.001,0.001,0.001,0.001,,
36420,0.001,0.001,0.001,0.001,0.001,,
36480,0.001,0.001,0.001,0.001,0.001,,
36540,0.001,0.001,0.001,0.001,0.001,,
36600,0.001,0.001,0.001,0.001,0.001,,
36660,0.001,0.001,0.001,0.001,0.001,,
36720,0.001,0.001,0.001,0.001,0.001,,
36780,0.001,0.001,0.001,0.001,0.001,,
36840,0.001,0.001,0.001,0.001,0.001,,
36900,0.001,0.001,0.001,0.001,0.001,,
36960,0.001,0.001,0.001,0.001,0.001,,
37020,0.001,0.001,0.001,0.001,0.001,,
37080,0.001,0.001,0.001,0.001,0.001,,
37140,0.001,0.001,0.001,0.001,0.001,,
37200,0.001,0.001,0.001,0.001,0.001,,
37260,0.001,0.001,0.001,0.001,0.001,,
37320,0.001,0.001,0.001,0.001,0.001,,
37380,0.001,0.001,0.001,0.001,0.001,,
37440,0.001,0.001,0.001,0.001,0.001,,
37500,0.001,0.001,0.001,0.001,0.001,,
37560,0.001,0.001,0.001,0.001,0.001,,
37620,0.001,0.001,0.001,0.001,0.001,,
37680,0.001,0.001,0.001,0.001,0.001,,
37740,0.001,0.001,0.001,0.001,0.001,,
37800,0.001,0.001,0.001,0.001,0.001,,
37860,0.001,0.001,0.001,0.001,0.001,,
37920,0.001,0.001,0.001,0.001,0.001,,
37980,0.001,0.001,0.001,0.001,0.001,,
38040,0.001,0.001,0.001,0.001,0.001,,
38100,0.001,0.001,0.001,0.001,0.001,,
38160,0.001,0.001,0.001,0.001,0.001,,
38220,0.001,0.001,0.001,0.001,0.001,,
38280,0.001,0.001,0.001,0.001,0.001,,
38340,0.001,0.001,0.001,0.001,0.001,,
38400,0.001,0.001,0.001,0.001,0.001,,
38460,0.001,0.001,0.001,0.001,0.001,,
38520,0.001,0.001,0.001,0.001,0.001,,
38580,0.001,0.001,0.001,0.001,0.001,,
38640,0.001,0.001,0.001,0.001,0.001,,
38700,0.001,0.001,0.001,0.001,0.001,,
38760,0.001,0.001,0.001,0.001,0.001,,
38820,0.001,0.001,0.001,0.001,0.001,,
38880,0.001,0.001,0.001,0.001,0.001,,
38940,0.001,0.001,0.001,0.001,0.001,,
39000,0.001,0.001,0.001,0.001,0.001,,
39060,0.001,0.001,0.001,0.001,0.001,,
39120,0.001,0.001,0.001,0.001,0.001,,
39180,0.001,0.001,0.001,0.001,0.001,,
39240,0.001,0.001,0.001,0.001,0.001,,
39300,0.001,0.001,0.001,0.001,0.001,,
39360,0.001,0.001,0.001,0.001,0.001,,
39420,0.001,0.001,0.001,0.001,0.001,,
39480,0.001,0.001,0.001,0.001,0.001,,
39540,0.001,0.001,0.001,0.001,0.001,,
39600,0.001,0.001,0.001,0.001,0.001,,
39660,0.001,0.001,0.001,0.001,0.001,,
39720,0.001,0.001,0.001,0.001,0.001,,
39780,0.001,0.001,0.001,0.001,0.001,,
39840,0.001,0.001,0.001,0.001,0.001,,
39900,0.001,0.001,0.001,0.001,0.001,,
39960,0.001,0.001,0.001,0.001,0.001,,
40020,0.001,0.001,0.001,0.001,0.001,,
40080,0.001,0.001,0.001,0.001,0.001,,
40140,0.001,0.001,0.001,0.001,0.001,,
40200,0.001,0.001,0.001,0.001,0.001,,
40260,0.001,0.001,0.001,0.001,0.001,,
40320,0.001,0.001,0.001,0.001,0.001,,
40380,0.001,0.001,0.001,0.001,0.001,,
40440,0.001,0.001,0.001,0.001,0.001,,
40500,0.001,0.001,0.001,0.001,0.001,,
40560,0.001,0.001,0.001,0.001,0.001,,
40620,0.001,0.001,0.001,0.001,0.001,,
40680,0.001,0.001,0.001,0.001,0.001,,
40740,0.001,0.001,0.001,0.001,0.001,,
40800,0.001,0.001,0.001,0.001,0.001,,
40860,0.001,0.001,0.001,0.001,0.001,,
40920,0.001,0.001,0.001,0.001,0.001,,
40980,0.001,0.001,0.001,0.001,0.001,,
41040,0.001,0.001,0.001,0.001,0.001,,
41100,0.001,0.001,0.001,0.001,0.001,,
41160,0.001,0.001,0.001,0.001,0.001,,
41220,0.001,0.001,0.001,0.001,0.001,,
41280,0.001,0.001,0.001,0.001,0.001,,
41340,0.001,0.001,0.001,0.001,0.001,,
41400,0.001,0.001,0.001,0.001,0.001,,
41460,0.001,0.001,0.001,0.001,0.001,,
41520,0.001,0.001,0.001,0.001,0.001,,
41580,0.001,0.001,0.001,0.001,0.001,,
41640,0.001,0.001,0.001,0.001,0.001,,
41700,0.001,0.001,0.001,0.001,0.001,,
41760,0.001,0.001,0.001,0.001,0.001,,
41820,0.001,0.001,0.001,0.001,0.001,,
41880,0.001,0.001,0.001,0.001,0.001,,
41940,0.001,0.001,0.001,0.001,0.001,,
42000,0.001,0.001,0.001,0.001,0.001,,
42060,0.001,0.001,0.001,0.001,0.001,,
42120,0.001,0.001,0.001,0.001,0.001,,
42180,0.001,0.001,0.001,0.001,0.001,,
42240,0.001,0.001,0.001,0.001,0.001,,
42300,0.001,0.001,0.001,0.001,0.001,,
42360,0.001,0.001,0.001,0.001,0.001,,
42420,0.001,0.001,0.001,0.001,0.001,,
42480,0.001,0.001,0.001,0.001,0.001,,
42540,0.001,0.001,0.001,0.001,0.001,,
42600,0.001,0.001,0.001,0.001,0.001,,
42660,0.001,0.001,0.001,0.001,0.001,,
42720,0.001,0.001,0.001,0.001,0.001,,
42780,0.001,0.001,0.001,0.001,0.001,,
42840,0.001,0.001,0.001,0.001,0.001,,
42900,0.001,0.001,0.001,0.001,0.001,,
42960,0.001,0.001,0.001,0.001,0.001,,
43020,0.001,0.001,0.001,0.001,0.001,,
43080,0.001,0.001,0.001,0.001,0.001,,
43140,0.001,0.001,0.001,0.001,0.001,,
43200,0.001,0.001,0.001,0.001,0.001,,
43260,0.001,0.001,0.001,0.001,0.001,,
43320,0.001,0.001,0.001,0.001,0.001,,
43380,0.001,0.001,0.001,0.001,0.001,,
43440,0.001,0.001,0.001,0.001,0.001,,
43500,0.001,0.001,0.001,0.001,0.001,,
43560,0.001,0.001,0.001,0.001,0.001,,
43620,0.001,0.001,0.001,0.001,0.001,,
43680,0.001,0.001,0.001,0.001,0.001,,
43740,0.001,0.001,0.001,0.001,0.001,,
43800,0.001,0.001,0.001,0.001,0.001,,
43860,0.001,0.001,0.001,0.001,0.001,,
43920,0.001,0.001,0.001,0.001,0.001,,
43980,0.001,0.001,0.001,0.001,0.001,,
44040,0.001,0.001,0.001,0.001,0.001,,
44100,0.001,0.001,0.001,0.001,0.001,,
44160,0.001,0.001,0.001,0.001,0.001,,
44220,0.001,0.001,0.001,0.001,0.001,,
44280,0.001,0.001,0.001,0.001,0.001,,
44340,0.001,0.001,0.001,0.001,0.001,,
44400,0.001,0.001,0.001,0.001,0.001,,
44460,0.001,0.001,0.001,0.001,0.001,,
44520,0.001,0.001,0.001,0.001,0.001,,
44580,0.001,0.001,0.001,0.001,0.001,,
44640,0.001,0.001,0.001,0.001,0.001,,
44700,0.001,0.001,0.001,0.001,0.001,,
44760,0.001,0.001,0.001,0.001,0.001,,
44820,0.001,0.001,0.001,0.001,0.001,,
44880,0.001,0.001,0.001,0.001,0.001,,
44940,0.001,0.001,0.001,0.001,0.001,,
45000,0.001,0.001,0.001,0.001,0.001,,
45060,0.001,0.001,0.001,0.001,0.001,,
45120,0.001,0.001,0.001,0.001,0.001,,
45180,0.001,0.001,0.001,0.001,0.001,,
45240,0.001,0.001,0.001,0.001,0.001,,
45300,0.001,0.001,0.001,0.001,0.001,,
45360,0.001,0.001,0.001,0.001,0.001,,
45420,0.001,0.001,0.001,0.001,0.001,,
45480,0.001,0.001,0.001,0.001,0.001,,
45540,0.001,0.001,0.001,0.001,0.001,,
45600,0.001,0.001,0.001,0.001,0.001,,
45660,0.001,0.001,0.001,0.001,0.001,,
45720,0.001,0.001,0.001,0.001,0.001,,
45780,0.001,0.001,0.001,0.001,0.001,,
45840,0.001,0.001,0.001,0.001,0.001,,
45900,0.001,0.001,0.001,0.001,0.001,,
45960,0.001,0.001,0.001,0.001,0.001,,
46020,0.001,0.001,0.001,0.001,0.001,,
46080,0.001,0.001,0.001,0.001,0.001,,
46140,0.001,0.001,0.001,0.001,0.001,,
46200,0.001,0.001,0.001,0.001,0.001,,
46260,0.001,0.001,0.001,0.001,0.001,,
46320,0.001,0.001,0.001,0.001,0.001,,
46380,0.001,0.001,0.001,0.001,0.001,,
46440,0.001,0.001,0.001,0.001,0.001,,
46500,0.001,0.001,0.001,0.001,0.001,,
46560,0.001,0.001,0.001,0.001,0.001,,
46620,0.001,0.001,0.001,0.001,0.001,,
46680,0.001,0.001,0.001,0.001,0.001,,
46740,0.001,0.001,0.001,0.001,0.001,,
46800,0.001,0.001,0.001,0.001,0.001,,
46860,0.001,0.001,0.001,0.001,0.001,,
46920,0.001,0.001,0.001,0.001,0.001,,
46980,0.001,0.001,0.001,0.001,0.001,,
47040,0.001,0.001,0.001,0.001,0.001,,
47100,0.001,0.001,0.001,0.001,0.001,,
47160,0.001,0.001,0.001,0.001,0.001,,
47220,0.001,0.001,0.001,0.001,0.001,,
47280,0.001,0.001,0.001,0.001,0.001,,
47340,0.001,0.001,0.001,0.001,0.001,,
47400,0.001,0.001,0.001,0.001,0.001,,
47460,0.001,0.001,0.001,0.001,0.001,,
47520,0.001,0.001,0.001,0.001,0.001,,
47580,0.001,0.001,0.001,0.001,0.001,,
47640,0.001,0.001,0.001,0.001,0.001,,
47700,0.001,0.001,0.001,0.001,0.001,,
47760,0.001,0.001,0.001,0.001,0.001,,
47820,0.001,0.001,0.001,0.001,0.001,,
47880,0.001,0.001,0.001,0.001,0.001,,
47940,0.001,0.001,0.001,0.001,0.001,,
48000,0.001,0.001,0.001,0.001,0.001,,
48060,0.001,0.001,0.001,0.001,0.001,,
48120,0.001,0.001,0.001,0.001,0.001,,
48180,0.001,0.001,0.001,0.001,0.001,,
48240,0.001,0.001,0.001,0.001,0.001,,
48300,0.001,0.001,0.001,0.001,0.001,,
48360,0.001,0.001,0.001,0.001,0.001,,
48420,0.001,0.001,0.001,0.001,0.001,,
48480,0.001,0.001,0.001,0.001,0.001,,
48540,0.001,0.001,0.001,0.001,0.001,,
48600,0.001,0.001,0.001,0.001,0.001,,
48660,0.001,0.001,0.001,0.001,0.001,,
48720,0.001,0.001,0.001,0.001,0.001,,
48780,0.001,0.001,0.001,0.001,0.001,,
48840,0.001,0.001,0.001,0.001,0.001,,
48900,0.001,0.001,0.001,0.001,0.001,,
48960,0.001,0.001,0.001,0.001,0.001,,
49020,0.001,0.001,0.001,0.001,0.001,,
49080,0.001,0.001,0.001,0.001,0.001,,
49140,0.001,0.001,0.001,0.001,0.001,,
49200,0.001,0.001,0.001,0.001,0.001,,
49260,0.001,0.001,0.001,0.001,0.001,,
49320,0.001,0.001,0.001,0.001,0.001,,
49380,0.001,0.001,0.001,0.001,0.001,,
49440,0.001,0.001,0.001,0.001,0.001,,
49500,0.001,0.001,0.001,0.001,0.001,,
49560,0.001,0.001,0.001,0.001,0.001,,
49620,0.001,0.001,0.001,0.001,0.001,,
49680,0.001,0.001,0.001,0.001,0.001,,
49740,0.001,0.001,0.001,0.001,0.001,,
49800,0.001,0.001,0.001,0.001,0.001,,
49860,0.001,0.001,0.001,0.001,0.001,,
49920,0.001,0.001,0.001,0.001,0.001,,
49980,0.001,0.001,0.001,0.001,0.001,,
50040,0.001,0.001,0.001,0.001,0.001,,
50100,0.001,0.001,0.001,0.001,0.001,,
50160,0.001,0.001,0.001,0.001,0.001,,
50220,0.001,0.001,0.001,0.001,0.001,,
50280,0.001,0.001,0.001,0.001,0.001,,
50340,0.001,0.001,0.001,0.001,0.001,,
50400,0.001,0.001,0.001,0.001,0.001,,
50460,0.001,0.001,0.001,0.001,0.001,,
50520,0.001,0.001,0.001,0.001,0.001,,
50580,0.001,0.001,0.001,0.001,0.001,,
50640,0.001,0.001,0.001,0.001,0.001,,
50700,0.001,0.001,0.001,0.001,0.001,,
50760,0.001,0.001,0.001,0.001,0.001,,
50820,0.001,0.001,0.001,0.001,0.001,,
50880,0.001,0.001,0.001,0.001,0.001,,
50940,0.001,0.001,0.001,0.001,0.001,,
51000,0.001,0.001,0.001,0.001,0.001,,
51060,0.001,0.001,0.001,0.001,0.001,,
51120,0.001,0.001,0.001,0.001,0.001,,
51180,0.001,0.001,0.001,0.001,0.001,,
51240,0.001,0.001,0.001,0.001,0.001,,
51300,0.001,0.001,0.001,0.001,0.001,,
51360,0.001,0.001,0.001,0.001,0.001,,
51420,0.001,0.001,0.001,0.001,0.001,,
51480,0.001,0.001,0.001,0.001,0.001,,
51540,0.001,0.001,0.001,0.001,0.001,,
51600,0.001,0.001,0.001,0.001,0.001,,
51660,0.001,0.001,0.001,0.001,0.001,,
51720,0.001,0.001,0.001,0.001,0.001,,
51780,0.001,0.001,0.001,0.001,0.001,,
51840,0.001,0.001,0.001,0.001,0.001,,
51900,0.001,0.001,0.001,0.001,0.001,,
51960,0.001,0.001,0.001,0.001,0.001,,
52020,0.001,0.001,0.001,0.001,0.001,,
52080,0.001,0.001,0.001,0.001,0.001,,
52140,0.001,0.001,0.001,0.001,0.001,,
52200,0.001,0.001,0.001,0.001,0.001,,
52260,0.001,0.001,0.001,0.001,0.001,,
52320,0.001,0.001,0.001,0.001,0.001,,
52380,0.001,0.001,0.001,0.001,0.001,,
52440,0.001,0.001,0.001,0.001,0.001,,
52500,0.001,0.001,0.001,0.001,0.001,,
52560,0.001,0.001,0.001,0.001,0.001,,
52620,0.001,0.001,0.001,0.001,0.001,,
52680,0.001,0.001,0.001,0.001,0.001,,
52740,0.001,0.001,0.001,0.001,0.001,,
52800,0.001,0.001,0.001,0.001,0.001,,
52860,0.001,0.001,0.001,0.001,0.001,,
52920,0.001,0.001,0.001,0.001,0.001,,
52980,0.001,0.001,0.001,0.001,0.001,,
53040,0.001,0.001,0.001,0.001,0.001,,
53100,0.001,0.001,0.001,0.001,0.001,,
53160,0.001,0.001,0.001,0.001,0.001,,
53220,0.001,0.001,0.001,0.001,0.001,,
53280,0.001,0.001,0.001,0.001,0.001,,
53340,0.001,0.001,0.001,0.001,0.001,,
53400,0.001,0.001,0.001,0.001,0.001,,
53460,0.001,0.001,0.001,0.001,0.001,,
53520,0.001,0.001,0.001,0.001,0.001,,
53580,0.001,0.001,0.001,0.001,0.001,,
53640,0.001,0.001,0.001,0.001,0.001,,
53700,0.001,0.001,0.001,0.001,0.001,,
53760,0.001,0.001,0.001,0.001,0.001,,
53820,0.001,0.001,0.001,0.001,0.001,,
53880,0.001,0.001,0.001,0.001,0.001,,
53940,0.001,0.001,0.001,0.001,0.001,,
54000,0.001,0.001,0.001,0.001,0.001,,
54060,0.001,0.001,0.001,0.001,0.001,,
54120,0.001,0.001,0.001,0.001,0.001,,
54180,0.001,0.001,0.001,0.001,0.001,,
54240,0.001,0.001,0.001,0.001,0.001,,
54300,0.001,0.001,0.001,0.001,0.001,,
54360,0.001,0.001,0.001,0.001,0.001,,
54420,0.001,0.001,0.001,0.001,0.001,,
54480,0.001,0.001,0.001,0.001,0.001,,
54540,0.001,0.001,0.001,0.001,0.001,,
54600,0.001,0.001,0.001,0.001,0.001,,
54660,0.001,0.001,0.001,0.001,0.001,,
54720,0.001,0.001,0.001,0.001,0.001,,
54780,0.001,0.001,0.001,0.001,0.001,,
54840,0.001,0.001,0.001,0.001,0.001,,
54900,0.001,0.001,0.001,0.001,0.001,,
54960,0.001,0.001,0.001,0.001,0.001,,
55020,0.001,0.001,0.001,0.001,0.001,,
55080,0.001,0.001,0.001,0.001,0.001,,
55140,0.001,0.001,0.001,0.001,0.001,,
55200,0.001,0.001,0.001,0.001,0.001,,
55260,0.001,0.001,0.001,0.001,0.001,,
55320,0.001,0.001,0.001,0.001,0.001,,
55380,0.001,0.001,0.001,0.001,0.001,,
55440,0.001,0.001,0.001,0.001,0.001,,
55500,0.001,0.001,0.001,0.001,0.001,,
55560,0.001,0.001,0.001,0.001,0.001,,
55620,0.001,0.001,0.001,0.001,0.001,,
55680,0.001,0.001,0.001,0.001,0.001,,
55740,0.001,0.001,0.001,0.001,0.001,,
55800,0.001,0.001,0.001,0.001,0.001,,
55860,0.001,0.001,0.001,0.001,0.001,,
55920,0.001,0.001,0.001,0.001,0.001,,
55980,0.001,0.001,0.001,0.001,0.001,,
56040,0.001,0.001,0.001,0.001,0.001,,
56100,0.001,0.001,0.001,0.001,0.001,,
56160,0.001,0.001,0.001,0.001,0.001,,
56220,0.001,0.001,0.001,0.001,0.001,,
56280,0.001,0.001,0.001,0.001,0.001,,
56340,0.001,0.001,0.001,0.001,0.001,,
56400,0.001,0.001,0.001,0.001,0.001,,
56460,0.001,0.001,0.001,0.001,0.001,,
56520,0.001,0.001,0.001,0.001,0.001,,
56580,0.001,0.001,0.001,0.001,0.001,,
56640,0.001,0.001,0.001,0.001,0.001,,
56700,0.001,0.001,0.001,0.001,0.001,,
56760,0.001,0.001,0.001,0.001,0.001,,
56820,0.001,0.001,0.001,0.001,0.001,,
56880,0.001,0.001,0.001,0.001,0.001,,
56940,0.001,0.001,0.001,0.001,0.001,,
57000,0.001,0.001,0.001,0.001,0.001,,
57060,0.001,0.001,0.001,0.001,0.001,,
57120,0.001,0.001,0.001,0.001,0.001,,
57180,0.001,0.001,0.001,0.001,0.001,,
57240,0.002,0.002,0.002,0.002,0.002,,
57300,0.416,0.416,0.416,0.416,0.416,,
57360,0.379,0.379,0.380,0.380,0.380,,
57420,0.279,0.279,0.279,0.279,0.279,,
57480,0.203,0.204,0.204,0.204,0.204,,
57540,0.179,0.179,0.179,0.179,0.179,,
57600,0.183,0.183,0.183,0.183,0.183,,
57660,0.178,0.178,0.178,0.178,0.178,,
57720,0.171,0.171,0.171,0.171,0.171,,
57780,0.163,0.163,0.163,0.163,0.163,,
57840,0.156,0.156,0.156,0.156,0.156,,
57900,0.149,0.149,0.150,0.150,0.150,,
57960,0.142,0.143,0.143,0.143,0.143,,
58020,0.135,0.135,0.135,0.135,0.135,,
58080,0.130,0.131,0.131,0.131,0.131,,
58140,0.124,0.124,0.124,0.124,0.124,,
58200,0.119,0.119,0.119,0.119,0.119,,
58260,0.114,0.114,0.114,0.114,0.114,,
58320,0.110,0.110,0.110,0.111,0.111,,
58380,0.106,0.107,0.107,0.107,0.107,,
58440,0.102,0.103,0.103,0.103,0.103,,
58500,0.098,0.098,0.098,0.098,0.098,,
58560,0.095,0.095,0.095,0.095,0.095,,
58620,0.092,0.092,0.092,0.092,0.092,,
58680,0.088,0.088,0.088,0.088,0.088,,
58740,0.084,0.085,0.085,0.085,0.085,,
58800,0.082,0.083,0.083,0.083,0.083,,
58860,0.080,0.081,0.081,0.081,0.081,,
58920,0.079,0.080,0.080,0.080,0.080,,
58980,0.075,0.076,0.076,0.076,0.076,,
59040,0.073,0.073,0.073,0.073,0.073,,
59100,0.071,0.071,0.071,0.071,0.071,,
59160,0.069,0.069,0.069,0.069,0.069,,
59220,0.068,0.069,0.069,0.069,0.069,,
59280,0.064,0.065,0.065,0.065,0.065,,
59340,0.063,0.064,0.064,0.064,0.064,,
59400,0.061,0.062,0.062,0.062,0.062,,
59460,0.059,0.060,0.060,0.060,0.060,,
59520,0.058,0.058,0.058,0.058,0.058,,
59580,0.056,0.057,0.057,0.057,0.057,,
59640,0.055,0.055,0.055,0.055,0.055,,
59700,0.054,0.055,0.055,0.055,0.055,,
59760,0.053,0.053,0.053,0.053,0.053,,
59820,0.051,0.052,0.052,0.052,0.052,,
59880,0.050,0.050,0.050,0.050,0.050,,
59940,0.048,0.049,0.049,0.049,0.049,,
60000,0.048,0.048,0.048,0.048,0.048,,
60060,0.046,0.047,0.047,0.047,0.047,,
60120,0.045,0.046,0.046,0.046,0.046,,
60180,0.045,0.046,0.046,0.046,0.046,,
60240,0.043,0.044,0.044,0.044,0.044,,
60300,0.042,0.042,0.042,0.042,0.042,,
60360,0.041,0.042,0.042,0.042,0.042,,
60420,0.040,0.040,0.040,0.040,0.040,,
60480,0.039,0.040,0.040,0.040,0.040,,
60540,0.038,0.039,0.039,0.039,0.039,,
60600,0.038,0.038,0.038,0.038,0.038,,
60660,0.037,0.038,0.038,0.038,0.038,,
60720,0.036,0.036,0.036,0.036,0.036,,
60780,0.035,0.036,0.036,0.036,0.036,,
60840,0.034,0.035,0.035,0.035,0.035,,
60900,0.034,0.034,0.034,0.034,0.034,,
60960,0.032,0.033,0.033,0.033,0.033,,
61020,0.032,0.033,0.033,0.033,0.033,,
61080,0.031,0.032,0.032,0.032,0.032,,
61140,0.031,0.031,0.031,0.031,0.031,,
61200,0.030,0.031,0.031,0.031,0.031,,
61260,0.029,0.030,0.030,0.030,0.030,,
61320,0.029,0.030,0.030,0.030,0.030,,
61380,0.028,0.029,0.029,0.029,0.029,,
61440,0.028,0.028,0.028,0.028,0.028,,
61500,0.028,0.028,0.028,0.028,0.028,,
61560,0.026,0.027,0.027,0.027,0.027,,
61620,0.026,0.026,0.026,0.026,0.026,,
61680,0.026,0.026,0.026,0.026,0.026,,
61740,0.025,0.025,0.025,0.025,0.025,,
61800,0.024,0.024,0.024,0.024,0.024,,
61860,0.023,0.024,0.024,0.024,0.024,,
61920,0.024,0.024,0.024,0.024,0.024,,
61980,0.024,0.024,0.024,0.024,0.024,,
62040,0.023,0.024,0.024,0.024,0.024,,
62100,0.021,0.022,0.022,0.022,0.022,,
62160,0.021,0.022,0.022,0.022,0.022,,
62220,0.021,0.021,0.021,0.021,0.021,,
62280,0.021,0.021,0.021,0.021,0.021,,
62340,0.020,0.021,0.021,0.021,0.021,,
62400,0.019,0.020,0.020,0.020,0.020,,
62460,0.019,0.020,0.020,0.020,0.020,,
62520,0.019,0.019,0.019,0.019,0.019,,
62580,0.019,0.019,0.019,0.019,0.019,,
62640,0.018,0.019,0.019,0.019,0.019,,
62700,0.018,0.018,0.018,0.018,0.018,,
62760,0.017,0.018,0.018,0.018,0.018,,
62820,0.017,0.018,0.018,0.018,0.018,,
62880,0.017,0.017,0.017,0.017,0.017,,
62940,0.016,0.017,0.017,0.017,0.017,,
63000,0.016,0.016,0.017,0.017,0.017,,
63060,0.016,0.017,0.017,0.017,0.017,,
63120,0.016,0.016,0.016,0.016,0.016,,
63180,0.015,0.015,0.015,0.015,0.015,,
63240,0.015,0.015,0.015,0.015,0.015,,
63300,0.015,0.015,0.015,0.015,0.015,,
63360,0.015,0.015,0.015,0.015,0.015,,
63420,0.014,0.014,0.014,0.014,0.014,,
63480,0.014,0.015,0.015,0.015,0.015,,
63540,0.013,0.014,0.014,0.014,0.014,,
63600,0.013,0.014,0.014,0.014,0.014,,
63660,0.013,0.014,0.014,0.014,0.014,,
63720,0.013,0.013,0.013,0.013,0.013,,
63780,0.013,0.013,0.013,0.013,0.013,,
63840,0.013,0.013,0.013,0.013,0.013,,
63900,0.012,0.013,0.013,0.013,0.013,,
63960,0.012,0.012,0.013,0.013,0.013,,
64020,0.012,0.012,0.013,0.013,0.013,,
64080,0.012,0.012,0.012,0.012,0.012,,
64140,0.012,0.012,0.012,0.012,0.012,,
64200,0.012,0.012,0.012,0.012,0.012,,
64260,0.011,0.012,0.012,0.012,0.012,,
64320,0.011,0.011,0.011,0.011,0.011,,
64380,0.011,0.011,0.011,0.011,0.011,,
64440,0.011,0.011,0.011,0.011,0.011,,
64500,0.010,0.011,0.011,0.011,0.011,,
64560,0.010,0.011,0.011,0.011,0.011,,
64620,0.010,0.010,0.010,0.010,0.010,,
64680,0.010,0.011,0.011,0.011,0.011,,
64740,0.010,0.010,0.010,0.010,0.010,,
64800,0.009,0.010,0.010,0.010,0.010,,
64860,0.009,0.010,0.010,0.010,0.010,,
64920,0.009,0.009,0.009,0.009,0.009,,
64980,0.009,0.009,0.009,0.009,0.009,,
65040,0.009,0.009,0.009,0.009,0.009,,
65100,0.009,0.009,0.009,0.009,0.009,,
65160,0.009,0.009,0.009,0.009,0.009,,
65220,0.009,0.009,0.009,0.009,0.009,,
65280,0.008,0.009,0.009,0.009,0.009,,
65340,0.009,0.009,0.009,0.009,0.009,,
65400,0.008,0.008,0.008,0.008,0.008,,
65460,0.008,0.008,0.008,0.008,0.008,,
65520,0.008,0.008,0.008,0.008,0.008,,
65580,0.008,0.008,0.008,0.008,0.008,,
65640,0.008,0.008,0.008,0.008,0.008,,
65700,0.007,0.007,0.007,0.007,0.007,,
65760,0.008,0.008,0.008,0.008,0.008,,
65820,0.007,0.007,0.007,0.007,0.007,,
65880,0.007,0.008,0.008,0.008,0.008,,
65940,0.007,0.007,0.007,0.007,0.007,,
66000,0.007,0.007,0.007,0.007,0.007,,
66060,0.007,0.007,0.007,0.007,0.007,,
66120,0.007,0.007,0.007,0.007,0.007,,
66180,0.006,0.007,0.007,0.007,0.007,,
66240,0.006,0.007,0.007,0.007,0.007,,
66300,0.007,0.007,0.007,0.007,0.007,,
66360,0.006,0.006,0.006,0.006,0.006,,
66420,0.006,0.006,0.006,0.006,0.006,,
66480,0.006,0.006,0.006,0.006,0.006,,
66540,0.006,0.006,0.006,0.006,0.006,,
66600,0.006,0.006,0.006,0.006,0.006,,
66660,0.006,0.006,0.006,0.006,0.006,,
66720,0.006,0.006,0.006,0.006,0.006,,
66780,0.006,0.006,0.006,0.006,0.006,,
66840,0.006,0.006,0.006,0.006,0.006,,
66900,0.006,0.006,0.006,0.006,0.006,,
66960,0.006,0.006,0.006,0.006,0.006,,
67020,0.006,0.006,0.006,0.006,0.006,,
67080,0.005,0.006,0.006,0.006,0.006,,
67140,0.005,0.005,0.005,0.005,0.005,,
67200,0.006,0.006,0.006,0.006,0.006,,
67260,0.005,0.005,0.005,0.005,0.005,,
67320,0.005,0.005,0.005,0.005,0.005,,
67380,0.005,0.005,0.005,0.005,0.005,,
67440,0.005,0.005,0.005,0.005,0.005,,
67500,0.005,0.005,0.005,0.005,0.005,,
67560,0.005,0.005,0.005,0.005,0.005,,
67620,0.005,0.005,0.005,0.005,0.005,,
67680,0.005,0.005,0.005,0.005,0.005,,
67740,0.004,0.005,0.005,0.005,0.005,,
67800,0.004,0.005,0.005,0.005,0.005,,
67860,0.004,0.005,0.005,0.005,0.005,,
67920,0.004,0.004,0.004,0.004,0.004,,
67980,0.003,0.003,0.003,0.003,0.003,,
68040,0.002,0.002,0.002,0.002,0.002,,
68100,0.002,0.002,0.002,0.002,0.002,,
68160,0.003,0.004,0.004,0.004,0.004,,
68220,0.004,0.004,0.004,0.004,0.004,,
68280,0.006,0.006,0.006,0.006,0.006,,
68340,0.114,0.115,0.115,0.115,0.115,,
68400,0.277,0.280,0.280,0.280,0.280,,
68460,0.284,0.287,0.287,0.287,0.287,,
68520,0.273,0.276,0.276,0.276,0.276,,
68580,0.258,0.261,0.261,0.261,0.261,,
68640,0.245,0.247,0.247,0.247,0.247,,
68700,0.231,0.234,0.234,0.234,0.234,,
68760,0.225,0.227,0.227,0.227,0.227,,
68820,0.217,0.220,0.220,0.220,0.220,,
68880,0.214,0.216,0.216,0.216,0.216,,
68940,0.214,0.216,0.216,0.216,0.216,,
69000,0.210,0.213,0.213,0.213,0.213,,
69060,0.209,0.211,0.211,0.211,0.211,,
69120,0.208,0.211,0.211,0.211,0.211,,
69180,0.205,0.207,0.207,0.207,0.207,,
69240,0.204,0.207,0.207,0.207,0.207,,
69300,0.199,0.201,0.201,0.201,0.201,,
69360,0.198,0.200,0.200,0.200,0.200,,
69420,0.195,0.197,0.197,0.197,0.197,,
69480,0.191,0.193,0.193,0.193,0.193,,
69540,0.189,0.191,0.191,0.191,0.191,,
69600,0.186,0.188,0.188,0.188,0.188,,
69660,0.186,0.188,0.188,0.188,0.188,,
69720,0.183,0.185,0.185,0.185,0.185,,
69780,0.180,0.182,0.182,0.182,0.182,,
69840,0.176,0.178,0.178,0.178,0.178,,
69900,0.172,0.174,0.174,0.174,0.174,,
69960,0.171,0.173,0.173,0.173,0.173,,
70020,0.164,0.166,0.166,0.166,0.166,,
70080,0.162,0.164,0.164,0.164,0.164,,
70140,0.158,0.160,0.160,0.160,0.160,,
70200,0.154,0.157,0.157,0.157,0.157,,
70260,0.152,0.154,0.154,0.154,0.154,,
70320,0.148,0.150,0.150,0.150,0.150,,
70380,0.144,0.146,0.146,0.146,0.146,,
70440,0.141,0.142,0.142,0.142,0.142,,
70500,0.137,0.139,0.139,0.139,0.139,,
70560,0.135,0.136,0.136,0.136,0.136,,
70620,0.132,0.133,0.133,0.133,0.133,,
70680,0.129,0.131,0.131,0.131,0.131,,
70740,0.125,0.127,0.127,0.127,0.127,,
70800,0.123,0.125,0.125,0.125,0.125,,
70860,0.119,0.121,0.121,0.121,0.121,,
70920,0.119,0.121,0.121,0.121,0.121,,
70980,0.115,0.117,0.117,0.117,0.117,,
71040,0.111,0.113,0.113,0.113,0.113,,
71100,0.108,0.109,0.109,0.109,0.109,,
71160,0.107,0.108,0.108,0.108,0.108,,
71220,0.103,0.105,0.105,0.105,0.105,,
71280,0.102,0.103,0.103,0.103,0.103,,
71340,0.099,0.100,0.100,0.100,0.100,,
71400,0.097,0.099,0.099,0.099,0.099,,
71460,0.094,0.096,0.096,0.096,0.096,,
71520,0.093,0.095,0.095,0.095,0.095,,
71580,0.091,0.092,0.092,0.092,0.092,,
71640,0.088,0.089,0.089,0.089,0.089,,
71700,0.086,0.087,0.087,0.087,0.087,,
71760,0.083,0.084,0.084,0.084,0.084,,
71820,0.082,0.083,0.083,0.083,0.083,,
71880,0.081,0.082,0.083,0.083,0.083,,
71940,0.079,0.080,0.080,0.080,0.080,,
72000,0.077,0.078,0.078,0.078,0.078,,
72060,0.075,0.076,0.076,0.076,0.076,,
72120,0.073,0.074,0.074,0.074,0.074,,
72180,0.071,0.072,0.072,0.072,0.072,,
72240,0.070,0.071,0.071,0.071,0.071,,
72300,0.069,0.070,0.070,0.070,0.070,,
72360,0.067,0.068,0.068,0.068,0.068,,
72420,0.065,0.066,0.066,0.066,0.066,,
72480,0.064,0.065,0.065,0.065,0.065,,
72540,0.062,0.063,0.063,0.063,0.063,,
72600,0.061,0.062,0.062,0.062,0.062,,
72660,0.060,0.061,0.061,0.061,0.061,,
72720,0.057,0.058,0.058,0.058,0.058,,
72780,0.057,0.058,0.058,0.058,0.058,,
72840,0.055,0.056,0.056,0.056,0.056,,
72900,0.054,0.055,0.055,0.055,0.055,,
72960,0.053,0.054,0.054,0.054,0.054,,
73020,0.053,0.054,0.054,0.054,0.054,,
73080,0.051,0.052,0.052,0.052,0.052,,
73140,0.050,0.050,0.050,0.050,0.050,,
73200,0.048,0.049,0.049,0.049,0.049,,
73260,0.048,0.048,0.048,0.048,0.048,,
73320,0.047,0.048,0.048,0.048,0.048,,
73380,0.046,0.047,0.047,0.047,0.047,,
73440,0.045,0.045,0.046,0.046,0.046,,
73500,0.044,0.045,0.045,0.045,0.045,,
73560,0.043,0.044,0.044,0.044,0.044,,
73620,0.042,0.043,0.043,0.043,0.043,,
73680,0.042,0.042,0.042,0.042,0.042,,
73740,0.040,0.041,0.041,0.041,0.041,,
73800,0.039,0.040,0.040,0.040,0.040,,
73860,0.040,0.041,0.041,0.041,0.041,,
73920,0.038,0.038,0.038,0.038,0.038,,
73980,0.038,0.039,0.039,0.039,0.039,,
74040,0.037,0.037,0.037,0.037,0.037,,
74100,0.036,0.037,0.037,0.037,0.037,,
74160,0.035,0.036,0.036,0.036,0.036,,
74220,0.035,0.036,0.036,0.036,0.036,,
74280,0.034,0.034,0.034,0.034,0.034,,
74340,0.033,0.034,0.034,0.034,0.034,,
74400,0.033,0.034,0.034,0.034,0.034,,
74460,0.032,0.033,0.033,0.033,0.033,,
74520,0.032,0.033,0.033,0.033,0.033,,
74580,0.032,0.033,0.033,0.033,0.033,,
74640,0.032,0.032,0.032,0.032,0.032,,
74700,0.031,0.031,0.031,0.031,0.031,,
74760,0.030,0.030,0.030,0.030,0.030,,
74820,0.030,0.030,0.030,0.030,0.030,,
74880,0.029,0.030,0.030,0.030,0.030,,
74940,0.028,0.029,0.029,0.029,0.029,,
75000,0.028,0.028,0.028,0.028,0.028,,
75060,0.028,0.028,0.028,0.028,0.028,,
75120,0.027,0.028,0.028,0.028,0.028,,
75180,0.027,0.028,0.028,0.028,0.028,,
75240,0.026,0.027,0.027,0.027,0.027,,
75300,0.026,0.027,0.027,0.027,0.027,,
75360,0.025,0.026,0.026,0.026,0.026,,
75420,0.025,0.025,0.025,0.025,0.025,,
75480,0.025,0.025,0.025,0.025,0.025,,
75540,0.024,0.025,0.025,0.025,0.025,,
75600,0.024,0.024,0.024,0.024,0.024,,
75660,0.024,0.024,0.024,0.024,0.024,,
75720,0.022,0.023,0.023,0.023,0.023,,
75780,0.022,0.023,0.023,0.023,0.023,,
75840,0.022,0.023,0.023,0.023,0.023,,
75900,0.021,0.021,0.021,0.021,0.021,,
75960,0.022,0.022,0.022,0.022,0.022,,
76020,0.021,0.021,0.021,0.021,0.021,,
76080,0.020,0.021,0.021,0.021,0.021,,
76140,0.020,0.020,0.020,0.020,0.020,,
76200,0.019,0.020,0.020,0.020,0.020,,
76260,0.019,0.020,0.020,0.020,0.020,,
76320,0.019,0.019,0.019,0.019,0.019,,
76380,0.018,0.019,0.019,0.019,0.019,,
76440,0.017,0.018,0.018,0.018,0.018,,
76500,0.018,0.018,0.018,0.018,0.018,,
76560,0.017,0.018,0.018,0.018,0.018,,
76620,0.017,0.017,0.017,0.017,0.017,,
76680,0.017,0.017,0.017,0.017,0.017,,
76740,0.016,0.017,0.017,0.017,0.017,,
76800,0.016,0.017,0.017,0.017,0.017,,
76860,0.016,0.016,0.016,0.016,0.016,,
76920,0.015,0.016,0.016,0.016,0.016,,
76980,0.016,0.016,0.016,0.016,0.016,,
77040,0.015,0.015,0.015,0.015,0.015,,
77100,0.014,0.015,0.015,0.015,0.015,,
77160,0.014,0.014,0.014,0.014,0.014,,
77220,0.014,0.014,0.014,0.014,0.014,,
77280,0.014,0.014,0.014,0.014,0.014,,
77340,0.013,0.014,0.014,0.014,0.014,,
77400,0.013,0.013,0.013,0.013,0.013,,
77460,0.013,0.013,0.013,0.013,0.013,,
77520,0.013,0.013,0.013,0.013,0.013,,
77580,0.012,0.013,0.013,0.013,0.013,,
77640,0.013,0.013,0.013,0.013,0.013,,
77700,0.012,0.012,0.012,0.012,0.012,,
77760,0.012,0.012,0.012,0.012,0.012,,
77820,0.011,0.012,0.012,0.012,0.012,,
77880,0.011,0.012,0.012,0.012,0.012,,
77940,0.011,0.011,0.011,0.011,0.011,,
78000,0.011,0.011,0.011,0.011,0.011,,
78060,0.010,0.011,0.011,0.011,0.011,,
78120,0.010,0.011,0.011,0.011,0.011,,
78180,0.011,0.011,0.011,0.011,0.011,,
78240,0.010,0.011,0.011,0.011,0.011,,
78300,0.010,0.010,0.010,0.010,0.010,,
78360,0.010,0.010,0.010,0.010,0.010,,
78420,0.010,0.010,0.010,0.010,0.010,,
78480,0.009,0.010,0.010,0.010,0.010,,
78540,0.009,0.010,0.010,0.010,0.010,,
78600,0.009,0.010,0.010,0.010,0.010,,
78660,0.009,0.010,0.010,0.010,0.010,,
78720,0.009,0.009,0.009,0.009,0.009,,
78780,0.009,0.009,0.009,0.009,0.009,,
78840,0.008,0.009,0.009,0.009,0.009,,
78900,0.009,0.009,0.009,0.009,0.009,,
78960,0.009,0.009,0.009,0.009,0.009,,
79020,0.008,0.008,0.008,0.008,0.008,,
79080,0.008,0.008,0.008,0.008,0.008,,
79140,0.008,0.008,0.008,0.008,0.008,,
79200,0.008,0.008,0.008,0.008,0.008,,
79260,0.008,0.008,0.008,0.008,0.008,,
79320,0.007,0.007,0.008,0.008,0.008,,
79380,0.007,0.007,0.007,0.007,0.007,,
79440,0.007,0.007,0.007,0.007,0.007,,
79500,0.007,0.007,0.007,0.007,0.007,,
79560,0.007,0.007,0.007,0.007,0.007,,
79620,0.007,0.007,0.007,0.007,0.007,,
79680,0.007,0.007,0.007,0.007,0.007,,
79740,0.007,0.007,0.007,0.007,0.007,,
79800,0.007,0.007,0.007,0.007,0.007,,
79860,0.006,0.006,0.006,0.006,0.006,,
79920,0.006,0.006,0.006,0.006,0.006,,
79980,0.006,0.006,0.006,0.006,0.006,,
80040,0.006,0.006,0.006,0.006,0.006,,
80100,0.006,0.007,0.007,0.007,0.007,,
80160,0.006,0.006,0.006,0.006,0.006,,
80220,0.006,0.006,0.006,0.006,0.006,,
80280,0.006,0.006,0.006,0.006,0.006,,
80340,0.005,0.005,0.005,0.005,0.005,,
80400,0.006,0.006,0.006,0.006,0.006,,
80460,0.006,0.006,0.006,0.006,0.006,,
80520,0.005,0.005,0.005,0.005,0.005,,
80580,0.005,0.005,0.005,0.005,0.005,,
80640,0.005,0.005,0.005,0.005,0.005,,
80700,0.005,0.005,0.005,0.005,0.005,,
80760,0.005,0.005,0.005,0.005,0.005,,
80820,0.005,0.005,0.005,0.005,0.005,,
80880,0.005,0.005,0.005,0.005,0.005,,
80940,0.005,0.005,0.005,0.005,0.005,,
81000,0.005,0.005,0.005,0.005,0.005,,
81060,0.004,0.005,0.005,0.005,0.005,,
81120,0.005,0.005,0.005,0.005,0.005,,
81180,0.005,0.005,0.005,0.005,0.005,,
81240,0.004,0.005,0.005,0.005,0.005,,
81300,0.004,0.004,0.004,0.004,0.004,,
81360,0.004,0.004,0.004,0.004,0.004,,
81420,0.004,0.004,0.004,0.004,0.004,,
81480,0.004,0.004,0.004,0.004,0.004,,
81540,0.004,0.004,0.004,0.004,0.004,,
81600,0.004,0.004,0.004,0.004,0.004,,
81660,0.004,0.004,0.004,0.004,0.004,,
81720,0.004,0.004,0.004,0.004,0.004,,
81780,0.004,0.004,0.004,0.004,0.004,,
81840,0.004,0.004,0.004,0.004,0.004,,
81900,0.004,0.004,0.004,0.004,0.004,,
81960,0.004,0.004,0.004,0.004,0.004,,
82020,0.004,0.004,0.004,0.004,0.004,,
82080,0.004,0.004,0.004,0.004,0.004,,
82140,0.004,0.004,0.004,0.004,0.004,,
82200,0.003,0.003,0.003,0.003,0.003,,
82260,0.004,0.004,0.004,0.004,0.004,,
82320,0.003,0.004,0.004,0.004,0.004,,
82380,0.004,0.004,0.004,0.004,0.004,,
82440,0.003,0.004,0.004,0.004,0.004,,
82500,0.003,0.004,0.004,0.004,0.004,,
82560,0.003,0.003,0.003,0.003,0.003,,
82620,0.003,0.003,0.003,0.003,0.003,,
82680,0.003,0.003,0.003,0.003,0.003,,
82740,0.003,0.003,0.003,0.003,0.003,,
82800,0.003,0.003,0.003,0.003,0.003,,
82860,0.003,0.003,0.003,0.003,0.003,,
82920,0.003,0.003,0.003,0.003,0.003,,
82980,0.003,0.003,0.003,0.003,0.003,,
83040,0.003,0.003,0.003,0.003,0.003,,
83100,0.003,0.003,0.003,0.003,0.003,,
83160,0.003,0.003,0.003,0.003,0.003,,
83220,0.003,0.003,0.003,0.003,0.003,,
83280,0.003,0.003,0.003,0.003,0.003,,
83340,0.003,0.003,0.003,0.003,0.003,,
83400,0.002,0.002,0.002,0.002,0.002,,
83460,0.001,0.001,0.001,0.001,0.001,,
83520,0.001,0.001,0.001,0.001,0.001,,
83580,0.001,0.001,0.001,0.001,0.001,,
83640,0.000,0.000,0.000,0.000,0.000,,
83700,0.000,0.000,0.000,0.000,0.000,,
83760,0.000,0.000,0.000,0.000,0.000,,
83820,0.000,0.000,0.000,0.000,0.000,,
83880,0.000,0.000,0.000,0.000,0.000,,
83940,0.000,0.000,0.000,0.000,0.000,,
84000,0.000,0.000,0.000,0.000,0.000,,
84060,0.000,0.000,0.000,0.000,0.000,,
84120,0.000,0.000,0.000,0.000,0.000,,
84180,0.000,0.000,0.000,0.000,0.000,,
84240,0.000,0.000,0.000,0.000,0.000,,
84300,0.000,0.000,0.000,0.000,0.000,,
84360,0.000,0.000,0.000,0.000,0.000,,
84420,0.000,0.000,0.000,0.000,0.000,,
84480,0.000,0.000,0.000,0.000,0.000,,
84540,0.000,0.000,0.000,0.000,0.000,,
84600,0.000,0.000,0.000,0.000,0.000,,
84660,0.000,0.000,0.000,0.000,0.000,,
84720,0.000,0.000,0.000,0.000,0.000,,
84780,0.000,0.000,0.000,0.000,0.000,,
84840,0.000,0.000,0.000,0.000,0.000,,
84900,0.000,0.000,0.000,0.000,0.000,,
84960,0.000,0.000,0.000,0.000,0.000,,
85020,0.000,0.000,0.000,0.000,0.000,,
85080,0.000,0.000,0.000,0.000,0.000,,
85140,0.000,0.000,0.000,0.000,0.000,,
85200,0.000,0.000,0.000,0.000,0.000,,
85260,0.001,0.001,0.001,0.001,0.001,,
85320,0.439,0.440,0.440,0.441,0.441,,
85380,0.433,0.434,0.435,0.435,0.435,,
85440,0.301,0.303,0.303,0.303,0.303,,
85500,0.247,0.248,0.248,0.248,0.248,,
85560,0.245,0.246,0.246,0.246,0.246,,
85620,0.239,0.240,0.240,0.240,0.240,,
85680,0.232,0.234,0.234,0.234,0.234,,
85740,0.228,0.230,0.230,0.230,0.230,,
85800,0.222,0.224,0.224,0.224,0.224,,
85860,0.217,0.219,0.219,0.219,0.219,,
85920,0.211,0.213,0.213,0.214,0.214,,
85980,0.208,0.210,0.210,0.210,0.210,,
86040,0.204,0.206,0.206,0.206,0.206,,
86100,0.198,0.200,0.200,0.200,0.200,,
86160,0.194,0.196,0.196,0.196,0.196,,
86220,0.189,0.192,0.192,0.192,0.192,,
86280,0.184,0.186,0.186,0.186,0.186,,
86340,0.180,0.183,0.183,0.183,0.183,,
86400,0.176,0.178,0.178,0.178,0.178,,
86460,0.172,0.175,0.175,0.175,0.175,,
86520,0.165,0.168,0.168,0.168,0.168,,
86580,0.161,0.164,0.164,0.164,0.164,,
86640,0.156,0.159,0.159,0.159,0.159,,
86700,0.152,0.155,0.155,0.155,0.155,,
86760,0.148,0.150,0.150,0.150,0.150,,
86820,0.143,0.145,0.145,0.145,0.145,,
86880,0.140,0.142,0.142,0.142,0.142,,
86940,0.134,0.136,0.136,0.136,0.136,,
87000,0.128,0.131,0.131,0.131,0.131,,
87060,0.124,0.126,0.126,0.126,0.126,,
87120,0.121,0.123,0.123,0.123,0.123,,
87180,0.116,0.118,0.118,0.118,0.118,,
87240,0.112,0.114,0.114,0.114,0.114,,
87300,0.108,0.110,0.110,0.110,0.110,,
87360,0.106,0.107,0.107,0.107,0.107,,
87420,0.102,0.104,0.104,0.104,0.104,,
87480,0.099,0.101,0.101,0.101,0.101,,
87540,0.095,0.097,0.097,0.097,0.097,,
87600,0.094,0.095,0.095,0.095,0.095,,
87660,0.089,0.091,0.091,0.091,0.091,,
87720,0.089,0.090,0.090,0.090,0.090,,
87780,0.085,0.086,0.087,0.087,0.087,,
87840,0.082,0.083,0.083,0.083,0.083,,
87900,0.080,0.082,0.082,0.082,0.082,,
87960,0.079,0.081,0.081,0.081,0.081,,
88020,0.076,0.077,0.077,0.077,0.077,,
88080,0.073,0.075,0.075,0.075,0.075,,
88140,0.072,0.073,0.073,0.073,0.073,,
88200,0.071,0.073,0.073,0.073,0.073,,
88260,0.069,0.070,0.070,0.070,0.070,,
88320,0.067,0.068,0.068,0.068,0.068,,
88380,0.066,0.067,0.067,0.067,0.067,,
88440,0.064,0.065,0.065,0.065,0.065,,
88500,0.063,0.064,0.064,0.064,0.064,,
88560,0.061,0.063,0.063,0.063,0.063,,
88620,0.060,0.061,0.061,0.061,0.061,,
88680,0.058,0.059,0.059,0.059,0.059,,
88740,0.058,0.059,0.059,0.059,0.059,,
88800,0.056,0.057,0.057,0.057,0.057,,
88860,0.055,0.056,0.056,0.056,0.056,,
88920,0.054,0.055,0.055,0.055,0.055,,
88980,0.052,0.053,0.053,0.053,0.053,,
89040,0.052,0.053,0.053,0.053,0.053,,
89100,0.051,0.052,0.052,0.052,0.052,,
89160,0.050,0.051,0.051,0.051,0.051,,
89220,0.049,0.050,0.050,0.050,0.050,,
89280,0.048,0.049,0.049,0.049,0.049,,
89340,0.046,0.047,0.047,0.047,0.047,,
89400,0.046,0.047,0.047,0.047,0.047,,
89460,0.045,0.046,0.046,0.046,0.046,,
89520,0.044,0.045,0.045,0.045,0.045,,
89580,0.043,0.044,0.044,0.044,0.044,,
89640,0.043,0.044,0.044,0.044,0.044,,
89700,0.042,0.043,0.043,0.043,0.043,,
89760,0.040,0.041,0.041,0.041,0.041,,
89820,0.041,0.042,0.042,0.042,0.042,,
89880,0.040,0.041,0.041,0.041,0.041,,
89940,0.038,0.039,0.039,0.039,0.039,,
90000,0.037,0.038,0.038,0.038,0.038,,
90060,0.037,0.038,0.038,0.038,0.038,,
90120,0.037,0.038,0.038,0.038,0.038,,
90180,0.036,0.037,0.037,0.037,0.037,,
90240,0.036,0.037,0.037,0.037,0.037,,
90300,0.035,0.036,0.036,0.036,0.036,,
90360,0.034,0.035,0.035,0.035,0.035,,
90420,0.034,0.035,0.035,0.035,0.035,,
90480,0.032,0.033,0.033,0.033,0.033,,
90540,0.032,0.033,0.033,0.033,0.033,,
90600,0.032,0.033,0.033,0.033,0.033,,
90660,0.030,0.031,0.031,0.031,0.031,,
90720,0.030,0.031,0.031,0.031,0.031,,
90780,0.030,0.030,0.030,0.030,0.030,,
90840,0.029,0.030,0.030,0.030,0.030,,
90900,0.029,0.030,0.030,0.030,0.030,,
90960,0.028,0.029,0.029,0.029,0.029,,
91020,0.028,0.029,0.029,0.029,0.029,,
91080,0.026,0.027,0.027,0.027,0.027,,
91140,0.026,0.027,0.027,0.027,0.027,,
91200,0.025,0.025,0.025,0.025,0.025,,
91260,0.024,0.025,0.025,0.025,0.025,,
91320,0.024,0.025,0.025,0.025,0.025,,
91380,0.024,0.025,0.025,0.025,0.025,,
91440,0.023,0.024,0.024,0.024,0.024,,
91500,0.022,0.023,0.023,0.023,0.023,,
91560,0.023,0.023,0.023,0.023,0.023,,
91620,0.022,0.023,0.023,0.023,0.023,,
91680,0.021,0.022,0.022,0.022,0.022,,
91740,0.021,0.021,0.021,0.021,0.021,,
91800,0.020,0.021,0.021,0.021,0.021,,
91860,0.020,0.021,0.021,0.021,0.021,,
91920,0.019,0.020,0.020,0.020,0.020,,
91980,0.019,0.019,0.019,0.019,0.019,,
92040,0.019,0.020,0.020,0.020,0.020,,
92100,0.018,0.019,0.019,0.019,0.019,,
92160,0.018,0.019,0.019,0.019,0.019,,
92220,0.018,0.018,0.018,0.018,0.018,,
92280,0.017,0.018,0.018,0.018,0.018,,
92340,0.017,0.017,0.017,0.017,0.017,,
92400,0.017,0.018,0.018,0.018,0.018,,
92460,0.017,0.017,0.017,0.017,0.017,,
92520,0.017,0.017,0.017,0.017,0.017,,
92580,0.016,0.017,0.017,0.017,0.017,,
92640,0.016,0.016,0.016,0.016,0.016,,
92700,0.016,0.016,0.016,0.016,0.016,,
92760,0.015,0.016,0.016,0.016,0.016,,
92820,0.015,0.015,0.015,0.015,0.015,,
92880,0.015,0.015,0.015,0.015,0.015,,
92940,0.014,0.014,0.014,0.014,0.014,,
93000,0.014,0.015,0.015,0.015,0.015,,
93060,0.014,0.014,0.014,0.014,0.014,,
93120,0.013,0.014,0.014,0.014,0.014,,
93180,0.013,0.014,0.014,0.014,0.014,,
93240,0.013,0.013,0.013,0.013,0.013,,
93300,0.012,0.013,0.013,0.013,0.013,,
93360,0.012,0.013,0.013,0.013,0.013,,
93420,0.012,0.013,0.013,0.013,0.013,,
93480,0.012,0.013,0.013,0.013,0.013,,
93540,0.012,0.013,0.013,0.013,0.013,,
93600,0.012,0.012,0.012,0.012,0.012,,
93660,0.011,0.012,0.012,0.012,0.012,,
93720,0.011,0.011,0.011,0.011,0.011,,
93780,0.011,0.011,0.011,0.011,0.011,,
93840,0.011,0.012,0.012,0.012,0.012,,
93900,0.011,0.011,0.011,0.011,0.011,,
93960,0.011,0.011,0.011,0.011,0.011,,
94020,0.010,0.011,0.011,0.011,0.011,,
94080,0.010,0.010,0.010,0.010,0.010,,
94140,0.010,0.011,0.011,0.011,0.011,,
94200,0.010,0.010,0.010,0.010,0.010,,
94260,0.010,0.010,0.010,0.010,0.010,,
94320,0.010,0.010,0.010,0.010,0.010,,
94380,0.010,0.010,0.010,0.010,0.010,,
94440,0.009,0.010,0.010,0.010,0.010,,
94500,0.009,0.009,0.009,0.009,0.009,,
94560,0.009,0.009,0.009,0.009,0.009,,
94620,0.009,0.009,0.009,0.009,0.009,,
94680,0.009,0.009,0.009,0.009,0.009,,
94740,0.008,0.009,0.009,0.009,0.009,,
94800,0.008,0.009,0.009,0.009,0.009,,
94860,0.009,0.009,0.009,0.009,0.009,,
94920,0.008,0.009,0.009,0.009,0.009,,
94980,0.008,0.008,0.008,0.008,0.008,,
95040,0.008,0.008,0.008,0.008,0.008,,
95100,0.008,0.008,0.008,0.008,0.008,,
95160,0.008,0.008,0.008,0.008,0.008,,
95220,0.008,0.008,0.008,0.008,0.008,,
95280,0.008,0.008,0.008,0.008,0.008,,
95340,0.008,0.008,0.008,0.008,0.008,,
95400,0.007,0.007,0.007,0.007,0.007,,
95460,0.007,0.008,0.008,0.008,0.008,,
95520,0.007,0.007,0.007,0.007,0.007,,
95580,0.007,0.007,0.007,0.007,0.007,,
95640,0.007,0.007,0.007,0.007,0.007,,
95700,0.007,0.007,0.007,0.007,0.007,,
95760,0.007,0.007,0.007,0.007,0.007,,
95820,0.006,0.007,0.007,0.007,0.007,,
95880,0.007,0.007,0.007,0.007,0.007,,
95940,0.007,0.007,0.007,0.007,0.007,,
96000,0.007,0.007,0.007,0.007,0.007,,
96060,0.007,0.007,0.007,0.007,0.007,,
96120,0.006,0.006,0.006,0.006,0.006,,
96180,0.006,0.006,0.006,0.006,0.006,,
96240,0.006,0.007,0.007,0.007,0.007,,
96300,0.006,0.006,0.006,0.006,0.006,,
96360,0.006,0.006,0.006,0.006,0.006,,
96420,0.006,0.006,0.006,0.006,0.006,,
96480,0.006,0.006,0.006,0.006,0.006,,
96540,0.006,0.006,0.006,0.006,0.006,,
96600,0.005,0.006,0.006,0.006,0.006,,
96660,0.006,0.006,0.006,0.006,0.006,,
96720,0.006,0.006,0.006,0.006,0.006,,
96780,0.006,0.006,0.006,0.006,0.006,,
96840,0.006,0.006,0.006,0.006,0.006,,
96900,0.006,0.006,0.006,0.006,0.006,,
96960,0.005,0.006,0.006,0.006,0.006,,
97020,0.005,0.006,0.006,0.006,0.006,,
97080,0.005,0.006,0.006,0.006,0.006,,
97140,0.005,0.005,0.005,0.005,0.005,,
97200,0.005,0.005,0.005,0.005,0.005,,
97260,0.005,0.005,0.005,0.005,0.005,,
97320,0.005,0.005,0.005,0.005,0.005,,
97380,0.005,0.005,0.005,0.005,0.005,,
97440,0.005,0.005,0.005,0.005,0.005,,
97500,0.005,0.005,0.005,0.005,0.005,,
97560,0.005,0.005,0.005,0.005,0.005,,
97620,0.005,0.005,0.005,0.005,0.005,,
97680,0.005,0.005,0.005,0.005,0.005,,
97740,0.005,0.005,0.005,0.005,0.005,,
97800,0.004,0.004,0.004,0.004,0.004,,
97860,0.005,0.005,0.005,0.005,0.005,,
97920,0.004,0.005,0.005,0.005,0.005,,
97980,0.004,0.005,0.005,0.005,0.005,,
98040,0.004,0.004,0.004,0.004,0.004,,
98100,0.004,0.004,0.004,0.004,0.004,,
98160,0.004,0.004,0.004,0.004,0.004,,
98220,0.004,0.004,0.004,0.004,0.004,,
98280,0.004,0.004,0.004,0.004,0.004,,
98340,0.004,0.004,0.004,0.004,0.004,,
98400,0.004,0.004,0.004,0.004,0.004,,
98460,0.004,0.004,0.004,0.004,0.004,,
98520,0.004,0.004,0.004,0.004,0.004,,
98580,0.004,0.004,0.004,0.004,0.004,,
98640,0.004,0.004,0.004,0.004,0.004,,
98700,0.004,0.004,0.004,0.004,0.004,,
98760,0.004,0.004,0.004,0.004,0.004,,
98820,0.004,0.004,0.004,0.004,0.004,,
98880,0.003,0.004,0.004,0.004,0.004,,
98940,0.004,0.004,0.004,0.004,0.004,,
99000,0.004,0.004,0.004,0.004,0.004,,
99060,0.004,0.004,0.004,0.004,0.004,,
99120,0.004,0.004,0.004,0.004,0.004,,
99180,0.003,0.004,0.004,0.004,0.004,,
99240,0.004,0.004,0.004,0.004,0.004,,
99300,0.004,0.004,0.004,0.004,0.004,,
99360,0.003,0.004,0.004,0.004,0.004,,
99420,0.003,0.004,0.004,0.004,0.004,,
99480,0.003,0.003,0.003,0.003,0.003,,
99540,0.003,0.003,0.003,0.003,0.003,,
99600,0.003,0.003,0.003,0.003,0.003,,
99660,0.003,0.003,0.003,0.003,0.003,,
99720,0.003,0.003,0.003,0.003,0.003,,
99780,0.003,0.003,0.003,0.003,0.003,,
99840,0.003,0.003,0.003,0.003,0.003,,
99900,0.003,0.003,0.003,0.003,0.003,,
99960,0.003,0.003,0.003,0.003,0.003,,
100020,0.003,0.003,0.003,0.003,0.003,,
100080,0.003,0.003,0.003,0.003,0.003,,
100140,0.003,0.003,0.003,0.003,0.003,,
100200,0.003,0.003,0.003,0.003,0.003,,
100260,0.003,0.003,0.003,0.003,0.003,,
100320,0.003,0.003,0.003,0.003,0.003,,
100380,0.003,0.003,0.003,0.003,0.003,,
100440,0.003,0.003,0.003,0.003,0.003,,
100500,0.003,0.003,0.003,0.003,0.003,,
100560,0.003,0.003,0.003,0.003,0.003,,
100620,0.003,0.003,0.003,0.003,0.003,,
100680,0.003,0.003,0.003,0.003,0.003,,
100740,0.003,0.003,0.003,0.003,0.003,,
100800,0.003,0.003,0.003,0.003,0.003,,
100860,0.003,0.003,0.003,0.003,0.003,,
100920,0.003,0.003,0.003,0.003,0.003,,
100980,0.003,0.003,0.003,0.003,0.003,,
101040,0.003,0.003,0.003,0.003,0.003,,
101100,0.003,0.003,0.003,0.003,0.003,,
101160,0.003,0.003,0.003,0.003,0.003,,
101220,0.003,0.003,0.003,0.003,0.003,,
101280,0.003,0.003,0.003,0.003,0.003,,
101340,0.003,0.003,0.003,0.003,0.003,,
101400,0.003,0.003,0.003,0.003,0.003,,
101460,0.002,0.002,0.002,0.002,0.002,,
101520,0.002,0.003,0.003,0.003,0.003,,
101580,0.002,0.002,0.002,0.002,0.002,,
101640,0.002,0.002,0.002,0.002,0.002,,
101700,0.002,0.002,0.002,0.002,0.002,,
101760,0.003,0.003,0.003,0.003,0.003,,
101820,0.002,0.003,0.003,0.003,0.003,,
101880,0.002,0.003,0.003,0.003,0.003,,
101940,0.002,0.003,0.003,0.003,0.003,,
102000,0.002,0.002,0.002,0.002,0.002,,
102060,0.002,0.002,0.002,0.002,0.002,,
102120,0.002,0.002,0.002,0.002,0.002,,
102180,0.002,0.002,0.002,0.002,0.002,,
102240,0.002,0.002,0.002,0.002,0.002,,
102300,0.002,0.002,0.002,0.002,0.002,,
102360,0.002,0.002,0.002,0.002,0.002,,
102420,0.002,0.002,0.002,0.002,0.002,,
102480,0.002,0.002,0.002,0.002,0.002,,
102540,0.002,0.002,0.002,0.002,0.002,,
102600,0.002,0.002,0.002,0.002,0.002,,
102660,0.002,0.002,0.002,0.002,0.002,,
102720,0.002,0.002,0.002,0.002,0.002,,
102780,0.002,0.002,0.002,0.002,0.002,,
102840,0.002,0.002,0.002,0.002,0.002,,
102900,0.002,0.002,0.002,0.002,0.002,,
102960,0.002,0.002,0.002,0.002,0.002,,
103020,0.002,0.002,0.002,0.002,0.002,,
103080,0.002,0.002,0.002,0.002,0.002,,
103140,0.002,0.002,0.002,0.002,0.002,,
103200,0.002,0.002,0.002,0.002,0.002,,
103260,0.002,0.002,0.002,0.002,0.002,,
103320,0.002,0.002,0.002,0.002,0.002,,
103380,0.002,0.002,0.002,0.002,0.002,,
103440,0.002,0.002,0.002,0.002,0.002,,
103500,0.002,0.002,0.002,0.002,0.002,,
103560,0.002,0.002,0.002,0.002,0.002,,
103620,0.002,0.002,0.002,0.002,0.002,,
103680,0.002,0.002,0.002,0.002,0.002,,
103740,0.002,0.002,0.002,0.002,0.002,,
103800,0.002,0.002,0.002,0.002,0.002,,
103860,0.002,0.002,0.002,0.002,0.002,,
103920,0.002,0.002,0.002,0.002,0.002,,
103980,0.002,0.002,0.002,0.002,0.002,,
104040,0.002,0.002,0.002,0.002,0.002,,
104100,0.002,0.002,0.002,0.002,0.002,,
104160,0.002,0.002,0.002,0.002,0.002,,
104220,0.002,0.002,0.002,0.002,0.002,,
104280,0.002,0.002,0.002,0.002,0.002,,
104340,0.002,0.002,0.002,0.002,0.002,,
104400,0.002,0.002,0.002,0.002,0.002,,
104460,0.002,0.002,0.002,0.002,0.002,,
104520,0.002,0.002,0.002,0.002,0.002,,
104580,0.002,0.002,0.002,0.002,0.002,,
104640,0.002,0.002,0.002,0.002,0.002,,
104700,0.002,0.002,0.002,0.002,0.002,,
104760,0.002,0.002,0.002,0.002,0.002,,
104820,0.002,0.002,0.002,0.002,0.002,,
104880,0.002,0.002,0.002,0.002,0.002,,
104940,0.002,0.002,0.002,0.002,0.002,,
105000,0.002,0.002,0.002,0.002,0.002,,
105060,0.002,0.002,0.002,0.002,0.002,,
105120,0.002,0.002,0.002,0.002,0.002,,
105180,0.002,0.002,0.002,0.002,0.002,,
105240,0.002,0.002,0.002,0.002,0.002,,
105300,0.002,0.002,0.002,0.002,0.002,,
105360,0.002,0.002,0.002,0.002,0.002,,
105420,0.002,0.002,0.002,0.002,0.002,,
105480,0.002,0.002,0.002,0.002,0.002,,
105540,0.002,0.002,0.002,0.002,0.002,,
105600,0.002,0.002,0.002,0.002,0.002,,
105660,0.002,0.002,0.002,0.002,0.002,,
105720,0.002,0.002,0.002,0.002,0.002,,
105780,0.002,0.002,0.002,0.002,0.002,,
105840,0.002,0.002,0.002,0.002,0.002,,
105900,0.002,0.002,0.002,0.002,0.002,,
105960,0.002,0.002,0.002,0.002,0.002,,
106020,0.001,0.002,0.002,0.002,0.002,,
106080,0.002,0.002,0.002,0.002,0.002,,
106140,0.002,0.002,0.002,0.002,0.002,,
106200,0.002,0.002,0.002,0.002,0.002,,
106260,0.002,0.002,0.002,0.002,0.002,,
106320,0.002,0.002,0.002,0.002,0.002,,
106380,0.002,0.002,0.002,0.002,0.002,,
106440,0.001,0.002,0.002,0.002,0.002,,
106500,0.002,0.002,0.002,0.002,0.002,,
106560,0.001,0.002,0.002,0.002,0.002,,
106620,0.002,0.002,0.002,0.002,0.002,,
106680,0.001,0.001,0.001,0.001,0.001,,
106740,0.001,0.001,0.001,0.001,0.001,,
106800,0.002,0.002,0.002,0.002,0.002,,
106860,0.001,0.001,0.001,0.001,0.001,,
106920,0.002,0.002,0.002,0.002,0.002,,
106980,0.001,0.001,0.001,0.001,0.001,,
107040,0.001,0.002,0.002,0.002,0.002,,
107100,0.001,0.001,0.001,0.001,0.001,,
107160,0.001,0.001,0.001,0.001,0.001,,
107220,0.002,0.002,0.002,0.002,0.002,,
107280,0.001,0.002,0.002,0.002,0.002,,
107340,0.001,0.001,0.001,0.001,0.001,,
107400,0.001,0.001,0.001,0.001,0.001,,
107460,0.001,0.001,0.001,0.001,0.001,,
107520,0.001,0.001,0.001,0.001,0.001,,
107580,0.001,0.001,0.001,0.001,0.001,,
107640,0.001,0.001,0.001,0.001,0.001,,
107700,0.001,0.001,0.001,0.001,0.001,,
107760,0.001,0.001,0.001,0.001,0.001,,
107820,0.001,0.001,0.001,0.001,0.001,,
107880,0.001,0.001,0.001,0.001,0.001,,
107940,0.001,0.001,0.001,0.001,0.001,,
108000,0.001,0.001,0.001,0.001,0.001,,
108060,0.001,0.001,0.001,0.001,0.001,,
108120,0.001,0.001,0.001,0.001,0.001,,
108180,0.001,0.001,0.001,0.001,0.001,,
108240,0.001,0.001,0.001,0.001,0.001,,
108300,0.001,0.001,0.001,0.001,0.001,,
108360,0.001,0.001,0.001,0.001,0.001,,
108420,0.001,0.001,0.001,0.001,0.001,,
108480,0.001,0.001,0.001,0.001,0.001,,
108540,0.001,0.001,0.001,0.001,0.001,,
108600,0.001,0.001,0.001,0.001,0.001,,
108660,0.001,0.001,0.001,0.001,0.001,,
108720,0.001,0.001,0.001,0.001,0.001,,
108780,0.001,0.001,0.001,0.001,0.001,,
108840,0.001,0.001,0.001,0.001,0.001,,
108900,0.001,0.001,0.001,0.001,0.001,,
108960,0.001,0.001,0.001,0.001,0.001,,
109020,0.001,0.001,0.001,0.001,0.001,,
109080,0.001,0.001,0.001,0.001,0.001,,
109140,0.001,0.001,0.001,0.001,0.001,,
109200,0.001,0.001,0.001,0.001,0.001,,
109260,0.001,0.001,0.001,0.001,0.001,,
109320,0.001,0.001,0.001,0.001,0.001,,
109380,0.001,0.001,0.001,0.001,0.001,,
109440,0.001,0.001,0.001,0.001,0.001,,
109500,0.001,0.001,0.001,0.001,0.001,,
109560,0.001,0.001,0.001,0.001,0.001,,
109620,0.001,0.001,0.001,0.001,0.001,,
109680,0.001,0.001,0.001,0.001,0.001,,
109740,0.001,0.001,0.001,0.001,0.001,,
109800,0.001,0.001,0.001,0.001,0.001,,
109860,0.001,0.001,0.001,0.001,0.001,,
109920,0.001,0.001,0.001,0.001,0.001,,
109980,0.001,0.001,0.001,0.001,0.001,,
110040,0.001,0.001,0.001,0.001,0.001,,
110100,0.001,0.001,0.001,0.001,0.001,,
110160,0.001,0.001,0.001,0.001,0.001,,
110220,0.001,0.001,0.001,0.001,0.001,,
110280,0.001,0.001,0.001,0.001,0.001,,
110340,0.001,0.001,0.001,0.001,0.001,,
110400,0.001,0.001,0.001,0.001,0.001,,
110460,0.001,0.001,0.001,0.001,0.001,,
110520,0.001,0.001,0.001,0.001,0.001,,
110580,0.001,0.001,0.001,0.001,0.001,,
110640,0.001,0.001,0.001,0.001,0.001,,
110700,0.001,0.001,0.001,0.001,0.001,,
110760,0.001,0.001,0.001,0.001,0.001,,
110820,0.001,0.001,0.001,0.001,0.001,,
110880,0.001,0.001,0.001,0.001,0.001,,
110940,0.001,0.001,0.001,0.001,0.001,,
111000,0.001,0.001,0.001,0.001,0.001,,
111060,0.001,0.001,0.001,0.001,0.001,,
111120,0.001,0.001,0.001,0.001,0.001,,
111180,0.001,0.001,0.001,0.001,0.001,,
111240,0.001,0.001,0.001,0.001,0.001,,
111300,0.001,0.001,0.001,0.001,0.001,,
111360,0.001,0.001,0.001,0.001,0.001,,
111420,0.001,0.001,0.001,0.001,0.001,,
111480,0.001,0.001,0.001,0.001,0.001,,
111540,0.001,0.001,0.001,0.001,0.001,,
111600,0.001,0.001,0.001,0.001,0.001,,
111660,0.001,0.001,0.001,0.001,0.001,,
111720,0.001,0.001,0.001,0.001,0.001,,
111780,0.001,0.001,0.001,0.001,0.001,,
111840,0.001,0.001,0.001,0.001,0.001,,
111900,0.001,0.001,0.001,0.001,0.001,,
111960,0.001,0.001,0.001,0.001,0.001,,
112020,0.001,0.001,0.001,0.001,0.001,,
112080,0.001,0.001,0.001,0.001,0.001,,
112140,0.001,0.001,0.001,0.001,0.001,,
112200,0.001,0.001,0.001,0.001,0.001,,
112260,0.001,0.001,0.001,0.001,0.001,,
112320,0.001,0.001,0.001,0.001,0.001,,
112380,0.001,0.001,0.001,0.001,0.001,,
112440,0.001,0.001,0.001,0.001,0.001,,
112500,0.001,0.001,0.001,0.001,0.001,,
112560,0.001,0.001,0.001,0.001,0.001,,
112620,0.001,0.001,0.001,0.001,0.001,,
112680,0.001,0.001,0.001,0.001,0.001,,
112740,0.001,0.001,0.001,0.001,0.001,,
112800,0.001,0.001,0.001,0.001,0.001,,
112860,0.001,0.001,0.001,0.001,0.001,,
112920,0.001,0.001,0.001,0.001,0.001,,
112980,0.001,0.001,0.001,0.001,0.001,,
113040,0.001,0.001,0.001,0.001,0.001,,
113100,0.001,0.001,0.001,0.001,0.001,,
113160,0.001,0.001,0.001,0.001,0.001,,
113220,0.001,0.001,0.001,0.001,0.001,,
113280,0.001,0.001,0.001,0.001,0.001,,
113340,0.001,0.001,0.001,0.001,0.001,,
113400,0.001,0.001,0.001,0.001,0.001,,
113460,0.001,0.001,0.001,0.001,0.001,,
113520,0.001,0.001,0.001,0.001,0.001,,
113580,0.001,0.001,0.001,0.001,0.001,,
113640,0.001,0.001,0.001,0.001,0.001,,
113700,0.001,0.001,0.001,0.001,0.001,,
113760,0.001,0.001,0.001,0.001,0.001,,
113820,0.001,0.001,0.001,0.001,0.001,,
113880,0.001,0.001,0.001,0.001,0.001,,
113940,0.001,0.001,0.001,0.001,0.001,,
114000,0.001,0.001,0.001,0.001,0.001,,
114060,0.001,0.001,0.001,0.001,0.001,,
114120,0.001,0.001,0.001,0.001,0.001,,
114180,0.001,0.001,0.001,0.001,0.001,,
114240,0.001,0.001,0.001,0.001,0.001,,
114300,0.001,0.001,0.001,0.001,0.001,,
114360,0.001,0.001,0.001,0.001,0.001,,
114420,0.001,0.001,0.001,0.001,0.001,,
114480,0.001,0.001,0.001,0.001,0.001,,
114540,0.001,0.001,0.001,0.001,0.001,,
114600,0.001,0.001,0.001,0.001,0.001,,
114660,0.001,0.001,0.001,0.001,0.001,,
114720,0.001,0.001,0.001,0.001,0.001,,
114780,0.001,0.001,0.001,0.001,0.001,,
114840,0.001,0.001,0.001,0.001,0.001,,
114900,0.001,0.001,0.001,0.001,0.001,,
114960,0.001,0.001,0.001,0.001,0.001,,
115020,0.001,0.001,0.001,0.001,0.001,,
115080,0.001,0.001,0.001,0.001,0.001,,
115140,0.001,0.001,0.001,0.001,0.001,,
115200,0.001,0.001,0.001,0.001,0.001,,
115260,0.001,0.001,0.001,0.001,0.001,,
115320,0.001,0.001,0.001,0.001,0.001,,
115380,0.001,0.001,0.001,0.001,0.001,,
115440,0.001,0.001,0.001,0.001,0.001,,
115500,0.001,0.001,0.001,0.001,0.001,,
115560,0.001,0.001,0.001,0.001,0.001,,
115620,0.001,0.001,0.001,0.001,0.001,,
115680,0.001,0.001,0.001,0.001,0.001,,
115740,0.001,0.001,0.001,0.001,0.001,,
115800,0.001,0.001,0.001,0.001,0.001,,
115860,0.001,0.001,0.001,0.001,0.001,,
115920,0.001,0.001,0.001,0.001,0.001,,
115980,0.001,0.001,0.001,0.001,0.001,,
116040,0.001,0.001,0.001,0.001,0.001,,
116100,0.001,0.001,0.001,0.001,0.001,,
116160,0.001,0.001,0.001,0.001,0.001,,
116220,0.001,0.001,0.001,0.001,0.001,,
116280,0.001,0.001,0.001,0.001,0.001,,
116340,0.001,0.001,0.001,0.001,0.001,,
116400,0.001,0.001,0.001,0.001,0.001,,
116460,0.001,0.001,0.001,0.001,0.001,,
116520,0.001,0.001,0.001,0.001,0.001,,
116580,0.001,0.001,0.001,0.001,0.001,,
116640,0.001,0.001,0.001,0.001,0.001,,
116700,0.001,0.001,0.001,0.001,0.001,,
116760,0.001,0.001,0.001,0.001,0.001,,
116820,0.001,0.001,0.001,0.001,0.001,,
116880,0.001,0.001,0.001,0.001,0.001,,
116940,0.001,0.001,0.001,0.001,0.001,,
117000,0.001,0.001,0.001,0.001,0.001,,
117060,0.001,0.001,0.001,0.001,0.001,,
117120,0.001,0.001,0.001,0.001,0.001,,
117180,0.001,0.001,0.001,0.001,0.001,,
117240,0.001,0.001,0.001,0.001,0.001,,
117300,0.001,0.001,0.001,0.001,0.001,,
117360,0.001,0.001,0.001,0.001,0.001,,
117420,0.001,0.001,0.001,0.001,0.001,,
117480,0.001,0.001,0.001,0.001,0.001,,
117540,0.001,0.001,0.001,0.001,0.001,,
117600,0.001,0.001,0.001,0.001,0.001,,
117660,0.001,0.001,0.001,0.001,0.001,,
117720,0.001,0.001,0.001,0.001,0.001,,
117780,0.001,0.001,0.001,0.001,0.001,,
117840,0.001,0.001,0.001,0.001,0.001,,
117900,0.001,0.001,0.001,0.001,0.001,,
117960,0.001,0.001,0.001,0.001,0.001,,
118020,0.001,0.001,0.001,0.001,0.001,,
118080,0.001,0.001,0.001,0.001,0.001,,
118140,0.001,0.001,0.001,0.001,0.001,,
118200,0.001,0.001,0.001,0.001,0.001,,
118260,0.001,0.001,0.001,0.001,0.001,,
118320,0.001,0.001,0.001,0.001,0.001,,
118380,0.001,0.001,0.001,0.001,0.001,,
118440,0.001,0.001,0.001,0.001,0.001,,
118500,0.001,0.001,0.001,0.001,0.001,,
118560,0.001,0.001,0.001,0.001,0.001,,
118620,0.001,0.001,0.001,0.001,0.001,,
118680,0.001,0.001,0.001,0.001,0.001,,
118740,0.001,0.001,0.001,0.001,0.001,,
118800,0.001,0.001,0.001,0.001,0.001,,
118860,0.001,0.001,0.001,0.001,0.001,,
118920,0.001,0.001,0.001,0.001,0.001,,
118980,0.001,0.001,0.001,0.001,0.001,,
119040,0.001,0.001,0.001,0.001,0.001,,
119100,0.001,0.001,0.001,0.001,0.001,,
119160,0.001,0.001,0.001,0.001,0.001,,
119220,0.001,0.001,0.001,0.001,0.001,,
119280,0.001,0.001,0.001,0.001,0.001,,
119340,0.001,0.001,0.001,0.001,0.001,,
119400,0.001,0.001,0.001,0.001,0.001,,
119460,0.001,0.001,0.001,0.001,0.001,,
119520,0.001,0.001,0.001,0.001,0.001,,
119580,0.001,0.001,0.001,0.001,0.001,,
119640,0.001,0.001,0.001,0.001,0.001,,
119700,0.001,0.001,0.001,0.001,0.001,,
119760,0.001,0.001,0.001,0.001,0.001,,
119820,0.001,0.001,0.001,0.001,0.001,,
119880,0.001,0.001,0.001,0.001,0.001,,
119940,0.001,0.001,0.001,0.001,0.001,,
120000,0.001,0.001,0.001,0.001,0.001,,
120060,0.001,0.001,0.001,0.001,0.001,,
120120,0.001,0.001,0.001,0.001,0.001,,
120180,0.001,0.001,0.001,0.001,0.001,,
120240,0.001,0.001,0.001,0.001,0.001,,
120300,0.001,0.001,0.001,0.001,0.001,,
120360,0.001,0.001,0.001,0.001,0.001,,
120420,0.001,0.001,0.001,0.001,0.001,,
120480,0.001,0.001,0.001,0.001,0.001,,
120540,0.001,0.001,0.001,0.001,0.001,,
120600,0.001,0.001,0.001,0.001,0.001,,
120660,0.001,0.001,0.001,0.001,0.001,,
120720,0.001,0.001,0.001,0.001,0.001,,
120780,0.001,0.001,0.001,0.001,0.001,,
120840,0.001,0.001,0.001,0.001,0.001,,
120900,0.001,0.001,0.001,0.001,0.001,,
120960,0.001,0.001,0.001,0.001,0.001,,
121020,0.001,0.001,0.001,0.001,0.001,,
121080,0.001,0.001,0.001,0.001,0.001,,
121140,0.001,0.001,0.001,0.001,0.001,,
121200,0.001,0.001,0.001,0.001,0.001,,
121260,0.001,0.001,0.001,0.001,0.001,,
121320,0.001,0.001,0.001,0.001,0.001,,
121380,0.001,0.001,0.001,0.001,0.001,,
121440,0.001,0.001,0.001,0.001,0.001,,
121500,0.001,0.001,0.001,0.001,0.001,,
121560,0.001,0.001,0.001,0.001,0.001,,
121620,0.001,0.001,0.001,0.001,0.001,,
121680,0.001,0.001,0.001,0.001,0.001,,
121740,0.001,0.001,0.001,0.001,0.001,,
121800,0.001,0.001,0.001,0.001,0.001,,
121860,0.001,0.001,0.001,0.001,0.001,,
121920,0.001,0.001,0.001,0.001,0.001,,
121980,0.001,0.001,0.001,0.001,0.001,,
122040,0.001,0.001,0.001,0.001,0.001,,
122100,0.001,0.001,0.001,0.001,0.001,,
122160,0.001,0.001,0.001,0.001,0.001,,
122220,0.001,0.001,0.001,0.001,0.001,,
122280,0.001,0.001,0.001,0.001,0.001,,
122340,0.001,0.001,0.001,0.001,0.001,,
122400,0.001,0.001,0.001,0.001,0.001,,
122460,0.001,0.001,0.001,0.001,0.001,,
122520,0.001,0.001,0.001,0.001,0.001,,
122580,0.001,0.001,0.001,0.001,0.001,,
122640,0.001,0.001,0.001,0.001,0.001,,
122700,0.001,0.001,0.001,0.001,0.001,,
122760,0.001,0.001,0.001,0.001,0.001,,
122820,0.001,0.001,0.001,0.001,0.001,,
122880,0.001,0.001,0.001,0.001,0.001,,
122940,0.001,0.001,0.001,0.001,0.001,,
123000,0.001,0.001,0.001,0.001,0.001,,
123060,0.001,0.001,0.001,0.001,0.001,,
123120,0.001,0.001,0.001,0.001,0.001,,
123180,0.001,0.001,0.001,0.001,0.001,,
123240,0.001,0.001,0.001,0.001,0.001,,
123300,0.001,0.001,0.001,0.001,0.001,,
123360,0.001,0.001,0.001,0.001,0.001,,
123420,0.001,0.001,0.001,0.001,0.001,,
123480,0.001,0.001,0.001,0.001,0.001,,
123540,0.001,0.001,0.001,0.001,0.001,,
123600,0.001,0.001,0.001,0.001,0.001,,
123660,0.001,0.001,0.001,0.001,0.001,,
123720,0.001,0.001,0.001,0.001,0.001,,
123780,0.001,0.001,0.001,0.001,0.001,,
123840,0.001,0.001,0.001,0.001,0.001,,
123900,0.001,0.001,0.001,0.001,0.001,,
123960,0.001,0.001,0.001,0.001,0.001,,
124020,0.001,0.001,0.001,0.001,0.001,,
124080,0.001,0.001,0.001,0.001,0.001,,
124140,0.001,0.001,0.001,0.001,0.001,,
124200,0.001,0.001,0.001,0.001,0.001,,
124260,0.001,0.001,0.001,0.001,0.001,,
124320,0.001,0.001,0.001,0.001,0.001,,
124380,0.001,0.001,0.001,0.001,0.001,,
124440,0.001,0.001,0.001,0.001,0.001,,
124500,0.001,0.001,0.001,0.001,0.001,,
124560,0.001,0.001,0.001,0.001,0.001,,
124620,0.001,0.001,0.001,0.001,0.001,,
124680,0.001,0.001,0.001,0.001,0.001,,
124740,0.000,0.000,0.000,0.000,0.000,,
124800,0.001,0.001,0.001,0.001,0.001,,
124860,0.001,0.001,0.001,0.001,0.001,,
124920,0.000,0.000,0.000,0.000,0.000,,
124980,0.001,0.001,0.001,0.001,0.001,,
125040,0.001,0.001,0.001,0.001,0.001,,
125100,0.000,0.000,0.000,0.000,0.000,,
125160,0.000,0.001,0.001,0.001,0.001,,
125220,0.001,0.001,0.001,0.001,0.001,,
125280,0.001,0.001,0.001,0.001,0.001,,
125340,0.001,0.001,0.001,0.001,0.001,,
125400,0.001,0.001,0.001,0.001,0.001,,
125460,0.000,0.001,0.001,0.001,0.001,,
125520,0.001,0.001,0.001,0.001,0.001,,
125580,0.001,0.001,0.001,0.001,0.001,,
125640,0.001,0.001,0.001,0.001,0.001,,
125700,0.001,0.001,0.001,0.001,0.001,,
125760,0.000,0.000,0.000,0.000,0.000,,
125820,0.001,0.001,0.001,0.001,0.001,,
125880,0.000,0.000,0.000,0.000,0.000,,
125940,0.000,0.001,0.001,0.001,0.001,,
126000,0.001,0.001,0.001,0.001,0.001,,
126060,0.000,0.000,0.000,0.000,0.000,,
126120,0.001,0.001,0.001,0.001,0.001,,
126180,0.001,0.001,0.001,0.001,0.001,,
126240,0.001,0.001,0.001,0.001,0.001,,
126300,0.000,0.001,0.001,0.001,0.001,,
126360,0.000,0.000,0.000,0.000,0.000,,
126420,0.001,0.001,0.001,0.001,0.001,,
126480,0.000,0.001,0.001,0.001,0.001,,
126540,0.000,0.000,0.001,0.001,0.001,,
126600,0.001,0.001,0.001,0.001,0.001,,
126660,0.000,0.000,0.000,0.000,0.000,,
126720,0.001,0.001,0.001,0.001,0.001,,
126780,0.001,0.001,0.001,0.001,0.001,,
126840,0.000,0.000,0.000,0.000,0.000,,
126900,0.000,0.000,0.000,0.000,0.000,,
126960,0.000,0.000,0.000,0.000,0.000,,
127020,0.000,0.000,0.000,0.000,0.000,,
127080,0.000,0.000,0.000,0.000,0.000,,
127140,0.001,0.001,0.001,0.001,0.001,,
127200,0.000,0.000,0.000,0.000,0.000,,
127260,0.000,0.000,0.000,0.000,0.000,,
127320,0.001,0.001,0.001,0.001,0.001,,
127380,0.000,0.001,0.001,0.001,0.001,,
127440,0.000,0.000,0.000,0.000,0.000,,
127500,0.000,0.000,0.000,0.000,0.000,,
127560,0.000,0.000,0.000,0.000,0.000,,
127620,0.000,0.000,0.000,0.000,0.000,,
127680,0.000,0.000,0.000,0.000,0.000,,
127740,0.001,0.001,0.001,0.001,0.001,,
127800,0.001,0.001,0.001,0.001,0.001,,
127860,0.000,0.000,0.000,0.000,0.000,,
127920,0.000,0.000,0.000,0.000,0.000,,
127980,0.000,0.000,0.000,0.000,0.000,,
128040,0.000,0.000,0.000,0.000,0.000,,
128100,0.000,0.000,0.000,0.000,0.000,,
128160,0.000,0.000,0.000,0.000,0.000,,
128220,0.000,0.000,0.000,0.000,0.000,,
128280,0.000,0.000,0.000,0.000,0.000,,
128340,0.000,0.000,0.000,0.000,0.000,,
128400,0.000,0.000,0.000,0.000,0.000,,
128460,0.000,0.001,0.001,0.001,0.001,,
128520,0.000,0.000,0.000,0.000,0.000,,
128580,0.000,0.000,0.000,0.000,0.000,,
128640,0.000,0.000,0.000,0.000,0.000,,
128700,0.000,0.000,0.000,0.000,0.000,,
128760,0.000,0.000,0.000,0.000,0.000,,
128820,0.000,0.000,0.000,0.000,0.000,,
128880,0.000,0.000,0.000,0.000,0.000,,
128940,0.000,0.000,0.000,0.000,0.000,,
129000,0.000,0.000,0.000,0.000,0.000,,
129060,0.000,0.000,0.000,0.000,0.000,,
129120,0.000,0.000,0.000,0.000,0.000,,
129180,0.000,0.000,0.000,0.000,0.000,,
129240,0.000,0.000,0.000,0.000,0.000,,
129300,0.000,0.000,0.000,0.000,0.000,,
129360,0.000,0.000,0.000,0.000,0.000,,
129420,0.000,0.000,0.000,0.000,0.000,,
129480,0.000,0.000,0.000,0.000,0.000,,
129540,0.000,0.000,0.000,0.000,0.000,,
129600,0.000,0.000,0.000,0.000,0.000,,
129660,0.000,0.000,0.000,0.000,0.000,,
129720,0.000,0.000,0.000,0.000,0.000,,
129780,0.000,0.000,0.000,0.000,0.000,,
129840,0.000,0.000,0.000,0.000,0.000,,
129900,0.000,0.000,0.000,0.000,0.000,,
129960,0.000,0.000,0.000,0.000,0.000,,
130020,0.000,0.000,0.000,0.000,0.000,,
130080,0.000,0.000,0.000,0.000,0.000,,
130140,0.000,0.000,0.000,0.000,0.000,,
130200,0.000,0.000,0.000,0.000,0.000,,
130260,0.000,0.000,0.000,0.000,0.000,,
130320,0.000,0.000,0.000,0.000,0.000,,
130380,0.000,0.000,0.000,0.000,0.000,,
130440,0.000,0.000,0.000,0.000,0.000,,
130500,0.000,0.000,0.000,0.000,0.000,,
130560,0.000,0.000,0.000,0.000,0.000,,
130620,0.000,0.000,0.000,0.000,0.000,,
130680,0.000,0.000,0.000,0.000,0.000,,
130740,0.000,0.000,0.000,0.000,0.000,,
130800,0.000,0.000,0.000,0.000,0.000,,
130860,0.000,0.000,0.000,0.000,0.000,,
130920,0.000,0.000,0.000,0.000,0.000,,
130980,0.000,0.000,0.000,0.000,0.000,,
131040,0.000,0.000,0.000,0.000,0.000,,
131100,0.000,0.000,0.000,0.000,0.000,,
131160,0.000,0.000,0.000,0.000,0.000,,
131220,0.000,0.000,0.000,0.000,0.000,,
131280,0.000,0.000,0.000,0.000,0.000,,
131340,0.000,0.000,0.000,0.000,0.000,,
131400,0.000,0.000,0.000,0.000,0.000,,
131460,0.000,0.000,0.000,0.000,0.000,,
131520,0.000,0.000,0.000,0.000,0.000,,
131580,0.000,0.000,0.000,0.000,0.000,,
131640,0.000,0.000,0.000,0.000,0.000,,
131700,0.000,0.000,0.000,0.000,0.000,,
131760,0.000,0.000,0.000,0.000,0.000,,
131820,0.000,0.000,0.000,0.000,0.000,,
131880,0.000,0.000,0.000,0.000,0.000,,
131940,0.000,0.000,0.000,0.000,0.000,,
132000,0.000,0.000,0.000,0.000,0.000,,
132060,0.000,0.000,0.000,0.000,0.000,,
132120,0.000,0.000,0.000,0.000,0.000,,
132180,0.000,0.000,0.000,0.000,0.000,,
132240,0.000,0.000,0.000,0.000,0.000,,
132300,0.000,0.000,0.000,0.000,0.000,,
132360,0.000,0.000,0.000,0.000,0.000,,
132420,0.000,0.000,0.000,0.000,0.000,,
132480,0.000,0.000,0.000,0.000,0.000,,
132540,0.000,0.000,0.000,0.000,0.000,,
132600,0.000,0.000,0.000,0.000,0.000,,
132660,0.000,0.000,0.000,0.000,0.000,,
132720,0.000,0.000,0.000,0.000,0.000,,
132780,0.000,0.000,0.000,0.000,0.000,,
132840,0.000,0.000,0.000,0.000,0.000,,
132900,0.000,0.000,0.000,0.000,0.000,,
132960,0.000,0.000,0.000,0.000,0.000,,
133020,0.000,0.000,0.000,0.000,0.000,,
133080,0.000,0.000,0.000,0.000,0.000,,
133140,0.000,0.000,0.000,0.000,0.000,,
133200,0.000,0.000,0.000,0.000,0.000,,
133260,0.000,0.000,0.000,0.000,0.000,,
133320,0.000,0.000,0.000,0.000,0.000,,
133380,0.000,0.000,0.000,0.000,0.000,,
133440,0.000,0.000,0.000,0.000,0.000,,
133500,0.000,0.000,0.000,0.000,0.000,,
133560,0.000,0.000,0.000,0.000,0.000,,
133620,0.000,0.000,0.000,0.000,0.000,,
133680,0.000,0.000,0.000,0.000,0.000,,
133740,0.000,0.000,0.000,0.000,0.000,,
133800,0.000,0.000,0.000,0.000,0.000,,
133860,0.000,0.000,0.000,0.000,0.000,,
133920,0.000,0.000,0.000,0.000,0.000,,
133980,0.000,0.000,0.000,0.000,0.000,,
134040,0.000,0.000,0.000,0.000,0.000,,
134100,0.000,0.000,0.000,0.000,0.000,,
134160,0.000,0.000,0.000,0.000,0.000,,
134220,0.000,0.000,0.000,0.000,0.000,,
134280,0.000,0.000,0.000,0.000,0.000,,
134340,0.000,0.000,0.000,0.000,0.000,,
134400,0.000,0.000,0.000,0.000,0.000,,
134460,0.000,0.000,0.000,0.000,0.000,,
134520,0.000,0.000,0.000,0.000,0.000,,
134580,0.000,0.000,0.000,0.000,0.000,,
134640,0.000,0.000,0.000,0.000,0.000,,
134700,0.000,0.000,0.000,0.000,0.000,,
134760,0.000,0.000,0.000,0.000,0.000,,
134820,0.000,0.000,0.000,0.000,0.000,,
134880,0.000,0.000,0.000,0.000,0.000,,
134940,0.000,0.000,0.000,0.000,0.000,,
135000,0.000,0.000,0.000,0.000,0.000,,
135060,0.000,0.000,0.000,0.000,0.000,,
135120,0.000,0.000,0.000,0.000,0.000,,
135180,0.000,0.000,0.000,0.000,0.000,,
135240,0.000,0.000,0.000,0.000,0.000,,
135300,0.000,0.000,0.000,0.000,0.000,,
135360,0.000,0.000,0.000,0.000,0.000,,
135420,0.000,0.000,0.000,0.000,0.000,,
135480,0.000,0.000,0.000,0.000,0.000,,
135540,0.000,0.000,0.000,0.000,0.000,,
135600,0.000,0.000,0.000,0.000,0.000,,
135660,0.000,0.000,0.000,0.000,0.000,,
135720,0.000,0.000,0.000,0.000,0.000,,
135780,0.000,0.000,0.000,0.000,0.000,,
135840,0.000,0.000,0.000,0.000,0.000,,
135900,0.000,0.000,0.000,0.000,0.000,,
135960,0.000,0.000,0.000,0.000,0.000,,
136020,0.000,0.000,0.000,0.000,0.000,,
136080,0.000,0.000,0.000,0.000,0.000,,
136140,0.000,0.000,0.000,0.000,0.000,,
136200,0.000,0.000,0.000,0.000,0.000,,
136260,0.000,0.000,0.000,0.000,0.000,,
136320,0.000,0.000,0.000,0.000,0.000,,
136380,0.000,0.000,0.000,0.000,0.000,,
136440,0.000,0.000,0.000,0.000,0.000,,
136500,0.000,0.000,0.000,0.000,0.000,,
136560,0.000,0.000,0.000,0.000,0.000,,
136620,0.000,0.000,0.000,0.000,0.000,,
136680,0.000,0.000,0.000,0.000,0.000,,
136740,0.000,0.000,0.000,0.000,0.000,,
136800,0.000,0.000,0.000,0.000,0.000,,
136860,0.000,0.000,0.000,0.000,0.000,,
136920,0.000,0.000,0.000,0.000,0.000,,
136980,0.000,0.000,0.000,0.000,0.000,,
137040,0.000,0.000,0.000,0.000,0.000,,
137100,0.000,0.000,0.000,0.000,0.000,,
137160,0.000,0.000,0.000,0.000,0.000,,
137220,0.000,0.000,0.000,0.000,0.000,,
137280,0.000,0.000,0.000,0.000,0.000,,
137340,0.000,0.000,0.000,0.000,0.000,,
137400,0.000,0.000,0.000,0.000,0.000,,
137460,0.000,0.000,0.000,0.000,0.000,,
137520,0.000,0.000,0.000,0.000,0.000,,
137580,0.000,0.000,0.000,0.000,0.000,,
137640,0.000,0.000,0.000,0.000,0.000,,
137700,0.000,0.000,0.000,0.000,0.000,,
137760,0.000,0.000,0.000,0.000,0.000,,
137820,0.000,0.000,0.000,0.000,0.000,,
137880,0.000,0.000,0.000,0.000,0.000,,
137940,0.000,0.000,0.000,0.000,0.000,,
138000,0.000,0.000,0.000,0.000,0.000,,
138060,0.000,0.000,0.000,0.000,0.000,,
138120,0.000,0.000,0.000,0.000,0.000,,
138180,0.000,0.000,0.000,0.000,0.000,,
138240,0.000,0.000,0.000,0.000,0.000,,
138300,0.000,0.000,0.000,0.000,0.000,,
138360,0.000,0.000,0.000,0.000,0.000,,
138420,0.000,0.000,0.000,0.000,0.000,,
138480,0.000,0.000,0.000,0.000,0.000,,
138540,0.000,0.000,0.000,0.000,0.000,,
138600,0.000,0.000,0.000,0.000,0.000,,
138660,0.000,0.000,0.000,0.000,0.000,,
138720,0.000,0.000,0.000,0.000,0.000,,
138780,0.000,0.000,0.000,0.000,0.000,,
138840,0.000,0.000,0.000,0.000,0.000,,
138900,0.000,0.000,0.000,0.000,0.000,,
138960,0.000,0.000,0.000,0.000,0.000,,
139020,0.000,0.000,0.000,0.000,0.000,,
139080,0.000,0.000,0.000,0.000,0.000,,
139140,0.000,0.000,0.000,0.000,0.000,,
139200,0.000,0.000,0.000,0.000,0.000,,
139260,0.000,0.000,0.000,0.000,0.000,,
139320,0.000,0.000,0.000,0.000,0.000,,
139380,0.000,0.000,0.000,0.000,0.000,,
139440,0.000,0.000,0.000,0.000,0.000,,
139500,0.000,0.000,0.000,0.000,0.000,,
139560,0.000,0.000,0.000,0.000,0.000,,
139620,0.000,0.000,0.000,0.000,0.000,,
139680,0.000,0.000,0.000,0.000,0.000,,
139740,0.000,0.000,0.000,0.000,0.000,,
139800,0.000,0.000,0.000,0.000,0.000,,
139860,0.000,0.000,0.000,0.000,0.000,,
139920,0.000,0.000,0.000,0.000,0.000,,
139980,0.000,0.000,0.000,0.000,0.000,,
140040,0.000,0.000,0.000,0.000,0.000,,
140100,0.000,0.000,0.000,0.000,0.000,,
140160,0.000,0.000,0.000,0.000,0.000,,
140220,0.000,0.000,0.000,0.000,0.000,,
140280,0.000,0.000,0.000,0.000,0.000,,
140340,0.000,0.000,0.000,0.000,0.000,,
140400,0.000,0.000,0.000,0.000,0.000,,
140460,0.000,0.000,0.000,0.000,0.000,,
140520,0.000,0.000,0.000,0.000,0.000,,
140580,0.000,0.000,0.000,0.000,0.000,,
140640,0.000,0.000,0.000,0.000,0.000,,
140700,0.000,0.000,0.000,0.000,0.000,,
140760,0.000,0.000,0.000,0.000,0.000,,
140820,0.000,0.000,0.000,0.000,0.000,,
140880,0.000,0.000,0.000,0.000,0.000,,
140940,0.000,0.000,0.000,0.000,0.000,,
141000,0.000,0.000,0.000,0.000,0.000,,
141060,0.000,0.000,0.000,0.000,0.000,,
141120,0.000,0.000,0.000,0.000,0.000,,
141180,0.000,0.000,0.000,0.000,0.000,,
141240,0.000,0.000,0.000,0.000,0.000,,
141300,0.000,0.000,0.000,0.000,0.000,,
141360,0.000,0.000,0.000,0.000,0.000,,
141420,0.000,0.000,0.000,0.000,0.000,,
141480,0.000,0.000,0.000,0.000,0.000,,
141540,0.000,0.000,0.000,0.000,0.000,,
141600,0.000,0.000,0.000,0.000,0.000,,
141660,0.000,0.000,0.000,0.000,0.000,,
141720,0.000,0.000,0.000,0.000,0.000,,
141780,0.000,0.000,0.000,0.000,0.000,,
141840,0.000,0.000,0.000,0.000,0.000,,
141900,0.000,0.000,0.000,0.000,0.000,,
141960,0.000,0.000,0.000,0.000,0.000,,
142020,0.000,0.000,0.000,0.000,0.000,,
142080,0.000,0.000,0.000,0.000,0.000,,
142140,0.000,0.000,0.000,0.000,0.000,,
142200,0.000,0.000,0.000,0.000,0.000,,
142260,0.000,0.000,0.000,0.000,0.000,,
142320,0.000,0.000,0.000,0.000,0.000,,
142380,0.000,0.000,0.000,0.000,0.000,,
142440,0.000,0.000,0.000,0.000,0.000,,
142500,0.000,0.000,0.000,0.000,0.000,,
142560,0.000,0.000,0.000,0.000,0.000,,
142620,0.000,0.000,0.000,0.000,0.000,,
142680,0.000,0.000,0.000,0.000,0.000,,
142740,0.000,0.000,0.000,0.000,0.000,,
142800,0.000,0.000,0.000,0.000,0.000,,
142860,0.000,0.000,0.000,0.000,0.000,,
142920,0.000,0.000,0.000,0.000,0.000,,
142980,0.000,0.000,0.000,0.000,0.000,,
143040,0.000,0.000,0.000,0.000,0.000,,
143100,0.000,0.000,0.000,0.000,0.000,,
143160,0.000,0.000,0.000,0.000,0.000,,
143220,0.000,0.000,0.000,0.000,0.000,,
143280,0.000,0.000,0.000,0.000,0.000,,
143340,0.000,0.000,0.000,0.000,0.000,,
143400,0.000,0.000,0.000,0.000,0.000,,
143460,0.000,0.000,0.000,0.000,0.000,,
143520,0.000,0.000,0.000,0.000,0.000,,
