Instrument Name,DustTrak DRX
Model Number,8533
Serial Number,8533103404
Firmware Version,3.0
Calibration Date,03/12/2014
Test Name,MANUAL_032
Test Start Time,10:49:06
Test Start Date,07/06/2018
Test Length [D:H:M],0:6:58
Test Interval [M:S],1:0
PM1 Average [mg/m3],0.202
PM1 Minimum [mg/m3],0.002
PM1 Maximum [mg/m3],14.6
PM1 TWA [mg/m3],0.176
PM2.5 Average [mg/m3],0.207
PM2.5 Minimum [mg/m3],0.002
PM2.5 Maximum [mg/m3],14.8
PM2.5 TWA [mg/m3],0.180
PM4 Average [mg/m3],0.208
PM4 Minimum [mg/m3],0.002
PM4 Maximum [mg/m3],14.9
PM4 TWA [mg/m3],0.181
PM10 Average [mg/m3],0.208
PM10 Minimum [mg/m3],0.002
PM10 Maximum [mg/m3],14.9
PM10 TWA [mg/m3],0.181
TOTAL Average [mg/m3],0.208
TOTAL Minimum [mg/m3],0.002
TOTAL Maximum [mg/m3],14.9
TOTAL TWA [mg/m3],0.181
Photometric User Cal,1.00
Size Correction User Cal,1.00
Flow User Cal,0.00
Errors,
Number of Samples,418

Elapsed Time [s],PM1 [mg/m3],PM2.5 [mg/m3],PM4 [mg/m3],PM10 [mg/m3],TOTAL [mg/m3],Alarms,Errors
60,4.27,4.38,4.41,4.41,4.41,,
120,7.10,7.30,7.35,7.36,7.36,,
180,4.70,4.85,4.88,4.89,4.89,,
240,2.99,3.09,3.11,3.12,3.12,,
300,1.91,1.98,1.99,1.99,1.99,,
360,1.19,1.23,1.24,1.24,1.24,,
420,0.787,0.818,0.823,0.824,0.824,,
480,0.515,0.535,0.538,0.538,0.538,,
540,0.336,0.349,0.350,0.350,0.350,,
600,0.221,0.230,0.231,0.231,0.231,,
660,0.147,0.152,0.153,0.153,0.153,,
720,0.137,0.142,0.143,0.143,0.143,,
780,0.144,0.149,0.150,0.150,0.150,,
840,0.141,0.146,0.147,0.147,0.147,,
900,0.138,0.143,0.143,0.143,0.143,,
960,0.133,0.138,0.138,0.138,0.138,,
1020,0.128,0.132,0.132,0.132,0.132,,
1080,0.125,0.129,0.129,0.129,0.129,,
1140,0.119,0.122,0.123,0.123,0.123,,
1200,0.116,0.120,0.120,0.120,0.120,,
1260,0.110,0.114,0.114,0.114,0.114,,
1320,0.107,0.110,0.111,0.111,0.111,,
1380,0.106,0.110,0.110,0.110,0.110,,
1440,0.100,0.103,0.103,0.103,0.103,,
1500,0.098,0.101,0.101,0.101,0.101,,
1560,0.094,0.097,0.097,0.097,0.097,,
1620,0.090,0.092,0.092,0.092,0.092,,
1680,0.088,0.090,0.090,0.090,0.090,,
1740,0.084,0.087,0.087,0.087,0.087,,
1800,0.083,0.085,0.085,0.085,0.085,,
1860,0.080,0.082,0.082,0.082,0.082,,
1920,0.077,0.079,0.079,0.079,0.079,,
1980,0.074,0.076,0.076,0.076,0.076,,
2040,0.072,0.074,0.074,0.074,0.074,,
2100,0.070,0.071,0.071,0.071,0.071,,
2160,0.068,0.070,0.070,0.070,0.070,,
2220,0.065,0.066,0.067,0.067,0.067,,
2280,0.063,0.064,0.064,0.064,0.064,,
2340,0.062,0.064,0.064,0.064,0.064,,
2400,0.060,0.061,0.061,0.061,0.061,,
2460,0.058,0.059,0.059,0.059,0.059,,
2520,0.056,0.057,0.057,0.057,0.057,,
2580,0.054,0.055,0.055,0.055,0.055,,
2640,0.053,0.054,0.054,0.054,0.054,,
2700,0.051,0.052,0.052,0.052,0.052,,
2760,0.050,0.051,0.051,0.051,0.051,,
2820,0.048,0.049,0.049,0.049,0.049,,
2880,0.046,0.047,0.047,0.047,0.047,,
2940,0.046,0.046,0.046,0.046,0.046,,
3000,0.044,0.045,0.045,0.045,0.045,,
3060,0.043,0.044,0.044,0.044,0.044,,
3120,0.041,0.041,0.042,0.042,0.042,,
3180,0.040,0.040,0.040,0.040,0.040,,
3240,0.039,0.039,0.040,0.040,0.040,,
3300,0.037,0.038,0.038,0.038,0.038,,
3360,0.037,0.038,0.038,0.038,0.038,,
3420,0.035,0.036,0.036,0.036,0.036,,
3480,0.035,0.035,0.035,0.035,0.035,,
3540,0.034,0.034,0.034,0.034,0.034,,
3600,0.033,0.033,0.033,0.033,0.033,,
3660,0.032,0.033,0.033,0.033,0.033,,
3720,0.031,0.031,0.031,0.031,0.031,,
3780,0.030,0.030,0.030,0.030,0.030,,
3840,0.029,0.029,0.029,0.029,0.029,,
3900,0.028,0.029,0.029,0.029,0.029,,
3960,0.027,0.028,0.028,0.028,0.028,,
4020,0.027,0.027,0.027,0.027,0.027,,
4080,0.026,0.026,0.026,0.026,0.026,,
4140,0.025,0.025,0.025,0.025,0.025,,
4200,0.025,0.025,0.025,0.025,0.025,,
4260,0.024,0.024,0.024,0.024,0.024,,
4320,0.023,0.024,0.024,0.024,0.024,,
4380,0.022,0.022,0.022,0.022,0.022,,
4440,0.021,0.022,0.022,0.022,0.022,,
4500,0.021,0.021,0.021,0.021,0.021,,
4560,0.021,0.021,0.021,0.021,0.021,,
4620,0.020,0.020,0.020,0.020,0.020,,
4680,0.019,0.019,0.019,0.019,0.019,,
4740,0.019,0.019,0.019,0.019,0.019,,
4800,0.018,0.019,0.019,0.019,0.019,,
4860,0.018,0.018,0.018,0.018,0.018,,
4920,0.018,0.018,0.018,0.018,0.018,,
4980,0.017,0.017,0.017,0.017,0.017,,
5040,0.017,0.017,0.017,0.017,0.017,,
5100,0.017,0.017,0.017,0.017,0.017,,
5160,0.016,0.016,0.016,0.016,0.016,,
5220,0.016,0.016,0.016,0.016,0.016,,
5280,0.015,0.015,0.015,0.015,0.015,,
5340,0.015,0.015,0.015,0.015,0.015,,
5400,0.014,0.014,0.014,0.014,0.014,,
5460,0.014,0.014,0.014,0.014,0.014,,
5520,0.013,0.014,0.014,0.014,0.014,,
5580,0.013,0.013,0.013,0.013,0.013,,
5640,0.013,0.013,0.013,0.013,0.013,,
5700,0.013,0.013,0.013,0.013,0.013,,
5760,0.013,0.013,0.013,0.013,0.013,,
5820,0.012,0.012,0.012,0.012,0.012,,
5880,0.012,0.012,0.012,0.012,0.012,,
5940,0.012,0.012,0.012,0.012,0.012,,
6000,0.011,0.012,0.012,0.012,0.012,,
6060,0.011,0.011,0.011,0.011,0.011,,
6120,0.011,0.011,0.011,0.011,0.011,,
6180,0.011,0.011,0.011,0.011,0.011,,
6240,0.011,0.011,0.011,0.011,0.011,,
6300,0.010,0.010,0.010,0.010,0.010,,
6360,0.010,0.010,0.010,0.010,0.010,,
6420,0.010,0.010,0.010,0.010,0.010,,
6480,0.009,0.010,0.010,0.010,0.010,,
6540,0.009,0.009,0.009,0.009,0.009,,
6600,0.009,0.009,0.009,0.009,0.009,,
6660,0.009,0.009,0.009,0.009,0.009,,
6720,0.008,0.008,0.008,0.008,0.008,,
6780,0.009,0.009,0.009,0.009,0.009,,
6840,0.008,0.008,0.008,0.008,0.008,,
6900,0.008,0.008,0.008,0.008,0.008,,
6960,0.008,0.008,0.008,0.008,0.008,,
7020,0.008,0.008,0.008,0.008,0.008,,
7080,0.008,0.008,0.008,0.008,0.008,,
7140,0.008,0.008,0.008,0.008,0.008,,
7200,0.007,0.007,0.007,0.007,0.007,,
7260,0.007,0.007,0.007,0.007,0.007,,
7320,0.007,0.007,0.007,0.007,0.007,,
7380,0.007,0.007,0.007,0.007,0.007,,
7440,0.007,0.007,0.007,0.007,0.007,,
7500,0.007,0.007,0.007,0.007,0.007,,
7560,0.007,0.007,0.007,0.007,0.007,,
7620,0.006,0.006,0.006,0.006,0.006,,
7680,0.004,0.004,0.004,0.004,0.004,,
7740,0.004,0.004,0.004,0.004,0.004,,
7800,0.003,0.003,0.003,0.003,0.003,,
7860,0.003,0.003,0.003,0.003,0.003,,
7920,0.003,0.003,0.003,0.003,0.003,,
7980,0.003,0.003,0.003,0.003,0.003,,
8040,0.003,0.003,0.003,0.003,0.003,,
8100,0.003,0.003,0.003,0.003,0.003,,
8160,0.003,0.003,0.003,0.003,0.003,,
8220,0.003,0.003,0.003,0.003,0.003,,
8280,0.003,0.003,0.003,0.003,0.003,,
8340,0.005,0.005,0.005,0.005,0.005,,
8400,7.14,7.27,7.31,7.32,7.32,,
8460,14.6,14.8,14.9,14.9,14.9,,
8520,9.17,9.35,9.39,9.40,9.40,,
8580,5.75,5.89,5.91,5.91,5.91,,
8640,3.77,3.87,3.88,3.88,3.88,,
8700,2.47,2.53,2.54,2.54,2.54,,
8760,1.62,1.66,1.66,1.66,1.66,,
8820,1.04,1.07,1.08,1.08,1.08,,
8880,0.695,0.714,0.716,0.716,0.716,,
8940,0.435,0.446,0.448,0.448,0.448,,
9000,0.289,0.297,0.298,0.298,0.298,,
9060,0.233,0.239,0.239,0.239,0.239,,
9120,0.246,0.252,0.253,0.253,0.253,,
9180,0.242,0.248,0.248,0.248,0.248,,
9240,0.231,0.236,0.237,0.237,0.237,,
9300,0.224,0.230,0.230,0.230,0.230,,
9360,0.215,0.220,0.221,0.221,0.221,,
9420,0.209,0.214,0.214,0.214,0.214,,
9480,0.202,0.207,0.207,0.207,0.207,,
9540,0.196,0.201,0.201,0.201,0.201,,
9600,0.189,0.193,0.193,0.193,0.193,,
9660,0.183,0.187,0.187,0.187,0.187,,
9720,0.178,0.181,0.182,0.182,0.182,,
9780,0.172,0.175,0.176,0.176,0.176,,
9840,0.167,0.170,0.171,0.171,0.171,,
9900,0.162,0.165,0.165,0.165,0.165,,
9960,0.157,0.160,0.160,0.160,0.160,,
10020,0.153,0.156,0.156,0.156,0.156,,
10080,0.147,0.150,0.150,0.150,0.150,,
10140,0.142,0.144,0.144,0.144,0.144,,
10200,0.137,0.139,0.139,0.139,0.139,,
10260,0.133,0.135,0.135,0.135,0.135,,
10320,0.127,0.130,0.130,0.130,0.130,,
10380,0.125,0.127,0.127,0.127,0.127,,
10440,0.121,0.123,0.124,0.124,0.124,,
10500,0.118,0.120,0.120,0.120,0.120,,
10560,0.114,0.116,0.116,0.116,0.116,,
10620,0.110,0.111,0.112,0.112,0.112,,
10680,0.107,0.108,0.108,0.108,0.108,,
10740,0.103,0.105,0.105,0.105,0.105,,
10800,0.100,0.102,0.102,0.102,0.102,,
10860,0.097,0.099,0.099,0.099,0.099,,
10920,0.094,0.095,0.095,0.095,0.095,,
10980,0.091,0.093,0.093,0.093,0.093,,
11040,0.089,0.091,0.091,0.091,0.091,,
11100,0.085,0.086,0.086,0.086,0.086,,
11160,0.084,0.085,0.086,0.086,0.086,,
11220,0.081,0.082,0.082,0.082,0.082,,
11280,0.079,0.080,0.080,0.080,0.080,,
11340,0.077,0.078,0.078,0.078,0.078,,
11400,0.074,0.075,0.075,0.075,0.075,,
11460,0.072,0.073,0.073,0.073,0.073,,
11520,0.070,0.071,0.071,0.071,0.071,,
11580,0.067,0.068,0.068,0.068,0.068,,
11640,0.066,0.067,0.067,0.067,0.067,,
11700,0.064,0.065,0.065,0.065,0.065,,
11760,0.062,0.063,0.063,0.063,0.063,,
11820,0.060,0.060,0.060,0.060,0.060,,
11880,0.059,0.059,0.059,0.059,0.059,,
11940,0.058,0.059,0.059,0.059,0.059,,
12000,0.055,0.056,0.056,0.056,0.056,,
12060,0.054,0.054,0.054,0.054,0.054,,
12120,0.052,0.052,0.052,0.052,0.052,,
12180,0.051,0.052,0.052,0.052,0.052,,
12240,0.049,0.050,0.050,0.050,0.050,,
12300,0.048,0.048,0.048,0.048,0.048,,
12360,0.046,0.047,0.047,0.047,0.047,,
12420,0.045,0.046,0.046,0.046,0.046,,
12480,0.044,0.044,0.044,0.044,0.044,,
12540,0.043,0.043,0.043,0.043,0.043,,
12600,0.041,0.041,0.041,0.041,0.041,,
12660,0.040,0.041,0.041,0.041,0.041,,
12720,0.040,0.040,0.040,0.040,0.040,,
12780,0.038,0.038,0.039,0.039,0.039,,
12840,0.038,0.038,0.038,0.038,0.038,,
12900,0.035,0.036,0.036,0.036,0.036,,
12960,0.035,0.036,0.036,0.036,0.036,,
13020,0.034,0.034,0.034,0.034,0.034,,
13080,0.033,0.033,0.033,0.033,0.033,,
13140,0.032,0.033,0.033,0.033,0.033,,
13200,0.032,0.032,0.032,0.032,0.032,,
13260,0.030,0.031,0.031,0.031,0.031,,
13320,0.030,0.030,0.030,0.030,0.030,,
13380,0.029,0.029,0.029,0.029,0.029,,
13440,0.028,0.028,0.028,0.028,0.028,,
13500,0.028,0.028,0.028,0.028,0.028,,
13560,0.027,0.027,0.027,0.027,0.027,,
13620,0.026,0.026,0.026,0.026,0.026,,
13680,0.026,0.026,0.026,0.026,0.026,,
13740,0.025,0.025,0.025,0.025,0.025,,
13800,0.024,0.024,0.024,0.024,0.024,,
13860,0.024,0.024,0.024,0.024,0.024,,
13920,0.023,0.023,0.023,0.023,0.023,,
13980,0.022,0.022,0.022,0.022,0.022,,
14040,0.022,0.022,0.022,0.022,0.022,,
14100,0.021,0.022,0.022,0.022,0.022,,
14160,0.022,0.022,0.022,0.022,0.022,,
14220,0.020,0.020,0.020,0.020,0.020,,
14280,0.020,0.020,0.020,0.020,0.020,,
14340,0.019,0.019,0.019,0.019,0.019,,
14400,0.019,0.019,0.019,0.019,0.019,,
14460,0.018,0.018,0.018,0.018,0.018,,
14520,0.018,0.018,0.018,0.018,0.018,,
14580,0.017,0.017,0.017,0.017,0.017,,
14640,0.017,0.017,0.017,0.017,0.017,,
14700,0.017,0.017,0.017,0.017,0.017,,
14760,0.016,0.016,0.016,0.016,0.016,,
14820,0.016,0.016,0.016,0.016,0.016,,
14880,0.015,0.015,0.015,0.015,0.015,,
14940,0.015,0.015,0.015,0.015,0.015,,
15000,0.015,0.015,0.015,0.015,0.015,,
15060,0.014,0.014,0.014,0.014,0.014,,
15120,0.014,0.015,0.015,0.015,0.015,,
15180,0.013,0.013,0.013,0.013,0.013,,
15240,0.014,0.014,0.014,0.014,0.014,,
15300,0.013,0.013,0.013,0.013,0.013,,
15360,0.013,0.013,0.013,0.013,0.013,,
15420,0.012,0.013,0.013,0.013,0.013,,
15480,0.012,0.012,0.012,0.012,0.012,,
15540,0.012,0.012,0.012,0.012,0.012,,
15600,0.012,0.012,0.012,0.012,0.012,,
15660,0.012,0.012,0.012,0.012,0.012,,
15720,0.011,0.011,0.011,0.011,0.011,,
15780,0.011,0.011,0.011,0.011,0.011,,
15840,0.011,0.011,0.011,0.011,0.011,,
15900,0.011,0.011,0.011,0.011,0.011,,
15960,0.010,0.010,0.010,0.010,0.010,,
16020,0.010,0.010,0.010,0.010,0.010,,
16080,0.010,0.010,0.010,0.010,0.010,,
16140,0.009,0.010,0.010,0.010,0.010,,
16200,0.009,0.009,0.009,0.009,0.009,,
16260,0.009,0.009,0.009,0.009,0.009,,
16320,0.009,0.009,0.009,0.009,0.009,,
16380,0.009,0.009,0.009,0.009,0.009,,
16440,0.008,0.009,0.009,0.009,0.009,,
16500,0.008,0.008,0.008,0.008,0.008,,
16560,0.009,0.009,0.009,0.009,0.009,,
16620,0.008,0.008,0.008,0.008,0.008,,
16680,0.008,0.008,0.008,0.008,0.008,,
16740,0.008,0.008,0.008,0.008,0.008,,
16800,0.008,0.008,0.008,0.008,0.008,,
16860,0.008,0.008,0.008,0.008,0.008,,
16920,0.008,0.008,0.008,0.008,0.008,,
16980,0.008,0.008,0.008,0.008,0.008,,
17040,0.007,0.007,0.007,0.007,0.007,,
17100,0.007,0.007,0.007,0.007,0.007,,
17160,0.007,0.007,0.007,0.007,0.007,,
17220,0.007,0.007,0.007,0.007,0.007,,
17280,0.007,0.007,0.007,0.007,0.007,,
17340,0.006,0.006,0.006,0.006,0.006,,
17400,0.007,0.007,0.007,0.007,0.007,,
17460,0.006,0.006,0.006,0.006,0.006,,
17520,0.006,0.006,0.006,0.006,0.006,,
17580,0.006,0.006,0.006,0.006,0.006,,
17640,0.006,0.006,0.006,0.006,0.006,,
17700,0.006,0.006,0.006,0.006,0.006,,
17760,0.006,0.006,0.006,0.006,0.006,,
17820,0.006,0.006,0.006,0.006,0.006,,
17880,0.006,0.006,0.006,0.006,0.006,,
17940,0.006,0.006,0.006,0.006,0.006,,
18000,0.005,0.005,0.005,0.005,0.005,,
18060,0.005,0.005,0.005,0.005,0.005,,
18120,0.005,0.005,0.005,0.005,0.005,,
18180,0.005,0.005,0.005,0.005,0.005,,
18240,0.005,0.005,0.005,0.005,0.005,,
18300,0.005,0.005,0.005,0.005,0.005,,
18360,0.005,0.005,0.005,0.005,0.005,,
18420,0.005,0.005,0.005,0.005,0.005,,
18480,0.005,0.005,0.005,0.005,0.005,,
18540,0.005,0.005,0.005,0.005,0.005,,
18600,0.005,0.005,0.005,0.005,0.005,,
18660,0.005,0.005,0.005,0.005,0.005,,
18720,0.005,0.005,0.005,0.005,0.005,,
18780,0.005,0.005,0.005,0.005,0.005,,
18840,0.005,0.005,0.005,0.005,0.005,,
18900,0.005,0.005,0.005,0.005,0.005,,
18960,0.004,0.004,0.004,0.004,0.004,,
19020,0.004,0.004,0.004,0.004,0.004,,
19080,0.004,0.004,0.004,0.004,0.004,,
19140,0.004,0.004,0.004,0.004,0.004,,
19200,0.004,0.004,0.004,0.004,0.004,,
19260,0.004,0.004,0.004,0.004,0.004,,
19320,0.004,0.004,0.004,0.004,0.004,,
19380,0.004,0.004,0.004,0.004,0.004,,
19440,0.004,0.004,0.004,0.004,0.004,,
19500,0.004,0.004,0.004,0.004,0.004,,
19560,0.004,0.004,0.004,0.004,0.004,,
19620,0.004,0.004,0.004,0.004,0.004,,
19680,0.004,0.004,0.004,0.004,0.004,,
19740,0.004,0.004,0.004,0.004,0.004,,
19800,0.004,0.004,0.004,0.004,0.004,,
19860,0.004,0.004,0.004,0.004,0.004,,
19920,0.003,0.003,0.003,0.003,0.003,,
19980,0.003,0.003,0.003,0.003,0.003,,
20040,0.003,0.003,0.003,0.003,0.003,,
20100,0.003,0.003,0.003,0.003,0.003,,
20160,0.003,0.003,0.003,0.003,0.003,,
20220,0.002,0.002,0.002,0.002,0.002,,
20280,0.002,0.002,0.002,0.002,0.002,,
20340,0.002,0.002,0.002,0.002,0.002,,
20400,0.002,0.002,0.002,0.002,0.002,,
20460,0.002,0.002,0.002,0.002,0.002,,
20520,0.002,0.002,0.002,0.002,0.002,,
20580,0.002,0.002,0.002,0.002,0.002,,
20640,0.002,0.002,0.002,0.002,0.002,,
20700,0.002,0.002,0.002,0.002,0.002,,
20760,0.002,0.002,0.002,0.002,0.002,,
20820,0.002,0.002,0.002,0.002,0.002,,
20880,0.002,0.002,0.002,0.002,0.002,,
20940,0.002,0.002,0.002,0.002,0.002,,
21000,0.002,0.002,0.002,0.002,0.002,,
21060,0.002,0.002,0.002,0.002,0.002,,
21120,0.002,0.002,0.002,0.002,0.002,,
21180,0.002,0.002,0.002,0.002,0.002,,
21240,0.002,0.002,0.002,0.002,0.002,,
21300,0.002,0.002,0.002,0.002,0.002,,
21360,0.002,0.002,0.002,0.002,0.002,,
21420,0.002,0.002,0.002,0.002,0.002,,
21480,0.002,0.002,0.002,0.002,0.002,,
21540,0.002,0.002,0.002,0.002,0.002,,
21600,0.002,0.002,0.002,0.002,0.002,,
21660,0.002,0.002,0.002,0.002,0.002,,
21720,0.002,0.002,0.002,0.002,0.002,,
21780,0.002,0.002,0.002,0.002,0.002,,
21840,0.002,0.002,0.002,0.002,0.002,,
21900,0.002,0.002,0.002,0.002,0.002,,
21960,0.002,0.002,0.002,0.002,0.002,,
22020,0.002,0.002,0.002,0.002,0.002,,
22080,0.002,0.002,0.002,0.002,0.002,,
22140,0.002,0.002,0.002,0.002,0.002,,
22200,0.002,0.002,0.002,0.002,0.002,,
22260,0.002,0.002,0.002,0.002,0.002,,
22320,0.002,0.002,0.002,0.002,0.002,,
22380,0.002,0.002,0.002,0.002,0.002,,
22440,0.002,0.002,0.002,0.002,0.002,,
22500,0.002,0.002,0.002,0.002,0.002,,
22560,0.002,0.002,0.002,0.002,0.002,,
22620,0.002,0.002,0.002,0.002,0.002,,
22680,0.002,0.002,0.002,0.002,0.002,,
22740,0.002,0.002,0.002,0.002,0.002,,
22800,0.002,0.002,0.002,0.002,0.002,,
22860,0.002,0.002,0.002,0.002,0.002,,
22920,0.002,0.002,0.002,0.002,0.002,,
22980,0.002,0.002,0.002,0.002,0.002,,
23040,0.002,0.002,0.002,0.002,0.002,,
23100,0.002,0.002,0.002,0.002,0.002,,
23160,0.002,0.002,0.002,0.002,0.002,,
23220,0.002,0.002,0.002,0.002,0.002,,
23280,0.002,0.002,0.002,0.002,0.002,,
23340,0.002,0.002,0.002,0.002,0.002,,
23400,0.002,0.002,0.002,0.002,0.002,,
23460,0.002,0.002,0.002,0.002,0.002,,
23520,0.002,0.002,0.002,0.002,0.002,,
23580,0.002,0.002,0.002,0.002,0.002,,
23640,0.002,0.002,0.002,0.002,0.002,,
23700,0.002,0.002,0.002,0.002,0.002,,
23760,0.002,0.002,0.002,0.002,0.002,,
23820,0.002,0.002,0.002,0.002,0.002,,
23880,0.002,0.002,0.002,0.002,0.002,,
23940,0.002,0.002,0.002,0.002,0.002,,
24000,0.002,0.002,0.002,0.002,0.002,,
24060,0.002,0.002,0.002,0.002,0.002,,
24120,0.002,0.002,0.002,0.002,0.002,,
24180,0.002,0.002,0.002,0.002,0.002,,
24240,0.002,0.002,0.002,0.002,0.002,,
24300,0.002,0.002,0.002,0.002,0.002,,
24360,0.002,0.002,0.002,0.002,0.002,,
24420,0.002,0.002,0.002,0.002,0.002,,
24480,0.002,0.002,0.002,0.002,0.002,,
24540,0.002,0.002,0.002,0.002,0.002,,
24600,0.002,0.002,0.002,0.002,0.002,,
24660,0.002,0.002,0.002,0.002,0.002,,
24720,0.002,0.002,0.002,0.002,0.002,,
24780,0.002,0.002,0.002,0.002,0.002,,
24840,0.002,0.002,0.002,0.002,0.002,,
24900,0.002,0.002,0.002,0.002,0.002,,
24960,0.002,0.002,0.002,0.002,0.002,,
25020,0.002,0.002,0.002,0.002,0.002,,
25080,0.002,0.002,0.002,0.002,0.002,,
