UTCDateTime,mac_address,firmware_ver,hardware,current_temp_f,current_humidity,current_dewpoint_f,pressure,adc,mem,rssi,uptime,pm1_0_atm,pm2_5_atm,pm10_0_atm,pm1_0_cf_1,pm2_5_cf_1,pm10_0_cf_1,p_0_3_um,p_0_5_um,p_1_0_um,p_2_5_um,p_5_0_um,p_10_0_um,pm1_0_atm_b,pm2_5_atm_b,pm10_0_atm_b,pm1_0_cf_1_b,pm2_5_cf_1_b,pm10_0_cf_1_b,p_0_3_um_b,p_0_5_um_b,p_1_0_um_b,p_2_5_um_b,p_5_0_um_b,p_10_0_um_b
2018/07/06T17:46:46z,2c:3a:e8:34:fd:12,2.50i,2.0+OPENLOG+15931 MB+DS3231+BME280+PMSX003A+PMSX003B,72,45,49.50,1014.33,0.02,29488,31,23,1.00,3.00,3.00,1.00,3.00,3.00,0.00,0.00,0.00,0.00,0.00,0.00,0.00,0.00,0.00,0.00,0.00,0.00,0.00,0.00,0.00,0.00,0.00,0.00
2018/07/06T17:48:00z,2c:3a:e8:34:fd:12,2.50i,2.0+OPENLOG+15931 MB+DS3231+BME280+PMSX003A+PMSX003B,73,45,50.41,1014.96,0.02,30128,31,97,0.05,0.28,0.28,0.05,0.28,0.28,218.55,50.55,4.75,0.00,0.00,0.00,0.00,0.43,0.43,0.00,0.43,0.43,177.16,52.65,6.57,0.00,0.00,0.00
2018/07/06T17:49:20z,2c:3a:e8:34:fd:12,2.50i,2.0+OPENLOG+15931 MB+DS3231+BME280+PMSX003A+PMSX003B,74,44,50.71,1015.14,0.02,30128,31,177,438.28,637.15,1081.32,293.11,425.87,723.40,11973.64,3923.53,3141.60,1586.17,862.15,309.13,195.67,402.94,787.61,130.75,268.72,526.17,13678.33,4463.19,2981.78,1236.69,607.08,171.39
2018/07/06T17:50:40z,2c:3a:e8:34:fd:12,2.50i,2.0+OPENLOG+15931 MB+DS3231+BME280+PMSX003A+PMSX003B,74,38,46.79,1016.45,0.02,30128,31,257,171.61,1503.78,3230.78,113.39,1001.84,2153.12,58390.65,19313.43,15318.69,5728.57,2497.22,738.20,184.82,1455.95,3512.38,122.22,969.83,2340.70,60119.93,19945.80,15673.17,6514.92,2854.65,709.42
2018/07/06T17:52:00z,2c:3a:e8:34:fd:12,2.50i,2.0+OPENLOG+15931 MB+DS3231+BME280+PMSX003A+PMSX003B,74,29,39.73,1016.40,0.02,29696,31,337,220.15,1187.46,2250.71,146.13,790.88,1499.67,55215.69,18037.81,12194.56,3609.87,1551.27,432.27,228.69,1198.54,2423.85,151.67,798.28,1615.13,55904.85,18414.74,12546.67,4186.92,1673.26,370.46
2018/07/06T17:53:20z,2c:3a:e8:34:fd:12,2.50i,2.0+OPENLOG+15931 MB+DS3231+BME280+PMSX003A+PMSX003B,74,23,33.85,1016.32,0.02,29672,31,417,225.54,870.73,1475.25,149.44,579.52,982.60,48414.69,15379.50,8543.98,2163.44,896.08,221.71,241.05,901.23,1556.15,159.72,599.85,1036.72,49747.85,16153.23,8956.46,2419.00,913.00,203.00
2018/07/06T17:54:40z,2c:3a:e8:34:fd:12,2.50i,2.0+OPENLOG+15931 MB+DS3231+BME280+PMSX003A+PMSX003B,74,19,29.12,1015.77,0.02,30128,31,497,193.00,593.75,918.02,127.86,395.27,610.89,38197.43,11871.55,5453.36,1224.82,485.05,114.43,206.36,596.51,969.33,136.77,397.03,645.59,39089.15,12471.54,5723.26,1365.49,509.95,115.33
2018/07/06T17:56:00z,2c:3a:e8:34:fd:12,2.50i,2.0+OPENLOG+15931 MB+DS3231+BME280+PMSX003A+PMSX003B,75,16,25.76,1016.19,0.02,30128,31,577,138.48,376.59,568.22,91.67,250.33,378.11,27050.48,8198.00,3360.13,709.98,284.35,67.48,150.64,394.75,612.81,99.58,262.50,407.92,27926.17,8808.47,3578.97,821.94,296.67,67.00
2018/07/06T17:57:20z,2c:3a:e8:34:fd:12,2.50i,2.0+OPENLOG+15931 MB+DS3231+BME280+PMSX003A+PMSX003B,75,14,22.56,1015.98,0.02,29592,31,657,93.02,235.32,344.93,61.16,155.95,229.16,18014.18,5361.32,2037.66,417.91,158.75,40.73,100.16,249.54,373.14,65.92,165.51,247.97,18665.35,5811.65,2224.11,477.27,167.00,39.14
2018/07/06T17:58:40z,2c:3a:e8:34:fd:12,2.50i,2.0+OPENLOG+15931 MB+DS3231+BME280+PMSX003A+PMSX003B,75,13,20.81,1016.25,0.02,29696,31,737,57.64,145.36,207.59,38.16,96.09,137.50,11263.98,3363.20,1234.52,245.30,90.39,23.00,62.29,148.83,215.57,41.00,98.46,142.86,11545.03,3583.66,1310.26,261.51,90.54,15.34
2018/07/06T18:00:00z,2c:3a:e8:34:fd:12,2.50i,2.0+OPENLOG+15931 MB+DS3231+BME280+PMSX003A+PMSX003B,75,12,18.93,1015.05,0.02,30128,31,817,33.67,87.87,119.60,26.96,58.51,81.11,6685.53,1995.07,727.33,144.60,43.67,13.78,38.33,85.58,116.83,29.17,57.03,79.89,7032.33,2177.53,718.94,133.08,41.14,6.86
2018/07/06T18:01:20z,2c:3a:e8:34:fd:12,2.50i,2.0+OPENLOG+15931 MB+DS3231+BME280+PMSX003A+PMSX003B,76,12,19.71,1015.05,0.02,30128,31,897,27.44,66.56,89.62,23.87,47.98,68.31,5408.33,1601.11,558.91,99.82,34.11,6.11,30.64,69.83,96.92,25.50,49.11,71.17,5662.42,1756.39,589.69,117.42,39.58,3.67
2018/07/06T18:02:40z,2c:3a:e8:34:fd:12,2.50i,2.0+OPENLOG+15931 MB+DS3231+BME280+PMSX003A+PMSX003B,75,12,18.93,1014.82,0.02,29848,31,977,27.71,69.49,96.13,23.91,48.93,70.93,5605.27,1653.27,591.02,112.98,40.13,7.00,29.29,68.82,96.00,25.18,49.05,71.05,5522.45,1712.42,587.97,110.87,37.39,6.11
2018/07/06T18:04:00z,2c:3a:e8:34:fd:12,2.50i,2.0+OPENLOG+15931 MB+DS3231+BME280+PMSX003A+PMSX003B,76,12,19.71,1015.09,0.02,29696,31,1057,27.68,65.89,91.64,24.05,47.84,69.07,5400.20,1595.84,561.89,100.91,38.59,7.57,30.47,70.22,97.94,25.69,49.28,71.67,5658.25,1764.19,595.69,121.33,36.94,3.78
2018/07/06T18:05:20z,2c:3a:e8:34:fd:12,2.50i,2.0+OPENLOG+15931 MB+DS3231+BME280+PMSX003A+PMSX003B,76,12,19.71,1015.08,0.02,30128,31,1137,25.22,65.09,87.98,22.74,47.26,67.46,5055.20,1512.57,553.15,102.28,35.48,5.07,28.37,65.00,87.94,24.49,47.34,67.57,5175.77,1605.77,547.43,98.49,31.63,6.97
2018/07/06T18:06:40z,2c:3a:e8:34:fd:12,2.50i,2.0+OPENLOG+15931 MB+DS3231+BME280+PMSX003A+PMSX003B,77,12,20.49,1014.98,0.02,30128,31,1217,24.73,62.20,84.64,22.44,46.18,66.09,4998.87,1487.11,550.80,89.04,32.36,6.76,25.68,61.53,87.50,22.97,46.13,67.50,4847.53,1501.37,552.53,101.61,34.13,6.76
2018/07/06T18:08:00z,2c:3a:e8:34:fd:12,2.50i,2.0+OPENLOG+15931 MB+DS3231+BME280+PMSX003A+PMSX003B,77,12,20.49,1014.96,0.02,29640,31,1297,23.16,58.11,76.82,21.52,44.48,62.43,4701.95,1375.16,489.68,85.30,26.41,7.77,25.86,60.94,85.31,23.14,45.77,66.40,4870.71,1515.34,531.17,99.34,33.80,6.60
2018/07/06T18:09:20z,2c:3a:e8:34:fd:12,2.50i,2.0+OPENLOG+15931 MB+DS3231+BME280+PMSX003A+PMSX003B,77,12,20.49,1014.90,0.02,29592,31,1377,24.00,56.14,77.20,22.11,43.98,62.89,4786.70,1397.41,481.91,77.32,30.84,8.70,24.61,55.58,76.94,22.47,43.78,62.86,4536.58,1416.19,486.86,85.78,28.11,4.72
2018/07/06T18:10:40z,2c:3a:e8:34:fd:12,2.50i,2.0+OPENLOG+15931 MB+DS3231+BME280+PMSX003A+PMSX003B,77,12,20.49,1015.00,0.02,29672,31,1457,22.25,55.59,75.36,20.95,43.68,61.91,4459.50,1302.43,478.64,82.91,29.25,6.20,24.61,57.25,77.61,22.33,44.17,63.08,4531.25,1413.00,498.11,89.28,25.86,5.00
2018/07/06T18:12:00z,2c:3a:e8:34:fd:12,2.50i,2.0+OPENLOG+15931 MB+DS3231+BME280+PMSX003A+PMSX003B,77,12,20.49,1014.99,0.02,30128,31,1537,21.68,55.14,75.70,20.64,43.36,61.95,4464.75,1322.23,480.91,83.82,29.39,6.00,25.03,57.05,79.76,22.49,44.00,64.03,4670.43,1450.00,502.95,91.97,29.95,4.16
2018/07/06T18:13:20z,2c:3a:e8:34:fd:12,2.50i,2.0+OPENLOG+15931 MB+DS3231+BME280+PMSX003A+PMSX003B,77,13,22.38,1014.99,0.02,30128,31,1617,19.36,47.84,65.91,19.09,40.05,57.02,3881.86,1140.75,412.55,75.09,27.50,4.89,22.42,53.08,68.06,21.14,42.53,58.36,4148.17,1297.00,456.44,78.14,19.83,2.50
2018/07/06T18:14:40z,2c:3a:e8:34:fd:12,2.50i,2.0+OPENLOG+15931 MB+DS3231+BME280+PMSX003A+PMSX003B,78,12,21.27,1014.98,0.02,29696,31,1697,19.47,50.91,69.86,19.28,41.44,59.19,3973.12,1160.07,446.37,82.44,27.67,5.88,22.16,50.86,69.16,20.92,41.59,58.95,4076.27,1270.84,430.11,78.51,25.54,3.78
2018/07/06T18:16:00z,2c:3a:e8:34:fd:12,2.50i,2.0+OPENLOG+15931 MB+DS3231+BME280+PMSX003A+PMSX003B,78,13,23.16,1014.86,0.02,29672,31,1777,20.00,48.88,62.36,19.38,40.57,55.17,3925.50,1156.40,421.40,65.12,19.67,5.52,21.36,47.19,66.56,20.64,39.81,57.53,3914.00,1219.72,413.14,72.94,26.53,3.78
2018/07/06T18:17:20z,2c:3a:e8:34:fd:12,2.50i,2.0+OPENLOG+15931 MB+DS3231+BME280+PMSX003A+PMSX003B,78,13,23.16,1014.91,0.02,30128,31,1857,17.19,42.24,54.50,17.19,37.14,50.60,3440.71,1029.48,367.43,53.21,18.64,4.12,20.17,46.69,62.00,19.56,39.25,54.78,3910.33,1205.58,396.81,73.58,17.94,2.94
2018/07/06T18:18:40z,2c:3a:e8:34:fd:12,2.50i,2.0+OPENLOG+15931 MB+DS3231+BME280+PMSX003A+PMSX003B,78,13,23.16,1014.97,0.01,30128,31,1937,16.56,42.42,55.93,16.56,37.00,51.28,3395.51,997.51,375.19,58.14,20.58,6.00,18.55,43.48,58.45,18.36,37.58,52.85,3572.36,1106.76,369.64,62.73,21.58,3.09
2018/07/06T18:20:00z,2c:3a:e8:34:fd:12,2.50i,2.0+OPENLOG+15931 MB+DS3231+BME280+PMSX003A+PMSX003B,78,13,23.16,1014.95,0.02,29696,31,2017,17.43,41.91,53.41,17.43,36.68,49.98,3487.91,1018.14,349.66,52.55,15.66,3.89,18.34,42.74,55.71,18.11,37.29,51.26,3479.83,1074.54,355.80,62.60,18.34,3.34
2018/07/06T18:21:20z,2c:3a:e8:34:fd:12,2.50i,2.0+OPENLOG+15931 MB+DS3231+BME280+PMSX003A+PMSX003B,78,13,23.16,1014.99,0.02,29672,31,2097,16.74,39.93,50.07,16.74,35.65,47.77,3308.58,986.79,338.16,46.51,15.51,3.42,17.03,40.86,49.60,16.97,36.09,47.43,3332.40,1027.43,361.83,49.14,11.31,2.20
2018/07/06T18:22:40z,2c:3a:e8:34:fd:12,2.50i,2.0+OPENLOG+15931 MB+DS3231+BME280+PMSX003A+PMSX003B,78,13,23.16,1014.91,0.01,30128,31,2177,16.05,38.02,52.95,16.05,34.30,49.65,3269.93,966.09,325.58,55.81,21.19,5.21,18.30,41.76,52.70,18.12,36.67,49.48,3370.36,1047.73,363.94,53.79,15.21,3.33
2018/07/06T18:24:00z,2c:3a:e8:34:fd:12,2.50i,2.0+OPENLOG+15931 MB+DS3231+BME280+PMSX003A+PMSX003B,79,13,23.95,1014.97,0.02,30128,31,2257,14.81,35.21,49.00,14.81,32.72,47.12,3081.77,899.74,301.53,52.67,19.37,4.95,15.71,39.00,52.09,15.71,35.03,49.14,3138.69,963.43,338.51,61.03,16.94,2.89
2018/07/06T19:05:51z,2c:3a:e8:34:fd:12,2.50i,2.0+OPENLOG+15931 MB+DS3231+BME280+PMSX003A+PMSX003B,81,13,25.52,1014.70,0.01,30072,31,97,3.02,8.27,9.61,3.02,8.27,9.61,903.82,249.30,76.98,8.18,1.77,0.93,3.27,9.05,11.75,3.27,9.05,11.75,761.18,235.34,80.18,9.86,3.80,0.34
2018/07/06T19:07:11z,2c:3a:e8:34:fd:12,2.50i,2.0+OPENLOG+15931 MB+DS3231+BME280+PMSX003A+PMSX003B,81,13,25.52,1014.69,0.02,29640,31,177,3.20,9.02,11.55,3.20,9.02,11.55,929.32,261.93,85.50,13.86,2.61,0.68,3.89,9.81,11.53,3.89,9.81,11.53,964.67,294.06,90.08,10.86,2.50,0.53
2018/07/06T19:08:31z,2c:3a:e8:34:fd:12,2.50i,2.0+OPENLOG+15931 MB+DS3231+BME280+PMSX003A+PMSX003B,81,13,25.52,1014.60,0.02,29616,31,257,4.11,9.43,11.95,4.11,9.43,11.95,896.45,269.80,77.73,10.82,3.23,1.41,5.11,11.37,12.86,5.11,11.37,12.86,1046.66,320.91,88.03,13.57,1.60,0.26
2018/07/06T19:09:51z,2c:3a:e8:34:fd:12,2.50i,2.0+OPENLOG+15931 MB+DS3231+BME280+PMSX003A+PMSX003B,81,13,25.52,1014.60,0.01,30072,31,337,3.95,8.98,11.79,3.95,8.98,11.79,904.26,263.30,75.14,9.67,4.28,1.23,3.62,8.92,10.46,3.62,8.92,10.46,827.51,253.84,81.49,8.95,1.97,0.49
2018/07/06T19:11:11z,2c:3a:e8:34:fd:12,2.50i,2.0+OPENLOG+15931 MB+DS3231+BME280+PMSX003A+PMSX003B,81,13,25.52,1014.75,0.02,29888,31,417,2.77,6.82,8.61,2.77,6.82,8.61,832.23,226.02,68.59,7.11,2.86,0.23,4.17,10.64,13.53,4.17,10.64,13.53,917.92,291.78,96.72,15.61,4.72,0.06
2018/07/06T19:12:31z,2c:3a:e8:34:fd:12,2.50i,2.0+OPENLOG+15931 MB+DS3231+BME280+PMSX003A+PMSX003B,81,13,25.52,1014.70,0.02,29640,31,497,3.26,7.89,9.98,3.26,7.89,9.98,818.74,233.35,73.09,10.30,3.54,0.20,3.89,7.44,8.81,3.89,7.44,8.81,776.17,239.25,63.67,8.58,1.50,0.39
2018/07/06T19:13:51z,2c:3a:e8:34:fd:12,2.50i,2.0+OPENLOG+15931 MB+DS3231+BME280+PMSX003A+PMSX003B,81,13,25.52,1014.67,0.02,29640,31,577,2.45,7.14,9.16,2.45,7.14,9.16,705.61,205.73,69.34,9.00,3.07,0.43,4.44,9.11,11.58,4.44,9.11,11.58,934.17,291.61,83.69,9.81,3.14,0.56
2018/07/06T19:15:11z,2c:3a:e8:34:fd:12,2.50i,2.0+OPENLOG+15931 MB+DS3231+BME280+PMSX003A+PMSX003B,81,13,25.52,1014.70,0.02,30072,31,657,3.20,6.75,9.91,3.20,6.75,9.91,783.95,220.98,63.52,9.30,4.77,0.77,3.55,8.16,10.55,3.55,8.16,10.55,757.89,232.34,77.16,11.34,3.58,0.50
2018/07/06T19:16:31z,2c:3a:e8:34:fd:12,2.50i,2.0+OPENLOG+15931 MB+DS3231+BME280+PMSX003A+PMSX003B,81,13,25.52,1014.38,0.02,29888,31,737,2.91,6.87,8.71,2.91,6.87,8.71,693.67,206.69,63.20,7.56,2.58,0.58,3.72,7.50,8.58,3.72,7.50,8.58,771.58,237.44,64.97,7.89,1.47,0.50
2018/07/06T19:17:51z,2c:3a:e8:34:fd:12,2.50i,2.0+OPENLOG+15931 MB+DS3231+BME280+PMSX003A+PMSX003B,81,13,25.52,1014.60,0.02,29608,31,817,2.55,6.45,7.07,2.55,6.45,7.07,787.98,212.95,66.89,4.36,0.84,0.41,3.61,8.61,10.28,3.61,8.61,10.28,748.33,238.47,83.11,10.42,2.44,0.36
2018/07/06T19:19:11z,2c:3a:e8:34:fd:12,2.50i,2.0+OPENLOG+15931 MB+DS3231+BME280+PMSX003A+PMSX003B,81,13,25.52,1014.74,0.02,29536,31,897,1.89,6.30,7.20,1.89,6.30,7.20,631.84,181.05,65.68,5.25,1.23,0.55,2.72,5.94,7.78,2.72,5.94,7.78,580.08,178.89,55.39,8.14,2.28,0.08
2018/07/06T19:20:31z,2c:3a:e8:34:fd:12,2.50i,2.0+OPENLOG+15931 MB+DS3231+BME280+PMSX003A+PMSX003B,80,13,24.74,1013.99,0.02,29616,31,977,2.18,6.30,8.07,2.18,6.30,8.07,658.50,180.77,64.32,7.61,3.14,0.43,3.24,6.73,8.59,3.24,6.73,8.59,674.59,209.11,61.97,8.59,2.24,0.32
2018/07/06T19:21:51z,2c:3a:e8:34:fd:12,2.50i,2.0+OPENLOG+15931 MB+DS3231+BME280+PMSX003A+PMSX003B,81,13,25.52,1014.70,0.02,30072,31,1057,2.45,7.36,9.43,2.45,7.36,9.43,753.34,215.07,72.80,9.25,2.50,0.25,2.89,6.80,7.17,2.89,6.80,7.17,721.89,216.03,61.63,3.23,0.43,0.06
2018/07/06T19:23:11z,2c:3a:e8:34:fd:12,2.50i,2.0+OPENLOG+15931 MB+DS3231+BME280+PMSX003A+PMSX003B,81,13,25.52,1014.69,0.02,29584,31,1137,2.36,5.22,7.27,2.36,5.22,7.27,645.53,184.27,51.51,5.33,3.42,0.80,3.54,6.14,7.09,3.54,6.14,7.09,649.20,207.63,51.74,5.40,0.74,0.06
2018/07/06T19:24:31z,2c:3a:e8:34:fd:12,2.50i,2.0+OPENLOG+15931 MB+DS3231+BME280+PMSX003A+PMSX003B,81,13,25.52,1014.73,0.02,29640,31,1217,2.34,5.95,7.55,2.34,5.95,7.55,655.91,177.39,50.95,8.86,3.07,0.61,1.92,5.47,6.19,1.92,5.47,6.19,576.58,179.42,57.69,5.22,1.17,0.06
2018/07/06T19:25:51z,2c:3a:e8:34:fd:12,2.50i,2.0+OPENLOG+15931 MB+DS3231+BME280+PMSX003A+PMSX003B,81,13,25.52,1014.69,0.02,29616,31,1297,1.89,4.98,5.89,1.89,4.98,5.89,632.39,165.05,50.14,4.43,1.14,0.27,1.69,5.64,6.67,1.69,5.64,6.67,583.50,176.42,57.78,3.81,0.89,0.50
2018/07/06T19:27:11z,2c:3a:e8:34:fd:12,2.50i,2.0+OPENLOG+15931 MB+DS3231+BME280+PMSX003A+PMSX003B,81,13,25.52,1014.66,0.02,30072,31,1377,2.48,5.36,6.48,2.48,5.36,6.48,647.18,167.77,48.23,7.27,1.36,0.43,2.61,5.33,6.58,2.61,5.33,6.58,567.25,176.39,47.22,5.56,0.94,0.50
2018/07/06T19:28:31z,2c:3a:e8:34:fd:12,2.50i,2.0+OPENLOG+15931 MB+DS3231+BME280+PMSX003A+PMSX003B,81,13,25.52,1014.71,0.02,30072,31,1457,2.14,6.34,8.39,2.14,6.34,8.39,612.75,177.39,65.30,8.77,3.36,0.77,2.76,4.97,6.24,2.76,4.97,6.24,615.24,190.22,43.86,3.62,1.19,0.32
2018/07/06T19:29:51z,2c:3a:e8:34:fd:12,2.50i,2.0+OPENLOG+15931 MB+DS3231+BME280+PMSX003A+PMSX003B,81,13,25.52,1014.74,0.02,29352,31,1537,1.91,5.18,6.14,1.91,5.18,6.14,568.09,157.18,54.75,5.59,1.59,0.25,2.13,5.42,6.03,2.13,5.42,6.03,557.92,171.37,47.58,5.11,1.03,0.45
2018/07/06T19:31:11z,2c:3a:e8:34:fd:12,2.50i,2.0+OPENLOG+15931 MB+DS3231+BME280+PMSX003A+PMSX003B,81,13,25.52,1014.71,0.01,29616,31,1617,1.86,4.70,5.52,1.86,4.70,5.52,532.16,144.32,44.75,5.68,1.52,0.70,1.92,4.78,5.78,1.92,4.78,5.78,507.89,158.70,49.92,5.16,0.76,0.45
2018/07/06T19:32:31z,2c:3a:e8:34:fd:12,2.50i,2.0+OPENLOG+15931 MB+DS3231+BME280+PMSX003A+PMSX003B,81,13,25.52,1014.66,0.02,30072,31,1697,2.07,4.45,6.05,2.07,4.45,6.05,563.05,156.55,44.32,6.00,2.09,0.86,0.94,2.97,4.77,0.94,2.97,4.77,374.74,117.26,36.91,4.86,2.57,0.54
2018/07/06T19:33:51z,2c:3a:e8:34:fd:12,2.50i,2.0+OPENLOG+15931 MB+DS3231+BME280+PMSX003A+PMSX003B,81,13,25.52,1014.55,0.02,30072,31,1777,1.38,3.89,5.22,1.38,3.89,5.22,500.33,132.22,42.58,5.78,1.67,0.22,2.38,6.03,6.92,2.38,6.03,6.92,552.00,171.73,53.19,8.03,1.30,0.08
2018/07/06T19:35:11z,2c:3a:e8:34:fd:12,2.50i,2.0+OPENLOG+15931 MB+DS3231+BME280+PMSX003A+PMSX003B,81,13,25.52,1014.51,0.02,29640,31,1857,1.02,4.07,5.13,1.02,4.07,5.13,476.33,128.42,44.67,5.51,1.84,0.56,1.38,3.89,4.49,1.38,3.89,4.49,446.51,136.84,40.70,3.65,0.70,0.08
2018/07/06T19:36:31z,2c:3a:e8:34:fd:12,2.50i,2.0+OPENLOG+15931 MB+DS3231+BME280+PMSX003A+PMSX003B,81,13,25.52,1014.30,0.02,29616,31,1937,0.93,3.25,4.64,0.93,3.25,4.64,444.34,122.82,32.82,5.89,1.80,0.36,1.84,4.65,5.95,1.84,4.65,5.95,481.70,150.51,45.43,4.89,1.65,0.95
2018/07/06T19:37:51z,2c:3a:e8:34:fd:12,2.50i,2.0+OPENLOG+15931 MB+DS3231+BME280+PMSX003A+PMSX003B,81,13,25.52,1014.77,0.02,30072,31,2017,0.59,2.55,3.68,0.59,2.55,3.68,434.73,109.05,29.43,4.80,1.52,0.52,2.42,4.61,5.33,2.42,4.61,5.33,529.75,159.39,37.61,4.67,0.97,0.33
2018/07/06T19:39:11z,2c:3a:e8:34:fd:12,2.50i,2.0+OPENLOG+15931 MB+DS3231+BME280+PMSX003A+PMSX003B,81,13,25.52,1014.67,0.01,30072,31,2097,1.33,3.58,5.31,1.33,3.58,5.31,486.47,135.02,39.18,6.44,2.36,0.87,1.77,4.29,5.83,1.77,4.29,5.83,461.83,144.63,42.43,7.43,2.06,0.37
2018/07/06T19:40:31z,2c:3a:e8:34:fd:12,2.50i,2.0+OPENLOG+15931 MB+DS3231+BME280+PMSX003A+PMSX003B,81,13,25.52,1014.61,0.02,29640,31,2177,1.00,3.00,5.05,1.00,3.00,5.05,444.89,125.18,29.43,6.84,3.32,0.91,1.69,3.34,5.00,1.69,3.34,5.00,531.86,162.60,36.40,4.06,1.89,1.03
2018/07/06T19:41:51z,2c:3a:e8:34:fd:12,2.50i,2.0+OPENLOG+15931 MB+DS3231+BME280+PMSX003A+PMSX003B,81,13,25.52,1014.78,0.02,29640,31,2257,1.36,3.41,4.59,1.36,3.41,4.59,498.14,130.02,29.39,4.27,1.45,0.68,1.63,3.77,5.34,1.63,3.77,5.34,461.91,141.40,38.43,7.09,1.83,0.31
2018/07/06T19:43:11z,2c:3a:e8:34:fd:12,2.50i,2.0+OPENLOG+15931 MB+DS3231+BME280+PMSX003A+PMSX003B,81,13,25.52,1014.77,0.01,30072,31,2337,1.20,2.33,2.87,1.20,2.33,2.87,428.87,116.91,29.89,1.82,0.67,0.68,0.83,3.46,4.51,0.83,3.46,4.51,391.89,119.03,40.14,5.09,1.80,0.31

 ets Jan  8 2013,rst cause:1, boot mode:(3,7)

load 0x4010f000, len 1384, room 16 
tail 8
chksum 0x2d
csum 0x2d
v3de0c112
~ld


AirMonitor Ver: 2.50i
FlashChipRealSize: 2097152
70 31872 time not set:Detecting I2C...
70 31848 time not set:RETRY: Found RTC! ******************
83 31784 2018/07/06T19:43:11z:Found BME280 sensor on 0x76! ******************
3724 31504 2018/07/06T19:43:15z:EEPROM SSID: 
3726 31448 2018/07/06T19:43:15z:Device: AirMonitor_fd12
3728 31448 2018/07/06T19:43:15z:MAC: 2c:3a:e8:34:fd:12
3729 31472 2018/07/06T19:43:15z:setupWiFi Complete.
3732 31472 2018/07/06T19:43:15z:Looking for channel B
6431 31128 2018/07/06T19:43:17z:Attempt 1 took 2694ms. Found PMSX003 type sensor! ******************
6433 31344 2018/07/06T19:43:17z:Looking for channel A
11435 31000 2018/07/06T19:43:22z:Retry 1
2018/07/06T19:44:49z,2c:3a:e8:34:fd:12,2.50i,2.0+OPENLOG+15931 MB+DS3231+BME280+PMSX003A+PMSX003B,81,13,25.52,1014.66,0.01,30072,31,97,0.49,2.21,3.81,0.49,2.21,3.81,401.51,93.21,29.19,5.65,2.79,0.07,0.56,3.05,3.95,0.56,3.05,3.95,295.00,95.13,39.31,6.72,0.49,0.00
2018/07/06T19:46:09z,2c:3a:e8:34:fd:12,2.50i,2.0+OPENLOG+15931 MB+DS3231+BME280+PMSX003A+PMSX003B,81,13,25.52,1014.72,0.01,30072,31,177,1.41,2.30,2.80,1.41,2.30,2.80,429.00,118.39,22.91,2.64,0.80,0.07,0.65,2.14,2.81,0.65,2.14,2.81,359.43,110.59,25.30,2.11,0.97,0.00
2018/07/06T19:47:29z,2c:3a:e8:34:fd:12,2.50i,2.0+OPENLOG+15931 MB+DS3231+BME280+PMSX003A+PMSX003B,81,13,25.52,1014.51,0.02,29792,31,257,0.82,2.07,2.75,0.82,2.07,2.75,420.55,108.45,23.07,3.93,0.57,0.07,1.19,2.97,3.36,1.19,2.97,3.36,360.42,109.86,34.31,2.39,0.67,0.00
2018/07/06T19:48:49z,2c:3a:e8:34:fd:12,2.50i,2.0+OPENLOG+15931 MB+DS3231+BME280+PMSX003A+PMSX003B,81,13,25.52,1014.49,0.02,29536,31,337,0.95,2.68,4.02,0.95,2.68,4.02,466.09,119.66,32.25,5.55,1.27,0.07,0.43,1.97,2.49,0.43,1.97,2.49,251.43,78.92,29.05,3.73,0.30,0.00
2018/07/06T19:50:09z,2c:3a:e8:34:fd:12,2.50i,2.0+OPENLOG+15931 MB+DS3231+BME280+PMSX003A+PMSX003B,82,13,26.31,1014.65,0.02,29616,31,417,0.32,1.70,1.70,0.32,1.70,1.70,368.66,93.09,18.52,1.82,0.25,0.07,1.14,2.94,3.42,1.14,2.94,3.42,341.75,108.78,33.44,2.44,1.08,0.00
2018/07/06T19:51:29z,2c:3a:e8:34:fd:12,2.50i,2.0+OPENLOG+15931 MB+DS3231+BME280+PMSX003A+PMSX003B,82,13,26.31,1014.69,0.02,30072,31,497,0.68,2.14,2.55,0.68,2.14,2.55,415.02,107.18,26.86,1.82,0.70,0.07,1.00,2.72,3.50,1.00,2.72,3.50,317.25,102.36,22.75,3.61,1.36,0.78
2018/07/06T19:52:49z,2c:3a:e8:34:fd:12,2.50i,2.0+OPENLOG+15931 MB+DS3231+BME280+PMSX003A+PMSX003B,82,13,26.31,1014.61,0.02,30072,31,577,0.50,2.80,3.45,0.50,2.80,3.45,475.36,125.09,34.11,4.36,0.86,0.30,1.22,2.68,2.81,1.22,2.68,2.81,321.24,103.46,23.51,2.14,0.16,0.16
2018/07/06T19:54:09z,2c:3a:e8:34:fd:12,2.50i,2.0+OPENLOG+15931 MB+DS3231+BME280+PMSX003A+PMSX003B,82,13,26.31,1014.64,0.02,29640,31,657,0.29,1.29,2.00,0.29,1.29,2.00,407.93,102.00,24.78,2.56,0.64,0.33,0.86,2.28,2.72,0.86,2.28,2.72,312.33,96.89,26.39,2.22,0.11,0.16
2018/07/06T19:55:29z,2c:3a:e8:34:fd:12,2.50i,2.0+OPENLOG+15931 MB+DS3231+BME280+PMSX003A+PMSX003B,81,13,25.52,1015.59,0.02,29616,31,737,0.07,1.00,1.09,0.07,1.00,1.09,288.34,75.73,14.98,1.27,0.64,0.33,0.59,1.41,2.00,0.59,1.41,2.00,306.41,94.43,21.86,1.08,0.97,0.16
2018/07/06T19:56:49z,2c:3a:e8:34:fd:12,2.50i,2.0+OPENLOG+15931 MB+DS3231+BME280+PMSX003A+PMSX003B,82,11,22.30,1016.03,0.02,30072,31,817,0.07,1.11,1.98,0.07,1.11,1.98,289.09,66.50,14.25,3.39,1.52,0.33,0.61,2.03,2.42,0.61,2.03,2.42,264.75,81.58,24.64,4.11,0.69,0.16
2018/07/06T19:58:09z,2c:3a:e8:34:fd:12,2.50i,2.0+OPENLOG+15931 MB+DS3231+BME280+PMSX003A+PMSX003B,81,9,16.84,1015.84,0.02,30072,31,897,0.07,0.64,0.78,0.07,0.64,0.78,239.07,56.71,8.44,0.82,0.24,0.33,0.03,0.16,0.51,0.03,0.16,0.51,153.97,48.76,10.32,1.78,0.81,0.16
2018/07/06T19:59:29z,2c:3a:e8:34:fd:12,2.50i,2.0+OPENLOG+15931 MB+DS3231+BME280+PMSX003A+PMSX003B,81,7,11.11,1015.99,0.02,29640,31,977,0.07,0.22,0.62,0.07,0.22,0.62,195.87,48.04,6.49,0.40,0.40,0.40,0.03,0.16,0.51,0.03,0.16,0.51,67.62,21.05,4.89,1.78,0.81,0.16
2018/07/06T20:00:49z,2c:3a:e8:34:fd:12,2.50i,2.0+OPENLOG+15931 MB+DS3231+BME280+PMSX003A+PMSX003B,81,6,7.67,1014.64,0.02,29616,31,1057,0.07,0.22,0.62,0.07,0.22,0.62,120.68,22.32,2.18,0.40,0.40,0.40,0.03,0.06,0.06,0.03,0.06,0.06,61.71,17.37,1.23,1.78,0.81,0.16
2018/07/06T20:02:09z,2c:3a:e8:34:fd:12,2.50i,2.0+OPENLOG+15931 MB+DS3231+BME280+PMSX003A+PMSX003B,81,6,7.67,1014.61,0.02,30072,31,1137,0.07,0.22,0.24,0.07,0.22,0.24,98.87,16.93,2.80,0.64,0.24,0.40,0.03,0.06,0.03,0.03,0.06,0.03,48.42,15.19,4.19,1.14,0.36,0.16
2018/07/06T20:03:29z,2c:3a:e8:34:fd:12,2.50i,2.0+OPENLOG+15931 MB+DS3231+BME280+PMSX003A+PMSX003B,81,6,7.67,1014.46,0.02,30072,31,1217,0.07,0.22,0.22,0.07,0.22,0.22,148.17,26.61,1.54,0.65,0.41,0.41,0.03,0.06,0.03,0.03,0.06,0.03,27.58,8.86,4.39,0.50,0.36,0.16
2018/07/06T20:04:49z,2c:3a:e8:34:fd:12,2.50i,2.0+OPENLOG+15931 MB+DS3231+BME280+PMSX003A+PMSX003B,82,21,38.22,1014.70,0.02,29640,31,1297,0.07,0.22,0.22,0.07,0.22,0.22,176.52,33.52,3.11,0.07,0.07,0.41,0.03,0.05,0.05,0.03,0.05,0.05,63.65,18.97,3.14,0.50,0.36,0.16
2018/07/06T20:06:09z,2c:3a:e8:34:fd:12,2.50i,2.0+OPENLOG+15931 MB+DS3231+BME280+PMSX003A+PMSX003B,82,27,44.73,1014.71,0.02,29640,31,1377,1.55,2.05,2.30,1.55,2.05,2.30,532.02,136.05,15.11,0.30,0.25,0.41,0.38,0.53,0.53,0.38,0.53,0.53,265.41,73.12,3.47,0.50,0.36,0.16
2018/07/06T20:07:29z,2c:3a:e8:34:fd:12,2.50i,2.0+OPENLOG+15931 MB+DS3231+BME280+PMSX003A+PMSX003B,82,29,46.62,1014.38,0.02,30072,31,1457,1.18,1.93,1.93,1.18,1.93,1.93,440.33,116.78,15.40,0.51,0.25,0.41,1.22,1.51,1.51,1.22,1.51,1.51,390.89,114.00,9.78,0.14,0.36,0.16
2018/07/06T20:08:49z,2c:3a:e8:34:fd:12,2.50i,2.0+OPENLOG+15931 MB+DS3231+BME280+PMSX003A+PMSX003B,82,25,42.72,1014.82,0.02,30072,31,1537,78.28,1158.43,3335.51,51.70,771.66,2223.06,43099.34,14296.11,12477.25,6295.64,3186.11,1018.04,93.85,951.35,2751.65,62.47,633.92,1834.43,39307.65,13043.33,10869.05,5322.73,2536.20,673.53
2018/07/06T20:10:09z,2c:3a:e8:34:fd:12,2.50i,2.0+OPENLOG+15931 MB+DS3231+BME280+PMSX003A+PMSX003B,82,24,41.66,1018.91,0.02,29640,31,1617,150.23,1777.15,4053.02,99.54,1184.00,2701.13,65194.00,21622.27,18314.08,7509.81,3330.85,968.15,165.76,1682.46,4192.22,109.73,1120.85,2794.05,65502.29,21847.93,18170.41,8204.54,3468.80,838.95
2018/07/06T20:11:29z,2c:3a:e8:34:fd:12,2.50i,2.0+OPENLOG+15931 MB+DS3231+BME280+PMSX003A+PMSX003B,82,18,34.32,1018.78,0.02,29640,31,1697,181.09,1633.66,3432.68,119.94,1088.47,2287.79,63583.66,20999.83,16764.45,6112.17,2643.87,745.62,194.49,1599.15,3520.95,128.79,1065.33,2346.54,64821.69,21557.64,17158.28,6606.72,2636.59,603.33
2018/07/06T20:12:49z,2c:3a:e8:34:fd:12,2.50i,2.0+OPENLOG+15931 MB+DS3231+BME280+PMSX003A+PMSX003B,82,14,28.11,1018.67,0.02,30072,31,1777,233.09,1297.85,2334.02,154.76,864.57,1555.39,59040.32,19271.76,13220.96,3736.72,1550.41,373.09,237.98,1274.82,2326.10,157.90,849.33,1550.00,58970.10,19431.25,13385.85,3956.10,1445.28,290.62
2018/07/06T20:14:09z,2c:3a:e8:34:fd:12,2.50i,2.0+OPENLOG+15931 MB+DS3231+BME280+PMSX003A+PMSX003B,81,11,21.53,1018.68,0.02,29888,31,1857,246.11,953.94,1547.70,163.38,635.43,1031.11,51778.66,16559.26,9226.17,2272.66,869.15,216.17,252.46,949.97,1585.23,167.56,632.64,1056.10,51537.69,16779.03,9566.46,2469.95,860.33,177.15
2018/07/06T20:15:29z,2c:3a:e8:34:fd:12,2.50i,2.0+OPENLOG+15931 MB+DS3231+BME280+PMSX003A+PMSX003B,81,9,16.84,1018.71,0.02,29584,31,1937,206.27,659.34,1009.70,136.73,438.34,672.43,41128.98,12778.39,6172.55,1353.07,504.39,133.48,222.86,677.94,1021.00,147.64,451.50,679.69,42109.00,13513.36,6464.94,1430.78,465.94,85.81
2018/07/06T20:16:49z,2c:3a:e8:34:fd:12,2.50i,2.0+OPENLOG+15931 MB+DS3231+BME280+PMSX003A+PMSX003B,81,7,11.11,1018.69,0.02,29640,31,2017,156.04,425.31,630.24,103.29,282.76,419.44,30076.40,9144.60,3813.27,766.09,296.44,76.76,164.06,426.28,620.53,108.69,283.39,413.08,29823.75,9424.67,3871.58,806.83,264.61,42.47
2018/07/06T20:18:09z,2c:3a:e8:34:fd:12,2.50i,2.0+OPENLOG+15931 MB+DS3231+BME280+PMSX003A+PMSX003B,81,6,7.67,1018.55,0.02,29616,31,2097,103.00,259.67,368.23,67.88,172.33,244.77,19733.58,5901.56,2232.35,421.88,159.63,30.44,108.60,260.09,374.49,71.71,172.69,248.97,19485.17,6101.71,2315.17,455.80,154.54,31.51
2018/07/06T20:19:29z,2c:3a:e8:34:fd:12,2.50i,2.0+OPENLOG+15931 MB+DS3231+BME280+PMSX003A+PMSX003B,81,6,7.67,1014.68,0.01,30072,31,2177,61.36,153.05,213.91,40.27,101.23,141.70,11894.59,3535.77,1302.86,250.59,88.75,20.09,65.86,153.86,202.37,43.11,101.80,134.26,11815.71,3679.63,1326.80,229.17,65.03,7.83
2018/07/06T20:20:49z,2c:3a:e8:34:fd:12,2.50i,2.0+OPENLOG+15931 MB+DS3231+BME280+PMSX003A+PMSX003B,81,6,7.67,1014.68,0.01,30072,31,2257,50.59,124.44,172.78,33.85,82.15,114.32,9791.71,2918.07,1041.63,198.78,69.10,18.44,57.12,132.18,184.21,37.45,87.58,122.00,10355.27,3227.39,1144.67,217.15,74.21,13.58
2018/07/06T20:22:09z,2c:3a:e8:34:fd:12,2.50i,2.0+OPENLOG+15931 MB+DS3231+BME280+PMSX003A+PMSX003B,81,6,7.67,1014.45,0.01,29640,31,2337,49.98,122.37,165.44,33.58,80.77,109.49,9537.14,2854.35,1042.07,185.98,63.58,13.84,56.29,127.51,169.74,36.80,84.17,112.31,10270.54,3201.60,1105.00,185.11,52.06,8.80

 ets Jan  8 2013,rst cause:1, boot mode:(3,7)

load 0x4010f000, len 1384, room 16 
tail 8
chksum 0x2d
csum 0x2d
v3de0c112
~ld


AirMonitor Ver: 2.50i
FlashChipRealSize: 2097152
70 31872 time not set:Detecting I2C...
70 31848 time not set:RETRY: Found RTC! ******************
83 31784 2018/07/06T20:22:09z:Found BME280 sensor on 0x76! ******************
3724 31504 2018/07/06T20:22:13z:EEPROM SSID: 
3726 31448 2018/07/06T20:22:13z:Device: AirMonitor_fd12
3728 31448 2018/07/06T20:22:13z:MAC: 2c:3a:e8:34:fd:12
3729 31472 2018/07/06T20:22:13z:setupWiFi Complete.
3732 31472 2018/07/06T20:22:13z:Looking for channel B
6423 31128 2018/07/06T20:22:15z:Attempt 1 took 2686ms. Found PMSX003 type sensor! ******************
6425 31344 2018/07/06T20:22:15z:Looking for channel A
2018/07/06T20:23:47z,2c:3a:e8:34:fd:12,2.50i,2.0+OPENLOG+15931 MB+DS3231+BME280+PMSX003A+PMSX003B,81,6,7.67,1014.26,0.01,30072,31,97,45.61,113.93,162.36,32.14,75.02,107.27,8840.66,2638.27,995.34,184.32,71.14,14.43,53.28,118.60,159.91,35.37,78.21,105.81,8337.07,2616.05,911.58,158.56,45.05,8.72
2018/07/06T20:25:07z,2c:3a:e8:34:fd:12,2.50i,2.0+OPENLOG+15931 MB+DS3231+BME280+PMSX003A+PMSX003B,81,6,7.67,1014.25,0.01,29640,31,177,46.02,115.93,159.32,32.50,76.57,105.48,8982.61,2640.05,968.32,194.27,63.48,13.93,51.37,116.34,160.23,34.37,76.77,106.11,9198.77,2866.06,1007.57,181.46,56.69,9.74
2018/07/06T20:26:27z,2c:3a:e8:34:fd:12,2.50i,2.0+OPENLOG+15931 MB+DS3231+BME280+PMSX003A+PMSX003B,81,6,7.67,1014.30,0.01,29616,31,257,46.41,111.34,141.77,32.41,73.39,93.73,8801.25,2634.45,933.30,146.61,46.73,8.30,49.09,112.00,149.09,33.29,73.76,98.53,8781.18,2748.68,987.32,164.32,49.09,8.65
2018/07/06T20:27:47z,2c:3a:e8:34:fd:12,2.50i,2.0+OPENLOG+15931 MB+DS3231+BME280+PMSX003A+PMSX003B,82,6,8.39,1014.61,0.01,30072,31,337,42.39,105.30,139.86,30.95,69.43,92.39,8117.80,2420.80,889.41,158.48,50.39,11.68,48.85,113.67,148.94,33.52,75.18,98.70,8632.55,2690.18,980.61,173.33,46.21,8.64
2018/07/06T20:29:07z,2c:3a:e8:34:fd:12,2.50i,2.0+OPENLOG+15931 MB+DS3231+BME280+PMSX003A+PMSX003B,82,7,11.84,1014.64,0.01,30072,31,417,41.51,102.02,139.58,30.56,67.18,92.24,8081.87,2405.76,869.76,159.58,55.98,9.47,46.94,107.27,140.76,32.70,70.70,93.06,8350.73,2601.76,913.91,157.94,43.79,9.42
2018/07/06T20:30:27z,2c:3a:e8:34:fd:12,2.50i,2.0+OPENLOG+15931 MB+DS3231+BME280+PMSX003A+PMSX003B,82,7,11.84,1014.46,0.01,29536,31,497,40.11,95.05,129.11,30.18,62.61,85.30,7592.59,2277.05,806.32,140.07,50.11,9.36,45.20,102.03,136.57,32.20,67.31,90.40,8100.09,2523.83,875.66,149.71,45.51,6.46
2018/07/06T20:31:47z,2c:3a:e8:34:fd:12,2.50i,2.0+OPENLOG+15931 MB+DS3231+BME280+PMSX003A+PMSX003B,82,7,11.84,1014.52,0.01,29640,31,577,38.68,91.43,124.32,29.57,60.41,82.61,7349.11,2187.50,791.64,133.11,45.89,11.16,42.86,94.09,125.80,31.14,61.94,84.26,7597.46,2361.46,826.83,133.20,43.66,5.71
2018/07/06T20:33:07z,2c:3a:e8:34:fd:12,2.50i,2.0+OPENLOG+15931 MB+DS3231+BME280+PMSX003A+PMSX003B,82,7,11.84,1014.08,0.01,30072,31,657,38.64,91.02,121.93,29.50,60.05,81.50,7369.14,2188.00,768.50,130.79,45.79,6.00,41.60,92.60,126.29,30.60,61.00,83.60,7527.69,2344.00,804.69,137.00,47.63,6.14
2018/07/06T20:34:27z,2c:3a:e8:34:fd:12,2.50i,2.0+OPENLOG+15931 MB+DS3231+BME280+PMSX003A+PMSX003B,82,7,11.84,1014.35,0.01,30072,31,737,35.96,85.76,112.29,28.40,56.40,77.04,6892.47,2037.89,735.89,117.96,38.18,9.16,39.61,89.00,117.03,29.79,58.48,78.45,7147.91,2234.97,773.73,124.70,36.58,5.15
2018/07/06T20:35:47z,2c:3a:e8:34:fd:12,2.50i,2.0+OPENLOG+15931 MB+DS3231+BME280+PMSX003A+PMSX003B,82,7,11.84,1014.36,0.01,29640,31,817,34.45,82.45,110.57,27.70,54.39,76.50,6642.00,1958.05,693.11,122.07,41.09,7.95,39.54,87.69,115.51,29.83,57.83,78.14,7014.09,2181.57,738.23,127.77,38.00,6.91
2018/07/06T20:37:07z,2c:3a:e8:34:fd:12,2.50i,2.0+OPENLOG+15931 MB+DS3231+BME280+PMSX003A+PMSX003B,82,7,11.84,1014.46,0.01,29640,31,897,33.22,78.24,104.80,27.31,52.56,74.47,6319.00,1879.76,654.29,114.73,39.62,6.31,38.39,84.33,110.06,29.42,55.56,76.28,6766.58,2100.33,727.33,120.64,32.25,3.94
2018/07/06T20:38:27z,2c:3a:e8:34:fd:12,2.50i,2.0+OPENLOG+15931 MB+DS3231+BME280+PMSX003A+PMSX003B,82,7,11.84,1014.52,0.01,30072,31,977,31.37,78.35,103.88,26.33,52.70,74.09,6102.42,1819.86,673.72,108.63,39.28,8.35,36.48,79.55,106.55,28.55,53.27,74.88,6463.64,2014.06,684.45,119.73,34.91,5.18
2018/07/06T20:39:47z,2c:3a:e8:34:fd:12,2.50i,2.0+OPENLOG+15931 MB+DS3231+BME280+PMSX003A+PMSX003B,82,8,14.88,1014.52,0.01,30072,31,1057,30.89,73.84,96.27,26.00,50.73,71.09,5992.50,1769.70,615.11,101.48,32.45,5.68,33.37,77.29,99.20,27.23,51.89,72.31,6048.86,1879.11,674.80,108.63,29.83,3.49
2018/07/06T20:41:07z,2c:3a:e8:34:fd:12,2.50i,2.0+OPENLOG+15931 MB+DS3231+BME280+PMSX003A+PMSX003B,81,8,14.13,1014.03,0.01,29792,31,1137,29.64,70.96,92.73,25.40,49.71,69.49,5765.67,1714.96,614.93,94.51,30.93,6.56,31.91,73.00,92.40,26.43,50.54,69.54,5808.43,1804.40,607.57,102.29,23.80,3.91
2018/07/06T20:42:27z,2c:3a:e8:34:fd:12,2.50i,2.0+OPENLOG+15931 MB+DS3231+BME280+PMSX003A+PMSX003B,82,8,14.88,1014.54,0.01,29640,31,1217,29.56,70.02,90.80,25.27,49.58,68.93,5655.87,1681.09,572.62,98.98,31.29,5.11,31.91,72.94,97.00,26.45,50.36,71.42,5729.27,1792.79,629.97,110.12,30.00,5.79
2018/07/06T20:43:47z,2c:3a:e8:34:fd:12,2.50i,2.0+OPENLOG+15931 MB+DS3231+BME280+PMSX003A+PMSX003B,82,8,14.88,1014.28,0.01,30072,31,1297,27.45,65.59,88.34,23.86,47.57,67.73,5435.25,1599.30,552.86,96.14,33.23,5.32,30.86,71.80,88.71,25.83,49.94,68.03,5592.43,1760.46,602.17,99.23,22.69,2.51
2018/07/06T20:45:07z,2c:3a:e8:34:fd:12,2.50i,2.0+OPENLOG+15931 MB+DS3231+BME280+PMSX003A+PMSX003B,82,8,14.88,1014.41,0.02,30072,31,1377,27.89,67.21,85.32,24.40,48.49,66.60,5383.15,1595.47,562.57,90.38,25.45,6.13,29.89,67.03,84.31,25.31,48.46,65.89,5356.29,1674.74,593.69,84.06,23.31,5.63
2018/07/06T20:46:27z,2c:3a:e8:34:fd:12,2.50i,2.0+OPENLOG+15931 MB+DS3231+BME280+PMSX003A+PMSX003B,82,8,14.88,1014.55,0.01,29792,31,1457,26.49,65.55,82.47,23.32,47.72,65.34,5132.36,1526.30,532.98,92.09,22.38,7.74,27.97,62.51,81.46,24.34,46.49,64.83,5029.80,1564.46,545.57,83.60,26.49,3.40
2018/07/06T20:47:47z,2c:3a:e8:34:fd:12,2.50i,2.0+OPENLOG+15931 MB+DS3231+BME280+PMSX003A+PMSX003B,82,8,14.88,1014.50,0.02,29536,31,1537,25.56,61.62,77.44,22.84,46.07,62.80,4883.40,1468.98,518.16,82.09,23.07,4.04,29.94,64.47,79.17,25.64,47.39,63.94,5286.33,1640.08,549.17,74.72,18.72,2.78
2018/07/06T20:49:07z,2c:3a:e8:34:fd:12,2.50i,2.0+OPENLOG+15931 MB+DS3231+BME280+PMSX003A+PMSX003B,82,8,14.88,1014.42,0.01,29616,31,1617,23.60,56.53,73.04,21.78,43.91,60.78,4613.80,1364.58,464.96,76.56,24.29,4.02,28.08,61.19,77.78,24.33,45.83,63.31,4957.75,1542.67,510.86,78.97,21.50,4.86
2018/07/06T20:50:27z,2c:3a:e8:34:fd:12,2.50i,2.0+OPENLOG+15931 MB+DS3231+BME280+PMSX003A+PMSX003B,82,8,14.88,1014.49,0.01,30072,31,1697,22.20,54.84,71.52,21.14,43.36,60.05,4392.48,1309.48,460.77,75.34,23.57,5.91,27.03,59.00,73.31,23.71,45.17,60.97,4840.11,1501.80,500.29,72.77,18.89,2.29
2018/07/06T20:51:47z,2c:3a:e8:34:fd:12,2.50i,2.0+OPENLOG+15931 MB+DS3231+BME280+PMSX003A+PMSX003B,82,8,14.88,1014.36,0.01,29584,31,1777,22.09,52.09,68.40,20.93,42.18,58.56,4331.60,1268.64,444.33,72.18,24.44,5.53,26.41,57.24,73.26,23.41,44.41,61.09,4708.68,1458.15,499.35,72.59,20.53,3.12
2018/07/06T20:53:07z,2c:3a:e8:34:fd:12,2.50i,2.0+OPENLOG+15931 MB+DS3231+BME280+PMSX003A+PMSX003B,82,8,14.88,1014.42,0.01,29536,31,1857,21.07,52.46,66.91,20.02,42.20,57.54,4193.02,1251.57,437.76,75.48,18.65,3.22,24.64,53.03,68.33,22.50,42.58,58.42,4362.75,1359.33,452.94,68.92,22.39,3.83
2018/07/06T20:54:27z,2c:3a:e8:34:fd:12,2.50i,2.0+OPENLOG+15931 MB+DS3231+BME280+PMSX003A+PMSX003B,82,8,14.88,1013.87,0.01,29616,31,1937,20.98,50.64,65.36,20.07,41.45,56.75,4201.16,1241.75,438.00,60.07,19.80,5.41,23.65,54.41,65.35,21.94,43.24,56.97,4202.65,1327.79,454.62,68.26,13.35,4.03
2018/07/06T20:55:47z,2c:3a:e8:34:fd:12,2.50i,2.0+OPENLOG+15931 MB+DS3231+BME280+PMSX003A+PMSX003B,82,8,14.88,1014.36,0.01,30072,31,2017,20.18,47.80,61.36,19.76,40.04,54.62,3871.27,1150.42,402.16,64.40,18.62,3.07,22.26,49.71,61.20,21.09,41.03,54.57,3983.66,1242.00,424.83,62.31,14.94,3.31
2018/07/06T20:57:07z,2c:3a:e8:34:fd:12,2.50i,2.0+OPENLOG+15931 MB+DS3231+BME280+PMSX003A+PMSX003B,82,8,14.88,1014.38,0.01,30072,31,2097,19.31,46.44,60.69,19.18,39.44,54.29,3829.93,1122.11,382.62,66.84,21.73,4.62,23.34,51.60,60.11,21.77,41.94,53.80,4315.71,1327.54,419.17,53.11,10.40,2.40
2018/07/06T20:58:27z,2c:3a:e8:34:fd:12,2.50i,2.0+OPENLOG+15931 MB+DS3231+BME280+PMSX003A+PMSX003B,82,9,17.59,1014.37,0.01,29352,31,2177,17.87,40.78,52.80,17.87,36.28,49.59,3464.67,1035.04,349.59,48.39,18.02,3.22,20.44,47.47,59.03,19.94,39.86,53.39,3728.33,1159.22,392.86,66.44,13.17,2.97
2018/07/06T20:59:47z,2c:3a:e8:34:fd:12,2.50i,2.0+OPENLOG+15931 MB+DS3231+BME280+PMSX003A+PMSX003B,82,9,17.59,1014.24,0.01,29616,31,2257,18.53,44.95,54.93,18.28,38.56,50.91,3635.16,1079.40,369.56,53.65,14.28,3.53,20.53,44.53,56.50,19.85,38.44,51.74,3635.91,1143.50,391.79,57.26,16.03,2.79
2018/07/06T21:01:07z,2c:3a:e8:34:fd:12,2.50i,2.0+OPENLOG+15931 MB+DS3231+BME280+PMSX003A+PMSX003B,82,9,17.59,1014.35,0.01,30072,31,2337,17.23,41.55,51.34,17.23,36.68,48.59,3460.09,1027.84,348.39,49.95,14.43,1.39,19.53,44.75,54.61,19.33,38.39,50.47,3650.00,1144.83,377.86,50.69,12.50,3.42

 ets Jan  8 2013,rst cause:1, boot mode:(3,7)

load 0x4010f000, len 1384, room 16 
tail 8
chksum 0x2d
csum 0x2d
v3de0c112
~ld


AirMonitor Ver: 2.50i
FlashChipRealSize: 2097152
70 31872 time not set:Detecting I2C...
70 31848 time not set:RETRY: Found RTC! ******************
83 31784 2018/07/06T21:01:07z:Found BME280 sensor on 0x76! ******************
3724 31504 2018/07/06T21:01:10z:EEPROM SSID: 
3726 31448 2018/07/06T21:01:10z:Device: AirMonitor_fd12
3728 31448 2018/07/06T21:01:10z:MAC: 2c:3a:e8:34:fd:12
3729 31472 2018/07/06T21:01:10z:setupWiFi Complete.
3732 31472 2018/07/06T21:01:10z:Looking for channel B
6470 31128 2018/07/06T21:01:13z:Attempt 1 took 2733ms. Found PMSX003 type sensor! ******************
6472 31344 2018/07/06T21:01:13z:Looking for channel A
2018/07/06T21:02:44z,2c:3a:e8:34:fd:12,2.50i,2.0+OPENLOG+15931 MB+DS3231+BME280+PMSX003A+PMSX003B,82,9,17.59,1013.90,0.01,30072,31,97,17.27,40.18,49.55,17.27,35.73,47.55,3396.75,997.05,325.41,49.45,12.68,3.70,17.25,38.14,47.64,17.25,34.57,46.41,2654.80,846.00,283.66,41.09,11.73,2.89
2018/07/06T21:04:04z,2c:3a:e8:34:fd:12,2.50i,2.0+OPENLOG+15931 MB+DS3231+BME280+PMSX003A+PMSX003B,82,9,17.59,1014.35,0.01,29640,31,177,15.30,36.44,47.12,15.30,33.53,45.72,3168.28,904.40,302.44,50.65,15.91,4.12,19.14,38.94,48.69,19.11,35.06,46.86,3372.00,1057.03,326.91,45.69,13.14,1.26
2018/07/06T21:05:24z,2c:3a:e8:34:fd:12,2.50i,2.0+OPENLOG+15931 MB+DS3231+BME280+PMSX003A+PMSX003B,82,9,17.59,1014.33,0.01,29616,31,257,14.76,33.31,44.13,14.76,31.76,43.31,3001.67,881.09,285.07,40.47,15.38,4.44,18.38,38.38,46.59,18.24,34.88,45.59,3264.53,1025.09,329.35,41.35,10.79,2.00
2018/07/06T21:06:44z,2c:3a:e8:34:fd:12,2.50i,2.0+OPENLOG+15931 MB+DS3231+BME280+PMSX003A+PMSX003B,82,9,17.59,1014.29,0.01,30072,31,337,14.83,32.74,39.52,14.83,31.21,39.36,3005.21,861.88,278.40,30.57,10.67,1.98,16.43,35.09,43.40,16.43,32.57,43.06,3040.20,940.51,307.60,39.97,10.77,1.69
2018/07/06T21:08:04z,2c:3a:e8:34:fd:12,2.50i,2.0+OPENLOG+15931 MB+DS3231+BME280+PMSX003A+PMSX003B,82,9,17.59,1014.23,0.01,30072,31,417,14.09,35.39,44.61,14.09,33.02,43.75,2854.70,836.30,293.00,46.93,14.05,3.00,14.65,32.95,40.22,14.65,31.14,40.22,2748.81,864.35,297.70,38.41,10.14,1.27
2018/07/06T21:09:24z,2c:3a:e8:34:fd:12,2.50i,2.0+OPENLOG+15931 MB+DS3231+BME280+PMSX003A+PMSX003B,82,9,17.59,1014.21,0.01,29640,31,497,13.82,31.00,38.27,13.82,30.29,38.27,2745.20,793.76,251.89,39.11,10.87,2.36,14.57,35.26,46.17,14.57,32.74,45.09,2864.91,897.31,304.60,50.29,14.69,3.11
2018/07/06T21:10:44z,2c:3a:e8:34:fd:12,2.50i,2.0+OPENLOG+15931 MB+DS3231+BME280+PMSX003A+PMSX003B,82,9,17.59,1014.01,0.01,29640,31,577,12.50,31.91,40.25,12.50,30.61,40.25,2580.95,782.05,275.41,40.55,10.66,3.41,13.92,30.51,38.49,13.92,29.84,38.35,2589.16,802.97,264.14,37.22,10.27,0.32
2018/07/06T21:12:04z,2c:3a:e8:34:fd:12,2.50i,2.0+OPENLOG+15931 MB+DS3231+BME280+PMSX003A+PMSX003B,82,9,17.59,1014.03,0.01,30072,31,657,12.70,29.73,36.30,12.70,29.16,36.30,2643.55,766.09,262.52,32.09,10.25,2.00,14.23,32.40,40.54,14.23,31.14,40.54,2591.31,815.03,281.00,41.51,9.69,1.51
2018/07/06T21:13:24z,2c:3a:e8:34:fd:12,2.50i,2.0+OPENLOG+15931 MB+DS3231+BME280+PMSX003A+PMSX003B,82,9,17.59,1014.23,0.01,30072,31,737,11.91,28.47,36.27,11.91,28.31,36.27,2420.27,720.89,243.02,35.76,11.58,3.00,13.06,28.40,35.40,13.06,28.29,35.40,2363.49,744.00,257.66,28.03,9.57,2.29
2018/07/06T21:14:44z,2c:3a:e8:34:fd:12,2.50i,2.0+OPENLOG+15931 MB+DS3231+BME280+PMSX003A+PMSX003B,82,9,17.59,1014.24,0.02,29640,31,817,11.95,28.36,35.23,11.95,28.36,35.23,2419.57,702.39,235.61,35.30,10.07,1.70,13.06,28.89,33.81,13.06,28.56,33.81,2383.33,744.03,245.14,33.56,5.28,0.58
2018/07/06T21:16:04z,2c:3a:e8:34:fd:12,2.50i,2.0+OPENLOG+15931 MB+DS3231+BME280+PMSX003A+PMSX003B,82,9,17.59,1014.20,0.02,29640,31,897,10.63,25.91,35.83,10.63,25.91,35.83,2289.78,671.57,233.65,39.63,14.78,2.57,13.50,29.75,33.78,13.50,29.39,33.78,2443.92,764.25,250.42,33.69,3.72,1.17
2018/07/06T21:17:24z,2c:3a:e8:34:fd:12,2.50i,2.0+OPENLOG+15931 MB+DS3231+BME280+PMSX003A+PMSX003B,82,9,17.59,1014.09,0.02,29888,31,977,10.14,26.37,35.19,10.14,26.37,35.19,2253.00,647.91,215.12,45.95,12.14,2.28,11.36,25.08,30.25,11.36,25.08,30.25,2214.42,687.22,214.00,26.11,6.89,0.44
2018/07/06T21:18:44z,2c:3a:e8:34:fd:12,2.50i,2.0+OPENLOG+15931 MB+DS3231+BME280+PMSX003A+PMSX003B,82,9,17.59,1014.18,0.02,30072,31,1057,10.60,25.71,30.44,10.60,25.71,30.44,2250.13,645.87,213.56,30.07,6.13,1.53,11.86,24.00,30.03,11.86,24.00,30.03,2076.75,656.64,206.92,28.28,8.86,0.92
2018/07/06T21:20:04z,2c:3a:e8:34:fd:12,2.50i,2.0+OPENLOG+15931 MB+DS3231+BME280+PMSX003A+PMSX003B,82,9,17.59,1014.19,0.01,29400,31,1137,9.89,22.56,28.07,9.89,22.56,28.07,2078.40,617.24,198.78,24.22,8.40,1.91,9.94,23.47,29.06,9.94,23.47,29.06,1991.03,619.12,208.24,27.21,5.71,2.09
2018/07/06T21:21:24z,2c:3a:e8:34:fd:12,2.50i,2.0+OPENLOG+15931 MB+DS3231+BME280+PMSX003A+PMSX003B,82,9,17.59,1013.75,0.02,29640,31,1217,9.73,22.67,28.33,9.73,22.67,28.33,1916.20,572.44,188.60,30.76,8.20,2.76,11.14,24.62,30.62,11.14,24.62,30.62,2152.30,671.16,212.22,31.14,7.32,1.24
2018/07/06T21:22:44z,2c:3a:e8:34:fd:12,2.50i,2.0+OPENLOG+15931 MB+DS3231+BME280+PMSX003A+PMSX003B,82,9,17.59,1014.15,0.02,30072,31,1297,8.98,20.57,24.57,8.98,20.57,24.57,1823.11,540.98,182.80,18.14,5.48,0.86,11.00,23.35,30.65,11.00,23.35,30.65,2009.68,622.57,200.14,34.54,10.14,1.89
2018/07/06T21:24:04z,2c:3a:e8:34:fd:12,2.50i,2.0+OPENLOG+15931 MB+DS3231+BME280+PMSX003A+PMSX003B,82,9,17.59,1014.19,0.01,30072,31,1377,9.43,21.39,26.05,9.43,21.39,26.05,1853.80,544.45,173.75,24.45,6.75,2.66,9.56,22.00,26.56,9.56,22.00,26.56,1830.62,574.24,199.12,20.76,5.59,1.47
2018/07/06T21:25:25z,2c:3a:e8:34:fd:12,2.50i,2.0+OPENLOG+15931 MB+DS3231+BME280+PMSX003A+PMSX003B,82,9,17.59,1014.26,0.02,29584,31,1457,7.93,19.23,24.81,7.93,19.23,24.81,1655.09,496.95,166.37,25.33,8.19,1.09,10.31,23.03,26.91,10.31,23.03,26.91,2014.29,617.91,197.43,21.17,5.77,1.09
2018/07/06T21:26:45z,2c:3a:e8:34:fd:12,2.50i,2.0+OPENLOG+15931 MB+DS3231+BME280+PMSX003A+PMSX003B,82,10,20.05,1014.25,0.02,29640,31,1537,7.67,20.07,23.80,7.67,20.07,23.80,1721.73,501.53,174.73,26.13,5.89,0.51,9.77,20.57,23.80,9.77,20.57,23.80,1780.29,555.29,176.34,22.43,3.46,0.69
2018/07/06T21:28:05z,2c:3a:e8:34:fd:12,2.50i,2.0+OPENLOG+15931 MB+DS3231+BME280+PMSX003A+PMSX003B,82,10,20.05,1014.16,0.02,29616,31,1617,7.74,17.76,21.85,7.74,17.76,21.85,1696.70,487.33,148.04,21.59,6.41,0.61,9.86,19.89,22.49,9.86,19.89,22.49,1792.46,553.06,167.80,21.31,2.71,0.69
2018/07/06T21:29:25z,2c:3a:e8:34:fd:12,2.50i,2.0+OPENLOG+15931 MB+DS3231+BME280+PMSX003A+PMSX003B,82,10,20.05,1014.20,0.02,30072,31,1697,7.72,20.51,24.23,7.72,20.51,24.23,1624.40,490.49,171.05,25.00,5.84,0.65,8.97,18.03,21.88,8.97,18.03,21.88,1693.59,527.24,151.35,16.09,4.15,1.41
2018/07/06T21:30:45z,2c:3a:e8:34:fd:12,2.50i,2.0+OPENLOG+15931 MB+DS3231+BME280+PMSX003A+PMSX003B,82,10,20.05,1013.86,0.02,30072,31,1777,7.43,17.11,19.77,7.43,17.11,19.77,1585.16,463.50,141.98,15.82,4.07,1.09,7.74,17.86,21.69,7.74,17.86,21.69,1611.60,498.94,159.80,19.71,5.46,0.69
2018/07/06T21:32:05z,2c:3a:e8:34:fd:12,2.50i,2.0+OPENLOG+15931 MB+DS3231+BME280+PMSX003A+PMSX003B,82,10,20.05,1014.18,0.02,29640,31,1857,6.18,15.27,18.89,6.18,15.27,18.89,1431.61,419.48,133.14,16.43,5.00,1.39,8.25,17.56,21.92,8.25,17.56,21.92,1563.00,489.44,150.86,23.78,5.00,0.22
2018/07/06T21:33:25z,2c:3a:e8:34:fd:12,2.50i,2.0+OPENLOG+15931 MB+DS3231+BME280+PMSX003A+PMSX003B,82,10,20.05,1013.94,0.02,29616,31,1937,5.93,15.14,19.16,5.93,15.14,19.16,1439.52,412.07,138.66,19.66,5.95,1.64,7.94,17.92,20.19,7.94,17.92,20.19,1532.33,479.28,153.31,17.19,2.81,0.94
2018/07/06T21:34:45z,2c:3a:e8:34:fd:12,2.50i,2.0+OPENLOG+15931 MB+DS3231+BME280+PMSX003A+PMSX003B,82,10,20.05,1014.22,0.02,30072,31,2017,5.80,15.58,18.16,5.80,15.58,18.16,1354.67,394.87,135.20,15.62,3.93,0.40,6.74,14.91,17.74,6.74,14.91,17.74,1311.26,414.66,131.17,13.54,2.80,0.69
2018/07/06T21:36:05z,2c:3a:e8:34:fd:12,2.50i,2.0+OPENLOG+15931 MB+DS3231+BME280+PMSX003A+PMSX003B,82,10,20.05,1014.30,0.02,30072,31,2097,6.82,15.60,19.69,6.82,15.60,19.69,1513.87,427.49,134.51,20.49,5.89,1.78,6.71,15.43,18.86,6.71,15.43,18.86,1343.49,421.97,129.77,18.69,4.77,1.23
2018/07/06T21:37:25z,2c:3a:e8:34:fd:12,2.50i,2.0+OPENLOG+15931 MB+DS3231+BME280+PMSX003A+PMSX003B,82,10,20.05,1014.22,0.02,29640,31,2177,6.14,13.73,17.45,6.14,13.73,17.45,1357.70,383.73,117.02,20.80,6.20,0.39,6.86,15.00,16.00,6.86,15.00,16.00,1339.54,413.23,141.83,9.94,0.66,1.23
2018/07/06T21:38:45z,2c:3a:e8:34:fd:12,2.50i,2.0+OPENLOG+15931 MB+DS3231+BME280+PMSX003A+PMSX003B,82,10,20.05,1014.05,0.02,29616,31,2257,5.89,14.64,17.84,5.89,14.64,17.84,1304.27,371.16,128.47,20.44,3.11,1.11,6.97,14.23,18.14,6.97,14.23,18.14,1299.00,406.00,134.83,16.43,4.77,0.71
2018/07/06T21:40:05z,2c:3a:e8:34:fd:12,2.50i,2.0+OPENLOG+15931 MB+DS3231+BME280+PMSX003A+PMSX003B,82,10,20.05,1014.14,0.02,30072,31,2337,6.05,13.16,16.89,6.05,13.16,16.89,1295.86,371.39,115.52,15.30,6.00,1.98,6.06,14.06,15.69,6.06,14.06,15.69,1238.31,388.74,128.37,9.37,1.57,0.31

 ets Jan  8 2013,rst cause:1, boot mode:(3,7)

load 0x4010f000, len 1384, room 16 
tail 8
chksum 0x2d
csum 0x2d
v3de0c112
~ld


AirMonitor Ver: 2.50i
FlashChipRealSize: 2097152
70 31872 time not set:Detecting I2C...
71 31848 time not set:RETRY: Found RTC! ******************
83 31784 2018/07/06T21:40:05z:Found BME280 sensor on 0x76! ******************
3724 31504 2018/07/06T21:40:08z:EEPROM SSID: 
3726 31448 2018/07/06T21:40:08z:Device: AirMonitor_fd12
3728 31448 2018/07/06T21:40:08z:MAC: 2c:3a:e8:34:fd:12
3729 31472 2018/07/06T21:40:08z:setupWiFi Complete.
3732 31472 2018/07/06T21:40:08z:Looking for channel B
6460 31128 2018/07/06T21:40:11z:Attempt 1 took 2723ms. Found PMSX003 type sensor! ******************
6462 31344 2018/07/06T21:40:11z:Looking for channel A
2018/07/06T21:41:42z,2c:3a:e8:34:fd:12,2.50i,2.0+OPENLOG+15931 MB+DS3231+BME280+PMSX003A+PMSX003B,82,10,20.05,1014.14,0.01,30072,31,97,5.04,13.31,17.62,5.04,13.31,17.62,1176.53,347.58,116.42,20.87,5.29,1.16,5.88,12.49,14.07,5.88,12.49,14.07,1077.07,339.23,89.30,11.58,1.77,0.00
2018/07/06T21:43:02z,2c:3a:e8:34:fd:12,2.50i,2.0+OPENLOG+15931 MB+DS3231+BME280+PMSX003A+PMSX003B,82,10,20.05,1013.83,0.02,29536,31,177,4.58,11.49,15.31,4.58,11.49,15.31,1150.60,322.42,105.76,14.49,5.38,0.89,5.09,11.66,14.89,5.09,11.66,14.89,1124.74,347.63,112.34,12.94,3.86,0.63
2018/07/06T21:44:22z,2c:3a:e8:34:fd:12,2.50i,2.0+OPENLOG+15931 MB+DS3231+BME280+PMSX003A+PMSX003B,82,10,20.05,1013.97,0.02,29536,31,257,4.98,11.09,13.05,4.98,11.09,13.05,1148.66,319.93,96.30,11.16,2.55,0.39,5.58,10.94,12.56,5.58,10.94,12.56,1064.58,328.58,88.86,11.69,1.69,0.63
2018/07/06T21:45:42z,2c:3a:e8:34:fd:12,2.50i,2.0+OPENLOG+15931 MB+DS3231+BME280+PMSX003A+PMSX003B,82,10,20.05,1014.09,0.02,30072,31,337,4.36,9.93,12.32,4.36,9.93,12.32,962.32,282.02,92.09,8.66,3.11,0.59,5.97,12.49,13.83,5.97,12.49,13.83,1147.97,357.37,109.34,10.31,0.69,0.31
2018/07/06T21:47:02z,2c:3a:e8:34:fd:12,2.50i,2.0+OPENLOG+15931 MB+DS3231+BME280+PMSX003A+PMSX003B,82,10,20.05,1014.13,0.02,30072,31,417,4.69,11.18,14.51,4.69,11.18,14.51,1118.73,317.27,105.00,11.71,4.36,0.78,5.29,11.65,15.62,5.29,11.65,15.62,1114.15,344.41,109.44,15.68,5.91,0.94
2018/07/06T21:48:22z,2c:3a:e8:34:fd:12,2.50i,2.0+OPENLOG+15931 MB+DS3231+BME280+PMSX003A+PMSX003B,82,10,20.05,1014.06,0.02,29584,31,497,3.91,9.68,12.91,3.91,9.68,12.91,964.57,274.43,93.18,11.95,5.07,0.39,4.14,9.94,12.00,4.14,9.94,12.00,913.75,281.75,80.72,12.08,3.17,0.33
2018/07/06T21:49:42z,2c:3a:e8:34:fd:12,2.50i,2.0+OPENLOG+15931 MB+DS3231+BME280+PMSX003A+PMSX003B,82,10,20.05,1014.06,0.02,29640,31,577,4.48,8.82,10.41,4.48,8.82,10.41,991.02,279.64,72.50,9.95,1.86,0.61,4.09,9.54,12.66,4.09,9.54,12.66,875.49,273.63,90.89,12.49,3.29,1.54
2018/07/06T21:51:02z,2c:3a:e8:34:fd:12,2.50i,2.0+OPENLOG+15931 MB+DS3231+BME280+PMSX003A+PMSX003B,82,10,20.05,1013.82,0.01,30072,31,657,3.53,8.89,11.91,3.53,8.89,11.91,934.53,267.44,87.18,11.87,4.69,0.78,4.49,10.26,12.94,4.49,10.26,12.94,934.11,294.57,90.34,12.37,3.86,0.49
2018/07/06T21:52:22z,2c:3a:e8:34:fd:12,2.50i,2.0+OPENLOG+15931 MB+DS3231+BME280+PMSX003A+PMSX003B,82,10,20.05,1013.87,0.02,30072,31,737,4.14,9.80,10.66,4.14,9.80,10.66,957.55,271.25,80.75,8.77,1.14,0.78,3.97,8.28,10.19,3.97,8.28,10.19,844.50,264.19,82.14,8.47,2.50,0.50
2018/07/06T21:53:42z,2c:3a:e8:34:fd:12,2.50i,2.0+OPENLOG+15931 MB+DS3231+BME280+PMSX003A+PMSX003B,82,10,20.05,1014.17,0.02,30072,31,817,4.59,9.48,10.95,4.59,9.48,10.95,989.39,277.59,83.89,7.05,2.64,0.66,3.94,8.37,9.54,3.94,8.37,9.54,837.51,264.00,70.83,7.49,1.20,0.50
2018/07/06T21:55:02z,2c:3a:e8:34:fd:12,2.50i,2.0+OPENLOG+15931 MB+DS3231+BME280+PMSX003A+PMSX003B,82,10,20.05,1014.12,0.02,29536,31,897,2.89,7.11,8.29,2.89,7.11,8.29,804.93,216.82,63.58,5.56,1.27,0.27,4.37,10.00,10.57,4.37,10.00,10.57,1032.69,318.31,103.54,5.29,0.60,0.31
2018/07/06T21:56:43z,2c:3a:e8:34:fd:12,2.50i,2.0+OPENLOG+15931 MB+DS3231+BME280+PMSX003A+PMSX003B,82,10,20.05,1014.11,0.01,29672,31,25,2.00,4.00,8.00,2.00,4.00,8.00,0.00,0.00,0.00,0.00,0.00,0.00,1.00,4.00,4.00,1.00,4.00,4.00,0.00,0.00,0.00,0.00,0.00,0.00
2018/07/06T21:57:56z,2c:3a:e8:34:fd:12,2.50i,2.0+OPENLOG+15931 MB+DS3231+BME280+PMSX003A+PMSX003B,82,10,20.05,1014.08,0.01,30128,31,97,1.84,5.50,6.45,1.84,5.50,6.45,712.03,192.53,56.24,5.16,1.39,0.76,2.97,6.94,9.00,2.97,6.94,9.00,701.55,220.00,65.42,9.27,3.30,0.73
2018/07/06T21:59:16z,2c:3a:e8:34:fd:12,2.50i,2.0+OPENLOG+15931 MB+DS3231+BME280+PMSX003A+PMSX003B,82,10,20.05,1013.92,0.01,30128,31,177,2.48,6.77,7.36,2.48,6.77,7.36,763.09,210.55,64.14,5.68,0.50,0.76,3.67,7.47,8.11,3.67,7.47,8.11,795.25,244.64,69.53,4.17,0.78,0.73
2018/07/06T22:00:36z,2c:3a:e8:34:fd:12,2.50i,2.0+OPENLOG+15931 MB+DS3231+BME280+PMSX003A+PMSX003B,82,10,20.05,1013.88,0.01,30128,31,257,3.33,8.64,11.27,3.33,8.64,11.27,813.13,233.38,76.91,13.13,3.84,0.76,3.28,6.44,7.56,3.28,6.44,7.56,671.00,209.72,59.69,7.08,1.11,0.73
2018/07/06T22:01:56z,2c:3a:e8:34:fd:12,2.50i,2.0+OPENLOG+15931 MB+DS3231+BME280+PMSX003A+PMSX003B,82,10,20.05,1014.06,0.01,29696,31,337,2.86,7.32,8.45,2.86,7.32,8.45,798.07,210.91,68.75,4.64,1.61,0.41,2.77,6.34,7.74,2.77,6.34,7.74,656.91,209.71,64.17,5.83,1.89,0.57
2018/07/06T22:03:16z,2c:3a:e8:34:fd:12,2.50i,2.0+OPENLOG+15931 MB+DS3231+BME280+PMSX003A+PMSX003B,82,10,20.05,1014.04,0.02,30128,31,417,2.68,6.41,7.57,2.68,6.41,7.57,697.84,191.25,58.52,6.68,1.57,0.48,2.44,6.17,7.86,2.44,6.17,7.86,610.50,189.08,60.06,7.36,2.47,0.08
2018/07/06T22:04:36z,2c:3a:e8:34:fd:12,2.50i,2.0+OPENLOG+15931 MB+DS3231+BME280+PMSX003A+PMSX003B,82,10,20.05,1013.97,0.01,30128,31,497,2.47,5.36,6.36,2.47,5.36,6.36,675.33,180.47,40.62,6.11,1.56,0.33,2.49,7.14,8.74,2.49,7.14,8.74,658.46,206.97,71.94,8.37,2.23,0.34
2018/07/06T22:05:56z,2c:3a:e8:34:fd:12,2.50i,2.0+OPENLOG+15931 MB+DS3231+BME280+PMSX003A+PMSX003B,82,10,20.05,1014.00,0.02,30128,31,577,2.25,6.09,8.00,2.25,6.09,8.00,702.55,183.61,59.09,7.16,2.77,0.93,3.17,6.14,6.60,3.17,6.14,6.60,666.94,199.20,47.51,6.57,0.69,0.31
2018/07/06T22:07:16z,2c:3a:e8:34:fd:12,2.50i,2.0+OPENLOG+15931 MB+DS3231+BME280+PMSX003A+PMSX003B,82,10,20.05,1014.13,0.02,29592,31,657,1.74,4.94,6.26,1.74,4.94,6.26,561.77,156.81,52.77,4.15,1.68,0.93,3.19,5.33,6.58,3.19,5.33,6.58,597.83,182.75,58.39,4.47,0.83,0.28
2018/07/06T22:08:36z,2c:3a:e8:34:fd:12,2.50i,2.0+OPENLOG+15931 MB+DS3231+BME280+PMSX003A+PMSX003B,82,10,20.05,1013.82,0.01,29696,31,737,2.11,5.62,7.16,2.11,5.62,7.16,667.00,175.56,47.64,7.16,1.96,0.49,3.06,5.36,5.67,3.06,5.36,5.67,642.50,200.86,45.89,2.19,0.44,0.28
2018/07/06T22:09:56z,2c:3a:e8:34:fd:12,2.50i,2.0+OPENLOG+15931 MB+DS3231+BME280+PMSX003A+PMSX003B,82,10,20.05,1013.98,0.02,30128,31,817,2.51,5.69,6.93,2.51,5.69,6.93,653.00,177.16,53.24,7.69,1.44,0.44,3.17,5.97,7.86,3.17,5.97,7.86,695.08,214.39,62.31,4.75,2.47,0.83
2018/07/06T22:11:16z,2c:3a:e8:34:fd:12,2.50i,2.0+OPENLOG+15931 MB+DS3231+BME280+PMSX003A+PMSX003B,82,10,20.05,1014.13,0.02,30128,31,897,1.93,4.87,6.49,1.93,4.87,6.49,603.73,159.27,48.47,5.69,2.22,0.80,1.75,5.19,5.28,1.75,5.19,5.28,575.50,178.97,56.97,3.72,0.08,0.83
2018/07/06T22:12:36z,2c:3a:e8:34:fd:12,2.50i,2.0+OPENLOG+15931 MB+DS3231+BME280+PMSX003A+PMSX003B,82,11,22.30,1014.24,0.02,29696,31,977,1.84,4.44,6.89,1.84,4.44,6.89,567.47,148.31,53.80,7.51,3.56,0.42,2.68,5.71,6.79,2.68,5.71,6.79,574.15,175.21,48.12,6.62,1.21,0.44
2018/07/06T22:13:56z,2c:3a:e8:34:fd:12,2.50i,2.0+OPENLOG+15931 MB+DS3231+BME280+PMSX003A+PMSX003B,82,11,22.30,1014.26,0.02,29696,31,1057,1.96,4.40,5.18,1.96,4.40,5.18,590.20,164.40,44.24,4.82,1.29,0.42,1.89,4.77,4.97,1.89,4.77,4.97,482.91,150.40,43.91,4.34,0.06,0.44
2018/07/06T22:15:16z,2c:3a:e8:34:fd:12,2.50i,2.0+OPENLOG+15931 MB+DS3231+BME280+PMSX003A+PMSX003B,82,11,22.30,1014.23,0.02,30128,31,1137,1.13,3.28,3.85,1.13,3.28,3.85,439.24,124.52,34.96,2.85,0.76,0.41,2.03,5.46,6.29,2.03,5.46,6.29,521.14,161.40,49.91,5.69,1.20,0.31
2018/07/06T22:16:36z,2c:3a:e8:34:fd:12,2.50i,2.0+OPENLOG+15931 MB+DS3231+BME280+PMSX003A+PMSX003B,82,11,22.30,1014.19,0.02,30128,31,1217,1.61,4.43,4.86,1.61,4.43,4.86,501.89,139.57,43.36,4.16,0.77,0.41,1.75,4.42,5.00,1.75,4.42,5.00,464.17,144.25,45.94,4.67,1.11,0.22
2018/07/06T22:17:56z,2c:3a:e8:34:fd:12,2.50i,2.0+OPENLOG+15931 MB+DS3231+BME280+PMSX003A+PMSX003B,82,11,22.30,1013.91,0.01,29592,31,1297,2.11,4.11,4.29,2.11,4.11,4.29,567.00,153.67,39.29,2.00,0.31,0.41,2.22,4.78,5.83,2.22,4.78,5.83,508.83,156.72,49.97,4.36,1.86,0.06
2018/07/06T22:19:16z,2c:3a:e8:34:fd:12,2.50i,2.0+OPENLOG+15931 MB+DS3231+BME280+PMSX003A+PMSX003B,82,11,22.30,1014.24,0.02,29696,31,1377,1.69,3.60,5.31,1.69,3.60,5.31,584.93,147.13,35.51,3.67,2.51,1.24,1.31,3.47,4.03,1.31,3.47,4.03,393.92,123.89,33.58,4.28,0.14,0.06
2018/07/06T22:20:36z,2c:3a:e8:34:fd:12,2.50i,2.0+OPENLOG+15931 MB+DS3231+BME280+PMSX003A+PMSX003B,82,11,22.30,1014.27,0.01,30128,31,1457,1.84,3.72,4.74,1.84,3.72,4.74,522.70,141.95,37.19,3.47,1.47,0.35,1.66,4.03,4.74,1.66,4.03,4.74,473.91,147.17,44.14,4.20,1.26,0.06
2018/07/06T22:21:56z,2c:3a:e8:34:fd:12,2.50i,2.0+OPENLOG+15931 MB+DS3231+BME280+PMSX003A+PMSX003B,82,11,22.30,1014.23,0.01,30128,31,1537,1.87,4.56,5.13,1.87,4.56,5.13,566.73,145.67,38.58,5.73,0.69,0.04,0.51,2.77,3.06,0.51,2.77,3.06,372.00,115.31,36.94,2.97,0.06,0.06
2018/07/06T22:23:16z,2c:3a:e8:34:fd:12,2.50i,2.0+OPENLOG+15931 MB+DS3231+BME280+PMSX003A+PMSX003B,82,11,22.30,1014.24,0.01,30128,31,1617,1.24,3.17,3.46,1.24,3.17,3.46,464.35,117.26,31.28,2.50,0.69,0.04,1.25,3.47,4.19,1.25,3.47,4.19,386.33,123.00,33.36,2.89,0.83,0.06
2018/07/06T22:24:36z,2c:3a:e8:34:fd:12,2.50i,2.0+OPENLOG+15931 MB+DS3231+BME280+PMSX003A+PMSX003B,82,11,22.30,1014.22,0.01,29696,31,1697,1.32,3.55,4.82,1.32,3.55,4.82,524.18,136.45,32.30,5.68,2.07,0.25,1.37,2.60,3.37,1.37,2.60,3.37,362.83,106.71,28.80,2.23,1.09,0.46
2018/07/06T22:25:56z,2c:3a:e8:34:fd:12,2.50i,2.0+OPENLOG+15931 MB+DS3231+BME280+PMSX003A+PMSX003B,82,11,22.30,1014.16,0.02,30128,31,1777,0.75,2.80,3.55,0.75,2.80,3.55,458.93,115.30,34.09,5.20,1.11,0.16,0.97,2.54,2.86,0.97,2.54,2.86,332.23,100.14,24.77,2.20,0.83,0.11
2018/07/06T22:27:16z,2c:3a:e8:34:fd:12,2.50i,2.0+OPENLOG+15931 MB+DS3231+BME280+PMSX003A+PMSX003B,81,11,21.53,1013.29,0.02,29944,31,1857,0.91,2.93,4.36,0.91,2.93,4.36,429.89,109.95,32.95,4.23,2.39,0.16,1.78,3.28,4.64,1.78,3.28,4.64,438.33,135.11,28.78,6.33,1.08,0.11
2018/07/06T22:28:36z,2c:3a:e8:34:fd:12,2.50i,2.0+OPENLOG+15931 MB+DS3231+BME280+PMSX003A+PMSX003B,82,11,22.30,1014.09,0.02,30128,31,1937,1.16,2.40,3.09,1.16,2.40,3.09,393.87,98.71,28.36,1.98,0.84,0.40,0.65,2.24,2.29,0.65,2.24,2.29,315.35,95.47,23.74,2.79,0.09,0.06
2018/07/06T22:29:56z,2c:3a:e8:34:fd:12,2.50i,2.0+OPENLOG+15931 MB+DS3231+BME280+PMSX003A+PMSX003B,82,11,22.30,1014.26,0.02,29696,31,2017,0.89,3.22,4.27,0.89,3.22,4.27,397.00,108.89,32.31,5.42,1.58,0.40,0.89,3.28,3.89,0.89,3.28,3.89,357.50,114.92,35.39,5.47,0.31,0.06
2018/07/06T22:31:16z,2c:3a:e8:34:fd:12,2.50i,2.0+OPENLOG+15931 MB+DS3231+BME280+PMSX003A+PMSX003B,82,11,22.30,1014.30,0.02,29696,31,2097,0.98,2.91,3.91,0.98,2.91,3.91,403.67,107.93,33.24,3.91,2.00,0.27,1.33,2.86,2.86,1.33,2.86,2.86,349.42,109.72,27.19,2.11,0.31,0.06
2018/07/06T22:32:36z,2c:3a:e8:34:fd:12,2.50i,2.0+OPENLOG+15931 MB+DS3231+BME280+PMSX003A+PMSX003B,82,11,22.30,1013.87,0.02,30128,31,2177,0.75,1.75,2.07,0.75,1.75,2.07,417.48,101.27,14.64,2.73,0.43,0.27,1.23,2.06,2.46,1.23,2.06,2.46,328.29,98.40,22.43,2.77,0.34,0.06
2018/07/06T22:33:56z,2c:3a:e8:34:fd:12,2.50i,2.0+OPENLOG+15931 MB+DS3231+BME280+PMSX003A+PMSX003B,82,11,22.30,1014.07,0.02,30128,31,2257,0.93,2.31,3.18,0.93,2.31,3.18,396.33,98.76,25.91,3.11,1.22,0.38,1.44,2.17,2.69,1.44,2.17,2.69,334.25,103.61,18.53,1.75,0.94,0.42
2018/07/06T22:35:40z,2c:3a:e8:34:fd:12,2.50i,2.0+OPENLOG+15931 MB+DS3231+BME280+PMSX003A+PMSX003B,82,11,22.30,1014.30,0.01,29672,31,24,0.00,0.00,0.00,0.00,0.00,0.00,0.00,0.00,0.00,0.00,0.00,0.00,0.00,0.00,0.00,0.00,0.00,0.00,0.00,0.00,0.00,0.00,0.00,0.00
2018/07/06T22:36:54z,2c:3a:e8:34:fd:12,2.50i,2.0+OPENLOG+15931 MB+DS3231+BME280+PMSX003A+PMSX003B,82,11,22.30,1014.37,0.01,30128,31,97,0.23,1.33,2.26,0.23,1.33,2.26,338.77,81.72,21.33,2.41,1.56,0.28,0.45,1.12,1.39,0.45,1.12,1.39,246.00,75.30,20.76,1.00,0.00,0.00
2018/07/06T22:38:14z,2c:3a:e8:34:fd:12,2.50i,2.0+OPENLOG+15931 MB+DS3231+BME280+PMSX003A+PMSX003B,81,11,21.53,1013.45,0.02,30128,31,177,0.18,1.59,2.23,0.18,1.59,2.23,354.82,80.32,19.30,2.91,0.98,0.25,0.81,1.67,2.61,0.81,1.67,2.61,264.92,83.47,20.11,2.50,1.47,0.50
2018/07/06T22:39:34z,2c:3a:e8:34:fd:12,2.50i,2.0+OPENLOG+15931 MB+DS3231+BME280+PMSX003A+PMSX003B,82,11,22.30,1014.37,0.02,30128,31,257,0.22,1.56,2.16,0.22,1.56,2.16,334.13,76.18,24.58,2.84,1.04,0.76,0.86,1.51,2.03,0.86,1.51,2.03,253.97,78.17,16.00,2.97,0.51,0.50
2018/07/06T22:40:54z,2c:3a:e8:34:fd:12,2.50i,2.0+OPENLOG+15931 MB+DS3231+BME280+PMSX003A+PMSX003B,82,11,22.30,1014.43,0.01,29696,31,337,0.36,1.16,1.84,0.36,1.16,1.84,301.16,72.16,18.68,1.95,0.86,0.36,0.67,1.58,2.17,0.67,1.58,2.17,265.50,82.67,23.36,2.56,1.03,0.50
2018/07/06T22:42:14z,2c:3a:e8:34:fd:12,2.50i,2.0+OPENLOG+15931 MB+DS3231+BME280+PMSX003A+PMSX003B,82,11,22.30,1013.93,0.01,29696,31,417,0.56,1.40,1.80,0.56,1.40,1.80,357.13,84.69,21.58,1.60,0.56,0.36,0.97,2.42,2.42,0.97,2.42,2.42,316.67,98.14,24.78,1.78,1.03,0.50
2018/07/06T22:43:34z,2c:3a:e8:34:fd:12,2.50i,2.0+OPENLOG+15931 MB+DS3231+BME280+PMSX003A+PMSX003B,82,11,22.30,1014.22,0.02,30128,31,497,0.64,1.67,2.51,0.64,1.67,2.51,346.80,80.02,21.04,3.11,1.47,0.36,0.69,1.47,1.81,0.69,1.47,1.81,259.75,81.50,20.28,1.64,0.53,0.50
2018/07/06T22:44:54z,2c:3a:e8:34:fd:12,2.50i,2.0+OPENLOG+15931 MB+DS3231+BME280+PMSX003A+PMSX003B,82,11,22.30,1014.36,0.02,30128,31,577,0.80,1.87,2.11,0.80,1.87,2.11,368.93,89.42,19.09,1.89,0.51,0.36,0.26,1.77,2.14,0.26,1.77,2.14,256.37,78.49,24.89,3.00,0.31,0.50
2018/07/06T22:46:14z,2c:3a:e8:34:fd:12,2.50i,2.0+OPENLOG+15931 MB+DS3231+BME280+PMSX003A+PMSX003B,82,11,22.30,1014.30,0.02,29848,31,657,0.60,1.76,2.49,0.60,1.76,2.49,322.60,79.13,18.33,3.00,0.98,0.42,0.33,1.08,1.31,0.33,1.08,1.31,194.58,63.72,17.50,3.22,0.22,0.50
2018/07/06T22:47:34z,2c:3a:e8:34:fd:12,2.50i,2.0+OPENLOG+15931 MB+DS3231+BME280+PMSX003A+PMSX003B,82,11,22.30,1014.13,0.01,29696,31,737,0.59,1.13,1.57,0.59,1.13,1.57,295.63,72.20,17.85,1.39,0.37,0.37,0.25,1.58,1.69,0.25,1.58,1.69,213.33,67.11,18.86,1.75,0.39,0.50
2018/07/06T22:48:54z,2c:3a:e8:34:fd:12,2.50i,2.0+OPENLOG+15931 MB+DS3231+BME280+PMSX003A+PMSX003B,82,11,22.30,1014.28,0.02,30128,31,817,0.70,1.66,1.94,0.70,1.66,1.94,361.85,80.60,13.57,1.85,0.43,0.37,0.09,0.56,0.71,0.09,0.56,0.71,181.68,55.94,17.65,1.03,0.39,0.50
2018/07/06T22:50:14z,2c:3a:e8:34:fd:12,2.50i,2.0+OPENLOG+15931 MB+DS3231+BME280+PMSX003A+PMSX003B,82,11,22.30,1013.97,0.02,30128,31,897,0.58,1.56,2.27,0.58,1.56,2.27,346.07,85.27,19.91,1.02,1.02,0.78,0.14,0.66,0.74,0.14,0.66,0.74,178.37,53.37,13.23,1.14,0.31,0.50
2018/07/06T22:51:34z,2c:3a:e8:34:fd:12,2.50i,2.0+OPENLOG+15931 MB+DS3231+BME280+PMSX003A+PMSX003B,82,11,22.30,1014.33,0.01,29640,31,977,0.36,0.62,1.07,0.36,0.62,1.07,294.07,64.51,12.49,1.33,0.24,0.78,0.44,1.03,1.03,0.44,1.03,1.03,202.92,64.33,12.11,0.86,0.31,0.50
2018/07/06T22:52:54z,2c:3a:e8:34:fd:12,2.50i,2.0+OPENLOG+15931 MB+DS3231+BME280+PMSX003A+PMSX003B,82,11,22.30,1014.33,0.01,29696,31,1057,0.36,0.85,1.11,0.36,0.85,1.11,208.11,46.91,13.46,2.00,0.35,0.78,0.20,1.06,1.37,0.20,1.06,1.37,173.31,55.37,12.11,1.71,0.31,0.50
2018/07/06T22:54:14z,2c:3a:e8:34:fd:12,2.50i,2.0+OPENLOG+15931 MB+DS3231+BME280+PMSX003A+PMSX003B,82,11,22.30,1014.34,0.02,30128,31,1137,0.36,1.13,1.49,0.36,1.13,1.49,243.33,55.84,17.04,1.20,0.62,0.78,0.06,1.26,1.37,0.06,1.26,1.37,190.29,62.14,16.31,1.54,0.31,0.50
2018/07/06T22:55:34z,2c:3a:e8:34:fd:12,2.50i,2.0+OPENLOG+15931 MB+DS3231+BME280+PMSX003A+PMSX003B,82,11,22.30,1014.09,0.02,30128,31,1217,0.04,0.98,1.51,0.04,0.98,1.51,271.80,58.38,11.91,1.62,1.07,0.78,0.06,0.40,0.74,0.06,0.40,0.74,175.29,54.26,13.23,0.54,0.54,0.50
2018/07/06T22:56:54z,2c:3a:e8:34:fd:12,2.50i,2.0+OPENLOG+15931 MB+DS3231+BME280+PMSX003A+PMSX003B,82,11,22.30,1014.28,0.02,30128,31,1297,0.22,0.71,0.98,0.22,0.71,0.98,283.00,59.69,11.93,2.00,0.60,0.27,0.03,0.28,0.28,0.03,0.28,0.28,165.50,50.36,9.92,0.50,0.54,0.50
2018/07/06T22:58:14z,2c:3a:e8:34:fd:12,2.50i,2.0+OPENLOG+15931 MB+DS3231+BME280+PMSX003A+PMSX003B,82,11,22.30,1014.29,0.02,29696,31,1377,0.04,0.40,0.84,0.04,0.40,0.84,234.53,53.11,12.38,1.73,0.64,0.27,0.03,0.56,0.56,0.03,0.56,0.56,126.17,38.56,12.44,0.75,0.54,0.50
2018/07/06T22:59:34z,2c:3a:e8:34:fd:12,2.50i,2.0+OPENLOG+15931 MB+DS3231+BME280+PMSX003A+PMSX003B,82,11,22.30,1014.34,0.02,29696,31,1457,0.13,0.85,1.70,0.13,0.85,1.70,242.68,51.49,15.00,3.23,1.45,0.23,0.03,0.86,1.25,0.03,0.86,1.25,170.75,55.25,15.81,1.22,0.53,0.50
2018/07/06T23:00:54z,2c:3a:e8:34:fd:12,2.50i,2.0+OPENLOG+15931 MB+DS3231+BME280+PMSX003A+PMSX003B,82,11,22.30,1014.23,0.02,30128,31,1537,0.24,1.04,1.04,0.24,1.04,1.04,262.76,61.20,9.87,1.30,1.45,0.23,0.14,0.29,0.51,0.14,0.29,0.51,168.77,53.49,7.80,1.03,0.31,0.50
2018/07/06T23:02:14z,2c:3a:e8:34:fd:12,2.50i,2.0+OPENLOG+15931 MB+DS3231+BME280+PMSX003A+PMSX003B,82,11,22.30,1014.21,0.01,30128,31,1617,0.22,0.69,0.93,0.22,0.69,0.93,286.27,59.16,8.96,0.51,0.24,0.23,0.14,0.37,0.37,0.14,0.37,0.37,149.74,48.37,12.80,0.31,0.31,0.50
2018/07/06T23:03:34z,2c:3a:e8:34:fd:12,2.50i,2.0+OPENLOG+15931 MB+DS3231+BME280+PMSX003A+PMSX003B,82,11,22.30,1014.40,0.02,29592,31,1697,0.13,0.30,0.72,0.13,0.30,0.72,249.59,53.85,11.87,1.39,0.26,0.23,0.14,0.83,1.08,0.14,0.83,1.08,144.00,46.50,15.14,1.58,0.39,0.50
2018/07/06T23:04:54z,2c:3a:e8:34:fd:12,2.50i,2.0+OPENLOG+15931 MB+DS3231+BME280+PMSX003A+PMSX003B,82,11,22.30,1014.36,0.02,29696,31,1777,0.13,0.36,0.36,0.13,0.36,0.36,232.98,45.45,10.07,0.77,0.26,0.23,0.14,0.83,0.03,0.14,0.83,0.03,117.94,34.60,9.83,0.57,0.06,0.50
2018/07/06T23:06:14z,2c:3a:e8:34:fd:12,2.50i,2.0+OPENLOG+15931 MB+DS3231+BME280+PMSX003A+PMSX003B,82,11,22.30,1014.40,0.02,30128,31,1857,0.13,0.44,1.02,0.13,0.44,1.02,216.40,42.18,8.89,1.04,0.73,0.42,0.14,0.11,0.11,0.14,0.11,0.11,139.92,43.03,8.28,0.31,0.06,0.50
2018/07/06T23:07:34z,2c:3a:e8:34:fd:12,2.50i,2.0+OPENLOG+15931 MB+DS3231+BME280+PMSX003A+PMSX003B,82,11,22.30,1013.95,0.01,30128,31,1937,0.07,0.60,1.33,0.07,0.60,1.33,206.00,49.40,12.29,2.04,0.96,0.42,0.14,0.11,0.42,0.14,0.11,0.42,95.75,30.31,6.25,1.31,0.78,0.50
2018/07/06T23:08:54z,2c:3a:e8:34:fd:12,2.50i,2.0+OPENLOG+15931 MB+DS3231+BME280+PMSX003A+PMSX003B,82,11,22.30,1014.31,0.02,29848,31,2017,0.07,0.13,0.56,0.07,0.13,0.56,168.67,35.62,6.87,1.16,0.42,0.42,0.14,0.50,0.69,0.14,0.50,0.69,147.25,46.36,9.64,1.03,0.64,0.50
2018/07/06T23:10:14z,2c:3a:e8:34:fd:12,2.50i,2.0+OPENLOG+15931 MB+DS3231+BME280+PMSX003A+PMSX003B,82,11,22.30,1014.31,0.02,29696,31,2097,0.07,0.56,0.56,0.07,0.56,0.56,170.60,37.09,8.91,1.69,0.42,0.42,0.14,0.58,0.89,0.14,0.58,0.89,149.17,46.75,10.42,2.08,0.42,0.50
2018/07/06T23:11:34z,2c:3a:e8:34:fd:12,2.50i,2.0+OPENLOG+15931 MB+DS3231+BME280+PMSX003A+PMSX003B,82,11,22.30,1014.22,0.02,30128,31,2177,0.07,0.68,1.11,0.07,0.68,1.11,194.73,45.93,10.95,1.80,0.89,0.25,0.14,0.29,0.29,0.14,0.29,0.29,141.00,43.49,7.60,0.86,0.31,0.50
2018/07/06T23:12:54z,2c:3a:e8:34:fd:12,2.50i,2.0+OPENLOG+15931 MB+DS3231+BME280+PMSX003A+PMSX003B,82,11,22.30,1014.24,0.02,30128,31,2257,0.07,0.07,0.52,0.07,0.07,0.52,172.98,38.32,7.55,1.52,0.57,0.25,0.14,0.14,0.14,0.14,0.14,0.14,126.60,38.66,8.03,0.51,0.31,0.50
2018/07/06T23:14:37z,2c:3a:e8:34:fd:12,2.50i,2.0+OPENLOG+15931 MB+DS3231+BME280+PMSX003A+PMSX003B,82,11,22.30,1014.15,0.02,29672,31,23,0.00,0.00,0.00,0.00,0.00,0.00,0.00,0.00,0.00,0.00,0.00,0.00,0.00,0.50,0.50,0.00,0.50,0.50,0.00,0.00,0.00,0.00,0.00,0.00
2018/07/06T23:15:52z,2c:3a:e8:34:fd:12,2.50i,2.0+OPENLOG+15931 MB+DS3231+BME280+PMSX003A+PMSX003B,81,11,21.53,1012.98,0.01,30128,31,97,0.00,0.08,0.13,0.00,0.08,0.13,169.35,30.55,5.95,0.70,0.30,0.00,0.00,0.18,0.18,0.00,0.18,0.18,120.18,36.15,9.71,1.32,0.00,0.00
2018/07/06T23:17:12z,2c:3a:e8:34:fd:12,2.50i,2.0+OPENLOG+15931 MB+DS3231+BME280+PMSX003A+PMSX003B,82,11,22.30,1014.25,0.01,30128,31,177,0.00,0.36,0.36,0.00,0.36,0.36,180.41,36.41,10.18,1.18,0.30,0.00,0.00,0.03,0.03,0.00,0.03,0.03,148.00,47.31,6.72,0.42,0.00,0.00
2018/07/06T23:18:32z,2c:3a:e8:34:fd:12,2.50i,2.0+OPENLOG+15931 MB+DS3231+BME280+PMSX003A+PMSX003B,82,11,22.30,1013.63,0.01,30128,31,257,0.00,0.36,0.09,0.00,0.36,0.09,160.36,27.27,7.70,0.57,0.25,0.25,0.00,0.37,0.37,0.00,0.37,0.37,135.69,40.11,8.57,0.42,0.00,0.00
2018/07/06T23:19:52z,2c:3a:e8:34:fd:12,2.50i,2.0+OPENLOG+15931 MB+DS3231+BME280+PMSX003A+PMSX003B,82,11,22.30,1017.77,0.01,29696,31,337,0.00,0.36,0.05,0.00,0.36,0.05,195.41,30.23,4.14,0.91,0.66,0.25,0.00,0.37,0.09,0.00,0.37,0.09,92.57,28.80,8.89,0.23,0.17,0.00
2018/07/06T23:21:12z,2c:3a:e8:34:fd:12,2.50i,2.0+OPENLOG+15931 MB+DS3231+BME280+PMSX003A+PMSX003B,82,9,17.59,1017.55,0.02,30128,31,417,0.00,0.18,0.18,0.00,0.18,0.18,167.18,30.16,8.68,1.16,0.66,0.25,0.00,0.06,0.06,0.00,0.06,0.06,109.97,31.80,7.37,0.31,0.17,0.00
2018/07/06T23:22:32z,2c:3a:e8:34:fd:12,2.50i,2.0+OPENLOG+15931 MB+DS3231+BME280+PMSX003A+PMSX003B,82,7,11.84,1017.88,0.02,30128,31,497,0.00,0.09,0.33,0.00,0.09,0.33,143.20,26.76,4.38,0.87,0.27,0.25,0.00,0.06,0.06,0.00,0.06,0.06,47.40,14.29,3.14,0.31,0.17,0.00
2018/07/06T23:23:52z,2c:3a:e8:34:fd:12,2.50i,2.0+OPENLOG+15931 MB+DS3231+BME280+PMSX003A+PMSX003B,81,6,7.67,1017.32,0.02,29944,31,577,0.00,0.09,0.33,0.00,0.09,0.33,99.34,14.93,1.50,0.61,0.27,0.25,0.00,0.06,0.06,0.00,0.06,0.06,36.58,11.08,2.86,0.31,0.17,0.00
2018/07/06T23:25:12z,2c:3a:e8:34:fd:12,2.50i,2.0+OPENLOG+15931 MB+DS3231+BME280+PMSX003A+PMSX003B,82,5,4.38,1017.61,0.01,29696,31,657,0.00,0.09,0.33,0.00,0.09,0.33,114.13,10.93,1.33,0.28,0.27,0.25,0.00,0.06,0.06,0.00,0.06,0.06,20.83,6.39,1.39,0.31,0.17,0.00
2018/07/06T23:26:32z,2c:3a:e8:34:fd:12,2.50i,2.0+OPENLOG+15931 MB+DS3231+BME280+PMSX003A+PMSX003B,82,4,-0.43,1017.96,0.01,29672,31,737,0.00,0.09,0.33,0.00,0.09,0.33,140.54,8.07,2.37,0.28,0.27,0.25,0.00,0.06,0.06,0.00,0.06,0.06,23.66,7.09,0.63,0.31,0.17,0.00
2018/07/06T23:27:52z,2c:3a:e8:34:fd:12,2.50i,2.0+OPENLOG+15931 MB+DS3231+BME280+PMSX003A+PMSX003B,82,4,-0.43,1017.86,0.01,29944,31,817,0.00,0.09,0.33,0.00,0.09,0.33,102.00,6.82,0.25,0.28,0.27,0.25,0.00,0.06,0.06,0.00,0.06,0.06,4.67,1.08,0.63,0.31,0.17,0.00
2018/07/06T23:29:12z,2c:3a:e8:34:fd:12,2.50i,2.0+OPENLOG+15931 MB+DS3231+BME280+PMSX003A+PMSX003B,81,4,-1.12,1017.64,0.01,30128,31,897,0.00,0.09,0.33,0.00,0.09,0.33,133.80,11.80,0.96,0.69,0.27,0.25,0.00,0.06,0.06,0.00,0.06,0.06,9.67,1.92,0.58,0.31,0.17,0.00
2018/07/06T23:30:32z,2c:3a:e8:34:fd:12,2.50i,2.0+OPENLOG+15931 MB+DS3231+BME280+PMSX003A+PMSX003B,81,3,-7.13,1017.60,0.01,29696,31,977,0.00,0.09,0.33,0.00,0.09,0.33,112.12,7.00,0.79,0.69,0.27,0.25,0.00,0.06,0.06,0.00,0.06,0.06,7.17,0.83,0.58,0.31,0.17,0.00
2018/07/06T23:31:52z,2c:3a:e8:34:fd:12,2.50i,2.0+OPENLOG+15931 MB+DS3231+BME280+PMSX003A+PMSX003B,81,3,-7.13,1017.71,0.02,29512,31,1057,0.00,0.09,0.33,0.00,0.09,0.33,94.67,4.53,0.79,0.69,0.27,0.25,0.00,0.06,0.06,0.00,0.06,0.06,1.34,0.08,0.58,0.31,0.17,0.00
2018/07/06T23:33:12z,2c:3a:e8:34:fd:12,2.50i,2.0+OPENLOG+15931 MB+DS3231+BME280+PMSX003A+PMSX003B,81,3,-7.13,1017.71,0.02,30128,31,1137,0.00,0.09,0.33,0.00,0.09,0.33,86.17,6.91,0.40,0.69,0.27,0.25,0.00,0.06,0.06,0.00,0.06,0.06,3.94,0.37,0.37,0.31,0.17,0.00
2018/07/06T23:34:32z,2c:3a:e8:34:fd:12,2.50i,2.0+OPENLOG+15931 MB+DS3231+BME280+PMSX003A+PMSX003B,81,2,-15.30,1017.64,0.02,30128,31,1217,0.00,0.09,0.33,0.00,0.09,0.33,68.35,3.54,0.40,0.69,0.27,0.25,0.00,0.06,0.06,0.00,0.06,0.06,1.29,0.43,0.37,0.31,0.17,0.00
2018/07/06T23:35:52z,2c:3a:e8:34:fd:12,2.50i,2.0+OPENLOG+15931 MB+DS3231+BME280+PMSX003A+PMSX003B,81,2,-15.30,1017.61,0.02,29408,31,1297,0.00,0.09,0.33,0.00,0.09,0.33,57.40,4.24,0.40,0.69,0.27,0.25,0.00,0.06,0.06,0.00,0.06,0.06,2.75,0.92,0.37,0.31,0.17,0.00
2018/07/06T23:37:12z,2c:3a:e8:34:fd:12,2.50i,2.0+OPENLOG+15931 MB+DS3231+BME280+PMSX003A+PMSX003B,81,2,-15.30,1017.01,0.01,29696,31,1377,0.00,0.09,0.33,0.00,0.09,0.33,78.00,1.57,0.40,0.69,0.27,0.25,0.00,0.06,0.06,0.00,0.06,0.06,2.00,0.67,0.67,0.36,0.17,0.00
2018/07/06T23:38:32z,2c:3a:e8:34:fd:12,2.50i,2.0+OPENLOG+15931 MB+DS3231+BME280+PMSX003A+PMSX003B,81,2,-15.30,1017.48,0.02,30128,31,1457,0.00,0.09,0.33,0.00,0.09,0.33,89.48,9.91,0.40,0.69,0.27,0.25,0.00,0.06,0.06,0.00,0.06,0.06,1.33,0.39,0.67,0.36,0.17,0.00
2018/07/06T23:39:52z,2c:3a:e8:34:fd:12,2.50i,2.0+OPENLOG+15931 MB+DS3231+BME280+PMSX003A+PMSX003B,81,2,-15.30,1017.58,0.02,30128,31,1537,0.00,0.09,0.33,0.00,0.09,0.33,116.73,6.27,0.40,0.69,0.27,0.25,0.00,0.06,0.06,0.00,0.06,0.06,0.92,0.31,0.67,0.36,0.17,0.00
2018/07/06T23:41:12z,2c:3a:e8:34:fd:12,2.50i,2.0+OPENLOG+15931 MB+DS3231+BME280+PMSX003A+PMSX003B,81,2,-15.30,1017.73,0.01,29640,31,1617,0.00,0.09,0.33,0.00,0.09,0.33,114.00,7.55,0.40,0.69,0.27,0.25,0.00,0.06,0.06,0.00,0.06,0.06,2.66,0.89,0.67,0.36,0.17,0.00
2018/07/06T23:42:32z,2c:3a:e8:34:fd:12,2.50i,2.0+OPENLOG+15931 MB+DS3231+BME280+PMSX003A+PMSX003B,81,2,-15.30,1017.48,0.02,29512,31,1697,0.00,0.09,0.33,0.00,0.09,0.33,80.67,5.35,0.40,0.69,0.27,0.25,0.00,0.06,0.06,0.00,0.06,0.06,3.24,0.49,0.67,0.36,0.17,0.00
2018/07/06T23:43:52z,2c:3a:e8:34:fd:12,2.50i,2.0+OPENLOG+15931 MB+DS3231+BME280+PMSX003A+PMSX003B,81,2,-15.30,1017.68,0.02,29944,31,1777,0.00,0.09,0.33,0.00,0.09,0.33,63.91,3.57,0.40,0.69,0.27,0.25,0.00,0.06,0.06,0.00,0.06,0.06,3.16,0.46,0.08,0.36,0.17,0.00
2018/07/06T23:45:12z,2c:3a:e8:34:fd:12,2.50i,2.0+OPENLOG+15931 MB+DS3231+BME280+PMSX003A+PMSX003B,80,2,-15.95,1017.18,0.02,30128,31,1857,0.00,0.09,0.33,0.00,0.09,0.33,77.87,6.69,0.40,0.69,0.27,0.25,0.00,0.06,0.06,0.00,0.06,0.06,1.92,0.64,0.53,0.36,0.17,0.00
2018/07/06T23:46:32z,2c:3a:e8:34:fd:12,2.50i,2.0+OPENLOG+15931 MB+DS3231+BME280+PMSX003A+PMSX003B,81,2,-15.30,1017.37,0.02,29944,31,1937,0.00,0.09,0.33,0.00,0.09,0.33,67.83,3.33,0.40,0.69,0.27,0.25,0.00,0.06,0.06,0.00,0.06,0.06,1.92,0.64,0.53,0.36,0.17,0.00
2018/07/06T23:47:52z,2c:3a:e8:34:fd:12,2.50i,2.0+OPENLOG+15931 MB+DS3231+BME280+PMSX003A+PMSX003B,81,2,-15.30,1017.60,0.01,29696,31,2017,0.00,0.09,0.33,0.00,0.09,0.33,42.80,1.80,0.40,0.69,0.27,0.25,0.00,0.06,0.06,0.00,0.06,0.06,1.92,0.64,0.53,0.36,0.17,0.00
2018/07/06T23:49:12z,2c:3a:e8:34:fd:12,2.50i,2.0+OPENLOG+15931 MB+DS3231+BME280+PMSX003A+PMSX003B,81,2,-15.30,1017.54,0.01,29696,31,2097,0.00,0.09,0.33,0.00,0.09,0.33,67.00,4.17,0.40,0.69,0.27,0.25,0.00,0.06,0.06,0.00,0.06,0.06,0.63,0.21,0.53,0.36,0.17,0.00
2018/07/06T23:50:32z,2c:3a:e8:34:fd:12,2.50i,2.0+OPENLOG+15931 MB+DS3231+BME280+PMSX003A+PMSX003B,81,1,-28.52,1017.28,0.01,30128,31,2177,0.00,0.09,0.33,0.00,0.09,0.33,78.73,3.91,0.53,0.27,0.27,0.25,0.00,0.06,0.06,0.00,0.06,0.06,1.11,0.37,0.53,0.36,0.17,0.00
2018/07/06T23:51:52z,2c:3a:e8:34:fd:12,2.50i,2.0+OPENLOG+15931 MB+DS3231+BME280+PMSX003A+PMSX003B,81,1,-28.52,1017.45,0.01,30128,31,2257,0.00,0.09,0.33,0.00,0.09,0.33,96.91,7.43,0.53,0.27,0.27,0.25,0.00,0.06,0.06,0.00,0.06,0.06,1.54,0.51,0.53,0.36,0.17,0.00
2018/07/06T23:53:35z,2c:3a:e8:34:fd:12,2.50i,2.0+OPENLOG+15931 MB+DS3231+BME280+PMSX003A+PMSX003B,80,1,-29.12,1016.94,0.01,29672,31,23,0.00,0.00,0.00,0.00,0.00,0.00,0.00,0.00,0.00,0.00,0.00,0.00,0.00,0.00,0.00,0.00,0.00,0.00,0.00,0.00,0.00,0.00,0.00,0.00
2018/07/06T23:54:50z,2c:3a:e8:34:fd:12,2.50i,2.0+OPENLOG+15931 MB+DS3231+BME280+PMSX003A+PMSX003B,81,1,-28.52,1017.53,0.01,30128,31,97,0.00,0.00,0.00,0.00,0.00,0.00,82.35,6.90,0.28,0.00,0.00,0.00,0.00,0.00,0.00,0.00,0.00,0.00,4.00,1.33,0.03,0.00,0.00,0.00
2018/07/06T23:56:10z,2c:3a:e8:34:fd:12,2.50i,2.0+OPENLOG+15931 MB+DS3231+BME280+PMSX003A+PMSX003B,81,1,-28.52,1017.36,0.02,30128,31,177,0.00,0.00,0.00,0.00,0.00,0.00,107.04,5.83,0.32,0.00,0.00,0.00,0.00,0.00,0.00,0.00,0.00,0.00,0.65,1.33,0.03,0.00,0.00,0.00
2018/07/06T23:57:30z,2c:3a:e8:34:fd:12,2.50i,2.0+OPENLOG+15931 MB+DS3231+BME280+PMSX003A+PMSX003B,81,1,-28.52,1017.12,0.01,30128,31,257,0.00,0.00,0.00,0.00,0.00,0.00,88.70,4.63,0.32,0.00,0.00,0.00,0.00,0.00,0.00,0.00,0.00,0.00,2.84,0.45,0.03,0.00,0.00,0.00
2018/07/06T23:58:50z,2c:3a:e8:34:fd:12,2.50i,2.0+OPENLOG+15931 MB+DS3231+BME280+PMSX003A+PMSX003B,81,1,-28.52,1016.90,0.02,29512,31,337,0.00,0.00,0.00,0.00,0.00,0.00,75.07,3.20,0.16,0.00,0.00,0.00,0.00,0.00,0.00,0.00,0.00,0.00,3.00,0.70,0.35,0.00,0.00,0.00
