UTCDateTime,mac_address,firmware_ver,hardware,current_temp_f,current_humidity,current_dewpoint_f,pressure,adc,mem,rssi,uptime,pm1_0_atm,pm2_5_atm,pm10_0_atm,pm1_0_cf_1,pm2_5_cf_1,pm10_0_cf_1,p_0_3_um,p_0_5_um,p_1_0_um,p_2_5_um,p_5_0_um,p_10_0_um,pm1_0_atm_b,pm2_5_atm_b,pm10_0_atm_b,pm1_0_cf_1_b,pm2_5_cf_1_b,pm10_0_cf_1_b,p_0_3_um_b,p_0_5_um_b,p_1_0_um_b,p_2_5_um_b,p_5_0_um_b,p_10_0_um_b
2018/07/07T00:00:59z,2c:3a:e8:35:4:73,2.50i,2.0+OPENLOG+15931 MB+DS3231+BME280+PMSX003A+PMSX003B,82,0,nan,1017.03,0.03,29616,31,1457,0.00,0.00,0.00,0.00,0.00,0.00,3.72,0.59,0.34,0.24,0.24,0.00,0.00,0.00,0.00,0.00,0.00,0.00,0.89,0.30,0.30,0.21,0.00,0.00
2018/07/07T00:02:19z,2c:3a:e8:35:4:73,2.50i,2.0+OPENLOG+15931 MB+DS3231+BME280+PMSX003A+PMSX003B,82,0,nan,1017.19,0.03,30072,31,1537,0.00,0.00,0.00,0.00,0.00,0.00,1.24,0.59,0.34,0.24,0.24,0.00,0.00,0.00,0.00,0.00,0.00,0.00,0.89,0.30,0.30,0.21,0.00,0.00
2018/07/07T00:03:39z,2c:3a:e8:35:4:73,2.50i,2.0+OPENLOG+15931 MB+DS3231+BME280+PMSX003A+PMSX003B,82,0,nan,1017.38,0.03,30072,31,1617,0.00,0.00,0.00,0.00,0.00,0.00,0.89,0.59,0.34,0.24,0.24,0.00,0.00,0.00,0.00,0.00,0.00,0.00,0.89,0.30,0.30,0.21,0.00,0.00
2018/07/07T00:04:59z,2c:3a:e8:35:4:73,2.50i,2.0+OPENLOG+15931 MB+DS3231+BME280+PMSX003A+PMSX003B,82,0,nan,1017.35,0.03,29640,31,1697,0.00,0.00,0.00,0.00,0.00,0.00,3.19,0.55,0.34,0.24,0.24,0.00,0.00,0.00,0.00,0.00,0.00,0.00,0.83,0.28,0.30,0.21,0.00,0.00
2018/07/07T00:06:19z,2c:3a:e8:35:4:73,2.50i,2.0+OPENLOG+15931 MB+DS3231+BME280+PMSX003A+PMSX003B,82,0,nan,1017.37,0.03,29616,31,1777,0.00,0.00,0.00,0.00,0.00,0.00,6.34,0.14,0.34,0.24,0.24,0.00,0.00,0.00,0.00,0.00,0.00,0.00,0.83,0.28,0.30,0.21,0.00,0.00
2018/07/07T00:07:39z,2c:3a:e8:35:4:73,2.50i,2.0+OPENLOG+15931 MB+DS3231+BME280+PMSX003A+PMSX003B,82,0,nan,1017.40,0.03,30072,31,1857,0.00,0.00,0.00,0.00,0.00,0.00,2.47,0.14,0.34,0.24,0.24,0.00,0.00,0.00,0.00,0.00,0.00,0.00,1.05,0.35,0.30,0.21,0.00,0.00
2018/07/07T00:08:59z,2c:3a:e8:35:4:73,2.50i,2.0+OPENLOG+15931 MB+DS3231+BME280+PMSX003A+PMSX003B,82,0,nan,1017.24,0.03,30072,31,1937,0.00,0.00,0.00,0.00,0.00,0.00,2.04,0.23,0.23,0.23,0.24,0.00,0.00,0.00,0.00,0.00,0.00,0.00,1.14,0.38,0.30,0.21,0.00,0.00
2018/07/07T00:10:19z,2c:3a:e8:35:4:73,2.50i,2.0+OPENLOG+15931 MB+DS3231+BME280+PMSX003A+PMSX003B,82,0,nan,1017.43,0.02,29640,31,2017,0.00,0.00,0.00,0.00,0.00,0.00,3.06,0.55,0.23,0.23,0.24,0.00,0.00,0.00,0.00,0.00,0.00,0.00,3.87,1.29,0.30,0.21,0.00,0.00
2018/07/07T00:11:39z,2c:3a:e8:35:4:73,2.50i,2.0+OPENLOG+15931 MB+DS3231+BME280+PMSX003A+PMSX003B,82,0,nan,1017.41,0.03,29640,31,2097,0.00,0.00,0.00,0.00,0.00,0.00,3.33,0.72,0.72,0.23,0.24,0.00,0.00,0.00,0.00,0.00,0.00,0.00,3.87,1.29,0.30,0.21,0.00,0.00
2018/07/07T00:12:59z,2c:3a:e8:35:4:73,2.50i,2.0+OPENLOG+15931 MB+DS3231+BME280+PMSX003A+PMSX003B,82,0,nan,1017.43,0.03,30072,31,2177,0.00,0.00,0.00,0.00,0.00,0.00,2.74,0.39,0.72,0.23,0.24,0.00,0.00,0.00,0.00,0.00,0.00,0.00,1.31,0.44,0.30,0.21,0.00,0.00
2018/07/07T00:14:19z,2c:3a:e8:35:4:73,2.50i,2.0+OPENLOG+15931 MB+DS3231+BME280+PMSX003A+PMSX003B,82,0,nan,1017.37,0.03,30072,31,2257,0.00,0.00,0.00,0.00,0.00,0.00,0.85,0.39,0.72,0.23,0.24,0.00,0.00,0.00,0.00,0.00,0.00,0.00,1.22,0.44,0.30,0.21,0.00,0.00
2018/07/07T00:15:39z,2c:3a:e8:35:4:73,2.50i,2.0+OPENLOG+15931 MB+DS3231+BME280+PMSX003A+PMSX003B,82,0,nan,1017.52,0.02,29504,31,2337,0.00,0.00,0.00,0.00,0.00,0.00,3.72,0.26,0.72,0.23,0.24,0.00,0.00,0.00,0.00,0.00,0.00,0.00,2.68,0.89,0.30,0.21,0.00,0.00

 ets Jan  8 2013,rst cause:1, boot mode:(3,7)

load 0x4010f000, len 1384, room 16 
tail 8
chksum 0x2d
csum 0x2d
v3de0c112
~ld


AirMonitor Ver: 2.50i
FlashChipRealSize: 2097152
70 31872 time not set:Detecting I2C...
70 31848 time not set:RETRY: Found RTC! ******************
83 31784 2018/07/07T00:15:39z:Found BME280 sensor on 0x76! ******************
3724 31504 2018/07/07T00:15:43z:EEPROM SSID: 
3726 31448 2018/07/07T00:15:43z:Device: AirMonitor_473
3728 31448 2018/07/07T00:15:43z:MAC: 2c:3a:e8:35:4:73
3729 31472 2018/07/07T00:15:43z:setupWiFi Complete.
3732 31472 2018/07/07T00:15:43z:Looking for channel B
6410 31128 2018/07/07T00:15:45z:Attempt 1 took 2673ms. Found PMSX003 type sensor! ******************
6412 31344 2018/07/07T00:15:45z:Looking for channel A
2018/07/07T00:17:17z,2c:3a:e8:35:4:73,2.50i,2.0+OPENLOG+15931 MB+DS3231+BME280+PMSX003A+PMSX003B,82,0,nan,1017.38,0.02,30072,31,97,0.00,0.00,0.00,0.00,0.00,0.00,2.67,0.27,0.00,0.00,0.00,0.00,0.00,0.00,0.00,0.00,0.00,0.00,1.50,0.50,0.00,0.00,0.00,0.00
2018/07/07T00:18:37z,2c:3a:e8:35:4:73,2.50i,2.0+OPENLOG+15931 MB+DS3231+BME280+PMSX003A+PMSX003B,82,0,nan,1017.44,0.03,29640,31,177,0.00,0.00,0.00,0.00,0.00,0.00,5.74,0.45,0.15,0.00,0.00,0.00,0.00,0.00,0.00,0.00,0.00,0.00,1.95,0.65,0.49,0.00,0.00,0.00
2018/07/07T00:19:57z,2c:3a:e8:35:4:73,2.50i,2.0+OPENLOG+15931 MB+DS3231+BME280+PMSX003A+PMSX003B,82,0,nan,1017.43,0.02,29640,31,257,0.00,0.00,0.00,0.00,0.00,0.00,6.83,1.28,0.26,0.00,0.00,0.00,0.00,0.00,0.00,0.00,0.00,0.00,1.95,0.65,0.49,0.00,0.00,0.00
2018/07/07T00:21:17z,2c:3a:e8:35:4:73,2.50i,2.0+OPENLOG+15931 MB+DS3231+BME280+PMSX003A+PMSX003B,82,0,nan,1017.41,0.03,30072,31,337,0.00,0.00,0.00,0.00,0.00,0.00,0.72,0.24,0.24,0.00,0.00,0.00,0.00,0.00,0.00,0.00,0.00,0.00,1.95,0.65,0.49,0.00,0.00,0.00
2018/07/07T00:22:37z,2c:3a:e8:35:4:73,2.50i,2.0+OPENLOG+15931 MB+DS3231+BME280+PMSX003A+PMSX003B,82,0,nan,1017.43,0.03,30072,31,417,0.00,0.00,0.00,0.00,0.00,0.00,2.87,0.70,0.24,0.00,0.00,0.00,0.00,0.00,0.00,0.00,0.00,0.00,1.95,0.65,0.49,0.00,0.00,0.00
2018/07/07T00:23:57z,2c:3a:e8:35:4:73,2.50i,2.0+OPENLOG+15931 MB+DS3231+BME280+PMSX003A+PMSX003B,82,0,nan,1017.51,0.03,29792,31,497,0.00,0.00,0.00,0.00,0.00,0.00,1.96,0.26,0.24,0.00,0.00,0.00,0.00,0.00,0.00,0.00,0.00,0.00,1.95,0.65,0.49,0.00,0.00,0.00
2018/07/07T00:25:17z,2c:3a:e8:35:4:73,2.50i,2.0+OPENLOG+15931 MB+DS3231+BME280+PMSX003A+PMSX003B,81,0,nan,1017.45,0.03,29640,31,577,0.00,0.00,0.00,0.00,0.00,0.00,2.31,0.31,0.31,0.00,0.00,0.00,0.00,0.00,0.00,0.00,0.00,0.00,1.95,0.65,0.49,0.00,0.00,0.00
2018/07/07T00:26:37z,2c:3a:e8:35:4:73,2.50i,2.0+OPENLOG+15931 MB+DS3231+BME280+PMSX003A+PMSX003B,81,0,nan,1017.41,0.03,29616,31,657,0.00,0.00,0.00,0.00,0.00,0.00,9.20,0.39,0.39,0.00,0.00,0.00,0.00,0.00,0.00,0.00,0.00,0.00,3.08,1.03,0.49,0.00,0.00,0.00
2018/07/07T00:27:57z,2c:3a:e8:35:4:73,2.50i,2.0+OPENLOG+15931 MB+DS3231+BME280+PMSX003A+PMSX003B,81,0,nan,1017.44,0.03,30072,31,737,0.00,0.00,0.00,0.00,0.00,0.00,8.15,0.59,0.39,0.00,0.00,0.00,0.00,0.00,0.00,0.00,0.00,0.00,2.42,0.81,0.49,0.00,0.00,0.00
2018/07/07T00:29:17z,2c:3a:e8:35:4:73,2.50i,2.0+OPENLOG+15931 MB+DS3231+BME280+PMSX003A+PMSX003B,81,0,nan,1017.40,0.03,30072,31,817,0.00,0.00,0.00,0.00,0.00,0.00,1.63,0.54,0.39,0.00,0.00,0.00,0.00,0.00,0.00,0.00,0.00,0.00,1.08,0.36,0.49,0.00,0.00,0.00
2018/07/07T00:30:37z,2c:3a:e8:35:4:73,2.50i,2.0+OPENLOG+15931 MB+DS3231+BME280+PMSX003A+PMSX003B,81,0,nan,1017.39,0.03,29536,31,897,0.00,0.00,0.00,0.00,0.00,0.00,4.21,0.81,0.40,0.00,0.00,0.00,0.00,0.00,0.00,0.00,0.00,0.00,1.08,0.36,0.49,0.00,0.00,0.00
2018/07/07T00:31:57z,2c:3a:e8:35:4:73,2.50i,2.0+OPENLOG+15931 MB+DS3231+BME280+PMSX003A+PMSX003B,81,0,nan,1017.37,0.03,29616,31,977,0.00,0.00,0.00,0.00,0.00,0.00,1.04,0.81,0.40,0.00,0.00,0.00,0.00,0.00,0.00,0.00,0.00,0.00,1.08,0.36,0.49,0.00,0.00,0.00
2018/07/07T00:33:17z,2c:3a:e8:35:4:73,2.50i,2.0+OPENLOG+15931 MB+DS3231+BME280+PMSX003A+PMSX003B,81,0,nan,1017.43,0.03,30072,31,1057,0.00,0.00,0.00,0.00,0.00,0.00,3.80,0.78,0.40,0.00,0.00,0.00,0.00,0.00,0.00,0.00,0.00,0.00,1.62,0.38,0.49,0.00,0.00,0.00
2018/07/07T00:34:37z,2c:3a:e8:35:4:73,2.50i,2.0+OPENLOG+15931 MB+DS3231+BME280+PMSX003A+PMSX003B,81,0,nan,1017.34,0.03,30072,31,1137,0.00,0.00,0.00,0.00,0.00,0.00,2.54,0.67,0.40,0.00,0.00,0.00,0.00,0.00,0.00,0.00,0.00,0.00,0.73,0.08,0.49,0.00,0.00,0.00
2018/07/07T00:35:57z,2c:3a:e8:35:4:73,2.50i,2.0+OPENLOG+15931 MB+DS3231+BME280+PMSX003A+PMSX003B,81,0,nan,1017.36,0.03,29456,31,1217,0.00,0.00,0.00,0.00,0.00,0.00,2.62,0.72,0.40,0.00,0.00,0.00,0.00,0.00,0.00,0.00,0.00,0.00,0.73,0.08,0.49,0.00,0.00,0.00
2018/07/07T00:37:17z,2c:3a:e8:35:4:73,2.50i,2.0+OPENLOG+15931 MB+DS3231+BME280+PMSX003A+PMSX003B,81,0,nan,1017.33,0.03,29640,31,1297,0.00,0.00,0.00,0.00,0.00,0.00,4.66,0.91,0.40,0.00,0.00,0.00,0.00,0.00,0.00,0.00,0.00,0.00,0.25,0.08,0.49,0.00,0.00,0.00
2018/07/07T00:38:37z,2c:3a:e8:35:4:73,2.50i,2.0+OPENLOG+15931 MB+DS3231+BME280+PMSX003A+PMSX003B,81,0,nan,1017.31,0.03,30072,31,1377,0.00,0.00,0.00,0.00,0.00,0.00,2.28,0.91,0.40,0.00,0.00,0.00,0.00,0.00,0.00,0.00,0.00,0.00,0.24,0.08,0.49,0.00,0.00,0.00
2018/07/07T00:39:57z,2c:3a:e8:35:4:73,2.50i,2.0+OPENLOG+15931 MB+DS3231+BME280+PMSX003A+PMSX003B,81,0,nan,1017.32,0.03,30072,31,1457,0.00,0.00,0.00,0.00,0.00,0.00,1.47,0.24,0.40,0.00,0.00,0.00,0.00,0.00,0.00,0.00,0.00,0.00,0.24,0.08,0.49,0.00,0.00,0.00
2018/07/07T00:41:17z,2c:3a:e8:35:4:73,2.50i,2.0+OPENLOG+15931 MB+DS3231+BME280+PMSX003A+PMSX003B,81,0,nan,1017.19,0.03,29584,31,1537,0.00,0.00,0.00,0.00,0.00,0.00,2.36,0.79,0.40,0.00,0.00,0.00,0.00,0.00,0.00,0.00,0.00,0.00,8.59,1.97,0.70,0.00,0.00,0.00
2018/07/07T00:42:37z,2c:3a:e8:35:4:73,2.50i,2.0+OPENLOG+15931 MB+DS3231+BME280+PMSX003A+PMSX003B,81,0,nan,1017.28,0.03,29456,31,1617,0.00,0.00,0.00,0.00,0.00,0.00,1.53,0.26,0.40,0.00,0.00,0.00,0.00,0.00,0.00,0.00,0.00,0.00,2.45,0.82,0.39,0.00,0.00,0.00
2018/07/07T00:43:57z,2c:3a:e8:35:4:73,2.50i,2.0+OPENLOG+15931 MB+DS3231+BME280+PMSX003A+PMSX003B,81,0,nan,1017.30,0.03,29616,31,1697,0.00,0.00,0.00,0.00,0.00,0.00,8.48,2.13,1.04,0.00,0.00,0.00,0.00,0.00,0.00,0.00,0.00,0.00,2.33,0.78,0.31,0.00,0.00,0.00
2018/07/07T00:45:17z,2c:3a:e8:35:4:73,2.50i,2.0+OPENLOG+15931 MB+DS3231+BME280+PMSX003A+PMSX003B,81,0,nan,1017.37,0.03,30072,31,1777,0.00,0.00,0.00,0.00,0.00,0.00,1.04,0.35,1.04,0.00,0.00,0.00,0.00,0.00,0.00,0.00,0.00,0.00,1.08,0.36,0.31,0.00,0.00,0.00
2018/07/07T00:46:37z,2c:3a:e8:35:4:73,2.50i,2.0+OPENLOG+15931 MB+DS3231+BME280+PMSX003A+PMSX003B,81,0,nan,1017.35,0.03,30072,31,1857,0.00,0.00,0.00,0.00,0.00,0.00,2.67,0.48,1.04,0.00,0.00,0.00,0.00,0.00,0.00,0.00,0.00,0.00,1.08,0.36,0.31,0.00,0.00,0.00
