UTCDateTime,mac_address,firmware_ver,hardware,current_temp_f,current_humidity,current_dewpoint_f,pressure,adc,mem,rssi,uptime,pm1_0_atm,pm2_5_atm,pm10_0_atm,pm1_0_cf_1,pm2_5_cf_1,pm10_0_cf_1,p_0_3_um,p_0_5_um,p_1_0_um,p_2_5_um,p_5_0_um,p_10_0_um,pm1_0_atm_b,pm2_5_atm_b,pm10_0_atm_b,pm1_0_cf_1_b,pm2_5_cf_1_b,pm10_0_cf_1_b,p_0_3_um_b,p_0_5_um_b,p_1_0_um_b,p_2_5_um_b,p_5_0_um_b,p_10_0_um_b
2018/06/29T18:42:59z,60:1:94:58:d7:e0,2.50i,2.0+OPENLOG+15833 MB+DS3231+BME280+PMSX003A+PMSX003B,71,46,49.18,1013.22,0.03,29696,31,257,4.44,5.71,6.42,4.44,5.71,6.42,789.73,248.89,25.62,3.44,0.53,0.27,2.71,3.56,3.63,2.71,3.56,3.63,561.44,168.98,20.51,0.98,0.37,0.00
2018/06/29T18:44:19z,60:1:94:58:d7:e0,2.50i,2.0+OPENLOG+15833 MB+DS3231+BME280+PMSX003A+PMSX003B,72,45,49.50,1013.19,0.03,29696,31,337,3.73,4.81,5.35,3.73,4.81,5.35,720.50,224.69,23.15,3.04,0.25,0.27,2.92,3.94,4.19,2.92,3.94,4.19,628.58,190.28,22.44,2.08,0.37,0.00
2018/06/29T18:45:39z,60:1:94:58:d7:e0,2.50i,2.0+OPENLOG+15833 MB+DS3231+BME280+PMSX003A+PMSX003B,73,44,49.81,1013.26,0.03,29672,31,417,2.70,4.04,4.50,2.70,4.04,4.50,703.57,209.37,28.33,2.72,0.24,0.27,3.09,4.54,4.54,3.09,4.54,4.54,651.60,193.23,25.46,1.54,0.37,0.00
2018/06/29T18:46:59z,60:1:94:58:d7:e0,2.50i,2.0+OPENLOG+15833 MB+DS3231+BME280+PMSX003A+PMSX003B,73,42,48.56,1013.36,0.03,30128,31,497,3.24,3.87,4.54,3.24,3.87,4.54,718.43,215.39,19.76,1.72,0.61,0.27,3.46,4.68,4.92,3.46,4.68,4.92,684.49,210.81,25.73,2.95,0.37,0.00
2018/06/29T18:48:19z,60:1:94:58:d7:e0,2.50i,2.0+OPENLOG+15833 MB+DS3231+BME280+PMSX003A+PMSX003B,74,42,49.46,1013.30,0.03,29640,31,577,2.42,3.56,4.08,2.42,3.56,4.08,659.63,198.29,20.35,2.27,0.44,0.04,2.75,4.03,4.47,2.75,4.03,4.47,620.83,186.53,24.89,2.00,0.86,0.00
2018/06/29T18:49:39z,60:1:94:58:d7:e0,2.50i,2.0+OPENLOG+15833 MB+DS3231+BME280+PMSX003A+PMSX003B,74,41,48.81,1013.30,0.03,29592,31,657,4.69,6.31,6.47,4.69,6.31,6.47,965.00,283.13,30.82,1.40,0.24,0.24,4.51,6.00,6.23,4.51,6.00,6.23,962.15,285.79,34.92,3.18,0.86,0.00
2018/06/29T18:50:59z,60:1:94:58:d7:e0,2.50i,2.0+OPENLOG+15833 MB+DS3231+BME280+PMSX003A+PMSX003B,75,41,49.71,1013.36,0.03,29672,31,737,213.33,953.06,2413.39,142.18,635.53,1609.16,46563.92,15322.47,11145.53,4514.98,1554.63,640.02,198.48,926.31,2252.55,132.45,617.33,1501.71,44286.71,14626.57,10436.69,4226.02,1843.19,354.57
2018/06/29T18:52:19z,60:1:94:58:d7:e0,2.50i,2.0+OPENLOG+15833 MB+DS3231+BME280+PMSX003A+PMSX003B,75,41,49.71,1013.32,0.03,30128,31,817,240.50,1256.14,2725.46,159.40,836.66,1816.34,62932.20,20715.08,14680.68,5063.78,1388.40,484.72,249.69,1336.49,2815.13,165.59,890.38,1876.23,63954.08,21113.13,14928.44,5123.90,1883.49,280.51
2018/06/29T18:53:39z,60:1:94:58:d7:e0,2.50i,2.0+OPENLOG+15833 MB+DS3231+BME280+PMSX003A+PMSX003B,76,40,49.94,1015.52,0.03,30128,31,897,246.10,1239.38,2548.54,163.40,825.54,1698.34,62081.52,20400.66,14160.86,4607.24,1270.54,441.54,258.85,1336.63,2612.02,171.73,890.47,1740.60,63480.23,20943.90,14451.62,4724.08,1623.55,250.45
2018/06/29T18:54:59z,60:1:94:58:d7:e0,2.50i,2.0+OPENLOG+15833 MB+DS3231+BME280+PMSX003A+PMSX003B,76,33,44.83,1015.47,0.03,29696,31,977,251.78,977.35,1812.73,167.08,650.57,1207.73,54734.63,17782.12,10790.94,3052.94,772.20,269.37,269.10,1079.74,1971.72,178.72,719.15,1313.72,57340.38,18761.51,11512.03,3317.59,1097.90,173.92
2018/06/29T18:56:19z,60:1:94:58:d7:e0,2.50i,2.0+OPENLOG+15833 MB+DS3231+BME280+PMSX003A+PMSX003B,76,27,39.61,1015.46,0.03,29696,31,1057,225.89,685.48,1157.33,149.87,456.41,770.89,43980.46,14044.70,7134.02,1765.50,430.43,148.76,236.59,743.19,1227.76,157.05,494.65,817.78,45234.16,14604.22,7475.41,1873.62,608.59,81.24
2018/06/29T18:57:39z,60:1:94:58:d7:e0,2.50i,2.0+OPENLOG+15833 MB+DS3231+BME280+PMSX003A+PMSX003B,76,23,35.53,1015.29,0.03,30128,31,1137,176.98,473.22,749.04,117.13,314.78,498.58,32952.40,10366.53,4690.07,1060.73,257.87,83.09,189.00,518.41,784.11,125.27,344.97,521.97,34301.92,10951.30,4905.84,1102.73,330.03,43.59
2018/06/29T18:58:59z,60:1:94:58:d7:e0,2.50i,2.0+OPENLOG+15833 MB+DS3231+BME280+PMSX003A+PMSX003B,76,20,32.03,1015.32,0.03,30128,31,1217,124.91,301.00,448.22,82.44,199.89,298.24,22588.47,7037.78,2877.09,583.36,125.60,42.64,135.63,335.97,485.03,89.66,223.09,322.54,24002.31,7616.80,3063.06,641.86,183.74,23.63
2018/06/29T19:00:19z,60:1:94:58:d7:e0,2.50i,2.0+OPENLOG+15833 MB+DS3231+BME280+PMSX003A+PMSX003B,76,18,29.43,1015.17,0.03,29592,31,1297,80.47,183.02,266.29,53.04,121.33,176.62,14310.07,4436.53,1702.60,328.67,75.89,21.02,84.58,199.75,291.69,55.58,132.25,193.75,15070.50,4733.11,1809.33,373.44,113.78,13.33
2018/06/29T19:01:39z,60:1:94:58:d7:e0,2.50i,2.0+OPENLOG+15833 MB+DS3231+BME280+PMSX003A+PMSX003B,77,16,27.37,1013.12,0.03,29696,31,1377,50.84,113.66,160.95,34.91,75.00,106.84,9024.95,2779.32,1040.20,197.55,41.30,13.68,56.11,124.73,172.62,37.57,82.32,114.30,9763.13,3069.27,1097.51,199.43,58.24,7.59
2018/06/29T19:02:59z,60:1:94:58:d7:e0,2.50i,2.0+OPENLOG+15833 MB+DS3231+BME280+PMSX003A+PMSX003B,77,16,27.37,1013.15,0.03,29672,31,1457,38.32,86.39,122.34,29.16,56.82,81.41,7005.34,2153.82,776.68,150.16,31.50,10.59,39.57,90.26,127.23,29.63,59.31,84.23,7136.66,2224.06,780.80,158.57,43.60,4.57
2018/06/29T19:04:19z,60:1:94:58:d7:e0,2.50i,2.0+OPENLOG+15833 MB+DS3231+BME280+PMSX003A+PMSX003B,77,16,27.37,1013.13,0.03,30128,31,1537,37.07,80.95,109.19,28.56,53.35,75.84,6637.88,2040.53,710.51,123.91,24.16,6.40,35.13,81.87,113.71,27.74,54.76,77.55,6371.05,1989.26,725.79,137.47,38.08,5.21
2018/06/29T19:05:39z,60:1:94:58:d7:e0,2.50i,2.0+OPENLOG+15833 MB+DS3231+BME280+PMSX003A+PMSX003B,78,17,29.65,1013.18,0.03,29640,31,1617,34.61,78.02,102.73,27.55,52.18,73.45,6253.64,1924.95,704.32,115.48,20.80,6.52,35.74,78.45,105.74,28.03,52.53,74.37,6258.79,1971.61,702.00,114.82,34.53,3.21
2018/06/29T19:06:59z,60:1:94:58:d7:e0,2.50i,2.0+OPENLOG+15833 MB+DS3231+BME280+PMSX003A+PMSX003B,78,17,29.65,1013.11,0.03,29512,31,1697,33.49,72.02,100.38,27.20,50.11,72.49,6054.33,1862.02,647.49,114.87,24.36,6.38,34.06,74.28,97.03,27.39,50.86,71.36,6002.00,1876.81,665.25,100.36,26.86,1.44
2018/06/29T19:08:19z,60:1:94:58:d7:e0,2.50i,2.0+OPENLOG+15833 MB+DS3231+BME280+PMSX003A+PMSX003B,78,18,31.06,1013.21,0.03,29672,31,1777,31.60,67.22,91.18,26.27,48.16,68.87,5644.87,1740.96,614.36,104.09,16.64,5.27,32.03,67.89,91.41,26.57,48.59,69.16,5490.65,1717.73,590.35,98.43,27.76,3.68
2018/06/29T19:09:39z,60:1:94:58:d7:e0,2.50i,2.0+OPENLOG+15833 MB+DS3231+BME280+PMSX003A+PMSX003B,78,18,31.06,1013.19,0.03,30128,31,1857,29.11,64.20,87.64,24.93,47.14,67.36,5378.25,1652.39,588.82,93.59,18.82,8.20,29.41,64.76,83.14,25.27,47.46,65.84,4998.81,1565.81,545.57,92.46,20.43,1.73
2018/06/29T19:10:59z,60:1:94:58:d7:e0,2.50i,2.0+OPENLOG+15833 MB+DS3231+BME280+PMSX003A+PMSX003B,79,18,31.88,1013.18,0.03,30128,31,1937,28.32,62.61,84.34,24.39,46.39,65.86,5136.34,1594.91,567.07,95.57,17.09,6.30,28.03,58.54,77.46,24.30,44.62,62.86,4830.57,1515.32,507.86,76.30,22.14,2.51
2018/06/29T19:12:19z,60:1:94:58:d7:e0,2.50i,2.0+OPENLOG+15833 MB+DS3231+BME280+PMSX003A+PMSX003B,79,19,33.22,1013.06,0.03,29592,31,2017,25.16,54.37,77.07,22.65,43.16,62.60,4536.21,1385.81,502.07,95.40,17.30,4.58,25.94,59.28,75.39,23.11,45.22,61.86,4494.33,1411.00,506.61,88.78,19.36,1.42
2018/06/29T19:13:39z,60:1:94:58:d7:e0,2.50i,2.0+OPENLOG+15833 MB+DS3231+BME280+PMSX003A+PMSX003B,79,19,33.22,1013.12,0.03,29672,31,2097,24.53,53.86,71.21,22.40,42.91,59.98,4430.51,1365.23,475.44,82.98,13.63,4.05,24.03,53.65,70.59,22.16,42.89,59.68,4197.97,1327.32,479.27,74.81,18.16,2.41
2018/06/29T19:14:59z,60:1:94:58:d7:e0,2.50i,2.0+OPENLOG+15833 MB+DS3231+BME280+PMSX003A+PMSX003B,79,19,33.22,1013.12,0.03,30128,31,2177,22.39,47.89,60.18,21.18,40.07,53.98,4044.34,1230.50,439.93,55.48,9.61,3.14,23.08,53.28,68.78,21.61,42.75,58.78,4085.67,1288.97,471.31,73.86,18.47,1.64
2018/06/29T19:16:19z,60:1:94:58:d7:e0,2.50i,2.0+OPENLOG+15833 MB+DS3231+BME280+PMSX003A+PMSX003B,79,20,34.51,1013.22,0.03,30128,31,2257,22.21,46.49,58.53,21.12,39.19,52.91,3964.33,1210.42,401.88,60.63,9.02,1.09,20.89,46.97,66.00,20.14,39.62,57.22,3808.22,1193.27,418.38,73.41,23.32,4.08
2018/06/29T20:52:56z,60:1:94:58:d7:e0,2.50i,2.0+OPENLOG+15833 MB+DS3231+BME280+PMSX003A+PMSX003B,75,40,49.05,1012.78,0.03,29944,31,257,2.40,3.28,3.60,2.40,3.28,3.60,649.79,190.15,22.74,1.15,0.40,0.00,2.93,3.78,4.07,2.93,3.78,4.07,659.63,202.10,23.51,0.71,0.44,0.00
2018/06/29T20:54:16z,60:1:94:58:d7:e0,2.50i,2.0+OPENLOG+15833 MB+DS3231+BME280+PMSX003A+PMSX003B,76,39,49.26,1012.89,0.03,29696,31,337,3.11,4.66,4.81,3.11,4.66,4.81,702.26,214.28,30.77,2.36,0.40,0.00,2.86,3.54,4.03,2.86,3.54,4.03,653.43,199.16,19.49,1.81,0.86,0.00
2018/06/29T20:55:36z,60:1:94:58:d7:e0,2.50i,2.0+OPENLOG+15833 MB+DS3231+BME280+PMSX003A+PMSX003B,76,38,48.57,1012.84,0.03,29696,31,417,2.73,3.64,3.64,2.73,3.64,3.64,669.07,204.38,25.78,0.02,0.40,0.00,3.24,4.39,4.39,3.24,4.39,4.39,657.55,199.47,27.82,0.89,0.86,0.00
2018/06/29T20:56:56z,60:1:94:58:d7:e0,2.50i,2.0+OPENLOG+15833 MB+DS3231+BME280+PMSX003A+PMSX003B,76,38,48.57,1012.91,0.03,29944,31,497,2.78,3.43,3.87,2.78,3.43,3.87,616.30,184.39,20.28,1.07,0.50,0.24,2.76,3.32,3.68,2.76,3.32,3.68,574.22,171.32,22.62,1.08,0.35,0.00
2018/06/29T20:58:16z,60:1:94:58:d7:e0,2.50i,2.0+OPENLOG+15833 MB+DS3231+BME280+PMSX003A+PMSX003B,76,38,48.57,1012.96,0.03,30128,31,577,10.82,15.20,17.38,9.38,13.31,16.18,1954.53,585.89,93.18,9.27,1.71,0.27,11.00,15.42,15.82,9.08,13.05,14.55,1949.37,590.55,83.45,6.08,0.45,0.00
2018/06/29T20:59:36z,60:1:94:58:d7:e0,2.50i,2.0+OPENLOG+15833 MB+DS3231+BME280+PMSX003A+PMSX003B,77,37,48.74,1013.08,0.03,28240,31,657,67.65,190.00,374.74,45.37,126.83,249.91,13520.41,4244.11,1922.89,596.24,187.80,68.80,73.81,218.89,462.81,49.19,146.06,308.61,14648.00,4684.89,2262.53,750.14,321.36,62.78
2018/06/29T21:00:56z,60:1:94:58:d7:e0,2.50i,2.0+OPENLOG+15833 MB+DS3231+BME280+PMSX003A+PMSX003B,77,30,43.20,1012.99,0.03,29264,31,737,101.84,274.77,535.25,67.02,182.36,356.20,20467.23,6344.61,2722.09,828.02,267.07,102.18,110.30,291.65,573.78,72.76,193.51,381.73,21193.38,6682.16,2791.89,908.84,372.84,62.92
2018/06/29T21:02:16z,60:1:94:58:d7:e0,2.50i,2.0+OPENLOG+15833 MB+DS3231+BME280+PMSX003A+PMSX003B,77,25,38.49,1012.88,0.03,29800,31,817,67.34,167.36,316.02,44.05,110.73,209.86,13190.05,4052.55,1600.82,485.30,147.50,52.77,74.65,184.38,345.03,49.05,122.16,229.27,14063.43,4411.41,1702.41,524.97,204.14,32.81
2018/06/29T21:03:36z,60:1:94:58:d7:e0,2.50i,2.0+OPENLOG+15833 MB+DS3231+BME280+PMSX003A+PMSX003B,78,21,34.91,1012.78,0.03,29800,31,897,43.32,102.43,180.61,31.25,67.52,119.64,8273.59,2550.41,939.86,260.80,81.91,29.23,43.37,105.03,193.80,31.20,69.26,128.49,8367.60,2601.57,977.23,282.49,117.00,15.34
2018/06/29T21:04:56z,60:1:94:58:d7:e0,2.50i,2.0+OPENLOG+15833 MB+DS3231+BME280+PMSX003A+PMSX003B,78,19,32.40,1012.79,0.03,29312,31,977,25.80,65.55,124.45,22.95,47.43,83.64,5351.80,1625.73,655.14,183.39,58.14,21.43,29.22,72.78,131.14,24.83,50.25,86.69,5677.58,1773.92,677.28,196.03,75.81,14.19
2018/06/29T21:06:16z,60:1:94:58:d7:e0,2.50i,2.0+OPENLOG+15833 MB+DS3231+BME280+PMSX003A+PMSX003B,78,19,32.40,1012.78,0.03,29264,31,1057,23.80,61.40,105.20,21.91,45.91,74.51,4897.93,1502.98,571.98,149.20,48.80,16.07,25.39,62.42,112.16,22.66,46.16,76.82,4901.76,1531.92,586.29,166.84,64.26,7.34
2018/06/29T21:07:36z,60:1:94:58:d7:e0,2.50i,2.0+OPENLOG+15833 MB+DS3231+BME280+PMSX003A+PMSX003B,79,20,34.51,1012.75,0.03,29800,31,1137,23.36,54.69,93.93,21.78,43.29,70.20,4590.60,1404.38,510.58,129.00,40.33,12.58,23.14,56.56,103.67,21.56,44.11,73.92,4596.25,1433.94,541.39,151.83,57.69,6.17
2018/06/29T21:08:56z,60:1:94:58:d7:e0,2.50i,2.0+OPENLOG+15833 MB+DS3231+BME280+PMSX003A+PMSX003B,79,20,34.51,1012.77,0.03,29800,31,1217,21.34,53.30,96.00,20.36,42.66,70.75,4445.93,1330.20,495.66,142.41,44.18,15.41,23.32,56.57,102.41,21.62,43.95,73.57,4468.30,1389.92,534.03,147.57,60.46,5.89
2018/06/29T21:10:16z,60:1:94:58:d7:e0,2.50i,2.0+OPENLOG+15833 MB+DS3231+BME280+PMSX003A+PMSX003B,79,20,34.51,1012.80,0.03,30080,31,1297,19.20,46.20,75.96,18.91,39.22,62.11,3782.93,1149.00,437.63,105.78,25.24,9.91,19.86,47.92,86.92,19.51,40.05,67.22,3763.38,1175.41,436.65,126.84,53.14,8.78
2018/06/29T21:11:36z,60:1:94:58:d7:e0,2.50i,2.0+OPENLOG+15833 MB+DS3231+BME280+PMSX003A+PMSX003B,80,20,35.33,1012.83,0.03,29648,31,1377,15.91,42.13,69.38,15.91,36.91,58.73,3319.67,1006.64,411.00,104.31,24.00,6.04,19.47,47.03,85.22,19.19,39.61,66.44,3778.33,1183.33,433.78,123.17,51.94,6.42
2018/06/29T21:12:56z,60:1:94:58:d7:e0,2.50i,2.0+OPENLOG+15833 MB+DS3231+BME280+PMSX003A+PMSX003B,80,21,36.56,1012.59,0.03,30080,31,1457,16.07,39.98,71.31,16.07,35.67,59.73,3355.53,1008.76,386.18,101.82,31.00,10.51,18.43,45.00,69.30,18.41,38.57,58.95,3441.81,1090.27,386.65,94.62,32.05,2.35
2018/06/29T21:14:16z,60:1:94:58:d7:e0,2.50i,2.0+OPENLOG+15833 MB+DS3231+BME280+PMSX003A+PMSX003B,80,21,36.56,1012.70,0.03,30080,31,1537,14.59,37.04,60.76,14.59,33.80,54.13,3022.30,917.65,347.91,85.57,23.24,7.63,15.57,39.65,67.03,15.57,35.46,57.27,3136.14,981.38,356.32,102.54,33.49,3.27
2018/06/29T21:15:36z,60:1:94:58:d7:e0,2.50i,2.0+OPENLOG+15833 MB+DS3231+BME280+PMSX003A+PMSX003B,80,21,36.56,1012.72,0.03,30080,31,1617,14.24,34.46,54.20,14.24,32.39,50.46,2917.63,869.80,312.52,77.63,16.30,5.91,14.29,37.34,60.74,14.29,34.11,54.37,2865.71,900.68,342.50,81.55,32.24,2.29
2018/06/29T21:16:56z,60:1:94:58:d7:e0,2.50i,2.0+OPENLOG+15833 MB+DS3231+BME280+PMSX003A+PMSX003B,80,21,36.56,1012.76,0.03,29648,31,1697,12.91,31.16,48.89,12.91,30.11,47.11,2652.95,807.34,285.09,64.68,18.55,6.23,14.79,35.84,53.61,14.79,33.34,50.21,2822.29,888.87,319.50,67.29,22.84,2.87
2018/06/29T21:18:16z,60:1:94:58:d7:e0,2.50i,2.0+OPENLOG+15833 MB+DS3231+BME280+PMSX003A+PMSX003B,81,21,37.39,1012.75,0.03,28112,31,1777,12.18,30.47,47.22,12.18,29.51,45.69,2484.87,753.84,274.09,62.00,17.71,6.47,12.16,31.14,46.68,12.16,30.03,45.51,2449.70,763.57,287.24,62.49,17.08,3.16
2018/06/29T21:19:36z,60:1:94:58:d7:e0,2.50i,2.0+OPENLOG+15833 MB+DS3231+BME280+PMSX003A+PMSX003B,81,21,37.39,1012.73,0.03,29800,31,1857,10.75,25.61,38.50,10.75,25.61,38.39,2258.25,675.82,227.00,50.36,12.20,3.09,10.77,26.54,43.83,10.77,26.49,43.03,2220.94,694.89,244.23,58.83,21.97,4.03
2018/06/29T21:20:56z,60:1:94:58:d7:e0,2.50i,2.0+OPENLOG+15833 MB+DS3231+BME280+PMSX003A+PMSX003B,81,22,38.58,1012.78,0.03,29800,31,1937,11.59,26.41,40.52,11.59,26.39,40.25,2292.89,701.80,233.61,52.11,14.41,4.66,11.56,28.11,44.36,11.56,27.78,43.69,2309.58,716.83,252.81,61.31,20.33,1.67
2018/06/29T21:22:16z,60:1:94:58:d7:e0,2.50i,2.0+OPENLOG+15833 MB+DS3231+BME280+PMSX003A+PMSX003B,81,22,38.58,1012.72,0.03,29264,31,2017,8.56,22.11,36.29,8.56,22.11,36.29,1796.60,552.27,212.09,54.64,13.36,2.53,10.03,26.67,39.00,10.03,26.67,39.00,2029.58,638.92,240.31,51.31,14.67,0.97
2018/06/29T21:23:36z,60:1:94:58:d7:e0,2.50i,2.0+OPENLOG+15833 MB+DS3231+BME280+PMSX003A+PMSX003B,81,22,38.58,1012.71,0.03,29368,31,2097,9.31,23.80,36.38,9.31,23.80,36.38,1911.93,585.64,202.42,49.98,14.13,5.38,9.50,24.39,37.18,9.50,24.39,37.18,1890.63,597.03,214.79,54.74,15.74,1.55
2018/06/29T21:24:56z,60:1:94:58:d7:e0,2.50i,2.0+OPENLOG+15833 MB+DS3231+BME280+PMSX003A+PMSX003B,81,22,38.58,1012.74,0.03,29800,31,2177,6.59,19.17,29.63,6.59,19.17,29.63,1524.98,459.89,191.89,39.74,8.98,2.76,7.76,17.41,28.11,7.76,17.41,28.11,1512.00,473.65,173.49,33.05,13.51,2.27
2018/06/29T21:26:16z,60:1:94:58:d7:e0,2.50i,2.0+OPENLOG+15833 MB+DS3231+BME280+PMSX003A+PMSX003B,82,22,39.41,1012.80,0.03,29800,31,2257,7.47,18.00,27.53,7.47,18.00,27.53,1676.36,509.98,166.66,34.96,8.66,3.28,6.92,17.34,26.26,6.92,17.34,26.26,1495.03,461.16,164.58,37.79,8.29,0.66
2018/06/29T21:27:36z,60:1:94:58:d7:e0,2.50i,2.0+OPENLOG+15833 MB+DS3231+BME280+PMSX003A+PMSX003B,82,22,39.41,1012.70,0.03,29800,31,2337,7.43,17.22,26.46,7.43,17.22,26.46,1559.28,474.93,140.41,36.46,10.07,2.52,7.38,19.95,30.05,7.38,19.95,30.05,1529.19,483.51,173.24,45.81,11.46,1.35
2018/06/29T21:28:56z,60:1:94:58:d7:e0,2.50i,2.0+OPENLOG+15833 MB+DS3231+BME280+PMSX003A+PMSX003B,82,22,39.41,1012.69,0.03,29368,31,2417,6.11,14.42,22.67,6.11,14.42,22.67,1280.07,390.13,141.60,31.13,7.22,2.80,7.82,17.82,26.26,7.82,17.82,26.26,1537.34,481.79,156.37,32.16,9.68,1.03
2018/06/29T21:30:16z,60:1:94:58:d7:e0,2.50i,2.0+OPENLOG+15833 MB+DS3231+BME280+PMSX003A+PMSX003B,82,22,39.41,1012.72,0.03,29800,31,2497,6.57,15.11,21.72,6.57,15.11,21.72,1451.23,436.17,137.00,26.15,5.81,2.30,7.24,15.89,21.14,7.24,15.89,21.14,1430.35,440.59,137.57,21.57,5.65,1.92
2018/06/29T21:31:36z,60:1:94:58:d7:e0,2.50i,2.0+OPENLOG+15833 MB+DS3231+BME280+PMSX003A+PMSX003B,82,22,39.41,1012.65,0.03,29800,31,2577,5.71,13.62,21.71,5.71,13.62,21.71,1225.20,372.18,131.69,28.42,6.33,2.71,5.65,12.62,18.68,5.65,12.62,18.68,1180.46,363.57,115.14,22.32,8.16,2.22
2018/06/29T21:32:56z,60:1:94:58:d7:e0,2.50i,2.0+OPENLOG+15833 MB+DS3231+BME280+PMSX003A+PMSX003B,82,23,40.56,1012.58,0.03,29800,31,2657,5.69,12.47,17.82,5.69,12.47,17.82,1225.47,373.89,106.76,19.82,4.20,1.40,4.89,12.13,17.16,4.89,12.13,17.16,1036.50,325.18,118.66,19.24,5.76,1.13
2018/06/29T21:34:16z,60:1:94:58:d7:e0,2.50i,2.0+OPENLOG+15833 MB+DS3231+BME280+PMSX003A+PMSX003B,82,23,40.56,1012.63,0.03,29368,31,2737,4.57,11.33,16.35,4.57,11.33,16.35,1067.93,323.22,110.11,20.80,4.43,0.52,4.78,10.78,16.72,4.78,10.78,16.72,952.75,297.67,100.94,23.31,8.97,0.94
2018/06/29T21:35:36z,60:1:94:58:d7:e0,2.50i,2.0+OPENLOG+15833 MB+DS3231+BME280+PMSX003A+PMSX003B,82,23,40.56,1012.63,0.03,29368,31,2817,3.84,10.56,17.11,3.84,10.56,17.11,1068.67,308.22,106.93,23.78,4.84,2.51,4.57,12.27,17.22,4.57,12.27,17.22,1095.81,331.49,107.35,22.11,6.59,1.08
2018/06/29T21:36:56z,60:1:94:58:d7:e0,2.50i,2.0+OPENLOG+15833 MB+DS3231+BME280+PMSX003A+PMSX003B,82,23,40.56,1012.57,0.03,29800,31,2897,5.28,10.70,13.38,5.28,10.70,13.38,1040.23,323.11,81.62,14.19,2.64,0.74,4.27,10.92,14.70,4.27,10.92,14.70,942.73,296.65,96.65,18.73,4.03,0.62
2018/06/29T21:38:16z,60:1:94:58:d7:e0,2.50i,2.0+OPENLOG+15833 MB+DS3231+BME280+PMSX003A+PMSX003B,82,23,40.56,1012.61,0.03,29800,31,2977,4.07,8.83,12.43,4.07,8.83,12.43,867.85,278.13,84.61,13.37,2.28,1.61,4.05,9.92,12.87,4.05,9.92,12.87,889.74,275.61,88.08,13.42,3.61,0.37
2018/06/29T21:39:36z,60:1:94:58:d7:e0,2.50i,2.0+OPENLOG+15833 MB+DS3231+BME280+PMSX003A+PMSX003B,82,23,40.56,1012.60,0.03,29264,31,3057,4.04,8.83,12.96,4.04,8.83,12.96,861.83,278.38,82.98,14.77,3.47,1.09,3.49,8.49,12.77,3.49,8.49,12.77,767.31,237.49,86.97,14.66,5.83,0.60
2018/06/29T21:40:56z,60:1:94:58:d7:e0,2.50i,2.0+OPENLOG+15833 MB+DS3231+BME280+PMSX003A+PMSX003B,82,23,40.56,1012.51,0.03,29368,31,3137,4.19,8.68,13.36,4.19,8.68,13.36,919.47,295.89,71.94,16.57,3.85,0.96,2.35,5.92,10.24,2.35,5.92,10.24,643.22,199.59,64.38,16.41,3.68,0.60
2018/06/29T21:42:16z,60:1:94:58:d7:e0,2.50i,2.0+OPENLOG+15833 MB+DS3231+BME280+PMSX003A+PMSX003B,83,23,41.39,1012.56,0.03,29800,31,3217,3.13,7.22,10.22,3.13,7.22,10.22,759.39,239.17,68.35,12.80,1.52,0.50,2.39,5.76,8.24,2.39,5.76,8.24,578.13,182.18,52.84,10.92,2.84,0.60
2018/06/29T21:43:36z,60:1:94:58:d7:e0,2.50i,2.0+OPENLOG+15833 MB+DS3231+BME280+PMSX003A+PMSX003B,83,23,41.39,1012.54,0.03,29800,31,3297,3.53,7.69,11.09,3.53,7.69,11.09,867.20,273.91,72.09,12.67,2.04,0.53,2.78,6.97,8.59,2.78,6.97,8.59,627.24,195.65,61.95,8.84,2.08,0.08
2018/06/29T21:44:56z,60:1:94:58:d7:e0,2.50i,2.0+OPENLOG+15833 MB+DS3231+BME280+PMSX003A+PMSX003B,83,23,41.39,1012.61,0.03,29520,31,3377,3.53,7.43,10.66,3.53,7.43,10.66,816.06,255.36,63.77,14.13,2.04,0.06,2.28,4.31,6.11,2.28,4.31,6.11,535.58,166.33,41.61,5.50,3.17,0.08
2018/06/29T21:46:16z,60:1:94:58:d7:e0,2.50i,2.0+OPENLOG+15833 MB+DS3231+BME280+PMSX003A+PMSX003B,83,23,41.39,1012.56,0.03,29368,31,3457,2.43,5.49,8.49,2.43,5.49,8.49,577.47,179.62,45.40,11.51,4.11,0.85,2.05,5.76,7.65,2.05,5.76,7.65,595.95,177.05,54.32,9.54,2.22,0.49
2018/06/29T21:47:36z,60:1:94:58:d7:e0,2.50i,2.0+OPENLOG+15833 MB+DS3231+BME280+PMSX003A+PMSX003B,83,23,41.39,1012.51,0.03,29800,31,3537,2.02,5.82,7.64,2.02,5.82,7.64,590.87,181.91,49.84,10.60,1.67,0.40,1.79,4.23,6.90,1.79,4.23,6.90,552.15,165.44,44.26,9.56,2.90,0.49
2018/06/29T21:48:56z,60:1:94:58:d7:e0,2.50i,2.0+OPENLOG+15833 MB+DS3231+BME280+PMSX003A+PMSX003B,83,23,41.39,1012.46,0.03,29800,31,3617,1.60,4.31,5.56,1.60,4.31,5.56,551.33,168.29,46.04,3.84,1.96,0.42,1.97,3.73,5.22,1.97,3.73,5.22,439.78,138.57,39.89,5.62,2.32,0.32
2018/06/29T21:50:16z,60:1:94:58:d7:e0,2.50i,2.0+OPENLOG+15833 MB+DS3231+BME280+PMSX003A+PMSX003B,83,23,41.39,1012.57,0.03,29800,31,3697,2.70,5.45,7.66,2.70,5.45,7.66,614.94,193.64,51.60,7.70,1.98,0.17,2.00,3.75,5.17,2.00,3.75,5.17,464.58,144.75,35.22,4.42,1.92,0.67
2018/06/29T21:51:36z,60:1:94:58:d7:e0,2.50i,2.0+OPENLOG+15833 MB+DS3231+BME280+PMSX003A+PMSX003B,83,23,41.39,1012.56,0.03,29184,31,3777,2.38,5.04,6.49,2.38,5.04,6.49,600.45,187.96,43.77,6.68,1.09,0.68,0.78,3.00,4.70,0.78,3.00,4.70,401.59,127.78,42.43,5.41,1.27,0.65
2018/06/29T21:52:56z,60:1:94:58:d7:e0,2.50i,2.0+OPENLOG+15833 MB+DS3231+BME280+PMSX003A+PMSX003B,83,23,41.39,1012.60,0.03,29800,31,3857,2.04,3.60,4.73,2.04,3.60,4.73,506.33,158.47,31.87,4.13,0.76,0.42,1.21,2.87,4.00,1.21,2.87,4.00,354.47,112.84,27.42,6.03,1.21,0.65
2018/06/29T21:54:16z,60:1:94:58:d7:e0,2.50i,2.0+OPENLOG+15833 MB+DS3231+BME280+PMSX003A+PMSX003B,83,24,42.50,1012.66,0.03,30080,31,3937,2.15,4.11,5.48,2.15,4.11,5.48,551.61,170.98,34.00,6.15,1.30,0.63,1.00,3.16,3.46,1.00,3.16,3.46,323.11,102.22,24.68,5.03,0.22,0.65
2018/06/29T21:55:36z,60:1:94:58:d7:e0,2.50i,2.0+OPENLOG+15833 MB+DS3231+BME280+PMSX003A+PMSX003B,83,24,42.50,1012.60,0.03,30080,31,4017,1.60,3.53,4.89,1.60,3.53,4.89,507.70,163.55,29.66,5.72,1.98,0.66,0.84,3.46,4.35,0.84,3.46,4.35,376.95,117.22,42.49,4.35,0.97,0.65
2018/06/29T21:56:56z,60:1:94:58:d7:e0,2.50i,2.0+OPENLOG+15833 MB+DS3231+BME280+PMSX003A+PMSX003B,83,24,42.50,1012.65,0.03,29648,31,4097,1.70,2.53,3.15,1.70,2.53,3.15,429.57,133.34,19.70,1.40,0.85,0.40,0.24,1.57,2.35,0.24,1.57,2.35,307.95,96.03,24.16,4.54,1.11,0.65
2018/06/29T21:58:16z,60:1:94:58:d7:e0,2.50i,2.0+OPENLOG+15833 MB+DS3231+BME280+PMSX003A+PMSX003B,83,24,42.50,1012.67,0.03,29648,31,4177,1.37,2.76,3.74,1.37,2.76,3.74,390.00,121.15,25.17,3.61,1.13,0.26,1.08,1.86,2.11,1.08,1.86,2.11,313.78,93.81,21.24,1.19,0.32,0.65
2018/06/29T21:59:36z,60:1:94:58:d7:e0,2.50i,2.0+OPENLOG+15833 MB+DS3231+BME280+PMSX003A+PMSX003B,83,24,42.50,1012.64,0.03,30080,31,4257,1.70,2.87,4.46,1.70,2.87,4.46,405.26,130.35,25.39,5.52,1.83,0.83,1.14,2.59,3.54,1.14,2.59,3.54,346.05,103.41,24.05,4.97,1.86,0.65
2018/06/29T22:00:57z,60:1:94:58:d7:e0,2.50i,2.0+OPENLOG+15833 MB+DS3231+BME280+PMSX003A+PMSX003B,83,24,42.50,1012.68,0.03,30080,31,4337,1.33,2.21,2.98,1.33,2.21,2.98,405.13,121.31,16.35,2.71,0.75,0.50,0.46,2.14,2.51,0.46,2.14,2.51,301.46,90.51,26.70,4.05,0.59,0.65
2018/06/29T22:02:16z,60:1:94:58:d7:e0,2.50i,2.0+OPENLOG+15833 MB+DS3231+BME280+PMSX003A+PMSX003B,83,24,42.50,1012.69,0.03,29544,31,4417,0.91,2.11,2.78,0.91,2.11,2.78,385.63,120.15,16.87,3.87,0.91,0.50,0.61,2.32,3.21,0.61,2.32,3.21,279.71,86.53,33.66,5.82,1.21,0.65
2018/06/29T22:03:36z,60:1:94:58:d7:e0,2.50i,2.0+OPENLOG+15833 MB+DS3231+BME280+PMSX003A+PMSX003B,83,24,42.50,1012.66,0.03,29648,31,4497,1.28,3.02,3.22,1.28,3.02,3.22,407.41,127.30,22.28,3.74,0.91,0.50,0.58,2.05,2.87,0.58,2.05,2.87,265.50,78.66,18.76,3.92,1.18,0.89
2018/06/29T22:04:56z,60:1:94:58:d7:e0,2.50i,2.0+OPENLOG+15833 MB+DS3231+BME280+PMSX003A+PMSX003B,83,24,42.50,1012.72,0.03,30080,31,4577,1.52,2.17,2.74,1.52,2.17,2.74,393.00,123.24,16.33,1.54,0.17,0.50,0.59,1.16,2.03,0.59,1.16,2.03,215.59,68.95,18.78,2.70,0.84,0.89
2018/06/29T22:06:17z,60:1:94:58:d7:e0,2.50i,2.0+OPENLOG+15833 MB+DS3231+BME280+PMSX003A+PMSX003B,83,24,42.50,1012.75,0.03,30080,31,4657,1.30,2.57,3.60,1.30,2.57,3.60,417.26,133.66,19.45,4.26,0.98,0.49,0.59,0.62,2.41,0.59,0.62,2.41,187.30,60.49,18.68,4.27,2.86,0.89
2018/06/29T22:47:10z,60:1:94:58:d7:e0,2.50i,2.0+OPENLOG+15833 MB+DS3231+BME280+PMSX003A+PMSX003B,84,25,44.41,1012.63,0.03,30072,31,97,0.89,0.96,0.96,0.89,0.96,0.96,362.13,110.60,2.13,0.02,0.00,0.00,0.00,0.00,0.00,0.00,0.00,0.00,48.22,14.20,2.12,0.32,0.32,0.00
2018/06/29T22:48:30z,60:1:94:58:d7:e0,2.50i,2.0+OPENLOG+15833 MB+DS3231+BME280+PMSX003A+PMSX003B,84,25,44.41,1012.50,0.03,30072,31,177,0.37,0.63,0.74,0.37,0.63,0.74,237.72,73.85,3.13,0.76,0.28,0.00,0.00,0.00,0.00,0.00,0.00,0.00,57.41,19.08,5.38,0.51,0.19,0.00
2018/06/29T22:49:50z,60:1:94:58:d7:e0,2.50i,2.0+OPENLOG+15833 MB+DS3231+BME280+PMSX003A+PMSX003B,84,25,44.41,1012.62,0.03,29584,31,257,0.26,0.26,0.26,0.26,0.26,0.26,231.65,69.20,1.24,0.04,0.28,0.00,0.00,0.00,0.00,0.00,0.00,0.00,48.41,16.14,5.19,0.51,0.19,0.00
2018/06/29T22:51:10z,60:1:94:58:d7:e0,2.50i,2.0+OPENLOG+15833 MB+DS3231+BME280+PMSX003A+PMSX003B,84,25,44.41,1012.58,0.03,29640,31,337,0.54,0.57,0.57,0.54,0.57,0.57,250.57,80.57,2.04,0.04,0.28,0.00,0.00,0.00,0.00,0.00,0.00,0.00,24.16,7.38,1.59,0.54,0.19,0.00
2018/06/29T22:52:30z,60:1:94:58:d7:e0,2.50i,2.0+OPENLOG+15833 MB+DS3231+BME280+PMSX003A+PMSX003B,84,25,44.41,1012.52,0.03,29616,31,417,0.59,0.74,0.74,0.59,0.74,0.74,258.26,80.80,2.72,0.50,0.28,0.00,0.00,0.00,0.00,0.00,0.00,0.00,37.66,11.76,1.21,0.74,0.34,0.00
2018/06/29T22:53:50z,60:1:94:58:d7:e0,2.50i,2.0+OPENLOG+15833 MB+DS3231+BME280+PMSX003A+PMSX003B,84,25,44.41,1012.56,0.03,30072,31,497,0.23,0.26,0.26,0.23,0.26,0.26,190.91,60.87,2.21,0.38,0.28,0.00,0.00,0.00,0.03,0.00,0.00,0.03,34.66,11.55,2.03,0.34,0.34,0.00
2018/06/29T22:55:10z,60:1:94:58:d7:e0,2.50i,2.0+OPENLOG+15833 MB+DS3231+BME280+PMSX003A+PMSX003B,84,25,44.41,1012.58,0.03,29888,31,577,0.22,0.28,0.35,0.22,0.28,0.35,174.26,53.43,2.02,0.57,0.28,0.00,0.00,0.00,0.03,0.00,0.00,0.03,58.11,18.58,2.45,0.05,0.05,0.00
2018/06/29T22:56:30z,60:1:94:58:d7:e0,2.50i,2.0+OPENLOG+15833 MB+DS3231+BME280+PMSX003A+PMSX003B,84,25,44.41,1012.51,0.03,29456,31,657,0.51,0.51,0.51,0.51,0.51,0.51,221.80,68.89,1.71,0.57,0.28,0.00,0.00,0.00,0.03,0.00,0.00,0.03,47.92,13.89,1.79,0.05,0.05,0.00
2018/06/29T22:57:50z,60:1:94:58:d7:e0,2.50i,2.0+OPENLOG+15833 MB+DS3231+BME280+PMSX003A+PMSX003B,84,25,44.41,1012.38,0.03,29616,31,737,0.51,0.51,0.51,0.51,0.51,0.51,166.11,47.04,2.26,0.24,0.28,0.00,0.00,0.00,0.03,0.00,0.00,0.03,18.65,6.05,1.49,0.05,0.05,0.00
2018/06/29T22:59:10z,60:1:94:58:d7:e0,2.50i,2.0+OPENLOG+15833 MB+DS3231+BME280+PMSX003A+PMSX003B,84,25,44.41,1012.40,0.03,30072,31,817,0.51,0.51,0.51,0.51,0.51,0.51,212.49,57.23,1.51,0.24,0.28,0.00,0.00,0.00,0.03,0.00,0.00,0.03,24.00,6.65,1.86,0.05,0.05,0.00
2018/06/29T23:00:30z,60:1:94:58:d7:e0,2.50i,2.0+OPENLOG+15833 MB+DS3231+BME280+PMSX003A+PMSX003B,85,25,45.25,1012.47,0.03,29888,31,897,0.07,0.28,0.28,0.07,0.28,0.28,220.04,64.52,2.17,0.24,0.28,0.00,0.00,0.00,0.03,0.00,0.00,0.03,20.45,5.53,0.53,0.05,0.05,0.00
2018/06/29T23:01:50z,60:1:94:58:d7:e0,2.50i,2.0+OPENLOG+15833 MB+DS3231+BME280+PMSX003A+PMSX003B,85,25,45.25,1012.48,0.03,29640,31,977,0.02,0.44,0.44,0.02,0.44,0.44,156.60,49.04,5.11,1.02,0.28,0.00,0.00,0.00,0.03,0.00,0.00,0.03,51.39,14.13,2.87,0.92,0.37,0.00
2018/06/29T23:03:10z,60:1:94:58:d7:e0,2.50i,2.0+OPENLOG+15833 MB+DS3231+BME280+PMSX003A+PMSX003B,84,25,44.41,1012.45,0.03,29640,31,1057,0.52,0.59,0.59,0.52,0.59,0.59,249.20,75.52,1.54,0.26,0.28,0.00,0.00,0.00,0.03,0.00,0.00,0.03,27.00,7.49,2.35,0.46,0.41,0.00
2018/06/29T23:04:30z,60:1:94:58:d7:e0,2.50i,2.0+OPENLOG+15833 MB+DS3231+BME280+PMSX003A+PMSX003B,84,25,44.41,1012.42,0.03,30072,31,1137,0.96,0.98,0.98,0.96,0.98,0.98,304.02,92.32,2.32,0.38,0.28,0.00,0.00,0.00,0.03,0.00,0.00,0.03,27.00,7.68,2.27,0.32,0.41,0.00
2018/06/29T23:05:50z,60:1:94:58:d7:e0,2.50i,2.0+OPENLOG+15833 MB+DS3231+BME280+PMSX003A+PMSX003B,85,25,45.25,1012.46,0.03,30072,31,1217,0.23,0.23,0.72,0.23,0.23,0.72,197.55,56.53,1.62,0.62,0.36,0.36,0.00,0.00,0.03,0.00,0.00,0.03,41.43,13.81,2.32,0.32,0.41,0.00
2018/06/29T23:07:10z,60:1:94:58:d7:e0,2.50i,2.0+OPENLOG+15833 MB+DS3231+BME280+PMSX003A+PMSX003B,84,25,44.41,1012.38,0.03,29328,31,1297,0.09,0.26,0.26,0.09,0.26,0.26,185.54,51.63,2.50,0.35,0.36,0.36,0.00,0.00,0.03,0.00,0.00,0.03,15.24,5.08,0.84,0.05,0.41,0.00
2018/06/29T23:08:30z,60:1:94:58:d7:e0,2.50i,2.0+OPENLOG+15833 MB+DS3231+BME280+PMSX003A+PMSX003B,85,25,45.25,1012.39,0.03,29640,31,1377,0.17,0.17,0.43,0.17,0.17,0.43,164.93,54.72,1.02,0.26,0.36,0.36,0.00,0.00,0.03,0.00,0.00,0.03,27.87,9.29,1.82,0.08,0.41,0.00
2018/06/29T23:09:50z,60:1:94:58:d7:e0,2.50i,2.0+OPENLOG+15833 MB+DS3231+BME280+PMSX003A+PMSX003B,85,25,45.25,1012.37,0.03,29616,31,1457,0.17,0.17,0.43,0.17,0.17,0.43,157.40,50.13,1.00,0.26,0.36,0.36,0.00,0.00,0.03,0.00,0.00,0.03,26.84,8.21,1.58,0.08,0.41,0.00
2018/06/29T23:11:10z,60:1:94:58:d7:e0,2.50i,2.0+OPENLOG+15833 MB+DS3231+BME280+PMSX003A+PMSX003B,85,25,45.25,1012.37,0.03,30072,31,1537,0.17,0.17,0.43,0.17,0.17,0.43,156.64,50.68,2.36,0.64,0.23,0.36,0.00,0.00,0.03,0.00,0.00,0.03,26.11,8.27,2.19,0.08,0.41,0.00
2018/06/29T23:12:30z,60:1:94:58:d7:e0,2.50i,2.0+OPENLOG+15833 MB+DS3231+BME280+PMSX003A+PMSX003B,85,25,45.25,1012.38,0.03,29584,31,1617,0.27,0.40,0.47,0.27,0.40,0.47,189.67,60.16,1.58,0.44,0.13,0.13,0.00,0.00,0.03,0.00,0.00,0.03,30.49,9.70,2.27,0.08,0.41,0.00
2018/06/29T23:13:50z,60:1:94:58:d7:e0,2.50i,2.0+OPENLOG+15833 MB+DS3231+BME280+PMSX003A+PMSX003B,85,25,45.25,1012.34,0.03,29456,31,1697,0.61,0.63,0.80,0.61,0.63,0.80,234.13,72.04,2.91,0.26,0.26,0.26,0.00,0.00,0.03,0.00,0.00,0.03,28.38,8.65,1.11,0.08,0.41,0.00
2018/06/29T23:15:10z,60:1:94:58:d7:e0,2.50i,2.0+OPENLOG+15833 MB+DS3231+BME280+PMSX003A+PMSX003B,85,25,45.25,1012.38,0.03,29616,31,1777,0.21,0.21,0.21,0.21,0.21,0.21,202.53,60.02,2.23,0.26,0.26,0.26,0.00,0.00,0.03,0.00,0.00,0.03,30.89,8.89,0.81,0.08,0.41,0.00
2018/06/29T23:16:30z,60:1:94:58:d7:e0,2.50i,2.0+OPENLOG+15833 MB+DS3231+BME280+PMSX003A+PMSX003B,84,25,44.41,1012.29,0.03,30072,31,1857,0.23,0.23,0.26,0.23,0.23,0.26,181.15,57.43,1.17,0.26,0.26,0.26,0.00,0.00,0.03,0.00,0.00,0.03,33.00,10.53,2.97,0.08,0.41,0.00
2018/06/29T23:17:50z,60:1:94:58:d7:e0,2.50i,2.0+OPENLOG+15833 MB+DS3231+BME280+PMSX003A+PMSX003B,85,25,45.25,1012.42,0.03,29888,31,1937,0.13,0.13,0.37,0.13,0.13,0.37,160.76,51.98,1.61,0.33,0.33,0.33,0.00,0.00,0.03,0.00,0.00,0.03,36.16,12.05,2.11,0.08,0.41,0.00
2018/06/29T23:19:10z,60:1:94:58:d7:e0,2.50i,2.0+OPENLOG+15833 MB+DS3231+BME280+PMSX003A+PMSX003B,85,25,45.25,1012.38,0.03,29640,31,2017,0.28,0.46,0.61,0.28,0.46,0.61,188.09,58.33,1.76,0.67,0.15,0.15,0.00,0.00,0.03,0.00,0.00,0.03,31.26,9.16,3.37,0.16,0.41,0.00
2018/06/29T23:20:30z,60:1:94:58:d7:e0,2.50i,2.0+OPENLOG+15833 MB+DS3231+BME280+PMSX003A+PMSX003B,85,25,45.25,1012.35,0.03,29616,31,2097,0.49,0.55,0.94,0.49,0.55,0.94,222.32,68.89,2.15,0.68,0.23,0.23,0.00,0.00,0.03,0.00,0.00,0.03,36.73,10.68,2.86,0.16,0.41,0.00
2018/06/29T23:21:50z,60:1:94:58:d7:e0,2.50i,2.0+OPENLOG+15833 MB+DS3231+BME280+PMSX003A+PMSX003B,85,25,45.25,1012.42,0.03,30072,31,2177,0.47,0.72,0.91,0.47,0.72,0.91,252.00,79.13,3.47,1.21,0.23,0.23,0.00,0.00,0.03,0.00,0.00,0.03,32.59,9.14,1.65,0.30,0.41,0.00
2018/06/29T23:23:10z,60:1:94:58:d7:e0,2.50i,2.0+OPENLOG+15833 MB+DS3231+BME280+PMSX003A+PMSX003B,85,25,45.25,1012.44,0.03,29888,31,2257,0.47,0.04,0.04,0.47,0.04,0.04,151.57,49.59,0.96,1.21,0.23,0.23,0.00,0.00,0.03,0.00,0.00,0.03,20.13,6.42,1.11,0.30,0.41,0.00
2018/06/29T23:24:30z,60:1:94:58:d7:e0,2.50i,2.0+OPENLOG+15833 MB+DS3231+BME280+PMSX003A+PMSX003B,85,25,45.25,1012.42,0.03,29456,31,2337,0.24,0.24,0.24,0.24,0.24,0.24,219.73,72.44,0.33,1.21,0.23,0.23,0.00,0.00,0.03,0.00,0.00,0.03,18.95,5.95,0.37,0.30,0.41,0.00

 ets Jan  8 2013,rst cause:1, boot mode:(3,7)

load 0x4010f000, len 1384, room 16 
tail 8
chksum 0x2d
csum 0x2d
v3de0c112
~ld


AirMonitor Ver: 2.50i
FlashChipRealSize: 2097152
69 31872 time not set:Detecting I2C...
69 31848 time not set:RETRY: Found RTC! ******************
82 31784 2018/06/29T23:24:30z:Found BME280 sensor on 0x76! ******************
3723 31488 2018/06/29T23:24:34z:EEPROM SSID: CenturyLink2595
3725 31448 2018/06/29T23:24:34z:Device: AirMonitor_d7e0
3727 31448 2018/06/29T23:24:34z:MAC: 60:1:94:58:d7:e0
3728 31472 2018/06/29T23:24:34z:setupWiFi, WiFi.begin()
3735 31288 2018/06/29T23:24:34z:setupWiFi Complete.
3737 31288 2018/06/29T23:24:34z:Looking for channel B
6432 30944 2018/06/29T23:24:36z:Attempt 1 took 2690ms. Found PMSX003 type sensor! ******************
6434 31160 2018/06/29T23:24:36z:Looking for channel A
2018/06/29T23:26:08z,60:1:94:58:d7:e0,2.50i,2.0+OPENLOG+15833 MB+DS3231+BME280+PMSX003A+PMSX003B,85,25,45.25,1012.41,0.03,29888,31,97,0.13,0.22,0.22,0.13,0.22,0.22,207.39,63.04,1.02,0.24,0.00,0.00,0.00,0.00,0.00,0.00,0.00,0.00,35.22,10.91,1.30,0.59,0.00,0.00
2018/06/29T23:27:28z,60:1:94:58:d7:e0,2.50i,2.0+OPENLOG+15833 MB+DS3231+BME280+PMSX003A+PMSX003B,85,25,45.25,1012.44,0.03,29640,31,177,0.17,0.21,0.21,0.17,0.21,0.21,201.70,62.17,1.23,0.04,0.00,0.00,0.00,0.00,0.00,0.00,0.00,0.00,26.45,8.74,2.87,0.87,0.00,0.00
2018/06/29T23:28:48z,60:1:94:58:d7:e0,2.50i,2.0+OPENLOG+15833 MB+DS3231+BME280+PMSX003A+PMSX003B,85,25,45.25,1012.52,0.03,29640,31,257,0.17,0.22,0.22,0.17,0.22,0.22,160.24,50.93,0.33,0.24,0.00,0.00,0.00,0.00,0.00,0.00,0.00,0.00,19.46,5.76,0.95,0.87,0.00,0.00
2018/06/29T23:30:08z,60:1:94:58:d7:e0,2.50i,2.0+OPENLOG+15833 MB+DS3231+BME280+PMSX003A+PMSX003B,85,25,45.25,1012.51,0.03,30072,31,337,0.17,0.22,0.22,0.17,0.22,0.22,177.60,50.87,1.58,0.24,0.00,0.00,0.00,0.00,0.00,0.00,0.00,0.00,20.19,5.97,1.35,0.87,0.00,0.00
2018/06/29T23:31:28z,60:1:94:58:d7:e0,2.50i,2.0+OPENLOG+15833 MB+DS3231+BME280+PMSX003A+PMSX003B,85,25,45.25,1012.49,0.03,30072,31,417,0.17,0.02,0.02,0.17,0.02,0.02,159.52,50.30,1.67,0.24,0.00,0.00,0.00,0.00,0.00,0.00,0.00,0.00,41.05,13.39,1.50,0.87,0.00,0.00
2018/06/29T23:32:48z,60:1:94:58:d7:e0,2.50i,2.0+OPENLOG+15833 MB+DS3231+BME280+PMSX003A+PMSX003B,85,25,45.25,1012.43,0.03,29536,31,497,0.53,0.53,0.53,0.53,0.53,0.53,211.79,69.30,1.57,0.24,0.00,0.00,0.00,0.00,0.00,0.00,0.00,0.00,40.18,10.39,1.45,0.45,0.00,0.00
2018/06/29T23:34:08z,60:1:94:58:d7:e0,2.50i,2.0+OPENLOG+15833 MB+DS3231+BME280+PMSX003A+PMSX003B,85,25,45.25,1012.47,0.03,29640,31,577,0.30,0.37,0.37,0.30,0.37,0.37,188.02,58.59,0.78,0.24,0.00,0.00,0.00,0.00,0.00,0.00,0.00,0.00,29.92,9.51,2.16,0.45,0.00,0.00
2018/06/29T23:35:28z,60:1:94:58:d7:e0,2.50i,2.0+OPENLOG+15833 MB+DS3231+BME280+PMSX003A+PMSX003B,85,25,45.25,1012.47,0.03,30072,31,657,0.30,0.37,0.37,0.30,0.37,0.37,184.63,55.93,0.24,0.24,0.00,0.00,0.00,0.00,0.00,0.00,0.00,0.00,31.05,9.92,1.59,0.45,0.00,0.00
2018/06/29T23:36:48z,60:1:94:58:d7:e0,2.50i,2.0+OPENLOG+15833 MB+DS3231+BME280+PMSX003A+PMSX003B,85,25,45.25,1012.48,0.03,30072,31,737,0.22,0.22,0.33,0.22,0.22,0.33,257.22,83.70,2.02,0.61,0.00,0.00,0.00,0.00,0.00,0.00,0.00,0.00,14.25,3.94,1.06,0.45,0.00,0.00
2018/06/29T23:38:08z,60:1:94:58:d7:e0,2.50i,2.0+OPENLOG+15833 MB+DS3231+BME280+PMSX003A+PMSX003B,85,25,45.25,1012.50,0.03,29584,31,817,0.54,0.57,0.57,0.54,0.57,0.57,230.93,72.96,1.28,0.35,0.00,0.00,0.00,0.00,0.00,0.00,0.00,0.00,44.51,14.84,1.08,0.51,0.00,0.00
2018/06/29T23:39:28z,60:1:94:58:d7:e0,2.50i,2.0+OPENLOG+15833 MB+DS3231+BME280+PMSX003A+PMSX003B,85,25,45.25,1012.45,0.03,29536,31,897,0.54,0.74,0.74,0.54,0.74,0.74,220.17,70.22,3.43,0.41,0.00,0.00,0.00,0.00,0.00,0.00,0.00,0.00,19.82,6.61,0.47,0.51,0.00,0.00
2018/06/29T23:40:48z,60:1:94:58:d7:e0,2.50i,2.0+OPENLOG+15833 MB+DS3231+BME280+PMSX003A+PMSX003B,85,25,45.25,1012.48,0.03,29616,31,977,0.22,0.22,0.59,0.22,0.22,0.59,207.85,62.80,1.76,0.72,0.39,0.00,0.00,0.00,0.00,0.00,0.00,0.00,29.53,8.89,0.84,0.51,0.00,0.00
2018/06/29T23:42:08z,60:1:94:58:d7:e0,2.50i,2.0+OPENLOG+15833 MB+DS3231+BME280+PMSX003A+PMSX003B,85,25,45.25,1012.49,0.03,30072,31,1057,0.30,0.30,0.30,0.30,0.30,0.30,208.57,66.61,1.09,0.72,0.39,0.00,0.00,0.00,0.00,0.00,0.00,0.00,20.59,6.51,0.49,0.51,0.00,0.00
2018/06/29T23:43:28z,60:1:94:58:d7:e0,2.50i,2.0+OPENLOG+15833 MB+DS3231+BME280+PMSX003A+PMSX003B,85,25,45.25,1012.44,0.03,30072,31,1137,0.09,0.15,0.15,0.09,0.15,0.15,168.98,52.63,2.04,0.72,0.39,0.00,0.00,0.00,0.00,0.00,0.00,0.00,18.16,4.11,1.30,0.51,0.00,0.00
2018/06/29T23:44:48z,60:1:94:58:d7:e0,2.50i,2.0+OPENLOG+15833 MB+DS3231+BME280+PMSX003A+PMSX003B,85,25,45.25,1012.34,0.03,29640,31,1217,0.40,0.45,0.45,0.40,0.45,0.45,213.00,68.32,0.83,0.72,0.39,0.00,0.00,0.00,0.00,0.00,0.00,0.00,24.49,7.68,2.92,0.59,0.00,0.00
2018/06/29T23:46:08z,60:1:94:58:d7:e0,2.50i,2.0+OPENLOG+15833 MB+DS3231+BME280+PMSX003A+PMSX003B,85,25,45.25,1012.46,0.03,29640,31,1297,0.22,0.22,0.22,0.22,0.22,0.22,191.41,63.43,0.76,0.72,0.39,0.00,0.00,0.00,0.00,0.00,0.00,0.00,20.37,6.79,1.16,0.59,0.00,0.00
2018/06/29T23:47:28z,60:1:94:58:d7:e0,2.50i,2.0+OPENLOG+15833 MB+DS3231+BME280+PMSX003A+PMSX003B,85,25,45.25,1012.50,0.03,30072,31,1377,0.35,0.39,0.39,0.35,0.39,0.39,223.37,72.63,1.07,0.72,0.39,0.00,0.00,0.00,0.00,0.00,0.00,0.00,29.59,9.46,2.27,0.81,0.00,0.00
2018/06/29T23:48:48z,60:1:94:58:d7:e0,2.50i,2.0+OPENLOG+15833 MB+DS3231+BME280+PMSX003A+PMSX003B,85,25,45.25,1012.49,0.03,30072,31,1457,0.09,0.09,0.09,0.09,0.09,0.09,241.21,79.11,1.21,0.72,0.39,0.00,0.00,0.00,0.00,0.00,0.00,0.00,15.73,5.24,0.62,0.81,0.00,0.00
2018/06/29T23:50:08z,60:1:94:58:d7:e0,2.50i,2.0+OPENLOG+15833 MB+DS3231+BME280+PMSX003A+PMSX003B,85,25,45.25,1012.47,0.03,29792,31,1537,0.09,0.09,0.09,0.09,0.09,0.09,160.37,52.37,0.28,0.72,0.39,0.00,0.00,0.00,0.00,0.00,0.00,0.00,24.41,6.62,0.95,0.81,0.00,0.00
2018/06/29T23:51:28z,60:1:94:58:d7:e0,2.50i,2.0+OPENLOG+15833 MB+DS3231+BME280+PMSX003A+PMSX003B,85,25,45.25,1012.52,0.03,29640,31,1617,0.09,0.16,0.60,0.09,0.16,0.60,181.93,53.64,1.96,0.60,0.33,0.00,0.00,0.00,0.00,0.00,0.00,0.00,33.00,9.86,1.16,0.81,0.00,0.00
2018/06/29T23:52:48z,60:1:94:58:d7:e0,2.50i,2.0+OPENLOG+15833 MB+DS3231+BME280+PMSX003A+PMSX003B,85,25,45.25,1012.49,0.03,29616,31,1697,0.09,0.04,0.04,0.09,0.04,0.04,178.24,50.70,0.61,0.60,0.33,0.00,0.00,0.00,0.00,0.00,0.00,0.00,14.35,3.65,0.76,0.81,0.00,0.00
2018/06/29T23:54:08z,60:1:94:58:d7:e0,2.50i,2.0+OPENLOG+15833 MB+DS3231+BME280+PMSX003A+PMSX003B,85,25,45.25,1012.49,0.03,30072,31,1777,0.09,0.04,0.17,0.09,0.04,0.17,166.60,54.13,0.74,0.40,0.33,0.00,0.00,0.00,0.00,0.00,0.00,0.00,13.18,4.39,1.55,0.39,0.39,0.00
2018/06/29T23:55:28z,60:1:94:58:d7:e0,2.50i,2.0+OPENLOG+15833 MB+DS3231+BME280+PMSX003A+PMSX003B,85,25,45.25,1012.49,0.03,29584,31,1857,0.09,0.04,0.17,0.09,0.04,0.17,145.11,43.74,0.35,0.40,0.33,0.00,0.00,0.00,0.00,0.00,0.00,0.00,22.18,6.71,1.58,0.39,0.39,0.00
2018/06/29T23:56:48z,60:1:94:58:d7:e0,2.50i,2.0+OPENLOG+15833 MB+DS3231+BME280+PMSX003A+PMSX003B,85,25,45.25,1012.45,0.03,29640,31,1937,0.30,0.37,0.37,0.30,0.37,0.37,186.00,59.48,1.63,0.40,0.33,0.00,0.00,0.00,0.00,0.00,0.00,0.00,34.05,11.24,1.76,0.39,0.39,0.00
2018/06/29T23:58:08z,60:1:94:58:d7:e0,2.50i,2.0+OPENLOG+15833 MB+DS3231+BME280+PMSX003A+PMSX003B,85,25,45.25,1012.54,0.03,29616,31,2017,0.33,0.39,0.39,0.33,0.39,0.39,201.59,64.24,2.28,0.40,0.33,0.00,0.00,0.00,0.00,0.00,0.00,0.00,37.38,12.19,3.95,0.70,0.39,0.00
2018/06/29T23:59:28z,60:1:94:58:d7:e0,2.50i,2.0+OPENLOG+15833 MB+DS3231+BME280+PMSX003A+PMSX003B,85,25,45.25,1012.46,0.03,30072,31,2097,0.33,0.21,0.21,0.33,0.21,0.21,142.72,45.36,1.60,0.40,0.33,0.00,0.00,0.00,0.00,0.00,0.00,0.00,22.30,7.43,2.05,0.30,0.39,0.00
