UTCDateTime,mac_address,firmware_ver,hardware,current_temp_f,current_humidity,current_dewpoint_f,pressure,adc,mem,rssi,uptime,pm1_0_atm,pm2_5_atm,pm10_0_atm,pm1_0_cf_1,pm2_5_cf_1,pm10_0_cf_1,p_0_3_um,p_0_5_um,p_1_0_um,p_2_5_um,p_5_0_um,p_10_0_um,pm1_0_atm_b,pm2_5_atm_b,pm10_0_atm_b,pm1_0_cf_1_b,pm2_5_cf_1_b,pm10_0_cf_1_b,p_0_3_um_b,p_0_5_um_b,p_1_0_um_b,p_2_5_um_b,p_5_0_um_b,p_10_0_um_b
2018/07/09T18:12:22z,2c:3a:e8:34:fd:11,2.50i,2.0+OPENLOG+15931 MB+DS3231+BME280+PMSX003A+PMSX003B,69,52,50.65,1016.61,0.01,29672,31,23,0.00,0.00,0.00,0.00,0.00,0.00,0.00,0.00,0.00,0.00,0.00,0.00,0.00,0.00,0.00,0.00,0.00,0.00,0.00,0.00,0.00,0.00,0.00,0.00
2018/07/09T18:13:36z,2c:3a:e8:34:fd:11,2.50i,2.0+OPENLOG+15931 MB+DS3231+BME280+PMSX003A+PMSX003B,70,51,51.04,1016.76,0.02,30128,31,97,2.76,4.71,5.17,2.76,4.71,5.17,686.57,184.17,25.60,2.48,0.29,0.00,2.80,4.46,4.71,2.80,4.46,4.71,623.91,171.60,20.69,2.51,0.17,0.17
2018/07/09T18:14:56z,2c:3a:e8:34:fd:11,2.50i,2.0+OPENLOG+15931 MB+DS3231+BME280+PMSX003A+PMSX003B,70,50,50.51,1016.75,0.02,30128,31,177,4.00,5.09,5.09,4.00,5.09,5.09,852.78,240.87,25.35,0.11,0.29,0.00,4.74,6.37,6.53,4.74,6.37,6.53,892.89,268.08,31.68,1.34,0.47,0.08
2018/07/09T18:16:16z,2c:3a:e8:34:fd:11,2.50i,2.0+OPENLOG+15931 MB+DS3231+BME280+PMSX003A+PMSX003B,71,49,50.88,1016.68,0.01,30128,31,257,4.74,6.17,6.57,4.74,6.17,6.57,921.33,270.93,32.04,1.80,0.39,0.00,5.22,6.81,7.92,5.22,6.81,7.92,987.00,298.22,37.72,2.03,1.69,1.19
2018/07/09T18:17:36z,2c:3a:e8:34:fd:11,2.50i,2.0+OPENLOG+15931 MB+DS3231+BME280+PMSX003A+PMSX003B,72,48,51.24,1016.74,0.01,29696,31,337,4.57,6.28,6.98,4.57,6.28,6.98,972.26,277.00,35.79,2.15,1.02,0.00,4.53,5.87,6.21,4.53,5.87,6.21,894.32,266.84,33.63,2.16,1.69,1.19
2018/07/09T18:18:56z,2c:3a:e8:34:fd:11,2.50i,2.0+OPENLOG+15931 MB+DS3231+BME280+PMSX003A+PMSX003B,72,46,50.09,1016.63,0.01,29696,31,417,4.82,7.09,7.42,4.82,7.09,7.42,1009.60,298.96,39.04,3.38,0.44,0.29,5.44,6.53,6.53,5.44,6.53,6.53,1006.17,302.86,37.39,0.11,1.69,1.19
2018/07/09T18:20:16z,2c:3a:e8:34:fd:11,2.50i,2.0+OPENLOG+15931 MB+DS3231+BME280+PMSX003A+PMSX003B,73,45,50.41,1016.71,0.01,30128,31,497,4.41,6.61,7.11,4.41,6.61,7.11,992.87,292.11,40.00,2.85,0.24,0.29,4.84,6.39,6.63,4.84,6.39,6.63,934.26,276.58,36.95,2.58,1.69,1.19
2018/07/09T18:21:36z,2c:3a:e8:34:fd:11,2.50i,2.0+OPENLOG+15931 MB+DS3231+BME280+PMSX003A+PMSX003B,74,45,51.32,1016.52,0.01,30128,31,577,5.00,7.53,7.96,5.00,7.53,7.96,1102.85,322.94,43.91,3.79,0.81,0.29,4.95,6.62,6.81,4.95,6.62,6.81,990.16,291.49,30.30,2.27,0.30,1.19
2018/07/09T18:22:56z,2c:3a:e8:34:fd:11,2.50i,2.0+OPENLOG+15931 MB+DS3231+BME280+PMSX003A+PMSX003B,74,44,50.71,1016.71,0.01,29848,31,657,4.71,6.24,6.38,4.71,6.24,6.38,985.67,295.44,32.36,0.67,0.20,0.29,5.00,6.00,6.14,5.00,6.00,6.14,952.30,283.46,30.35,0.65,0.30,1.19
2018/07/09T18:24:16z,2c:3a:e8:34:fd:11,2.50i,2.0+OPENLOG+15931 MB+DS3231+BME280+PMSX003A+PMSX003B,75,43,50.99,1016.45,0.01,29696,31,737,5.11,6.77,7.28,5.11,6.77,7.28,1029.06,311.55,41.66,1.30,0.62,0.30,5.05,6.24,6.97,5.05,6.24,6.97,964.82,280.82,36.84,2.97,0.82,1.19
2018/07/09T18:25:36z,2c:3a:e8:34:fd:11,2.50i,2.0+OPENLOG+15931 MB+DS3231+BME280+PMSX003A+PMSX003B,75,42,50.36,1016.80,0.01,30128,31,817,4.98,7.34,8.09,4.98,7.34,8.09,1055.43,308.66,45.72,2.62,0.81,0.30,4.92,6.86,6.86,4.92,6.86,6.86,953.67,284.56,41.17,2.56,0.82,1.19
2018/07/09T18:26:56z,2c:3a:e8:34:fd:11,2.50i,2.0+OPENLOG+15931 MB+DS3231+BME280+PMSX003A+PMSX003B,76,42,51.26,1016.78,0.01,30128,31,897,4.53,6.40,6.82,4.53,6.40,6.82,1024.33,302.80,35.71,1.56,0.24,0.30,5.16,6.47,6.55,5.16,6.47,6.55,1012.97,303.53,34.16,0.87,0.82,1.19
2018/07/09T18:28:16z,2c:3a:e8:34:fd:11,2.50i,2.0+OPENLOG+15931 MB+DS3231+BME280+PMSX003A+PMSX003B,76,41,50.61,1016.76,0.01,30128,31,977,4.43,6.28,6.48,4.43,6.28,6.48,1013.35,293.89,38.72,1.35,0.24,0.24,5.62,7.51,7.70,5.62,7.51,7.70,1108.86,328.49,37.46,2.30,0.27,1.19
2018/07/09T18:29:36z,2c:3a:e8:34:fd:11,2.50i,2.0+OPENLOG+15931 MB+DS3231+BME280+PMSX003A+PMSX003B,77,41,51.50,1016.82,0.01,29696,31,1057,5.53,8.36,8.74,5.53,8.26,8.70,1214.17,353.51,52.53,3.36,0.60,0.11,6.00,6.87,6.87,6.00,6.87,6.87,1067.76,318.66,30.68,0.45,0.27,1.19
2018/07/09T18:30:56z,2c:3a:e8:34:fd:11,2.50i,2.0+OPENLOG+15931 MB+DS3231+BME280+PMSX003A+PMSX003B,77,37,48.74,1017.12,0.01,29672,31,1137,178.09,662.98,1011.65,118.02,441.43,673.61,37753.96,12187.30,6714.46,1359.07,442.17,36.28,199.17,620.03,870.66,132.06,412.37,579.69,37040.23,11866.54,6029.69,1208.20,306.46,80.97
2018/07/09T18:32:16z,2c:3a:e8:34:fd:11,2.50i,2.0+OPENLOG+15931 MB+DS3231+BME280+PMSX003A+PMSX003B,77,29,42.32,1017.09,0.01,30128,31,1217,160.96,504.98,725.47,106.49,335.89,483.19,32360.43,10240.89,4844.55,895.36,282.47,17.74,178.58,456.69,613.89,118.33,303.64,408.64,31836.83,9983.39,4182.39,776.58,190.33,45.69
2018/07/09T18:33:36z,2c:3a:e8:34:fd:11,2.50i,2.0+OPENLOG+15931 MB+DS3231+BME280+PMSX003A+PMSX003B,78,22,36.08,1017.07,0.01,30128,31,1297,116.39,307.45,422.32,76.80,204.14,280.64,22576.29,6983.95,2795.09,471.64,143.59,8.59,121.86,274.36,357.03,80.42,182.19,237.14,21506.00,6614.75,2357.36,410.78,101.67,27.78
2018/07/09T18:34:56z,2c:3a:e8:34:fd:11,2.50i,2.0+OPENLOG+15931 MB+DS3231+BME280+PMSX003A+PMSX003B,78,18,31.06,1017.06,0.01,29384,31,1377,77.20,188.93,255.29,50.60,125.20,169.31,14882.93,4551.47,1653.71,269.84,81.00,4.36,83.28,176.00,221.00,54.61,116.56,146.33,14636.17,4443.39,1491.67,233.28,49.67,14.89
2018/07/09T18:36:16z,2c:3a:e8:34:fd:11,2.50i,2.0+OPENLOG+15931 MB+DS3231+BME280+PMSX003A+PMSX003B,79,15,27.40,1017.04,0.01,29696,31,1457,53.75,128.84,173.43,36.11,85.20,114.89,10327.64,3142.05,1113.68,184.07,56.45,3.59,56.97,119.03,143.56,37.72,78.44,94.92,10118.33,3061.61,962.25,150.69,28.50,4.17
2018/07/09T18:37:36z,2c:3a:e8:34:fd:11,2.50i,2.0+OPENLOG+15931 MB+DS3231+BME280+PMSX003A+PMSX003B,79,13,23.95,1016.74,0.01,30128,31,1537,31.42,72.96,94.13,25.87,50.87,69.67,6093.60,1857.84,628.18,90.49,26.80,1.53,33.94,70.37,85.74,27.23,49.51,66.23,6080.06,1846.29,587.11,85.77,18.83,4.46
2018/07/09T18:38:56z,2c:3a:e8:34:fd:11,2.50i,2.0+OPENLOG+15931 MB+DS3231+BME280+PMSX003A+PMSX003B,80,12,22.82,1016.77,0.01,30128,31,1617,26.24,61.47,77.24,23.04,45.87,62.71,5152.27,1559.76,518.33,73.69,20.27,1.42,27.14,55.65,66.86,23.51,43.35,57.49,4946.59,1483.73,477.38,65.27,12.16,2.43
2018/07/09T18:40:16z,2c:3a:e8:34:fd:11,2.50i,2.0+OPENLOG+15931 MB+DS3231+BME280+PMSX003A+PMSX003B,80,12,22.82,1016.59,0.01,29640,31,1697,23.62,55.42,73.96,22.00,43.62,61.24,4652.47,1409.20,489.11,73.02,23.02,1.71,25.63,50.91,61.29,22.94,41.57,54.57,4701.09,1410.09,411.09,55.31,12.69,2.06
2018/07/09T18:41:36z,2c:3a:e8:34:fd:11,2.50i,2.0+OPENLOG+15931 MB+DS3231+BME280+PMSX003A+PMSX003B,80,11,20.76,1016.63,0.01,29696,31,1777,23.57,53.52,67.34,21.73,42.70,57.84,4585.91,1384.43,447.84,60.86,18.02,1.55,22.83,46.43,54.14,21.26,39.20,50.26,4115.49,1245.34,372.74,53.83,7.94,1.97
2018/07/09T18:42:56z,2c:3a:e8:34:fd:11,2.50i,2.0+OPENLOG+15931 MB+DS3231+BME280+PMSX003A+PMSX003B,81,11,21.53,1016.76,0.01,30128,31,1857,20.41,46.50,59.52,19.89,39.39,53.61,4028.87,1206.91,393.13,57.02,16.43,0.70,20.24,43.18,50.74,19.65,37.35,48.15,3825.35,1145.91,358.97,47.38,8.38,2.56
2018/07/09T18:44:16z,2c:3a:e8:34:fd:11,2.50i,2.0+OPENLOG+15931 MB+DS3231+BME280+PMSX003A+PMSX003B,81,11,21.53,1016.70,0.01,30128,31,1937,20.37,46.00,59.59,19.96,39.13,53.54,3916.43,1189.80,386.74,56.87,18.30,0.78,19.47,39.36,49.11,19.06,35.17,47.14,3638.25,1090.11,331.14,47.17,11.14,3.28
2018/07/09T18:45:36z,2c:3a:e8:34:fd:11,2.50i,2.0+OPENLOG+15931 MB+DS3231+BME280+PMSX003A+PMSX003B,81,11,21.53,1016.77,0.01,30128,31,2017,16.56,40.18,51.29,16.56,35.87,48.56,3392.33,1020.73,351.84,46.00,14.78,0.89,18.34,36.34,43.20,18.23,33.43,42.66,3434.91,1035.11,292.74,40.69,7.14,1.20
2018/07/09T18:46:56z,2c:3a:e8:34:fd:11,2.50i,2.0+OPENLOG+15931 MB+DS3231+BME280+PMSX003A+PMSX003B,82,11,22.30,1016.77,0.01,29696,31,2097,16.31,38.16,50.60,16.24,34.47,48.04,3306.00,1013.71,342.69,49.49,14.62,0.56,16.54,34.71,41.20,16.54,32.49,41.14,3106.20,941.20,277.66,38.74,8.09,2.00
2018/07/09T18:48:16z,2c:3a:e8:34:fd:11,2.50i,2.0+OPENLOG+15931 MB+DS3231+BME280+PMSX003A+PMSX003B,82,11,22.30,1016.79,0.01,29672,31,2177,16.04,34.15,43.80,16.04,32.28,43.39,3117.65,947.20,297.72,34.33,11.54,0.76,15.09,32.11,41.51,15.09,30.97,41.43,3046.71,903.97,275.26,42.11,10.83,2.60
2018/07/09T18:49:36z,2c:3a:e8:34:fd:11,2.50i,2.0+OPENLOG+15931 MB+DS3231+BME280+PMSX003A+PMSX003B,82,10,20.05,1016.71,0.01,30128,31,2257,13.80,32.73,41.20,13.80,31.42,41.16,2826.60,838.42,274.64,40.42,10.22,0.76,14.17,28.69,32.94,14.17,28.42,32.94,2693.42,814.86,237.53,27.83,4.31,1.25
2018/07/09T18:51:19z,2c:3a:e8:34:fd:11,2.50i,2.0+OPENLOG+15931 MB+DS3231+BME280+PMSX003A+PMSX003B,82,10,20.05,1016.60,0.01,29672,31,23,5.00,15.00,32.00,5.00,15.00,32.00,0.00,0.00,0.00,0.00,0.00,0.00,10.00,17.00,21.00,10.00,17.00,21.00,0.00,0.00,0.00,0.00,0.00,0.00
2018/07/09T18:52:34z,2c:3a:e8:34:fd:11,2.50i,2.0+OPENLOG+15931 MB+DS3231+BME280+PMSX003A+PMSX003B,82,10,20.05,1016.66,0.01,29672,31,97,10.44,24.88,32.37,10.44,24.88,32.37,2181.59,658.32,217.68,27.12,9.00,1.46,12.82,25.85,32.18,12.82,25.85,32.18,2427.73,739.18,230.73,29.76,7.30,1.42
2018/07/09T18:53:54z,2c:3a:e8:34:fd:11,2.50i,2.0+OPENLOG+15931 MB+DS3231+BME280+PMSX003A+PMSX003B,82,10,20.05,1016.57,0.01,30128,31,177,10.41,23.86,31.82,10.41,23.86,31.82,2251.98,673.91,214.50,28.43,9.02,0.93,10.97,22.29,25.20,10.97,22.29,25.20,2027.23,618.34,182.54,21.31,3.66,0.09
2018/07/09T18:55:14z,2c:3a:e8:34:fd:11,2.50i,2.0+OPENLOG+15931 MB+DS3231+BME280+PMSX003A+PMSX003B,83,10,20.82,1016.76,0.01,29944,31,257,10.16,22.11,27.00,10.16,22.11,27.00,2001.80,605.09,185.40,23.84,6.73,0.27,10.00,20.69,23.14,10.00,20.69,23.14,2020.03,603.86,170.83,18.00,3.06,0.60
2018/07/09T18:56:34z,2c:3a:e8:34:fd:11,2.50i,2.0+OPENLOG+15931 MB+DS3231+BME280+PMSX003A+PMSX003B,83,10,20.82,1016.69,0.01,29696,31,337,8.33,21.18,26.87,8.33,21.18,26.87,1916.40,573.31,185.93,24.89,8.47,0.24,9.94,18.29,22.57,9.94,18.29,22.57,1828.89,552.77,136.23,24.97,6.40,0.31
2018/07/09T18:57:54z,2c:3a:e8:34:fd:11,2.50i,2.0+OPENLOG+15931 MB+DS3231+BME280+PMSX003A+PMSX003B,83,10,20.82,1016.74,0.01,29696,31,417,9.05,19.18,23.57,9.05,19.18,23.57,1841.39,553.80,173.43,17.80,4.80,0.25,9.29,18.65,20.53,9.29,18.65,20.53,1744.68,521.15,152.91,15.32,1.38,0.74
2018/07/09T18:59:14z,2c:3a:e8:34:fd:11,2.50i,2.0+OPENLOG+15931 MB+DS3231+BME280+PMSX003A+PMSX003B,83,10,20.82,1016.67,0.01,30128,31,497,7.44,16.31,20.60,7.44,16.31,20.60,1501.93,462.29,133.16,19.78,5.56,0.25,7.97,16.20,22.03,7.97,16.20,22.03,1521.09,466.37,141.37,23.86,7.77,2.91
2018/07/09T19:00:34z,2c:3a:e8:34:fd:11,2.50i,2.0+OPENLOG+15931 MB+DS3231+BME280+PMSX003A+PMSX003B,83,10,20.82,1016.54,0.01,30128,31,577,8.43,17.39,20.23,8.43,17.39,20.23,1671.41,503.48,152.84,15.43,2.95,0.25,8.14,14.64,18.61,8.14,14.64,18.61,1553.08,464.81,129.17,14.64,4.81,1.56
2018/07/09T19:01:54z,2c:3a:e8:34:fd:11,2.50i,2.0+OPENLOG+15931 MB+DS3231+BME280+PMSX003A+PMSX003B,84,10,21.58,1016.68,0.01,29696,31,657,5.98,14.25,16.64,5.98,14.25,16.64,1408.84,427.20,125.00,13.75,1.89,0.25,7.81,15.03,16.28,7.81,15.03,16.28,1486.25,445.56,124.03,11.28,1.42,0.36
2018/07/09T19:03:14z,2c:3a:e8:34:fd:11,2.50i,2.0+OPENLOG+15931 MB+DS3231+BME280+PMSX003A+PMSX003B,84,10,21.58,1016.65,0.01,29696,31,737,6.48,13.91,16.14,6.48,13.91,16.14,1383.34,413.80,117.34,10.07,3.20,0.25,6.83,12.51,14.26,6.83,12.51,14.26,1282.20,379.63,104.37,9.97,2.34,0.06
2018/07/09T19:04:34z,2c:3a:e8:34:fd:11,2.50i,2.0+OPENLOG+15931 MB+DS3231+BME280+PMSX003A+PMSX003B,84,10,21.58,1016.60,0.01,30128,31,817,5.77,12.68,14.91,5.77,12.68,14.91,1248.34,370.59,103.59,11.64,2.75,0.25,4.69,10.09,12.71,4.69,10.09,12.71,1062.17,310.51,92.69,10.29,3.60,0.60
2018/07/09T19:05:54z,2c:3a:e8:34:fd:11,2.50i,2.0+OPENLOG+15931 MB+DS3231+BME280+PMSX003A+PMSX003B,84,10,21.58,1016.63,0.01,30128,31,897,5.61,12.57,14.91,5.61,12.57,14.91,1215.48,373.02,105.32,11.91,3.20,0.25,6.19,11.75,13.92,6.19,11.75,13.92,1214.67,369.17,90.94,13.69,2.92,1.47
2018/07/09T19:07:14z,2c:3a:e8:34:fd:11,2.50i,2.0+OPENLOG+15931 MB+DS3231+BME280+PMSX003A+PMSX003B,84,10,21.58,1016.54,0.01,29696,31,977,4.95,10.23,12.43,4.95,10.23,12.43,1035.75,312.57,93.25,7.86,1.89,0.25,4.97,10.61,13.33,4.97,10.61,13.33,1135.67,347.31,93.64,12.19,3.08,1.47
2018/07/09T19:08:34z,2c:3a:e8:34:fd:11,2.50i,2.0+OPENLOG+15931 MB+DS3231+BME280+PMSX003A+PMSX003B,84,10,21.58,1016.64,0.01,29592,31,1057,4.30,9.20,10.64,4.30,9.20,10.64,963.41,288.61,74.02,8.55,1.43,0.14,4.77,8.40,9.69,4.77,8.40,9.69,989.31,298.00,76.66,5.97,2.11,1.47
2018/07/09T19:09:54z,2c:3a:e8:34:fd:11,2.50i,2.0+OPENLOG+15931 MB+DS3231+BME280+PMSX003A+PMSX003B,84,10,21.58,1016.56,0.01,30128,31,1137,4.66,9.11,12.36,4.66,9.11,12.36,1034.93,305.23,80.91,10.43,3.73,0.55,4.31,7.61,8.53,4.31,7.61,8.53,844.00,252.00,57.64,7.53,1.42,0.31
2018/07/09T19:11:14z,2c:3a:e8:34:fd:11,2.50i,2.0+OPENLOG+15931 MB+DS3231+BME280+PMSX003A+PMSX003B,84,10,21.58,1016.61,0.01,30128,31,1217,4.27,9.82,11.25,4.27,9.82,11.25,1026.95,300.66,78.34,7.98,2.00,0.34,4.69,8.14,9.31,4.69,8.14,9.31,958.17,285.22,70.75,7.56,1.14,0.31
2018/07/09T19:12:34z,2c:3a:e8:34:fd:11,2.50i,2.0+OPENLOG+15931 MB+DS3231+BME280+PMSX003A+PMSX003B,84,10,21.58,1016.59,0.01,29640,31,1297,3.68,8.73,10.66,3.68,8.73,10.66,873.55,260.34,79.77,9.98,1.52,0.34,3.60,8.09,9.60,3.60,8.09,9.60,853.11,261.29,67.03,9.97,2.00,0.31
2018/07/09T19:13:54z,2c:3a:e8:34:fd:11,2.50i,2.0+OPENLOG+15931 MB+DS3231+BME280+PMSX003A+PMSX003B,84,10,21.58,1016.61,0.01,29696,31,1377,2.43,7.39,8.61,2.43,7.39,8.61,672.95,207.11,66.70,7.86,1.77,0.77,3.80,6.97,8.00,3.80,6.97,8.00,747.43,226.00,54.51,7.09,1.40,0.49
2018/07/09T19:15:14z,2c:3a:e8:34:fd:11,2.50i,2.0+OPENLOG+15931 MB+DS3231+BME280+PMSX003A+PMSX003B,84,10,21.58,1016.50,0.01,30128,31,1457,3.07,7.07,8.05,3.07,7.07,8.05,725.80,218.93,65.59,4.93,1.16,0.77,2.89,6.67,7.28,2.89,6.67,7.28,707.17,210.47,59.97,7.31,1.14,0.49
2018/07/09T19:16:34z,2c:3a:e8:34:fd:11,2.50i,2.0+OPENLOG+15931 MB+DS3231+BME280+PMSX003A+PMSX003B,84,9,19.10,1016.64,0.01,30128,31,1537,2.23,4.86,5.68,2.23,4.86,5.68,623.73,190.36,48.11,2.27,1.11,0.11,2.78,5.17,5.67,2.78,5.17,5.67,668.83,200.31,51.31,3.19,1.14,0.49
2018/07/09T19:17:54z,2c:3a:e8:34:fd:11,2.50i,2.0+OPENLOG+15931 MB+DS3231+BME280+PMSX003A+PMSX003B,84,9,19.10,1016.47,0.01,30128,31,1617,2.11,5.70,7.34,2.11,5.70,7.34,622.91,184.95,51.41,7.50,1.11,0.50,2.46,4.60,6.60,2.46,4.60,6.60,609.34,184.71,46.37,5.60,2.40,0.37
2018/07/09T19:19:14z,2c:3a:e8:34:fd:11,2.50i,2.0+OPENLOG+15931 MB+DS3231+BME280+PMSX003A+PMSX003B,84,9,19.10,1016.64,0.01,29696,31,1697,2.36,5.64,6.48,2.36,5.64,6.48,558.55,172.34,49.89,6.86,0.48,0.50,1.14,3.60,4.54,1.14,3.60,4.54,487.54,149.34,41.63,3.57,0.86,0.86
2018/07/09T19:20:34z,2c:3a:e8:34:fd:11,2.50i,2.0+OPENLOG+15931 MB+DS3231+BME280+PMSX003A+PMSX003B,84,9,19.10,1016.65,0.01,29672,31,1777,2.34,5.70,7.07,2.34,5.70,7.07,672.48,201.84,49.18,6.43,1.00,0.41,1.92,4.39,4.56,1.92,4.39,4.56,528.00,161.14,40.97,4.14,0.86,0.86
2018/07/09T19:21:54z,2c:3a:e8:34:fd:11,2.50i,2.0+OPENLOG+15931 MB+DS3231+BME280+PMSX003A+PMSX003B,84,9,19.10,1016.72,0.01,30128,31,1857,2.07,4.11,4.64,2.07,4.11,4.64,555.48,162.11,36.66,2.70,0.55,0.41,2.42,4.14,4.75,2.42,4.14,4.75,555.58,166.44,44.92,1.97,0.81,0.86
2018/07/09T19:23:14z,2c:3a:e8:34:fd:11,2.50i,2.0+OPENLOG+15931 MB+DS3231+BME280+PMSX003A+PMSX003B,84,9,19.10,1016.69,0.01,30128,31,1937,1.66,4.57,5.59,1.66,4.57,5.59,547.36,164.20,45.27,5.43,1.64,0.41,2.03,3.50,4.06,2.03,3.50,4.06,470.33,140.67,33.17,2.11,0.56,0.47
2018/07/09T19:24:34z,2c:3a:e8:34:fd:11,2.50i,2.0+OPENLOG+15931 MB+DS3231+BME280+PMSX003A+PMSX003B,84,9,19.10,1016.70,0.01,29696,31,2017,1.43,5.07,6.11,1.43,5.07,6.11,491.45,151.73,50.02,7.70,0.95,0.41,2.03,3.83,3.92,2.03,3.83,3.92,499.75,146.33,33.94,3.22,0.08,0.08
2018/07/09T19:25:54z,2c:3a:e8:34:fd:11,2.50i,2.0+OPENLOG+15931 MB+DS3231+BME280+PMSX003A+PMSX003B,84,9,19.10,1016.68,0.01,29696,31,2097,1.41,3.52,5.07,1.41,3.52,5.07,442.02,135.32,41.52,5.14,1.84,0.41,1.50,3.00,3.36,1.50,3.00,3.36,436.00,125.39,34.44,1.94,0.31,0.31
2018/07/09T19:27:14z,2c:3a:e8:34:fd:11,2.50i,2.0+OPENLOG+15931 MB+DS3231+BME280+PMSX003A+PMSX003B,84,9,19.10,1016.76,0.01,30128,31,2177,1.50,3.25,3.80,1.50,3.25,3.80,446.18,133.02,40.27,1.91,1.84,0.41,1.34,3.37,4.54,1.34,3.37,4.54,429.60,127.34,31.49,6.03,1.00,0.37
2018/07/09T19:28:34z,2c:3a:e8:34:fd:11,2.50i,2.0+OPENLOG+15931 MB+DS3231+BME280+PMSX003A+PMSX003B,84,9,19.10,1016.63,0.01,30128,31,2257,1.00,3.41,3.64,1.00,3.41,3.64,368.11,108.98,34.64,2.20,0.25,0.41,1.09,3.14,4.14,1.09,3.14,4.14,428.14,120.26,27.83,6.54,0.37,0.37
2018/07/09T19:30:17z,2c:3a:e8:34:fd:11,2.50i,2.0+OPENLOG+15931 MB+DS3231+BME280+PMSX003A+PMSX003B,84,9,19.10,1016.72,0.01,29672,31,23,0.00,7.00,7.00,0.00,7.00,7.00,0.00,0.00,0.00,0.00,0.00,0.00,0.00,1.00,1.00,0.00,1.00,1.00,0.00,0.00,0.00,0.00,0.00,0.00
2018/07/09T19:31:32z,2c:3a:e8:34:fd:11,2.50i,2.0+OPENLOG+15931 MB+DS3231+BME280+PMSX003A+PMSX003B,84,9,19.10,1016.73,0.01,30128,31,97,0.16,1.16,1.39,0.16,1.16,1.39,277.11,85.63,19.50,1.53,0.32,0.00,0.76,2.68,3.62,0.76,2.68,3.62,386.74,119.09,36.24,4.62,1.68,0.12
2018/07/09T19:32:52z,2c:3a:e8:34:fd:11,2.50i,2.0+OPENLOG+15931 MB+DS3231+BME280+PMSX003A+PMSX003B,84,9,19.10,1016.72,0.01,30128,31,177,0.70,1.41,2.27,0.70,1.41,2.27,276.00,80.23,17.45,3.14,1.00,0.00,0.46,1.29,1.29,0.46,1.29,1.29,289.54,84.40,16.26,1.49,1.68,0.12
2018/07/09T19:34:12z,2c:3a:e8:34:fd:11,2.50i,2.0+OPENLOG+15931 MB+DS3231+BME280+PMSX003A+PMSX003B,84,9,19.10,1016.54,0.01,30128,31,257,0.70,1.89,2.39,0.70,1.89,2.39,264.34,81.41,18.84,2.14,0.66,0.00,0.64,1.50,1.50,0.64,1.50,1.50,247.17,75.89,13.81,0.89,1.68,0.12
2018/07/09T19:35:32z,2c:3a:e8:34:fd:11,2.50i,2.0+OPENLOG+15931 MB+DS3231+BME280+PMSX003A+PMSX003B,85,9,19.85,1016.73,0.01,29592,31,337,0.93,2.07,2.73,0.93,2.07,2.73,277.23,83.11,20.09,2.14,0.59,0.00,0.50,1.50,2.19,0.50,1.50,2.19,230.42,74.89,24.44,1.69,0.36,0.36
2018/07/09T19:36:52z,2c:3a:e8:34:fd:11,2.50i,2.0+OPENLOG+15931 MB+DS3231+BME280+PMSX003A+PMSX003B,84,9,19.10,1016.64,0.01,29672,31,417,0.43,2.32,2.91,0.43,2.32,2.91,287.73,84.27,20.91,4.14,0.59,0.25,0.31,1.03,1.19,0.31,1.03,1.19,228.08,69.28,8.89,0.78,0.06,0.06
2018/07/09T19:38:12z,2c:3a:e8:34:fd:11,2.50i,2.0+OPENLOG+15931 MB+DS3231+BME280+PMSX003A+PMSX003B,85,9,19.85,1016.69,0.01,30128,31,497,0.11,0.48,1.39,0.11,0.48,1.39,231.41,68.27,18.66,2.30,0.66,0.25,0.36,0.81,1.25,0.36,0.81,1.25,228.92,68.14,8.83,1.69,0.06,0.06
2018/07/09T19:39:32z,2c:3a:e8:34:fd:11,2.50i,2.0+OPENLOG+15931 MB+DS3231+BME280+PMSX003A+PMSX003B,84,9,19.10,1016.67,0.01,30128,31,577,0.20,1.20,2.14,0.20,1.20,2.14,253.77,72.20,18.91,3.80,1.43,0.25,0.36,0.61,0.92,0.36,0.61,0.92,176.33,54.00,14.31,2.33,0.50,0.06
2018/07/09T19:40:52z,2c:3a:e8:34:fd:11,2.50i,2.0+OPENLOG+15931 MB+DS3231+BME280+PMSX003A+PMSX003B,85,9,19.85,1016.77,0.01,29696,31,657,0.18,0.75,1.43,0.18,0.75,1.43,228.07,67.86,14.16,1.70,0.34,0.25,0.20,0.91,1.23,0.20,0.91,1.23,219.00,65.71,15.43,1.60,0.31,0.31
2018/07/09T19:42:12z,2c:3a:e8:34:fd:11,2.50i,2.0+OPENLOG+15931 MB+DS3231+BME280+PMSX003A+PMSX003B,85,9,19.85,1016.76,0.01,29696,31,737,0.02,0.66,0.98,0.02,0.66,0.98,194.39,55.95,9.73,1.07,0.55,0.25,1.00,1.74,2.18,1.00,1.74,2.18,342.24,105.89,18.21,1.34,0.45,0.31
2018/07/09T19:43:32z,2c:3a:e8:34:fd:11,2.50i,2.0+OPENLOG+15931 MB+DS3231+BME280+PMSX003A+PMSX003B,85,9,19.85,1016.74,0.01,30128,31,817,0.39,1.50,1.70,0.39,1.50,1.70,231.20,67.25,15.93,2.27,0.25,0.25,0.19,0.31,0.31,0.19,0.31,0.31,165.25,49.86,11.17,0.19,0.14,0.31
2018/07/09T19:44:52z,2c:3a:e8:34:fd:11,2.50i,2.0+OPENLOG+15931 MB+DS3231+BME280+PMSX003A+PMSX003B,85,9,19.85,1016.76,0.01,30128,31,897,0.39,0.61,0.93,0.39,0.61,0.93,169.77,52.55,13.48,1.09,0.27,0.25,0.25,0.89,0.94,0.25,0.89,0.94,193.58,57.36,11.17,1.17,0.06,0.31
2018/07/09T19:46:12z,2c:3a:e8:34:fd:11,2.50i,2.0+OPENLOG+15931 MB+DS3231+BME280+PMSX003A+PMSX003B,85,9,19.85,1016.67,0.01,29696,31,977,0.05,0.66,0.73,0.05,0.66,0.73,180.89,53.86,14.20,1.16,0.27,0.25,0.25,0.78,0.95,0.25,0.78,0.95,175.86,48.35,10.81,1.46,0.46,0.46
2018/07/09T19:47:32z,2c:3a:e8:34:fd:11,2.50i,2.0+OPENLOG+15931 MB+DS3231+BME280+PMSX003A+PMSX003B,85,9,19.85,1016.66,0.01,29696,31,1057,0.05,0.21,0.30,0.05,0.21,0.30,148.53,43.70,10.12,1.21,0.27,0.25,0.53,0.72,0.78,0.53,0.72,0.78,182.92,57.00,9.83,0.97,0.06,0.06
2018/07/09T19:48:52z,2c:3a:e8:34:fd:11,2.50i,2.0+OPENLOG+15931 MB+DS3231+BME280+PMSX003A+PMSX003B,85,9,19.85,1016.76,0.01,30128,31,1137,0.05,0.50,0.50,0.05,0.50,0.50,157.02,44.45,9.32,1.21,0.27,0.25,0.53,0.58,0.92,0.53,0.58,0.92,190.42,54.61,10.68,1.24,0.06,0.06
2018/07/09T19:50:12z,2c:3a:e8:34:fd:11,2.50i,2.0+OPENLOG+15931 MB+DS3231+BME280+PMSX003A+PMSX003B,85,9,19.85,1016.77,0.01,30128,31,1217,0.05,0.84,0.88,0.05,0.84,0.88,147.56,42.40,13.16,1.56,0.26,0.25,0.53,0.09,0.60,0.53,0.09,0.60,105.17,30.66,8.06,1.09,0.80,0.37
2018/07/09T19:51:32z,2c:3a:e8:34:fd:11,2.50i,2.0+OPENLOG+15931 MB+DS3231+BME280+PMSX003A+PMSX003B,85,9,19.85,1016.80,0.01,29640,31,1297,0.05,0.45,0.45,0.05,0.45,0.45,173.18,49.93,9.36,0.39,0.26,0.25,0.15,0.33,0.41,0.15,0.33,0.41,156.38,41.54,4.38,0.97,0.41,0.37
2018/07/09T19:52:52z,2c:3a:e8:34:fd:11,2.50i,2.0+OPENLOG+15931 MB+DS3231+BME280+PMSX003A+PMSX003B,85,9,19.85,1016.64,0.01,29512,31,1377,0.05,0.45,0.21,0.05,0.45,0.21,109.67,33.95,7.05,0.40,0.26,0.25,0.15,0.08,0.08,0.15,0.08,0.08,133.86,40.84,7.78,0.57,0.41,0.37
2018/07/09T19:54:12z,2c:3a:e8:34:fd:11,2.50i,2.0+OPENLOG+15931 MB+DS3231+BME280+PMSX003A+PMSX003B,85,9,19.85,1016.73,0.01,30128,31,1457,0.05,0.45,0.11,0.05,0.45,0.11,110.05,31.61,3.77,1.20,0.70,0.36,0.15,0.60,0.69,0.15,0.60,0.69,162.60,49.86,10.46,1.71,0.41,0.37
2018/07/09T19:55:32z,2c:3a:e8:34:fd:11,2.50i,2.0+OPENLOG+15931 MB+DS3231+BME280+PMSX003A+PMSX003B,85,9,19.85,1016.74,0.01,30128,31,1537,0.05,0.11,0.57,0.05,0.11,0.57,130.77,39.02,14.66,1.57,0.25,0.25,0.15,0.08,0.97,0.15,0.08,0.97,125.51,35.97,7.81,2.59,1.41,0.27
2018/07/09T19:56:52z,2c:3a:e8:34:fd:11,2.50i,2.0+OPENLOG+15931 MB+DS3231+BME280+PMSX003A+PMSX003B,85,9,19.85,1016.72,0.01,30128,31,1617,0.05,0.40,0.72,0.05,0.40,0.72,126.14,37.09,9.63,1.47,0.86,0.19,0.15,0.08,0.46,0.15,0.08,0.46,122.31,37.03,6.38,1.41,1.08,0.27
2018/07/09T19:58:12z,2c:3a:e8:34:fd:11,2.50i,2.0+OPENLOG+15931 MB+DS3231+BME280+PMSX003A+PMSX003B,85,9,19.85,1016.61,0.01,29696,31,1697,0.05,0.40,0.05,0.05,0.40,0.05,123.82,37.43,9.18,1.14,0.32,0.19,0.15,0.08,0.46,0.15,0.08,0.46,76.50,23.03,4.17,1.41,1.08,0.27
2018/07/09T19:59:32z,2c:3a:e8:34:fd:11,2.50i,2.0+OPENLOG+15931 MB+DS3231+BME280+PMSX003A+PMSX003B,85,9,19.85,1016.66,0.01,29672,31,1777,0.05,0.40,0.05,0.05,0.40,0.05,88.57,25.77,9.41,0.05,0.32,0.19,0.15,0.08,0.29,0.15,0.08,0.29,94.42,25.37,2.89,0.34,0.34,0.34
2018/07/09T20:00:52z,2c:3a:e8:34:fd:11,2.50i,2.0+OPENLOG+15931 MB+DS3231+BME280+PMSX003A+PMSX003B,85,9,19.85,1016.59,0.01,30128,31,1857,0.05,0.40,0.32,0.05,0.40,0.32,103.64,30.48,6.52,1.00,0.39,0.39,0.15,0.08,0.11,0.15,0.08,0.11,87.16,26.22,8.95,0.65,0.35,0.34
2018/07/09T20:02:12z,2c:3a:e8:34:fd:11,2.50i,2.0+OPENLOG+15931 MB+DS3231+BME280+PMSX003A+PMSX003B,85,9,19.85,1016.67,0.01,29944,31,1937,0.05,0.40,0.32,0.05,0.40,0.32,82.57,21.68,5.41,0.70,0.39,0.39,0.05,0.22,0.22,0.05,0.22,0.22,131.35,38.76,6.24,0.84,0.19,0.34
2018/07/09T20:03:32z,2c:3a:e8:34:fd:11,2.50i,2.0+OPENLOG+15931 MB+DS3231+BME280+PMSX003A+PMSX003B,85,9,19.85,1016.92,0.01,29696,31,2017,0.05,0.02,0.16,0.05,0.02,0.16,89.86,24.77,7.93,1.82,0.25,0.39,0.05,0.22,0.22,0.05,0.22,0.22,97.62,29.33,3.03,0.46,0.08,0.34
2018/07/09T20:04:52z,2c:3a:e8:34:fd:11,2.50i,2.0+OPENLOG+15931 MB+DS3231+BME280+PMSX003A+PMSX003B,85,8,17.11,1016.93,0.01,29696,31,2097,0.05,0.02,0.11,0.05,0.02,0.11,89.18,26.41,3.52,0.16,0.11,0.39,0.05,0.22,0.22,0.05,0.22,0.22,64.25,19.58,2.14,0.31,0.31,0.34
2018/07/09T20:06:12z,2c:3a:e8:34:fd:11,2.50i,2.0+OPENLOG+15931 MB+DS3231+BME280+PMSX003A+PMSX003B,84,6,9.83,1016.72,0.01,30128,31,2177,0.05,0.02,0.11,0.05,0.02,0.11,41.80,12.68,2.14,0.57,0.11,0.39,0.05,0.22,0.22,0.05,0.22,0.22,32.08,8.75,0.89,0.31,0.31,0.34
2018/07/09T20:07:32z,2c:3a:e8:34:fd:11,2.50i,2.0+OPENLOG+15931 MB+DS3231+BME280+PMSX003A+PMSX003B,84,5,5.79,1016.78,0.01,30128,31,2257,0.05,0.02,0.11,0.05,0.02,0.11,15.61,4.80,1.14,0.57,0.11,0.39,0.05,0.22,0.22,0.05,0.22,0.22,16.58,5.53,1.66,0.31,0.31,0.34
2018/07/09T20:09:15z,2c:3a:e8:34:fd:11,2.50i,2.0+OPENLOG+15931 MB+DS3231+BME280+PMSX003A+PMSX003B,84,4,0.95,1016.90,0.01,29672,31,23,0.00,0.00,0.00,0.00,0.00,0.00,0.00,0.00,0.00,0.00,0.00,0.00,0.00,0.00,0.00,0.00,0.00,0.00,0.00,0.00,0.00,0.00,0.00,0.00
2018/07/09T20:10:30z,2c:3a:e8:34:fd:11,2.50i,2.0+OPENLOG+15931 MB+DS3231+BME280+PMSX003A+PMSX003B,84,4,0.95,1016.95,0.01,30128,31,97,0.00,0.00,0.00,0.00,0.00,0.00,15.45,5.03,0.32,0.00,0.00,0.00,0.00,0.00,0.00,0.00,0.00,0.00,3.97,1.12,0.00,0.00,0.00,0.00
2018/07/09T20:11:50z,2c:3a:e8:34:fd:11,2.50i,2.0+OPENLOG+15931 MB+DS3231+BME280+PMSX003A+PMSX003B,84,3,-5.12,1016.90,0.01,30128,31,177,0.00,0.00,0.00,0.00,0.00,0.00,2.60,0.87,0.73,0.00,0.00,0.00,0.00,0.00,0.00,0.00,0.00,0.00,9.83,1.75,0.00,0.00,0.00,0.00
2018/07/09T20:13:10z,2c:3a:e8:34:fd:11,2.50i,2.0+OPENLOG+15931 MB+DS3231+BME280+PMSX003A+PMSX003B,84,3,-5.12,1016.87,0.01,30128,31,257,0.00,0.00,0.00,0.00,0.00,0.00,10.33,0.78,0.47,0.00,0.00,0.00,0.00,0.00,0.00,0.00,0.00,0.00,6.87,2.29,0.42,0.42,0.00,0.00
2018/07/09T20:14:30z,2c:3a:e8:34:fd:11,2.50i,2.0+OPENLOG+15931 MB+DS3231+BME280+PMSX003A+PMSX003B,84,3,-5.12,1016.83,0.01,29696,31,337,0.00,0.00,0.00,0.00,0.00,0.00,2.27,0.40,0.40,0.00,0.00,0.00,0.00,0.00,0.00,0.00,0.00,0.00,0.63,0.21,0.16,0.42,0.00,0.00
2018/07/09T20:15:50z,2c:3a:e8:34:fd:11,2.50i,2.0+OPENLOG+15931 MB+DS3231+BME280+PMSX003A+PMSX003B,84,2,-13.37,1016.72,0.01,29696,31,417,0.00,0.00,0.00,0.00,0.00,0.00,3.40,0.80,0.38,0.00,0.00,0.00,0.00,0.00,0.00,0.00,0.00,0.00,0.25,0.08,0.08,0.42,0.00,0.00
2018/07/09T20:17:10z,2c:3a:e8:34:fd:11,2.50i,2.0+OPENLOG+15931 MB+DS3231+BME280+PMSX003A+PMSX003B,84,2,-13.37,1016.76,0.01,30128,31,497,0.00,0.00,0.00,0.00,0.00,0.00,1.53,0.11,0.38,0.00,0.00,0.00,0.00,0.00,0.00,0.00,0.00,0.00,1.18,0.39,0.08,0.42,0.00,0.00
2018/07/09T20:18:30z,2c:3a:e8:34:fd:11,2.50i,2.0+OPENLOG+15931 MB+DS3231+BME280+PMSX003A+PMSX003B,84,2,-13.37,1016.81,0.01,30128,31,577,0.00,0.00,0.00,0.00,0.00,0.00,4.02,1.34,0.38,0.00,0.00,0.00,0.00,0.00,0.00,0.00,0.00,0.00,8.53,2.21,0.45,0.42,0.00,0.00
2018/07/09T20:19:50z,2c:3a:e8:34:fd:11,2.50i,2.0+OPENLOG+15931 MB+DS3231+BME280+PMSX003A+PMSX003B,84,2,-13.37,1016.79,0.01,29592,31,657,0.00,0.00,0.00,0.00,0.00,0.00,3.20,0.38,0.38,0.00,0.00,0.00,0.00,0.00,0.00,0.00,0.00,0.00,7.86,2.62,0.73,0.42,0.00,0.00
2018/07/09T20:21:10z,2c:3a:e8:34:fd:11,2.50i,2.0+OPENLOG+15931 MB+DS3231+BME280+PMSX003A+PMSX003B,84,2,-13.37,1016.80,0.01,29696,31,737,0.00,0.00,0.00,0.00,0.00,0.00,6.07,0.95,0.36,0.00,0.00,0.00,0.00,0.00,0.00,0.00,0.00,0.00,2.37,0.79,0.73,0.42,0.00,0.00
2018/07/09T20:22:30z,2c:3a:e8:34:fd:11,2.50i,2.0+OPENLOG+15931 MB+DS3231+BME280+PMSX003A+PMSX003B,84,2,-13.37,1016.58,0.01,30128,31,817,0.00,0.00,0.00,0.00,0.00,0.00,20.11,6.70,3.20,0.25,0.00,0.00,0.00,0.00,0.00,0.00,0.00,0.00,1.18,0.39,0.73,0.42,0.00,0.00
2018/07/09T20:23:50z,2c:3a:e8:34:fd:11,2.50i,2.0+OPENLOG+15931 MB+DS3231+BME280+PMSX003A+PMSX003B,84,18,35.95,1016.65,0.01,30128,31,897,12.95,31.84,43.95,9.86,22.09,30.21,2616.56,794.91,276.93,49.86,15.56,1.33,6.42,10.58,12.64,6.19,9.31,11.33,1246.25,368.08,76.89,9.53,2.94,0.81
2018/07/09T20:25:10z,2c:3a:e8:34:fd:11,2.50i,2.0+OPENLOG+15931 MB+DS3231+BME280+PMSX003A+PMSX003B,84,15,31.39,1017.01,0.01,29640,31,977,160.81,538.05,781.44,106.56,357.93,520.23,33101.65,10518.28,5227.35,993.12,311.81,18.88,180.37,494.29,671.31,119.46,328.94,446.91,32153.40,10186.23,4610.03,893.49,204.60,58.97
2018/07/09T20:26:30z,2c:3a:e8:34:fd:11,2.50i,2.0+OPENLOG+15931 MB+DS3231+BME280+PMSX003A+PMSX003B,84,11,23.84,1017.07,0.01,29696,31,1057,166.07,512.95,760.25,109.82,341.25,505.95,33133.43,10515.23,4887.27,936.43,329.66,18.61,182.40,474.09,629.71,120.97,315.31,419.14,32437.37,10196.37,4290.09,804.77,180.83,46.09
2018/07/09T20:27:50z,2c:3a:e8:34:fd:11,2.50i,2.0+OPENLOG+15931 MB+DS3231+BME280+PMSX003A+PMSX003B,84,8,16.36,1017.07,0.01,29944,31,1137,134.02,355.95,499.09,88.61,236.50,332.18,26064.41,8034.27,3244.23,555.64,189.61,15.34,142.38,329.43,435.00,94.41,218.86,289.16,25009.46,7717.03,2895.97,524.65,129.86,31.59
2018/07/09T20:29:10z,2c:3a:e8:34:fd:11,2.50i,2.0+OPENLOG+15931 MB+DS3231+BME280+PMSX003A+PMSX003B,84,6,9.83,1016.89,0.01,30128,31,1217,90.30,225.30,308.63,59.44,149.30,205.00,17570.86,5350.60,1993.35,324.63,109.37,6.77,99.06,213.17,268.42,65.17,141.28,178.11,17524.83,5335.47,1775.19,293.83,66.58,14.06
2018/07/09T20:30:30z,2c:3a:e8:34:fd:11,2.50i,2.0+OPENLOG+15931 MB+DS3231+BME280+PMSX003A+PMSX003B,83,5,5.08,1016.70,0.01,30128,31,1297,59.81,142.49,188.09,39.33,94.26,124.63,11534.79,3498.84,1252.51,180.67,58.72,1.84,63.69,129.53,160.39,41.72,85.83,106.03,11134.67,3387.92,1069.50,162.75,35.28,7.83
2018/07/09T20:31:50z,2c:3a:e8:34:fd:11,2.50i,2.0+OPENLOG+15931 MB+DS3231+BME280+PMSX003A+PMSX003B,84,4,0.95,1017.02,0.01,29696,31,1377,38.61,88.02,113.59,29.41,58.73,78.66,7339.02,2221.66,744.70,110.11,31.98,2.86,38.92,80.31,95.81,29.47,54.39,71.08,6852.83,2071.33,651.17,98.28,17.69,4.28
2018/07/09T20:33:10z,2c:3a:e8:34:fd:11,2.50i,2.0+OPENLOG+15931 MB+DS3231+BME280+PMSX003A+PMSX003B,84,4,0.95,1016.58,0.01,29672,31,1457,24.95,57.44,74.83,22.73,44.41,61.59,4932.37,1472.83,486.20,69.22,22.27,0.90,24.32,50.65,61.38,22.11,41.16,54.49,4543.30,1362.59,409.97,65.16,11.24,1.92
2018/07/09T20:34:30z,2c:3a:e8:34:fd:11,2.50i,2.0+OPENLOG+15931 MB+DS3231+BME280+PMSX003A+PMSX003B,84,4,0.95,1016.64,0.01,29944,31,1537,22.36,52.18,71.34,20.93,41.91,59.89,4555.77,1364.84,456.80,68.32,26.05,3.09,22.57,45.31,54.03,21.43,38.83,50.40,4070.91,1221.86,369.54,49.23,9.63,2.06
2018/07/09T20:35:50z,2c:3a:e8:34:fd:11,2.50i,2.0+OPENLOG+15931 MB+DS3231+BME280+PMSX003A+PMSX003B,84,4,0.95,1016.56,0.01,30128,31,1617,20.93,46.77,61.63,20.09,39.44,54.74,4149.56,1242.16,394.74,59.63,17.42,1.93,21.75,43.31,52.69,20.58,37.50,49.44,4088.33,1215.83,356.83,47.33,10.28,2.83
2018/07/09T20:37:10z,2c:3a:e8:34:fd:11,2.50i,2.0+OPENLOG+15931 MB+DS3231+BME280+PMSX003A+PMSX003B,84,4,0.95,1016.56,0.01,29592,31,1697,17.86,42.95,56.37,17.86,37.37,51.63,3650.86,1107.07,356.47,59.21,18.49,0.60,19.69,39.20,47.43,19.31,35.37,46.23,3601.20,1077.51,322.66,41.94,10.40,3.09
2018/07/09T20:38:30z,2c:3a:e8:34:fd:11,2.50i,2.0+OPENLOG+15931 MB+DS3231+BME280+PMSX003A+PMSX003B,84,4,0.95,1016.76,0.01,29672,31,1777,18.55,40.93,52.18,18.39,36.27,49.27,3576.20,1078.30,349.02,45.52,13.25,1.18,19.11,40.36,51.11,19.03,36.00,48.58,3569.75,1070.33,332.50,55.31,13.69,3.75
2018/07/09T20:39:50z,2c:3a:e8:34:fd:11,2.50i,2.0+OPENLOG+15931 MB+DS3231+BME280+PMSX003A+PMSX003B,84,4,0.95,1016.72,0.01,29944,31,1857,17.68,39.30,49.14,17.68,35.27,47.27,3450.75,1048.84,338.43,39.75,11.70,0.57,15.62,31.95,36.92,15.62,30.92,36.92,2937.97,878.22,261.78,32.22,4.35,1.59
2018/07/09T20:41:10z,2c:3a:e8:34:fd:11,2.50i,2.0+OPENLOG+15931 MB+DS3231+BME280+PMSX003A+PMSX003B,84,4,0.95,1016.73,0.01,30128,31,1937,16.14,35.86,46.25,16.14,33.09,45.27,3213.41,967.20,305.89,43.70,12.32,0.16,16.72,33.00,39.03,16.72,31.69,39.03,2990.46,907.05,254.62,40.26,7.23,2.28
2018/07/09T20:42:30z,2c:3a:e8:34:fd:11,2.50i,2.0+OPENLOG+15931 MB+DS3231+BME280+PMSX003A+PMSX003B,84,4,0.95,1016.69,0.01,29384,31,2017,13.12,31.86,42.30,13.12,30.70,42.12,2745.42,821.72,277.37,44.93,13.60,1.02,14.00,28.67,32.75,14.00,28.56,32.75,2643.75,798.89,231.14,28.75,4.78,1.25
2018/07/09T20:43:50z,2c:3a:e8:34:fd:11,2.50i,2.0+OPENLOG+15931 MB+DS3231+BME280+PMSX003A+PMSX003B,84,4,0.95,1016.68,0.01,29696,31,2097,11.74,29.21,35.63,11.74,28.98,35.63,2455.81,750.12,263.63,30.33,8.56,0.47,12.33,26.39,32.03,12.33,26.39,32.03,2496.42,732.69,217.28,29.50,7.56,3.08
2018/07/09T20:45:10z,2c:3a:e8:34:fd:11,2.50i,2.0+OPENLOG+15931 MB+DS3231+BME280+PMSX003A+PMSX003B,84,4,0.95,1016.63,0.01,30128,31,2177,12.24,28.48,35.19,12.24,28.24,35.19,2575.07,765.52,249.07,31.90,6.50,0.19,13.61,25.63,31.58,13.61,25.63,31.58,2506.89,749.39,200.42,29.13,6.13,2.13
2018/07/09T20:46:30z,2c:3a:e8:34:fd:11,2.50i,2.0+OPENLOG+15931 MB+DS3231+BME280+PMSX003A+PMSX003B,84,5,5.79,1016.69,0.01,30128,31,2257,11.05,25.48,30.36,11.05,25.34,30.36,2392.70,719.55,229.91,23.66,5.77,0.30,11.59,24.54,30.38,11.59,24.54,30.38,2224.54,670.22,214.68,30.49,5.27,1.70
2018/07/09T21:28:20z,2c:3a:e8:34:fd:11,2.50i,2.0+OPENLOG+15931 MB+DS3231+BME280+PMSX003A+PMSX003B,85,6,10.55,1016.66,0.01,30072,31,97,0.16,1.18,1.50,0.16,1.18,1.50,258.68,72.95,15.82,1.75,0.34,0.00,0.36,1.44,2.49,0.36,1.44,2.49,267.33,82.64,18.67,2.71,0.20,0.11
2018/07/09T21:29:40z,2c:3a:e8:34:fd:11,2.50i,2.0+OPENLOG+15931 MB+DS3231+BME280+PMSX003A+PMSX003B,85,6,10.55,1016.72,0.01,29456,31,177,0.36,1.82,2.59,0.36,1.82,2.59,325.50,100.09,25.52,2.80,0.95,0.00,0.53,1.75,2.17,0.53,1.75,2.17,284.25,82.86,21.22,4.67,0.20,0.11
2018/07/09T21:31:00z,2c:3a:e8:34:fd:11,2.50i,2.0+OPENLOG+15931 MB+DS3231+BME280+PMSX003A+PMSX003B,85,6,10.55,1016.70,0.01,29640,31,257,0.52,1.91,2.09,0.52,1.91,2.09,268.36,83.66,26.50,0.70,0.30,0.00,0.61,1.47,2.11,0.61,1.47,2.11,306.08,91.39,21.37,2.29,0.68,0.11
2018/07/09T21:32:20z,2c:3a:e8:34:fd:11,2.50i,2.0+OPENLOG+15931 MB+DS3231+BME280+PMSX003A+PMSX003B,85,6,10.55,1016.67,0.01,30072,31,337,0.47,2.02,3.02,0.47,2.02,3.02,216.98,67.44,25.79,4.86,1.12,0.00,0.22,0.76,1.22,0.22,0.76,1.22,207.08,62.00,20.57,1.70,0.32,0.11
2018/07/09T21:33:40z,2c:3a:e8:34:fd:11,2.50i,2.0+OPENLOG+15931 MB+DS3231+BME280+PMSX003A+PMSX003B,85,6,10.55,1016.72,0.01,29888,31,417,0.14,1.50,1.91,0.14,1.50,1.91,220.70,69.48,15.64,2.57,0.25,0.00,0.33,0.92,1.17,0.33,0.92,1.17,192.58,56.64,11.22,1.19,0.50,0.11
2018/07/09T21:35:00z,2c:3a:e8:34:fd:11,2.50i,2.0+OPENLOG+15931 MB+DS3231+BME280+PMSX003A+PMSX003B,85,6,10.55,1016.67,0.01,29536,31,497,0.33,1.21,1.58,0.33,1.21,1.58,232.26,68.63,14.53,2.26,0.58,0.00,0.21,0.92,0.92,0.21,0.92,0.92,195.47,59.32,15.45,0.34,0.50,0.11
2018/07/09T21:36:20z,2c:3a:e8:34:fd:11,2.50i,2.0+OPENLOG+15931 MB+DS3231+BME280+PMSX003A+PMSX003B,85,6,10.55,1016.63,0.01,29640,31,577,0.34,0.84,0.84,0.34,0.84,0.84,201.82,63.84,14.27,0.20,0.58,0.00,0.06,0.89,1.03,0.06,0.89,1.03,206.92,58.86,14.67,1.72,0.50,0.11
2018/07/09T21:37:40z,2c:3a:e8:34:fd:11,2.50i,2.0+OPENLOG+15931 MB+DS3231+BME280+PMSX003A+PMSX003B,85,6,10.55,1016.54,0.01,29616,31,657,0.05,1.05,1.74,0.05,1.05,1.74,198.00,59.64,16.69,2.02,0.69,0.26,0.59,1.70,1.86,0.59,1.70,1.86,232.46,69.81,15.92,2.76,0.30,0.11
2018/07/09T21:39:00z,2c:3a:e8:34:fd:11,2.50i,2.0+OPENLOG+15931 MB+DS3231+BME280+PMSX003A+PMSX003B,85,6,10.55,1016.54,0.01,30072,31,737,0.25,1.07,1.55,0.25,1.07,1.55,186.00,57.73,15.11,1.48,0.50,0.18,0.39,0.76,0.76,0.39,0.76,0.76,200.68,57.26,6.34,0.76,0.30,0.11
2018/07/09T21:40:20z,2c:3a:e8:34:fd:11,2.50i,2.0+OPENLOG+15931 MB+DS3231+BME280+PMSX003A+PMSX003B,85,6,10.55,1016.69,0.01,30072,31,817,0.25,0.63,0.63,0.25,0.63,0.63,167.16,50.21,12.63,0.44,0.50,0.18,0.22,0.51,0.78,0.22,0.51,0.78,169.62,51.89,8.11,0.49,0.49,0.11
2018/07/09T21:41:40z,2c:3a:e8:34:fd:11,2.50i,2.0+OPENLOG+15931 MB+DS3231+BME280+PMSX003A+PMSX003B,85,6,10.55,1016.66,0.01,29536,31,897,0.05,0.91,1.18,0.05,0.91,1.18,193.16,58.64,15.14,2.64,0.30,0.18,0.14,0.78,0.92,0.14,0.78,0.92,157.30,47.24,10.24,1.57,0.49,0.11
2018/07/09T21:43:00z,2c:3a:e8:34:fd:11,2.50i,2.0+OPENLOG+15931 MB+DS3231+BME280+PMSX003A+PMSX003B,85,6,10.55,1016.68,0.01,29432,31,977,0.05,0.74,0.91,0.05,0.74,0.91,151.81,47.16,13.60,1.09,0.58,0.18,0.16,1.00,1.08,0.16,1.00,1.08,175.05,51.81,12.62,1.70,0.30,0.11
2018/07/09T21:44:20z,2c:3a:e8:34:fd:11,2.50i,2.0+OPENLOG+15931 MB+DS3231+BME280+PMSX003A+PMSX003B,85,6,10.55,1016.52,0.01,30072,31,1057,0.16,0.34,0.64,0.16,0.34,0.64,186.00,54.27,10.52,0.98,0.25,0.25,0.05,0.34,0.79,0.05,0.34,0.79,173.21,51.84,12.13,1.29,0.37,0.11
2018/07/09T21:45:40z,2c:3a:e8:34:fd:11,2.50i,2.0+OPENLOG+15931 MB+DS3231+BME280+PMSX003A+PMSX003B,85,6,10.55,1016.58,0.01,30072,31,1137,0.16,0.23,0.48,0.16,0.23,0.48,140.93,39.77,9.52,2.36,0.11,0.25,0.22,0.73,0.95,0.22,0.73,0.95,192.65,56.73,8.95,1.14,0.32,0.11
2018/07/09T21:47:00z,2c:3a:e8:34:fd:11,2.50i,2.0+OPENLOG+15931 MB+DS3231+BME280+PMSX003A+PMSX003B,85,6,10.55,1016.65,0.01,29536,31,1217,0.16,0.11,0.50,0.16,0.11,0.50,151.36,42.98,12.95,1.34,0.66,0.25,0.22,0.32,0.32,0.22,0.32,0.32,121.38,36.54,9.00,1.05,0.32,0.11
2018/07/09T21:48:20z,2c:3a:e8:34:fd:11,2.50i,2.0+OPENLOG+15931 MB+DS3231+BME280+PMSX003A+PMSX003B,85,6,10.55,1016.60,0.01,29456,31,1297,0.16,0.50,0.86,0.16,0.50,0.86,141.27,42.95,11.27,1.39,0.18,0.25,0.22,0.50,0.50,0.22,0.50,0.50,135.08,38.55,5.92,1.50,0.50,0.11
2018/07/09T21:49:40z,2c:3a:e8:34:fd:11,2.50i,2.0+OPENLOG+15931 MB+DS3231+BME280+PMSX003A+PMSX003B,85,6,10.55,1016.27,0.01,30072,31,1377,0.16,0.47,0.53,0.16,0.47,0.53,148.67,42.53,7.91,1.02,0.26,0.25,0.38,0.49,0.78,0.38,0.49,0.78,164.43,50.97,9.76,1.57,0.46,0.11
2018/07/09T21:51:00z,2c:3a:e8:34:fd:11,2.50i,2.0+OPENLOG+15931 MB+DS3231+BME280+PMSX003A+PMSX003B,85,6,10.55,1016.51,0.01,30072,31,1457,0.16,0.20,0.20,0.16,0.20,0.20,108.95,29.82,6.77,0.55,0.26,0.25,0.05,0.43,0.84,0.05,0.43,0.84,119.43,37.73,8.97,0.86,0.38,0.11
2018/07/09T21:52:20z,2c:3a:e8:34:fd:11,2.50i,2.0+OPENLOG+15931 MB+DS3231+BME280+PMSX003A+PMSX003B,85,6,10.55,1017.04,0.01,30072,31,1537,0.16,0.20,0.07,0.16,0.20,0.07,103.26,28.77,6.23,0.95,0.26,0.25,0.05,0.08,0.08,0.05,0.08,0.08,102.24,33.45,5.63,0.34,0.38,0.11
2018/07/09T21:53:40z,2c:3a:e8:34:fd:11,2.50i,2.0+OPENLOG+15931 MB+DS3231+BME280+PMSX003A+PMSX003B,85,5,6.49,1016.92,0.01,29640,31,1617,0.16,0.20,0.07,0.16,0.20,0.07,81.75,24.07,5.57,0.39,0.26,0.25,0.05,0.08,0.08,0.05,0.08,0.08,66.63,19.45,1.95,0.50,0.38,0.11
2018/07/09T21:55:00z,2c:3a:e8:34:fd:11,2.50i,2.0+OPENLOG+15931 MB+DS3231+BME280+PMSX003A+PMSX003B,85,4,1.64,1016.96,0.01,29616,31,1697,0.16,0.20,0.07,0.16,0.20,0.07,60.70,16.58,5.44,0.39,0.26,0.25,0.05,0.08,0.08,0.05,0.08,0.08,28.30,8.41,0.68,0.50,0.38,0.11
2018/07/09T21:56:20z,2c:3a:e8:34:fd:11,2.50i,2.0+OPENLOG+15931 MB+DS3231+BME280+PMSX003A+PMSX003B,85,3,-4.45,1017.07,0.01,30072,31,1777,0.16,0.20,0.07,0.16,0.20,0.07,18.48,5.80,0.84,0.39,0.26,0.25,0.05,0.08,0.08,0.05,0.08,0.08,16.18,4.61,0.95,0.50,0.38,0.11
2018/07/09T21:57:40z,2c:3a:e8:34:fd:11,2.50i,2.0+OPENLOG+15931 MB+DS3231+BME280+PMSX003A+PMSX003B,84,3,-5.12,1016.88,0.01,30072,31,1857,0.16,0.20,0.07,0.16,0.20,0.07,25.88,6.16,1.81,0.39,0.26,0.25,0.05,0.08,0.08,0.05,0.08,0.08,19.11,6.37,0.66,0.50,0.38,0.11
2018/07/09T21:59:00z,2c:3a:e8:34:fd:11,2.50i,2.0+OPENLOG+15931 MB+DS3231+BME280+PMSX003A+PMSX003B,84,2,-13.37,1016.69,0.01,29640,31,1937,0.16,0.20,0.07,0.16,0.20,0.07,10.84,2.20,0.70,0.39,0.26,0.25,0.05,0.08,0.08,0.05,0.08,0.08,4.14,1.38,0.73,0.50,0.38,0.11
2018/07/09T22:00:20z,2c:3a:e8:34:fd:11,2.50i,2.0+OPENLOG+15931 MB+DS3231+BME280+PMSX003A+PMSX003B,84,2,-13.37,1016.92,0.01,29640,31,2017,0.16,0.20,0.07,0.16,0.20,0.07,9.35,2.86,1.12,0.39,0.26,0.25,0.05,0.08,0.08,0.05,0.08,0.08,2.15,0.72,0.72,0.33,0.33,0.33
2018/07/09T22:01:40z,2c:3a:e8:34:fd:11,2.50i,2.0+OPENLOG+15931 MB+DS3231+BME280+PMSX003A+PMSX003B,84,2,-13.37,1016.94,0.01,30072,31,2097,0.16,0.20,0.07,0.16,0.20,0.07,8.53,1.76,0.24,0.39,0.26,0.25,0.05,0.08,0.08,0.05,0.08,0.08,3.16,1.05,0.05,0.33,0.33,0.33
2018/07/09T22:03:00z,2c:3a:e8:34:fd:11,2.50i,2.0+OPENLOG+15931 MB+DS3231+BME280+PMSX003A+PMSX003B,84,2,-13.37,1017.00,0.01,30072,31,2177,0.16,0.20,0.07,0.16,0.20,0.07,3.26,0.67,0.24,0.39,0.26,0.25,0.05,0.08,0.08,0.05,0.08,0.08,5.17,1.72,0.36,0.33,0.33,0.33
2018/07/09T22:04:20z,2c:3a:e8:34:fd:11,2.50i,2.0+OPENLOG+15931 MB+DS3231+BME280+PMSX003A+PMSX003B,84,1,-26.72,1016.96,0.01,29792,31,2257,0.16,0.20,0.07,0.16,0.20,0.07,7.23,0.64,0.36,0.39,0.26,0.25,0.05,0.08,0.08,0.05,0.08,0.08,5.92,1.97,1.58,0.33,0.33,0.33
2018/07/09T22:05:40z,2c:3a:e8:34:fd:11,2.50i,2.0+OPENLOG+15931 MB+DS3231+BME280+PMSX003A+PMSX003B,84,1,-26.72,1016.99,0.01,29456,31,2337,0.16,0.20,0.07,0.16,0.20,0.07,5.60,1.02,0.36,0.39,0.26,0.25,0.05,0.08,0.08,0.05,0.08,0.08,1.38,0.46,0.46,0.33,0.33,0.33

 ets Jan  8 2013,rst cause:1, boot mode:(3,7)

load 0x4010f000, len 1384, room 16 
tail 8
chksum 0x2d
csum 0x2d
v3de0c112
~ld


AirMonitor Ver: 2.50i
FlashChipRealSize: 2097152
69 31872 time not set:Detecting I2C...
70 31848 time not set:RETRY: Found RTC! ******************
83 31784 2018/07/09T22:05:41z:Found BME280 sensor on 0x76! ******************
3723 31504 2018/07/09T22:05:44z:EEPROM SSID: 
3725 31448 2018/07/09T22:05:44z:Device: AirMonitor_fd11
3727 31448 2018/07/09T22:05:44z:MAC: 2c:3a:e8:34:fd:11
3728 31472 2018/07/09T22:05:44z:setupWiFi Complete.
3731 31472 2018/07/09T22:05:44z:Looking for channel B
6474 31128 2018/07/09T22:05:47z:Attempt 1 took 2738ms. Found PMSX003 type sensor! ******************
6476 31344 2018/07/09T22:05:47z:Looking for channel A
2018/07/09T22:07:18z,2c:3a:e8:34:fd:11,2.50i,2.0+OPENLOG+15931 MB+DS3231+BME280+PMSX003A+PMSX003B,84,1,-26.72,1016.73,0.01,29888,31,97,0.00,1.00,1.00,0.00,1.00,1.00,1.67,0.53,0.00,0.00,0.00,0.00,0.00,0.00,0.00,0.00,0.00,0.00,1.50,0.25,0.00,0.00,0.00,0.00
2018/07/09T22:08:38z,2c:3a:e8:34:fd:11,2.50i,2.0+OPENLOG+15931 MB+DS3231+BME280+PMSX003A+PMSX003B,84,1,-26.72,1016.98,0.01,29640,31,177,0.00,1.00,1.00,0.00,1.00,1.00,3.34,0.73,0.00,0.00,0.00,0.00,0.00,0.00,0.00,0.00,0.00,0.00,1.50,0.25,0.00,0.00,0.00,0.00
2018/07/09T22:09:58z,2c:3a:e8:34:fd:11,2.50i,2.0+OPENLOG+15931 MB+DS3231+BME280+PMSX003A+PMSX003B,84,1,-26.72,1016.93,0.01,29640,31,257,0.00,1.00,1.00,0.00,1.00,1.00,0.91,0.30,0.30,0.00,0.00,0.00,0.00,0.00,0.00,0.00,0.00,0.00,0.71,0.24,0.24,0.00,0.00,0.00
2018/07/09T22:11:18z,2c:3a:e8:34:fd:11,2.50i,2.0+OPENLOG+15931 MB+DS3231+BME280+PMSX003A+PMSX003B,84,1,-26.72,1016.91,0.01,30072,31,337,0.00,1.00,1.00,0.00,1.00,1.00,0.13,0.04,0.30,0.00,0.00,0.00,0.00,0.00,0.00,0.00,0.00,0.00,0.71,0.24,0.24,0.00,0.00,0.00
2018/07/09T22:12:38z,2c:3a:e8:34:fd:11,2.50i,2.0+OPENLOG+15931 MB+DS3231+BME280+PMSX003A+PMSX003B,84,1,-26.72,1016.82,0.01,30072,31,417,0.00,1.00,1.00,0.00,1.00,1.00,1.84,0.61,0.30,0.00,0.00,0.00,0.00,0.00,0.00,0.00,0.00,0.00,0.71,0.24,0.24,0.00,0.00,0.00
2018/07/09T22:13:58z,2c:3a:e8:34:fd:11,2.50i,2.0+OPENLOG+15931 MB+DS3231+BME280+PMSX003A+PMSX003B,84,1,-26.72,1016.99,0.01,29584,31,497,0.00,1.00,1.00,0.00,1.00,1.00,0.75,0.25,0.30,0.00,0.00,0.00,0.00,0.00,0.00,0.00,0.00,0.00,0.71,0.24,0.24,0.00,0.00,0.00
2018/07/09T22:15:18z,2c:3a:e8:34:fd:11,2.50i,2.0+OPENLOG+15931 MB+DS3231+BME280+PMSX003A+PMSX003B,84,1,-26.72,1016.83,0.01,29536,31,577,0.00,1.00,1.00,0.00,1.00,1.00,2.40,0.80,0.31,0.31,0.00,0.00,0.00,0.00,0.00,0.00,0.00,0.00,0.16,0.05,0.05,0.00,0.00,0.00
2018/07/09T22:16:38z,2c:3a:e8:34:fd:11,2.50i,2.0+OPENLOG+15931 MB+DS3231+BME280+PMSX003A+PMSX003B,84,1,-26.72,1016.95,0.01,30072,31,657,0.00,1.00,1.00,0.00,1.00,1.00,7.30,2.02,1.70,0.28,0.00,0.00,0.00,0.00,0.00,0.00,0.00,0.00,1.58,0.53,0.05,0.00,0.00,0.00
2018/07/09T22:17:58z,2c:3a:e8:34:fd:11,2.50i,2.0+OPENLOG+15931 MB+DS3231+BME280+PMSX003A+PMSX003B,84,1,-26.72,1016.84,0.01,30072,31,737,0.00,1.00,1.00,0.00,1.00,1.00,0.95,0.32,1.70,0.28,0.00,0.00,0.00,0.00,0.00,0.00,0.00,0.00,2.37,0.79,0.32,0.00,0.00,0.00
2018/07/09T22:19:18z,2c:3a:e8:34:fd:11,2.50i,2.0+OPENLOG+15931 MB+DS3231+BME280+PMSX003A+PMSX003B,84,1,-26.72,1016.82,0.01,30072,31,817,0.00,1.00,1.00,0.00,1.00,1.00,4.70,1.25,1.70,0.28,0.00,0.00,0.00,0.00,0.00,0.00,0.00,0.00,3.57,1.19,0.32,0.00,0.00,0.00
2018/07/09T22:20:38z,2c:3a:e8:34:fd:11,2.50i,2.0+OPENLOG+15931 MB+DS3231+BME280+PMSX003A+PMSX003B,84,1,-26.72,1016.98,0.01,29456,31,897,0.00,1.00,1.00,0.00,1.00,1.00,1.96,0.65,0.41,0.28,0.00,0.00,0.00,0.00,0.00,0.00,0.00,0.00,1.42,0.47,0.32,0.00,0.00,0.00
2018/07/09T22:21:58z,2c:3a:e8:34:fd:11,2.50i,2.0+OPENLOG+15931 MB+DS3231+BME280+PMSX003A+PMSX003B,84,18,35.95,1016.55,0.01,29640,31,977,2.33,3.58,3.87,2.33,3.58,3.87,596.40,169.89,22.20,1.69,0.36,0.00,2.89,4.08,4.18,2.89,4.08,4.18,615.95,172.29,21.21,1.87,0.00,0.00
2018/07/09T22:23:18z,2c:3a:e8:34:fd:11,2.50i,2.0+OPENLOG+15931 MB+DS3231+BME280+PMSX003A+PMSX003B,84,20,38.63,1016.98,0.01,30072,31,1057,66.84,308.82,503.16,45.13,206.69,336.33,15919.13,5163.71,3219.04,744.00,252.80,17.64,65.78,227.64,325.72,45.28,153.36,219.25,12682.17,4103.92,2300.81,472.14,120.97,33.72
2018/07/09T22:24:38z,2c:3a:e8:34:fd:11,2.50i,2.0+OPENLOG+15931 MB+DS3231+BME280+PMSX003A+PMSX003B,84,15,31.39,1016.99,0.01,30072,31,1137,156.54,947.11,1637.09,103.41,630.48,1090.61,43226.54,14241.50,10122.89,2585.65,909.54,62.48,198.50,902.08,1370.63,131.53,600.50,913.00,42643.42,14041.61,9354.42,2228.79,558.95,160.79
2018/07/09T22:25:58z,2c:3a:e8:34:fd:11,2.50i,2.0+OPENLOG+15931 MB+DS3231+BME280+PMSX003A+PMSX003B,84,11,23.84,1016.87,0.01,29792,31,1217,180.91,800.42,1264.11,119.93,533.00,842.09,41662.13,13563.29,8291.93,1805.60,604.09,40.73,222.74,758.74,1064.87,147.72,505.03,709.10,42100.69,13617.36,7572.59,1532.08,368.46,89.15
2018/07/09T22:27:18z,2c:3a:e8:34:fd:11,2.50i,2.0+OPENLOG+15931 MB+DS3231+BME280+PMSX003A+PMSX003B,84,8,16.36,1016.84,0.01,29640,31,1297,181.68,626.45,928.89,120.50,417.02,618.52,37358.05,11960.34,6184.70,1212.45,388.73,28.18,211.13,592.71,806.47,140.00,394.42,536.95,37857.39,12011.13,5690.68,1050.82,260.87,73.42
2018/07/09T22:28:38z,2c:3a:e8:34:fd:11,2.50i,2.0+OPENLOG+15931 MB+DS3231+BME280+PMSX003A+PMSX003B,83,7,12.57,1016.69,0.01,30072,31,1377,155.20,446.20,629.43,102.73,296.57,419.07,30326.93,9492.02,4223.50,749.07,234.80,16.61,171.66,425.34,552.82,113.76,282.79,367.95,30181.58,9437.87,3882.26,656.29,149.11,39.47
2018/07/09T22:29:58z,2c:3a:e8:34:fd:11,2.50i,2.0+OPENLOG+15931 MB+DS3231+BME280+PMSX003A+PMSX003B,84,5,5.79,1016.78,0.01,30072,31,1457,120.05,306.65,428.09,79.14,203.53,284.51,23145.63,7107.30,2828.98,455.88,158.72,6.88,124.08,285.75,372.92,81.97,189.72,247.94,22034.92,6769.50,2517.08,425.19,101.42,28.81
2018/07/09T22:31:18z,2c:3a:e8:34:fd:11,2.50i,2.0+OPENLOG+15931 MB+DS3231+BME280+PMSX003A+PMSX003B,83,4,0.26,1016.61,0.01,30072,31,1537,80.98,202.65,269.79,53.14,134.28,179.23,15535.19,4760.70,1822.86,282.21,84.21,6.60,89.47,190.33,246.14,58.92,126.19,163.19,15572.67,4747.61,1605.08,274.92,64.67,20.50
2018/07/09T22:32:38z,2c:3a:e8:34:fd:11,2.50i,2.0+OPENLOG+15931 MB+DS3231+BME280+PMSX003A+PMSX003B,83,4,0.26,1016.76,0.01,29536,31,1617,54.98,130.53,178.49,36.77,86.26,118.16,10424.30,3185.56,1172.33,183.23,62.09,2.47,61.97,128.00,158.56,40.64,84.67,105.14,10700.08,3258.44,1064.75,163.67,38.39,4.67
2018/07/09T22:33:58z,2c:3a:e8:34:fd:11,2.50i,2.0+OPENLOG+15931 MB+DS3231+BME280+PMSX003A+PMSX003B,84,3,-5.12,1016.62,0.01,30072,31,1697,38.53,91.09,114.21,29.37,60.33,78.30,7337.02,2224.37,787.23,110.07,28.70,2.05,37.41,77.19,95.70,28.70,52.97,70.70,6613.78,1998.35,650.54,92.59,22.35,4.16
2018/07/09T22:35:18z,2c:3a:e8:34:fd:11,2.50i,2.0+OPENLOG+15931 MB+DS3231+BME280+PMSX003A+PMSX003B,84,3,-5.12,1016.64,0.01,30072,31,1777,30.25,72.36,95.20,25.59,50.16,70.68,5850.27,1775.82,617.39,105.02,28.52,1.93,30.40,64.54,78.00,25.80,47.37,63.37,5453.31,1647.11,534.74,81.83,15.63,3.60
2018/07/09T22:36:38z,2c:3a:e8:34:fd:11,2.50i,2.0+OPENLOG+15931 MB+DS3231+BME280+PMSX003A+PMSX003B,84,3,-5.12,1016.60,0.01,30072,31,1857,28.90,64.60,85.31,24.86,47.26,66.40,5522.71,1678.45,583.60,80.76,26.62,0.57,27.36,57.25,73.22,23.81,44.17,60.81,4987.83,1519.06,494.25,73.36,18.78,3.94
2018/07/09T22:37:58z,2c:3a:e8:34:fd:11,2.50i,2.0+OPENLOG+15931 MB+DS3231+BME280+PMSX003A+PMSX003B,84,3,-5.12,1016.46,0.01,29536,31,1937,27.32,63.11,80.36,23.80,46.64,64.32,5194.77,1585.52,557.64,76.20,20.95,0.98,29.41,56.76,65.43,25.00,43.86,56.84,5115.89,1550.68,453.76,58.65,9.03,2.08
2018/07/09T22:39:18z,2c:3a:e8:34:fd:11,2.50i,2.0+OPENLOG+15931 MB+DS3231+BME280+PMSX003A+PMSX003B,84,3,-5.12,1016.54,0.01,29616,31,2017,25.81,59.31,75.48,22.98,45.12,61.95,4961.71,1513.69,511.62,70.60,20.50,0.57,24.89,52.20,60.94,22.54,42.14,54.49,4417.29,1347.20,431.69,61.26,7.20,2.17
2018/07/09T22:40:38z,2c:3a:e8:34:fd:11,2.50i,2.0+OPENLOG+15931 MB+DS3231+BME280+PMSX003A+PMSX003B,84,3,-5.12,1016.66,0.01,30072,31,2097,22.93,55.84,73.28,21.44,43.65,60.88,4496.79,1371.44,505.74,75.60,21.60,2.09,23.36,47.42,54.89,21.78,39.92,50.78,4193.58,1273.17,400.50,43.81,10.06,1.03
2018/07/09T22:41:58z,2c:3a:e8:34:fd:11,2.50i,2.0+OPENLOG+15931 MB+DS3231+BME280+PMSX003A+PMSX003B,84,3,-5.12,1016.40,0.01,30072,31,2177,21.07,51.81,62.26,20.33,41.86,55.05,4189.81,1274.14,457.56,54.77,13.02,1.02,22.61,46.64,55.06,21.22,39.44,50.92,4130.58,1236.31,394.81,50.36,9.47,2.22
2018/07/09T22:43:18z,2c:3a:e8:34:fd:11,2.50i,2.0+OPENLOG+15931 MB+DS3231+BME280+PMSX003A+PMSX003B,84,4,0.95,1016.64,0.01,29640,31,2257,20.02,48.56,61.95,19.47,40.44,54.91,3946.74,1196.88,426.70,59.09,16.47,0.26,21.37,43.20,51.69,20.69,37.69,49.09,3901.63,1168.63,364.43,46.40,9.23,2.00
2018/07/09T22:44:38z,2c:3a:e8:34:fd:11,2.50i,2.0+OPENLOG+15931 MB+DS3231+BME280+PMSX003A+PMSX003B,84,4,0.95,1016.52,0.01,29616,31,2337,18.12,43.95,57.65,18.12,37.81,52.28,3648.49,1112.77,395.63,55.26,17.30,1.79,20.57,41.51,47.43,19.97,36.81,46.16,3604.22,1098.32,340.19,45.32,5.73,1.35

 ets Jan  8 2013,rst cause:1, boot mode:(3,7)

load 0x4010f000, len 1384, room 16 
tail 8
chksum 0x2d
csum 0x2d
v3de0c112
~ld


AirMonitor Ver: 2.50i
FlashChipRealSize: 2097152
70 31872 time not set:Detecting I2C...
71 31848 time not set:RETRY: Found RTC! ******************
83 31784 2018/07/09T22:44:39z:Found BME280 sensor on 0x76! ******************
3724 31504 2018/07/09T22:44:42z:EEPROM SSID: 
3726 31448 2018/07/09T22:44:42z:Device: AirMonitor_fd11
3728 31448 2018/07/09T22:44:42z:MAC: 2c:3a:e8:34:fd:11
3729 31472 2018/07/09T22:44:42z:setupWiFi Complete.
3732 31472 2018/07/09T22:44:42z:Looking for channel B
6524 30944 2018/07/09T22:44:45z:Attempt 1 took 2787ms. Found PMSX003 type sensor! ******************
6526 31160 2018/07/09T22:44:45z:Looking for channel A
2018/07/09T22:46:16z,2c:3a:e8:34:fd:11,2.50i,2.0+OPENLOG+15931 MB+DS3231+BME280+PMSX003A+PMSX003B,84,4,0.95,1016.66,0.01,30072,31,97,16.07,38.74,51.62,16.07,34.98,48.86,3227.64,992.60,341.52,47.02,17.79,0.76,17.36,36.86,45.48,17.36,33.81,44.57,2873.57,892.17,294.24,41.81,8.26,1.48
2018/07/09T22:47:36z,2c:3a:e8:34:fd:11,2.50i,2.0+OPENLOG+15931 MB+DS3231+BME280+PMSX003A+PMSX003B,84,4,0.95,1016.61,0.01,29536,31,177,16.14,38.79,49.65,16.14,34.84,47.49,3205.12,982.33,346.00,45.65,13.21,1.05,15.94,33.49,41.14,15.94,31.63,41.09,2884.54,885.17,292.31,36.86,8.77,2.23
2018/07/09T22:48:56z,2c:3a:e8:34:fd:11,2.50i,2.0+OPENLOG+15931 MB+DS3231+BME280+PMSX003A+PMSX003B,84,4,0.95,1016.63,0.01,29640,31,257,15.65,35.09,46.14,15.65,32.79,45.33,3074.58,939.07,312.21,42.37,12.74,1.23,16.25,34.11,40.64,16.25,32.25,40.47,3036.92,911.25,292.69,37.94,8.06,2.22
2018/07/09T22:50:16z,2c:3a:e8:34:fd:11,2.50i,2.0+OPENLOG+15931 MB+DS3231+BME280+PMSX003A+PMSX003B,84,4,0.95,1016.60,0.01,30072,31,337,14.74,33.84,42.37,14.74,32.14,41.93,2893.95,877.26,297.28,35.74,11.21,0.58,15.89,31.97,36.47,15.89,30.83,36.47,2784.08,859.28,269.28,32.92,6.28,1.11
2018/07/09T22:51:36z,2c:3a:e8:34:fd:11,2.50i,2.0+OPENLOG+15931 MB+DS3231+BME280+PMSX003A+PMSX003B,84,4,0.95,1016.47,0.01,29888,31,417,14.09,32.56,40.67,14.09,31.14,40.67,2841.70,857.16,288.86,37.12,9.58,0.91,14.51,29.49,33.38,14.51,29.08,33.38,2666.84,807.92,257.16,25.00,3.49,0.92
2018/07/09T22:52:56z,2c:3a:e8:34:fd:11,2.50i,2.0+OPENLOG+15931 MB+DS3231+BME280+PMSX003A+PMSX003B,84,4,0.95,1016.37,0.01,29584,31,497,13.35,30.12,38.14,13.35,29.49,38.14,2652.14,818.40,268.84,33.77,9.44,0.42,13.19,27.61,31.94,13.19,27.56,31.94,2380.67,727.31,229.19,30.31,4.25,1.78
2018/07/09T22:54:16z,2c:3a:e8:34:fd:11,2.50i,2.0+OPENLOG+15931 MB+DS3231+BME280+PMSX003A+PMSX003B,84,4,0.95,1016.27,0.01,29640,31,577,12.70,29.39,35.27,12.70,28.95,35.27,2560.64,773.89,259.55,29.75,6.34,0.61,11.68,25.26,30.42,11.68,25.13,30.42,2165.76,655.08,211.45,33.03,5.26,1.34
2018/07/09T22:55:36z,2c:3a:e8:34:fd:11,2.50i,2.0+OPENLOG+15931 MB+DS3231+BME280+PMSX003A+PMSX003B,84,4,0.95,1016.33,0.01,29888,31,657,11.95,27.43,33.57,11.95,27.23,33.57,2335.16,712.32,235.95,31.05,7.43,0.61,11.84,23.43,27.84,11.84,23.43,27.84,2170.70,655.38,199.38,23.92,5.03,1.43
2018/07/09T22:56:56z,2c:3a:e8:34:fd:11,2.50i,2.0+OPENLOG+15931 MB+DS3231+BME280+PMSX003A+PMSX003B,84,4,0.95,1016.44,0.01,30072,31,737,10.55,23.55,28.75,10.55,23.55,28.75,2106.75,636.75,211.05,21.68,6.64,0.36,10.26,22.03,25.03,10.26,22.03,25.03,1927.82,588.50,196.87,22.13,2.84,0.47
2018/07/09T22:58:16z,2c:3a:e8:34:fd:11,2.50i,2.0+OPENLOG+15931 MB+DS3231+BME280+PMSX003A+PMSX003B,85,4,1.64,1016.40,0.01,30072,31,817,10.05,23.55,26.79,10.05,23.55,26.79,2046.29,631.50,195.67,21.88,3.83,0.05,10.97,21.92,25.64,10.97,21.92,25.64,1998.25,602.47,176.72,23.36,3.83,2.31
2018/07/09T22:59:36z,2c:3a:e8:34:fd:11,2.50i,2.0+OPENLOG+15931 MB+DS3231+BME280+PMSX003A+PMSX003B,84,4,0.95,1016.17,0.01,29640,31,897,9.56,22.79,28.72,9.56,22.79,28.72,2019.21,608.56,194.23,25.77,7.67,1.98,8.84,19.39,21.45,8.84,19.39,21.45,1768.11,534.79,172.03,16.82,2.61,0.26
2018/07/09T23:00:56z,2c:3a:e8:34:fd:11,2.50i,2.0+OPENLOG+15931 MB+DS3231+BME280+PMSX003A+PMSX003B,85,4,1.64,1016.32,0.01,29616,31,977,9.40,20.79,24.49,9.40,20.79,24.49,1860.91,562.23,177.58,18.79,4.33,1.05,9.61,18.56,22.00,9.61,18.56,22.00,1848.17,547.03,161.50,22.69,1.81,0.69
2018/07/09T23:02:16z,2c:3a:e8:34:fd:11,2.50i,2.0+OPENLOG+15931 MB+DS3231+BME280+PMSX003A+PMSX003B,85,4,1.64,1016.38,0.01,30072,31,1057,7.57,18.74,23.93,7.57,18.74,23.93,1670.00,501.67,180.36,22.48,6.33,0.71,9.03,18.54,22.28,9.03,18.54,22.28,1706.62,524.59,161.59,18.41,4.49,1.62
2018/07/09T23:03:36z,2c:3a:e8:34:fd:11,2.50i,2.0+OPENLOG+15931 MB+DS3231+BME280+PMSX003A+PMSX003B,84,4,0.95,1016.27,0.01,30072,31,1137,7.80,17.39,21.00,7.80,17.39,21.00,1603.84,487.86,152.68,20.45,4.18,0.86,7.22,15.73,18.43,7.22,15.73,18.43,1463.03,440.49,130.95,17.86,3.49,0.65
2018/07/09T23:04:56z,2c:3a:e8:34:fd:11,2.50i,2.0+OPENLOG+15931 MB+DS3231+BME280+PMSX003A+PMSX003B,84,4,0.95,1016.26,0.01,29640,31,1217,8.18,16.25,20.91,8.18,16.25,20.91,1556.52,473.80,149.43,14.64,6.25,0.86,8.36,15.36,16.94,8.36,15.36,16.94,1558.92,476.53,125.06,12.89,0.97,0.56
2018/07/09T23:06:16z,2c:3a:e8:34:fd:11,2.50i,2.0+OPENLOG+15931 MB+DS3231+BME280+PMSX003A+PMSX003B,85,4,1.64,1016.36,0.01,29640,31,1297,6.45,14.91,19.77,6.45,14.91,19.77,1371.34,417.64,138.61,20.43,5.11,0.45,6.70,12.81,17.32,6.70,12.81,17.32,1208.11,374.41,117.59,16.68,6.30,1.30
2018/07/09T23:07:36z,2c:3a:e8:34:fd:11,2.50i,2.0+OPENLOG+15931 MB+DS3231+BME280+PMSX003A+PMSX003B,84,4,0.95,1016.20,0.01,30072,31,1377,6.49,14.14,18.40,6.49,14.14,18.40,1416.49,428.53,129.02,16.79,4.00,0.84,5.87,12.18,14.68,5.87,12.18,14.68,1254.71,376.21,115.45,11.08,2.47,0.82
2018/07/09T23:08:56z,2c:3a:e8:34:fd:11,2.50i,2.0+OPENLOG+15931 MB+DS3231+BME280+PMSX003A+PMSX003B,84,4,0.95,1016.10,0.01,30072,31,1457,5.91,14.02,16.88,5.91,14.02,16.88,1239.35,382.30,128.37,13.14,4.07,0.84,6.13,13.03,15.03,6.13,13.03,15.03,1213.18,372.92,105.37,12.18,2.47,0.82
2018/07/09T23:10:16z,2c:3a:e8:34:fd:11,2.50i,2.0+OPENLOG+15931 MB+DS3231+BME280+PMSX003A+PMSX003B,85,4,1.64,1016.39,0.01,29536,31,1537,5.67,13.33,15.98,5.67,13.33,15.98,1190.58,368.23,122.28,13.58,3.21,0.84,6.27,12.62,16.70,6.27,12.62,16.70,1191.57,366.03,119.92,17.16,3.41,0.86
2018/07/09T23:11:36z,2c:3a:e8:34:fd:11,2.50i,2.0+OPENLOG+15931 MB+DS3231+BME280+PMSX003A+PMSX003B,85,5,6.49,1016.33,0.01,29640,31,1617,5.86,14.00,16.27,5.86,14.00,16.27,1266.55,389.02,135.70,10.86,2.23,0.27,4.97,11.51,13.37,4.97,11.51,13.37,980.14,298.29,97.91,13.83,2.40,0.51
2018/07/09T23:12:56z,2c:3a:e8:34:fd:11,2.50i,2.0+OPENLOG+15931 MB+DS3231+BME280+PMSX003A+PMSX003B,84,5,5.79,1016.22,0.01,30072,31,1697,5.20,11.18,13.52,5.20,11.18,13.52,1080.48,333.30,101.59,7.95,3.66,0.23,5.11,9.81,13.57,5.11,9.81,13.57,994.95,301.03,96.32,11.16,3.73,1.19
2018/07/09T23:14:16z,2c:3a:e8:34:fd:11,2.50i,2.0+OPENLOG+15931 MB+DS3231+BME280+PMSX003A+PMSX003B,85,5,6.49,1016.34,0.01,30072,31,1777,4.55,10.43,12.00,4.55,10.43,12.00,1036.02,318.41,100.77,8.75,1.36,0.34,4.49,8.51,10.54,4.49,8.51,10.54,871.14,268.03,85.38,8.19,1.76,0.84
2018/07/09T23:15:36z,2c:3a:e8:34:fd:11,2.50i,2.0+OPENLOG+15931 MB+DS3231+BME280+PMSX003A+PMSX003B,84,5,5.79,1016.25,0.01,29792,31,1857,4.70,11.23,14.66,4.70,11.23,14.66,1051.43,315.18,93.11,15.61,3.68,0.95,4.47,9.86,11.89,4.47,9.86,11.89,934.83,289.89,95.75,10.58,2.11,0.58
2018/07/09T23:16:56z,2c:3a:e8:34:fd:11,2.50i,2.0+OPENLOG+15931 MB+DS3231+BME280+PMSX003A+PMSX003B,85,5,6.49,1016.30,0.01,29640,31,1937,3.82,8.86,11.77,3.82,8.86,11.77,889.77,262.48,91.11,10.95,2.59,0.25,3.23,7.14,8.23,3.23,7.14,8.23,744.00,222.37,65.17,8.69,1.23,0.31
2018/07/09T23:18:16z,2c:3a:e8:34:fd:11,2.50i,2.0+OPENLOG+15931 MB+DS3231+BME280+PMSX003A+PMSX003B,84,5,5.79,1016.23,0.01,30072,31,2017,3.98,9.39,12.25,3.98,9.39,12.25,885.34,272.98,89.18,10.30,4.66,0.48,3.95,7.28,7.41,3.95,7.28,7.41,804.08,239.18,61.00,4.77,0.15,0.31
2018/07/09T23:19:36z,2c:3a:e8:34:fd:11,2.50i,2.0+OPENLOG+15931 MB+DS3231+BME280+PMSX003A+PMSX003B,85,5,6.49,1016.38,0.01,29888,31,2097,4.25,9.66,11.77,4.25,9.66,11.77,895.16,273.64,84.70,11.61,2.86,0.25,4.14,8.22,10.05,4.14,8.22,10.05,795.16,240.35,73.51,9.24,1.78,0.49
2018/07/09T23:20:56z,2c:3a:e8:34:fd:11,2.50i,2.0+OPENLOG+15931 MB+DS3231+BME280+PMSX003A+PMSX003B,85,5,6.49,1016.23,0.01,30072,31,2177,3.25,8.00,9.34,3.25,8.00,9.34,819.00,237.18,68.39,7.95,1.45,0.25,3.81,6.33,7.03,3.81,6.33,7.03,751.33,226.97,52.39,3.25,0.75,0.75
2018/07/09T23:22:16z,2c:3a:e8:34:fd:11,2.50i,2.0+OPENLOG+15931 MB+DS3231+BME280+PMSX003A+PMSX003B,85,5,6.49,1016.38,0.01,29536,31,2257,3.13,7.36,8.71,3.13,7.36,8.71,746.00,230.16,64.87,7.91,1.80,0.25,2.90,6.41,7.69,2.90,6.41,7.69,690.69,201.87,55.38,6.64,1.64,1.15
2018/07/09T23:23:36z,2c:3a:e8:34:fd:11,2.50i,2.0+OPENLOG+15931 MB+DS3231+BME280+PMSX003A+PMSX003B,85,5,6.49,1016.28,0.01,29616,31,2337,2.65,6.88,8.47,2.65,6.88,8.47,723.98,215.65,64.60,7.05,1.84,0.25,3.11,6.28,6.83,3.11,6.28,6.83,751.25,223.92,62.08,4.00,0.58,1.15

 ets Jan  8 2013,rst cause:1, boot mode:(3,7)

load 0x4010f000, len 1384, room 16 
tail 8
chksum 0x2d
csum 0x2d
v3de0c112
~ld


AirMonitor Ver: 2.50i
FlashChipRealSize: 2097152
70 31872 time not set:Detecting I2C...
70 31848 time not set:RETRY: Found RTC! ******************
83 31784 2018/07/09T23:23:37z:Found BME280 sensor on 0x76! ******************
3723 31504 2018/07/09T23:23:40z:EEPROM SSID: 
3725 31448 2018/07/09T23:23:40z:Device: AirMonitor_fd11
3727 31448 2018/07/09T23:23:40z:MAC: 2c:3a:e8:34:fd:11
3728 31472 2018/07/09T23:23:40z:setupWiFi Complete.
3731 31472 2018/07/09T23:23:40z:Looking for channel B
6510 31128 2018/07/09T23:23:43z:Attempt 1 took 2774ms. Found PMSX003 type sensor! ******************
6512 31344 2018/07/09T23:23:43z:Looking for channel A
2018/07/09T23:25:14z,2c:3a:e8:34:fd:11,2.50i,2.0+OPENLOG+15931 MB+DS3231+BME280+PMSX003A+PMSX003B,85,5,6.49,1016.31,0.01,30072,31,97,1.57,5.18,7.41,1.57,5.18,7.41,590.25,179.32,57.75,7.27,2.95,0.00,2.49,5.42,6.64,2.49,5.42,6.64,555.67,170.87,46.78,4.87,1.09,0.64
2018/07/09T23:26:34z,2c:3a:e8:34:fd:11,2.50i,2.0+OPENLOG+15931 MB+DS3231+BME280+PMSX003A+PMSX003B,84,5,5.79,1016.19,0.01,29640,31,177,1.80,5.39,6.64,1.80,5.39,6.64,592.30,181.59,59.34,5.34,1.70,0.00,3.08,5.03,6.05,3.08,5.03,6.05,643.70,191.35,39.62,3.59,0.97,0.65
2018/07/09T23:27:54z,2c:3a:e8:34:fd:11,2.50i,2.0+OPENLOG+15931 MB+DS3231+BME280+PMSX003A+PMSX003B,84,5,5.79,1016.13,0.01,29640,31,257,2.07,5.05,5.18,2.07,5.05,5.18,558.68,171.80,46.36,3.00,0.14,0.00,2.74,4.79,5.24,2.74,4.79,5.24,560.53,168.08,46.08,3.37,0.50,0.65
2018/07/09T23:29:14z,2c:3a:e8:34:fd:11,2.50i,2.0+OPENLOG+15931 MB+DS3231+BME280+PMSX003A+PMSX003B,84,5,5.79,1016.17,0.01,30072,31,337,1.50,3.93,4.95,1.50,3.93,4.95,514.43,151.80,45.05,2.52,1.50,0.00,0.89,3.30,4.08,0.89,3.30,4.08,410.19,121.19,32.86,3.08,1.00,0.68
2018/07/09T23:30:34z,2c:3a:e8:34:fd:11,2.50i,2.0+OPENLOG+15931 MB+DS3231+BME280+PMSX003A+PMSX003B,85,5,6.49,1016.33,0.01,30072,31,417,1.55,3.93,5.45,1.55,3.93,5.45,442.98,139.93,36.75,4.82,1.95,0.00,1.73,3.46,4.27,1.73,3.46,4.27,454.38,135.97,28.08,3.54,0.76,0.41
2018/07/09T23:31:54z,2c:3a:e8:34:fd:11,2.50i,2.0+OPENLOG+15931 MB+DS3231+BME280+PMSX003A+PMSX003B,85,5,6.49,1016.22,0.01,29640,31,497,1.45,3.77,5.11,1.45,3.77,5.11,417.75,123.52,34.75,5.59,1.98,0.25,2.16,3.53,4.11,2.16,3.53,4.11,518.37,147.71,32.08,1.89,0.74,0.50
2018/07/09T23:33:14z,2c:3a:e8:34:fd:11,2.50i,2.0+OPENLOG+15931 MB+DS3231+BME280+PMSX003A+PMSX003B,85,5,6.49,1016.24,0.01,29640,31,577,1.91,4.20,5.34,1.91,4.20,5.34,442.50,133.55,44.93,5.23,1.09,0.25,1.65,3.03,3.92,1.65,3.03,3.92,402.32,126.03,31.92,3.76,1.08,0.50
2018/07/09T23:34:34z,2c:3a:e8:34:fd:11,2.50i,2.0+OPENLOG+15931 MB+DS3231+BME280+PMSX003A+PMSX003B,85,5,6.49,1016.31,0.01,30072,31,657,1.47,2.79,3.81,1.47,2.79,3.81,411.77,122.56,27.28,2.30,0.98,0.25,1.54,3.03,3.54,1.54,3.03,3.54,453.00,138.43,33.38,1.59,0.38,0.50
2018/07/09T23:35:54z,2c:3a:e8:34:fd:11,2.50i,2.0+OPENLOG+15931 MB+DS3231+BME280+PMSX003A+PMSX003B,85,5,6.49,1016.24,0.01,30072,31,737,1.09,3.11,3.86,1.09,3.11,3.86,372.95,113.16,30.11,3.86,1.14,0.25,1.00,2.50,2.84,1.00,2.50,2.84,350.13,100.66,21.92,3.24,0.50,0.50
2018/07/09T23:37:14z,2c:3a:e8:34:fd:11,2.50i,2.0+OPENLOG+15931 MB+DS3231+BME280+PMSX003A+PMSX003B,85,5,6.49,1016.37,0.01,29792,31,817,1.40,3.89,5.40,1.40,3.89,5.40,437.53,130.29,40.31,5.09,2.33,0.25,1.38,2.41,2.81,1.38,2.41,2.81,387.08,111.70,28.43,1.03,0.49,0.50
2018/07/09T23:38:34z,2c:3a:e8:34:fd:11,2.50i,2.0+OPENLOG+15931 MB+DS3231+BME280+PMSX003A+PMSX003B,85,5,6.49,1016.30,0.01,29640,31,897,1.23,3.07,3.66,1.23,3.07,3.66,394.91,115.95,31.07,3.23,0.59,0.25,1.30,2.65,2.65,1.30,2.65,2.65,355.70,109.89,24.95,1.32,0.49,0.50
2018/07/09T23:39:54z,2c:3a:e8:34:fd:11,2.50i,2.0+OPENLOG+15931 MB+DS3231+BME280+PMSX003A+PMSX003B,85,5,6.49,1016.31,0.01,29616,31,977,0.77,2.52,3.50,0.77,2.52,3.50,335.86,98.95,27.34,3.84,0.86,0.25,0.74,2.05,2.32,0.74,2.05,2.32,292.58,88.16,20.76,2.00,0.50,0.50
2018/07/09T23:41:14z,2c:3a:e8:34:fd:11,2.50i,2.0+OPENLOG+15931 MB+DS3231+BME280+PMSX003A+PMSX003B,85,5,6.49,1016.26,0.01,30072,31,1057,0.50,2.00,2.52,0.50,2.00,2.52,314.25,93.32,27.80,2.25,0.45,0.25,0.78,3.00,3.00,0.78,3.00,3.00,320.27,96.14,34.46,1.92,0.50,0.50
2018/07/09T23:42:34z,2c:3a:e8:34:fd:11,2.50i,2.0+OPENLOG+15931 MB+DS3231+BME280+PMSX003A+PMSX003B,84,5,5.79,1016.15,0.01,29584,31,1137,0.47,1.84,2.86,0.47,1.84,2.86,309.49,95.67,28.12,2.47,1.51,0.25,1.16,2.66,3.39,1.16,2.66,3.39,367.82,105.42,26.92,5.13,0.37,0.50
2018/07/09T23:43:54z,2c:3a:e8:34:fd:11,2.50i,2.0+OPENLOG+15931 MB+DS3231+BME280+PMSX003A+PMSX003B,85,5,6.49,1016.26,0.01,29352,31,1217,0.68,2.25,2.64,0.68,2.25,2.64,306.20,87.93,25.43,3.41,0.18,0.25,0.50,1.45,1.45,0.50,1.45,1.45,303.47,92.66,22.29,1.37,0.37,0.50
2018/07/09T23:45:14z,2c:3a:e8:34:fd:11,2.50i,2.0+OPENLOG+15931 MB+DS3231+BME280+PMSX003A+PMSX003B,85,5,6.49,1016.28,0.01,29616,31,1297,0.42,1.91,1.98,0.42,1.91,1.98,257.44,77.21,23.67,2.28,0.23,0.25,0.59,1.22,1.30,0.59,1.22,1.30,224.35,65.92,13.92,1.46,0.37,0.50
2018/07/09T23:46:34z,2c:3a:e8:34:fd:11,2.50i,2.0+OPENLOG+15931 MB+DS3231+BME280+PMSX003A+PMSX003B,84,5,5.79,1016.28,0.01,30072,31,1377,0.24,2.00,2.13,0.24,2.00,2.13,235.27,71.13,23.40,2.00,0.23,0.25,0.18,1.61,1.84,0.18,1.61,1.84,208.18,59.03,14.47,2.71,0.45,0.50
2018/07/09T23:47:54z,2c:3a:e8:34:fd:11,2.50i,2.0+OPENLOG+15931 MB+DS3231+BME280+PMSX003A+PMSX003B,85,5,6.49,1016.23,0.01,30072,31,1457,0.24,1.11,1.84,0.24,1.11,1.84,226.84,65.61,21.84,2.45,0.25,0.25,0.86,1.89,2.49,0.86,1.89,2.49,294.73,87.16,24.62,2.54,0.68,0.50
2018/07/09T23:49:14z,2c:3a:e8:34:fd:11,2.50i,2.0+OPENLOG+15931 MB+DS3231+BME280+PMSX003A+PMSX003B,84,5,5.79,1016.03,0.01,29640,31,1537,0.45,1.64,2.14,0.45,1.64,2.14,253.91,77.95,22.52,2.55,0.41,0.25,0.53,1.72,2.19,0.53,1.72,2.19,236.08,75.58,20.56,3.44,0.39,0.50
2018/07/09T23:50:34z,2c:3a:e8:34:fd:11,2.50i,2.0+OPENLOG+15931 MB+DS3231+BME280+PMSX003A+PMSX003B,85,5,6.49,1016.29,0.01,29616,31,1617,0.09,1.49,2.36,0.09,1.49,2.36,269.73,81.18,27.22,3.56,1.00,0.25,0.21,1.16,1.16,0.21,1.16,1.16,210.87,62.89,16.08,1.71,0.39,0.50
2018/07/09T23:51:54z,2c:3a:e8:34:fd:11,2.50i,2.0+OPENLOG+15931 MB+DS3231+BME280+PMSX003A+PMSX003B,85,5,6.49,1016.26,0.01,30072,31,1697,0.14,0.61,1.14,0.14,0.61,1.14,262.64,75.55,18.98,1.25,0.86,0.25,0.58,0.95,1.37,0.58,0.95,1.37,211.18,66.00,14.24,1.16,0.37,0.50
2018/07/09T23:53:14z,2c:3a:e8:34:fd:11,2.50i,2.0+OPENLOG+15931 MB+DS3231+BME280+PMSX003A+PMSX003B,85,5,6.49,1016.27,0.01,30072,31,1777,0.14,0.57,1.25,0.14,0.57,1.25,199.30,57.93,22.30,3.45,0.95,0.25,0.58,0.61,0.61,0.58,0.61,0.61,157.17,45.89,12.53,0.75,0.37,0.50
2018/07/09T23:54:34z,2c:3a:e8:34:fd:11,2.50i,2.0+OPENLOG+15931 MB+DS3231+BME280+PMSX003A+PMSX003B,85,5,6.49,1016.31,0.01,29536,31,1857,0.07,0.93,1.36,0.07,0.93,1.36,249.00,76.27,19.48,1.86,0.43,0.25,0.24,0.95,1.34,0.24,0.95,1.34,220.74,65.47,17.71,2.13,0.34,0.50
2018/07/09T23:55:54z,2c:3a:e8:34:fd:11,2.50i,2.0+OPENLOG+15931 MB+DS3231+BME280+PMSX003A+PMSX003B,84,5,5.79,1016.24,0.01,29640,31,1937,0.09,0.82,0.93,0.09,0.82,0.93,172.70,49.00,10.55,1.34,0.30,0.25,0.43,0.76,1.00,0.43,0.76,1.00,166.54,51.62,12.86,1.62,0.41,0.50
2018/07/09T23:57:14z,2c:3a:e8:34:fd:11,2.50i,2.0+OPENLOG+15931 MB+DS3231+BME280+PMSX003A+PMSX003B,85,5,6.49,1016.24,0.01,30072,31,2017,0.02,0.82,1.32,0.02,0.82,1.32,191.93,58.41,15.61,1.98,0.36,0.25,0.25,1.03,2.06,0.25,1.03,2.06,181.00,53.89,19.06,3.58,0.86,0.86
2018/07/09T23:58:34z,2c:3a:e8:34:fd:11,2.50i,2.0+OPENLOG+15931 MB+DS3231+BME280+PMSX003A+PMSX003B,85,5,6.49,1016.23,0.01,30072,31,2097,0.02,0.68,0.68,0.02,0.68,0.68,168.82,50.70,16.43,0.68,0.36,0.25,0.05,1.00,1.63,0.05,1.00,1.63,202.97,61.11,13.26,2.55,0.45,0.86
2018/07/09T23:59:54z,2c:3a:e8:34:fd:11,2.50i,2.0+OPENLOG+15931 MB+DS3231+BME280+PMSX003A+PMSX003B,84,5,5.79,1016.06,0.01,29584,31,2177,0.07,0.73,1.09,0.07,0.73,1.09,214.50,60.32,19.64,1.52,0.61,0.25,0.05,0.11,0.38,0.05,0.11,0.38,156.32,43.35,5.86,0.46,0.27,0.27
