UTCDateTime,mac_address,firmware_ver,hardware,current_temp_f,current_humidity,current_dewpoint_f,pressure,adc,mem,rssi,uptime,pm1_0_atm,pm2_5_atm,pm10_0_atm,pm1_0_cf_1,pm2_5_cf_1,pm10_0_cf_1,p_0_3_um,p_0_5_um,p_1_0_um,p_2_5_um,p_5_0_um,p_10_0_um,pm1_0_atm_b,pm2_5_atm_b,pm10_0_atm_b,pm1_0_cf_1_b,pm2_5_cf_1_b,pm10_0_cf_1_b,p_0_3_um_b,p_0_5_um_b,p_1_0_um_b,p_2_5_um_b,p_5_0_um_b,p_10_0_um_b
2018/07/09T18:13:11z,2c:3a:e8:34:ff:6b,2.50i,2.0+OPENLOG+15833 MB+DS3231+BME280+PMSX003A+PMSX003B,69,56,52.65,1015.18,0.00,29672,31,23,0.00,0.00,0.00,0.00,0.00,0.00,0.00,0.00,0.00,0.00,0.00,0.00,0.00,0.00,0.00,0.00,0.00,0.00,0.00,0.00,0.00,0.00,0.00,0.00
2018/07/09T18:14:25z,2c:3a:e8:34:ff:6b,2.50i,2.0+OPENLOG+15833 MB+DS3231+BME280+PMSX003A+PMSX003B,69,55,52.16,1015.22,0.00,30128,31,97,3.31,5.17,5.21,3.31,5.17,5.21,633.86,176.90,23.76,1.81,0.00,0.00,3.62,5.41,5.79,3.62,5.41,5.79,640.76,183.53,27.88,1.18,0.71,0.00
2018/07/09T18:15:45z,2c:3a:e8:34:ff:6b,2.50i,2.0+OPENLOG+15833 MB+DS3231+BME280+PMSX003A+PMSX003B,70,54,52.59,1015.22,0.00,30128,31,177,4.11,6.72,7.15,4.11,6.72,7.15,878.09,244.39,35.30,3.04,0.00,0.00,4.05,5.84,6.73,4.05,5.84,6.73,818.76,239.14,35.78,0.97,0.65,0.65
2018/07/09T18:17:05z,2c:3a:e8:34:ff:6b,2.50i,2.0+OPENLOG+15833 MB+DS3231+BME280+PMSX003A+PMSX003B,71,53,53.01,1015.14,0.00,30128,31,257,4.27,6.11,6.36,4.27,6.11,6.36,873.73,252.22,33.64,2.27,0.49,0.00,4.00,5.86,5.86,4.00,5.86,5.86,870.16,246.51,33.30,2.22,0.65,0.65
2018/07/09T18:18:25z,2c:3a:e8:34:ff:6b,2.50i,2.0+OPENLOG+15833 MB+DS3231+BME280+PMSX003A+PMSX003B,71,52,52.49,1015.17,0.00,29696,31,337,4.91,6.36,7.06,4.91,6.36,7.06,951.19,266.00,39.02,2.51,0.09,0.00,4.18,6.11,6.26,4.18,6.11,6.26,919.42,253.45,34.89,3.32,0.65,0.65
2018/07/09T18:19:45z,2c:3a:e8:34:ff:6b,2.50i,2.0+OPENLOG+15833 MB+DS3231+BME280+PMSX003A+PMSX003B,72,51,52.89,1015.20,0.00,29696,31,417,4.72,6.38,6.38,4.72,6.38,6.38,923.49,267.11,36.09,2.00,0.09,0.00,4.97,7.17,8.28,4.97,7.17,8.28,1044.75,300.86,37.00,3.61,1.39,0.67
2018/07/09T18:21:05z,2c:3a:e8:34:ff:6b,2.50i,2.0+OPENLOG+15833 MB+DS3231+BME280+PMSX003A+PMSX003B,72,50,52.35,1015.24,0.00,30128,31,497,5.33,6.64,7.27,5.33,6.64,7.27,972.53,280.13,45.07,2.53,0.58,0.00,5.19,7.32,7.38,5.19,7.32,7.38,1030.05,297.92,36.86,2.59,1.39,0.67
2018/07/09T18:22:25z,2c:3a:e8:34:ff:6b,2.50i,2.0+OPENLOG+15833 MB+DS3231+BME280+PMSX003A+PMSX003B,73,50,53.27,1015.28,0.00,29944,31,577,4.53,6.06,6.55,4.53,6.06,6.55,916.85,262.64,35.49,1.57,0.98,0.00,5.34,7.32,7.32,5.34,7.32,7.32,1059.24,301.53,32.95,1.74,1.39,0.67
2018/07/09T18:23:45z,2c:3a:e8:34:ff:6b,2.50i,2.0+OPENLOG+15833 MB+DS3231+BME280+PMSX003A+PMSX003B,74,49,53.63,1015.29,0.00,29848,31,657,4.74,6.36,6.66,4.74,6.36,6.66,937.15,269.62,40.21,1.49,0.60,0.00,4.69,6.06,6.39,4.69,6.06,6.39,904.25,267.44,35.67,0.78,0.67,0.67
2018/07/09T18:25:05z,2c:3a:e8:34:ff:6b,2.50i,2.0+OPENLOG+15833 MB+DS3231+BME280+PMSX003A+PMSX003B,74,49,53.63,1015.23,0.00,29696,31,737,4.49,6.31,6.31,4.49,6.31,6.31,895.33,258.09,40.04,1.49,0.60,0.00,4.46,6.49,8.08,4.46,6.49,8.08,960.41,273.03,36.59,5.51,1.89,0.92
2018/07/09T18:26:25z,2c:3a:e8:34:ff:6b,2.50i,2.0+OPENLOG+15833 MB+DS3231+BME280+PMSX003A+PMSX003B,74,47,52.50,1015.32,0.00,30128,31,817,4.78,6.24,7.04,4.78,6.24,7.04,907.96,267.17,34.57,2.39,1.57,0.00,4.84,6.05,6.05,4.84,6.05,6.05,966.00,271.21,31.63,1.63,1.89,0.92
2018/07/09T18:27:45z,2c:3a:e8:34:ff:6b,2.50i,2.0+OPENLOG+15833 MB+DS3231+BME280+PMSX003A+PMSX003B,75,47,53.41,1015.10,0.00,30128,31,897,4.91,6.68,6.87,4.91,6.68,6.87,945.57,268.38,40.13,2.85,1.57,0.00,4.33,6.19,6.92,4.33,6.19,6.92,918.17,264.36,32.61,2.78,1.11,0.22
2018/07/09T18:29:05z,2c:3a:e8:34:ff:6b,2.50i,2.0+OPENLOG+15833 MB+DS3231+BME280+PMSX003A+PMSX003B,75,46,52.82,1015.24,0.00,30128,31,977,3.98,5.59,5.59,3.98,5.59,5.59,774.91,227.00,36.96,1.57,1.57,0.00,4.32,5.95,6.32,4.32,5.95,6.32,1020.65,274.73,29.08,0.76,0.16,0.16
2018/07/09T18:30:25z,2c:3a:e8:34:ff:6b,2.50i,2.0+OPENLOG+15833 MB+DS3231+BME280+PMSX003A+PMSX003B,76,43,51.90,1015.60,0.00,29696,31,1057,126.49,359.24,528.47,84.07,239.31,352.27,23353.53,7290.22,3300.82,685.60,246.80,9.56,117.95,345.59,522.32,79.11,230.78,348.68,22975.30,7113.86,3077.62,707.84,210.97,69.05
2018/07/09T18:31:45z,2c:3a:e8:34:ff:6b,2.50i,2.0+OPENLOG+15833 MB+DS3231+BME280+PMSX003A+PMSX003B,76,36,47.13,1015.59,0.00,29696,31,1137,196.20,528.18,778.62,130.13,351.36,518.44,36416.27,11190.18,4833.16,991.42,358.58,11.07,186.11,540.03,828.50,123.50,359.36,551.56,36291.75,11237.78,4836.72,1101.17,346.33,111.61
2018/07/09T18:33:05z,2c:3a:e8:34:ff:6b,2.50i,2.0+OPENLOG+15833 MB+DS3231+BME280+PMSX003A+PMSX003B,77,30,43.20,1015.53,0.00,30128,31,1217,143.50,356.28,510.50,94.70,236.65,339.50,26342.22,7999.52,3133.00,623.70,218.04,7.70,136.58,366.28,515.31,90.39,243.53,342.69,26422.00,8061.17,3110.36,649.50,175.19,53.67
2018/07/09T18:34:25z,2c:3a:e8:34:ff:6b,2.50i,2.0+OPENLOG+15833 MB+DS3231+BME280+PMSX003A+PMSX003B,77,26,39.49,1015.42,0.00,30128,31,1297,95.82,227.09,321.64,63.11,150.57,213.64,17425.29,5254.05,1985.91,371.45,135.32,4.73,91.03,226.89,325.22,59.86,150.30,216.24,17325.16,5261.76,1928.05,410.43,116.78,32.86
2018/07/09T18:35:45z,2c:3a:e8:34:ff:6b,2.50i,2.0+OPENLOG+15833 MB+DS3231+BME280+PMSX003A+PMSX003B,78,23,37.21,1015.60,0.00,29384,31,1377,60.71,140.11,196.71,39.80,92.44,130.18,11266.00,3388.87,1195.91,216.27,84.44,1.87,58.94,138.47,197.32,38.44,91.50,130.59,11218.59,3385.09,1171.26,227.21,69.06,25.35
2018/07/09T18:37:05z,2c:3a:e8:34:ff:6b,2.50i,2.0+OPENLOG+15833 MB+DS3231+BME280+PMSX003A+PMSX003B,78,21,34.91,1015.40,0.00,29696,31,1457,40.68,91.43,126.55,30.20,60.57,85.18,7443.68,2220.39,783.09,141.27,50.09,3.09,38.24,89.94,126.41,29.18,59.44,84.53,7378.76,2210.50,745.35,148.26,45.00,16.94
2018/07/09T18:38:25z,2c:3a:e8:34:ff:6b,2.50i,2.0+OPENLOG+15833 MB+DS3231+BME280+PMSX003A+PMSX003B,78,19,32.40,1015.20,0.00,30128,31,1537,28.67,66.93,93.22,24.60,48.07,69.60,5389.60,1626.07,584.89,105.29,37.02,0.89,26.65,64.82,90.71,23.32,47.21,68.76,5249.74,1588.29,528.71,108.65,31.12,9.65
2018/07/09T18:39:45z,2c:3a:e8:34:ff:6b,2.50i,2.0+OPENLOG+15833 MB+DS3231+BME280+PMSX003A+PMSX003B,79,19,33.22,1015.34,0.00,30128,31,1617,26.63,60.72,82.35,23.30,45.48,65.00,5071.11,1501.89,510.78,94.35,29.78,1.17,24.11,58.97,80.11,22.09,44.94,64.00,4706.23,1425.46,493.06,92.46,22.69,13.60
2018/07/09T18:41:05z,2c:3a:e8:34:ff:6b,2.50i,2.0+OPENLOG+15833 MB+DS3231+BME280+PMSX003A+PMSX003B,79,18,31.88,1015.42,0.00,29848,31,1697,23.88,54.02,73.74,21.95,42.90,61.24,4479.36,1339.38,469.95,75.95,29.29,1.29,22.94,53.89,71.80,21.57,42.94,60.34,4446.51,1332.37,451.43,76.51,22.51,7.03
2018/07/09T18:42:25z,2c:3a:e8:34:ff:6b,2.50i,2.0+OPENLOG+15833 MB+DS3231+BME280+PMSX003A+PMSX003B,79,18,31.88,1015.35,0.00,29696,31,1777,20.18,50.11,70.44,19.64,41.16,59.62,4014.13,1193.11,429.29,80.49,30.93,0.84,19.89,46.84,67.87,19.53,39.42,58.18,4022.53,1197.42,417.97,71.42,25.26,9.47
2018/07/09T18:43:45z,2c:3a:e8:34:ff:6b,2.50i,2.0+OPENLOG+15833 MB+DS3231+BME280+PMSX003A+PMSX003B,80,18,32.69,1015.22,0.00,30128,31,1857,19.69,46.80,61.47,19.33,39.29,54.58,3905.07,1171.87,400.04,65.91,21.82,0.67,18.97,44.43,59.51,18.81,38.19,53.59,3754.54,1130.62,364.49,60.49,19.46,7.08
2018/07/09T18:45:05z,2c:3a:e8:34:ff:6b,2.50i,2.0+OPENLOG+15833 MB+DS3231+BME280+PMSX003A+PMSX003B,80,17,31.27,1015.41,0.00,30128,31,1937,17.64,42.93,59.22,17.64,37.38,53.31,3498.53,1050.67,377.07,66.80,23.56,0.49,18.14,40.84,54.03,18.14,36.16,50.38,3551.43,1058.05,343.92,53.89,15.95,4.86
2018/07/09T18:46:25z,2c:3a:e8:34:ff:6b,2.50i,2.0+OPENLOG+15833 MB+DS3231+BME280+PMSX003A+PMSX003B,80,17,31.27,1015.40,0.00,29640,31,2017,16.73,37.98,53.04,16.73,34.47,49.58,3269.60,973.51,335.47,57.91,20.89,1.29,15.94,39.22,51.17,15.92,35.19,48.44,3292.25,981.69,326.94,55.22,16.06,2.94
2018/07/09T18:47:45z,2c:3a:e8:34:ff:6b,2.50i,2.0+OPENLOG+15833 MB+DS3231+BME280+PMSX003A+PMSX003B,80,17,31.27,1015.21,0.00,29696,31,2097,15.44,37.98,51.42,15.44,34.33,48.76,3088.67,915.69,325.24,56.80,19.60,0.49,14.92,36.59,51.76,14.92,33.62,48.65,3043.70,916.68,312.49,63.62,18.76,6.86
2018/07/09T18:49:05z,2c:3a:e8:34:ff:6b,2.50i,2.0+OPENLOG+15833 MB+DS3231+BME280+PMSX003A+PMSX003B,81,17,32.08,1015.41,0.00,30128,31,2177,14.87,32.71,46.80,14.87,31.47,45.60,2787.20,830.80,290.53,54.27,19.82,0.22,14.84,33.97,46.35,14.84,31.81,44.89,2998.30,902.32,303.65,48.16,12.92,6.49
2018/07/09T18:50:25z,2c:3a:e8:34:ff:6b,2.50i,2.0+OPENLOG+15833 MB+DS3231+BME280+PMSX003A+PMSX003B,81,17,32.08,1015.32,0.00,30128,31,2257,13.85,30.85,39.26,13.85,30.06,39.13,2701.79,786.00,262.47,38.21,12.77,0.22,13.20,31.00,47.03,13.20,30.26,45.97,2652.43,792.49,269.09,55.09,19.89,7.31
2018/07/09T18:52:09z,2c:3a:e8:34:ff:6b,2.50i,2.0+OPENLOG+15833 MB+DS3231+BME280+PMSX003A+PMSX003B,81,16,30.58,1015.34,0.00,29672,31,23,5.00,11.00,11.00,5.00,11.00,11.00,0.00,0.00,0.00,0.00,0.00,0.00,11.00,29.00,29.00,11.00,29.00,29.00,0.00,0.00,0.00,0.00,0.00,0.00
2018/07/09T18:53:23z,2c:3a:e8:34:ff:6b,2.50i,2.0+OPENLOG+15833 MB+DS3231+BME280+PMSX003A+PMSX003B,81,16,30.58,1015.28,0.00,30128,31,97,9.14,21.74,27.79,9.14,21.74,27.79,1785.29,541.00,197.33,24.86,8.57,0.43,9.97,24.51,33.86,9.97,24.51,33.86,2095.89,625.09,197.00,41.89,11.54,4.97
2018/07/09T18:54:43z,2c:3a:e8:34:ff:6b,2.50i,2.0+OPENLOG+15833 MB+DS3231+BME280+PMSX003A+PMSX003B,82,16,31.39,1015.38,0.00,30128,31,177,8.43,21.50,30.80,8.43,21.50,30.80,1890.91,553.87,206.26,35.09,13.91,0.43,10.58,24.26,31.55,10.58,24.26,31.55,2148.24,648.08,202.74,33.37,9.05,2.16
2018/07/09T18:56:03z,2c:3a:e8:34:ff:6b,2.50i,2.0+OPENLOG+15833 MB+DS3231+BME280+PMSX003A+PMSX003B,82,16,31.39,1015.37,0.00,29944,31,257,10.24,22.09,27.52,10.24,22.09,27.52,2055.52,596.39,183.35,28.00,7.61,0.61,10.18,22.06,30.00,10.18,22.06,30.00,2044.41,606.26,182.38,30.88,8.94,3.29
2018/07/09T18:57:23z,2c:3a:e8:34:ff:6b,2.50i,2.0+OPENLOG+15833 MB+DS3231+BME280+PMSX003A+PMSX003B,82,16,31.39,1015.38,0.00,29592,31,337,8.57,20.00,25.64,8.57,20.00,25.64,1812.82,537.45,180.14,25.14,8.00,0.61,9.06,19.11,27.66,9.06,19.11,27.66,1886.49,567.69,171.80,27.89,8.69,2.11
2018/07/09T18:58:43z,2c:3a:e8:34:ff:6b,2.50i,2.0+OPENLOG+15833 MB+DS3231+BME280+PMSX003A+PMSX003B,82,16,31.39,1015.33,0.00,29672,31,417,8.49,19.33,25.82,8.49,19.33,25.82,1727.47,510.98,176.00,26.09,9.42,0.61,8.49,20.27,28.19,8.49,20.27,28.19,1736.11,526.14,173.65,32.76,8.97,3.78
2018/07/09T19:00:03z,2c:3a:e8:34:ff:6b,2.50i,2.0+OPENLOG+15833 MB+DS3231+BME280+PMSX003A+PMSX003B,82,16,31.39,1015.31,0.00,30128,31,497,7.85,19.11,24.64,7.85,19.11,24.64,1665.06,496.85,171.53,23.62,8.55,0.13,6.75,17.11,23.64,6.75,17.11,23.64,1532.83,463.06,161.31,23.78,8.00,1.67
2018/07/09T19:01:23z,2c:3a:e8:34:ff:6b,2.50i,2.0+OPENLOG+15833 MB+DS3231+BME280+PMSX003A+PMSX003B,82,16,31.39,1015.26,0.00,30128,31,577,7.81,17.91,20.79,7.81,17.91,20.79,1587.83,469.79,154.04,17.11,4.17,0.13,6.11,13.79,21.66,6.11,13.79,21.66,1357.66,404.89,114.58,23.21,10.37,4.11
2018/07/09T19:02:43z,2c:3a:e8:34:ff:6b,2.50i,2.0+OPENLOG+15833 MB+DS3231+BME280+PMSX003A+PMSX003B,82,15,29.79,1015.13,0.00,29696,31,657,5.67,13.52,18.78,5.67,13.52,18.78,1279.96,375.65,115.09,19.87,7.83,0.13,6.70,15.41,20.27,6.70,15.41,20.27,1377.97,420.81,124.05,24.22,5.73,2.11
2018/07/09T19:04:03z,2c:3a:e8:34:ff:6b,2.50i,2.0+OPENLOG+15833 MB+DS3231+BME280+PMSX003A+PMSX003B,83,15,30.59,1015.25,0.00,29672,31,737,5.98,14.20,17.84,5.98,14.20,17.84,1302.93,400.22,130.36,16.09,4.04,0.13,6.14,11.92,16.03,6.14,11.92,16.03,1318.22,388.19,93.62,13.95,3.78,1.46
2018/07/09T19:05:23z,2c:3a:e8:34:ff:6b,2.50i,2.0+OPENLOG+15833 MB+DS3231+BME280+PMSX003A+PMSX003B,83,15,30.59,1015.28,0.00,30128,31,817,5.87,13.37,16.85,5.87,13.37,16.85,1190.09,348.83,119.39,17.78,5.13,0.13,6.42,12.94,18.39,6.42,12.94,18.39,1230.92,369.97,110.08,19.67,5.50,2.11
2018/07/09T19:06:43z,2c:3a:e8:34:ff:6b,2.50i,2.0+OPENLOG+15833 MB+DS3231+BME280+PMSX003A+PMSX003B,83,15,30.59,1015.28,0.00,30128,31,897,5.26,11.70,14.85,5.26,11.70,14.85,1143.39,335.61,110.04,13.04,5.30,0.13,4.63,10.87,15.79,4.63,10.87,15.79,1123.97,330.63,110.39,15.21,5.95,0.42
2018/07/09T19:08:03z,2c:3a:e8:34:ff:6b,2.50i,2.0+OPENLOG+15833 MB+DS3231+BME280+PMSX003A+PMSX003B,83,15,30.59,1014.97,0.00,29696,31,977,5.26,10.85,13.13,5.26,10.85,13.13,1069.43,317.13,86.43,9.30,2.43,0.13,5.11,11.55,14.92,5.11,11.55,14.92,1149.08,341.08,103.68,14.47,2.53,1.37
2018/07/09T19:09:23z,2c:3a:e8:34:ff:6b,2.50i,2.0+OPENLOG+15833 MB+DS3231+BME280+PMSX003A+PMSX003B,83,15,30.59,1015.28,0.00,29696,31,1057,4.72,9.83,12.98,4.72,9.83,12.98,1056.39,304.57,84.43,10.83,4.91,0.74,4.77,11.34,14.29,4.77,11.34,14.29,1081.80,317.91,98.71,14.00,3.20,0.57
2018/07/09T19:10:43z,2c:3a:e8:34:ff:6b,2.50i,2.0+OPENLOG+15833 MB+DS3231+BME280+PMSX003A+PMSX003B,83,15,30.59,1015.27,0.00,30128,31,1137,4.67,9.80,12.67,4.67,9.80,12.67,918.65,282.39,88.04,11.00,5.00,0.74,3.53,8.71,11.00,3.53,8.71,11.00,814.26,240.63,73.74,12.47,2.21,1.58
2018/07/09T19:12:03z,2c:3a:e8:34:ff:6b,2.50i,2.0+OPENLOG+15833 MB+DS3231+BME280+PMSX003A+PMSX003B,83,15,30.59,1015.27,0.00,30128,31,1217,3.77,9.11,11.36,3.77,9.11,11.36,873.06,253.83,82.30,10.85,2.94,0.26,3.54,8.54,10.73,3.54,8.54,10.73,921.08,266.19,69.35,7.78,2.81,2.05
2018/07/09T19:13:23z,2c:3a:e8:34:ff:6b,2.50i,2.0+OPENLOG+15833 MB+DS3231+BME280+PMSX003A+PMSX003B,83,15,30.59,1015.23,0.00,29640,31,1297,2.61,6.80,9.67,2.61,6.80,9.67,699.52,210.48,74.04,8.83,4.70,0.26,2.60,6.94,8.94,2.60,6.94,8.94,730.97,215.43,63.43,8.46,1.77,1.31
2018/07/09T19:14:43z,2c:3a:e8:34:ff:6b,2.50i,2.0+OPENLOG+15833 MB+DS3231+BME280+PMSX003A+PMSX003B,83,15,30.59,1015.31,0.00,29696,31,1377,1.91,5.96,8.15,1.91,5.96,8.15,680.17,198.00,62.51,8.34,3.19,0.26,3.05,7.34,8.97,3.05,7.34,8.97,712.26,209.58,64.26,10.63,1.16,1.00
2018/07/09T19:16:03z,2c:3a:e8:34:ff:6b,2.50i,2.0+OPENLOG+15833 MB+DS3231+BME280+PMSX003A+PMSX003B,83,15,30.59,1015.21,0.00,29672,31,1457,2.33,6.11,7.85,2.33,6.11,7.85,634.43,189.65,53.91,8.65,3.22,0.26,3.08,8.11,9.73,3.08,8.11,9.73,784.22,227.16,62.92,12.70,1.08,0.97
2018/07/09T19:17:23z,2c:3a:e8:34:ff:6b,2.50i,2.0+OPENLOG+15833 MB+DS3231+BME280+PMSX003A+PMSX003B,83,15,30.59,1015.15,0.00,30128,31,1537,2.33,5.39,6.74,2.33,5.39,6.74,664.30,193.87,45.09,7.13,2.57,0.26,2.05,6.00,6.92,2.05,6.00,6.92,600.00,177.00,48.22,9.08,1.19,0.97
2018/07/09T19:18:43z,2c:3a:e8:34:ff:6b,2.50i,2.0+OPENLOG+15833 MB+DS3231+BME280+PMSX003A+PMSX003B,83,15,30.59,1015.27,0.00,29944,31,1617,2.28,5.60,8.26,2.28,5.60,8.26,612.26,179.87,55.96,9.32,4.55,0.26,2.08,4.79,5.79,2.08,4.79,5.79,597.24,168.97,41.53,6.32,1.53,0.05
2018/07/09T19:20:03z,2c:3a:e8:34:ff:6b,2.50i,2.0+OPENLOG+15833 MB+DS3231+BME280+PMSX003A+PMSX003B,83,15,30.59,1015.22,0.00,29696,31,1697,1.83,4.43,6.15,1.83,4.43,6.15,524.74,156.70,43.35,4.83,3.39,0.26,2.55,6.05,8.11,2.55,6.05,8.11,637.58,191.16,60.63,6.32,2.74,1.47
2018/07/09T19:21:23z,2c:3a:e8:34:ff:6b,2.50i,2.0+OPENLOG+15833 MB+DS3231+BME280+PMSX003A+PMSX003B,83,15,30.59,1015.33,0.00,29696,31,1777,2.39,4.63,6.59,2.39,4.63,6.59,552.78,168.09,46.65,6.04,2.96,0.26,2.40,5.86,7.71,2.40,5.86,7.71,573.86,170.34,54.17,9.31,2.91,0.91
2018/07/09T19:22:43z,2c:3a:e8:34:ff:6b,2.50i,2.0+OPENLOG+15833 MB+DS3231+BME280+PMSX003A+PMSX003B,83,15,30.59,1015.40,0.00,30128,31,1857,1.80,4.48,5.61,1.80,4.48,5.61,483.39,142.87,38.04,6.04,1.74,0.26,2.64,6.58,8.47,2.64,6.58,8.47,652.50,188.67,54.17,9.61,2.44,1.44
2018/07/09T19:24:03z,2c:3a:e8:34:ff:6b,2.50i,2.0+OPENLOG+15833 MB+DS3231+BME280+PMSX003A+PMSX003B,83,15,30.59,1015.35,0.00,30128,31,1937,2.47,5.51,5.51,2.47,5.51,5.51,568.60,163.91,56.26,2.64,1.74,0.26,2.03,4.05,6.18,2.03,4.05,6.18,500.45,151.68,36.95,7.16,2.32,1.44
2018/07/09T19:25:23z,2c:3a:e8:34:ff:6b,2.50i,2.0+OPENLOG+15833 MB+DS3231+BME280+PMSX003A+PMSX003B,83,15,30.59,1015.29,0.00,29696,31,2017,1.57,3.78,5.61,1.57,3.78,5.61,431.22,128.48,42.87,5.39,2.83,0.26,1.57,4.41,4.95,1.57,4.41,4.95,449.03,135.35,40.81,5.03,0.65,1.44
2018/07/09T19:26:43z,2c:3a:e8:34:ff:6b,2.50i,2.0+OPENLOG+15833 MB+DS3231+BME280+PMSX003A+PMSX003B,84,14,29.69,1015.39,0.00,29696,31,2097,1.24,4.58,6.16,1.24,4.58,6.16,455.60,137.69,48.44,5.60,3.02,0.26,1.16,3.30,4.59,1.16,3.30,4.59,401.19,122.76,31.19,4.86,0.81,0.81
2018/07/09T19:28:03z,2c:3a:e8:34:ff:6b,2.50i,2.0+OPENLOG+15833 MB+DS3231+BME280+PMSX003A+PMSX003B,84,14,29.69,1015.38,0.00,30128,31,2177,0.70,3.11,4.64,0.70,3.11,4.64,386.17,109.02,31.32,6.94,2.98,0.26,1.00,2.79,3.74,1.00,2.79,3.74,355.89,100.71,29.89,4.68,0.81,0.81
2018/07/09T19:29:23z,2c:3a:e8:34:ff:6b,2.50i,2.0+OPENLOG+15833 MB+DS3231+BME280+PMSX003A+PMSX003B,84,14,29.69,1015.38,0.00,29944,31,2257,1.23,2.62,3.11,1.23,2.62,3.11,355.40,103.49,31.02,1.36,0.77,0.26,0.92,2.68,4.08,0.92,2.68,4.08,350.19,100.30,30.00,2.97,1.95,1.30
2018/07/09T19:31:07z,2c:3a:e8:34:ff:6b,2.50i,2.0+OPENLOG+15833 MB+DS3231+BME280+PMSX003A+PMSX003B,83,14,28.90,1015.32,0.00,29672,31,23,0.00,0.00,0.00,0.00,0.00,0.00,0.00,0.00,0.00,0.00,0.00,0.00,0.00,0.00,0.00,0.00,0.00,0.00,0.00,0.00,0.00,0.00,0.00,0.00
2018/07/09T19:32:21z,2c:3a:e8:34:ff:6b,2.50i,2.0+OPENLOG+15833 MB+DS3231+BME280+PMSX003A+PMSX003B,84,14,29.69,1015.33,0.00,30128,31,97,0.37,1.83,2.45,0.37,1.83,2.45,300.75,85.80,22.25,3.55,1.25,0.00,0.33,1.31,2.92,0.33,1.31,2.92,265.75,78.94,29.72,3.61,1.61,0.94
2018/07/09T19:33:41z,2c:3a:e8:34:ff:6b,2.50i,2.0+OPENLOG+15833 MB+DS3231+BME280+PMSX003A+PMSX003B,84,14,29.69,1015.38,0.00,30128,31,177,0.51,1.66,3.30,0.51,1.66,3.30,326.94,96.81,26.60,4.17,2.43,0.00,0.33,1.11,1.11,0.33,1.11,1.11,211.33,66.06,19.94,0.17,1.61,0.94
2018/07/09T19:35:01z,2c:3a:e8:34:ff:6b,2.50i,2.0+OPENLOG+15833 MB+DS3231+BME280+PMSX003A+PMSX003B,84,14,29.69,1015.39,0.00,29944,31,257,0.48,1.83,1.83,0.48,1.83,1.83,274.96,82.57,20.43,0.74,2.43,0.00,0.30,2.14,2.51,0.30,2.14,2.51,261.89,80.05,24.59,4.92,1.61,0.94
2018/07/09T19:36:21z,2c:3a:e8:34:ff:6b,2.50i,2.0+OPENLOG+15833 MB+DS3231+BME280+PMSX003A+PMSX003B,84,14,29.69,1015.41,0.00,29696,31,337,0.57,1.57,2.85,0.57,1.57,2.85,244.57,75.65,23.04,4.48,1.96,0.00,0.61,1.84,2.68,0.61,1.84,2.68,270.00,82.05,22.21,2.58,0.79,0.79
2018/07/09T19:37:41z,2c:3a:e8:34:ff:6b,2.50i,2.0+OPENLOG+15833 MB+DS3231+BME280+PMSX003A+PMSX003B,84,14,29.69,1015.30,0.00,29696,31,417,0.78,1.83,2.07,0.78,1.83,2.07,311.48,85.83,17.65,1.87,0.48,0.00,0.70,1.81,2.27,0.70,1.81,2.27,216.89,68.11,18.92,3.68,0.65,0.11
2018/07/09T19:39:01z,2c:3a:e8:34:ff:6b,2.50i,2.0+OPENLOG+15833 MB+DS3231+BME280+PMSX003A+PMSX003B,84,14,29.69,1015.29,0.00,30128,31,497,0.57,2.20,3.02,0.57,2.20,3.02,287.22,85.35,24.43,4.61,1.26,0.00,0.03,1.22,1.81,0.03,1.22,1.81,245.50,71.39,20.33,1.94,0.11,0.11
2018/07/09T19:40:21z,2c:3a:e8:34:ff:6b,2.50i,2.0+OPENLOG+15833 MB+DS3231+BME280+PMSX003A+PMSX003B,84,14,29.69,1015.42,0.00,30128,31,577,0.46,2.00,2.91,0.46,2.00,2.91,283.04,82.65,26.13,2.91,1.35,0.00,0.03,1.11,2.03,0.03,1.11,2.03,176.11,53.14,15.95,1.78,1.62,0.65
2018/07/09T19:41:41z,2c:3a:e8:34:ff:6b,2.50i,2.0+OPENLOG+15833 MB+DS3231+BME280+PMSX003A+PMSX003B,84,14,29.69,1015.24,0.00,29696,31,657,0.45,1.23,1.72,0.45,1.23,1.72,228.26,69.45,18.26,1.19,0.85,0.00,0.03,0.92,1.89,0.03,0.92,1.89,217.11,62.79,18.16,3.32,1.42,0.65
2018/07/09T19:43:01z,2c:3a:e8:34:ff:6b,2.50i,2.0+OPENLOG+15833 MB+DS3231+BME280+PMSX003A+PMSX003B,84,14,29.69,1015.45,0.00,29696,31,737,0.26,1.15,1.70,0.26,1.15,1.70,189.96,56.30,16.55,1.96,0.47,0.00,0.32,1.32,2.19,0.32,1.32,2.19,238.14,66.46,14.59,2.43,1.03,1.03
2018/07/09T19:44:21z,2c:3a:e8:34:ff:6b,2.50i,2.0+OPENLOG+15833 MB+DS3231+BME280+PMSX003A+PMSX003B,84,14,29.69,1015.44,0.00,30128,31,817,0.26,1.33,1.72,0.26,1.33,1.72,215.87,60.26,14.39,2.83,0.74,0.00,0.17,0.75,0.75,0.17,0.75,0.75,212.58,58.97,14.83,2.43,1.03,1.03
2018/07/09T19:45:41z,2c:3a:e8:34:ff:6b,2.50i,2.0+OPENLOG+15833 MB+DS3231+BME280+PMSX003A+PMSX003B,84,14,29.69,1015.24,0.00,30128,31,897,0.26,1.65,1.85,0.26,1.65,1.85,189.00,56.26,18.78,3.09,0.74,0.00,0.17,0.70,0.70,0.17,0.70,0.70,170.11,49.35,15.68,2.43,1.03,1.03
2018/07/09T19:47:01z,2c:3a:e8:34:ff:6b,2.50i,2.0+OPENLOG+15833 MB+DS3231+BME280+PMSX003A+PMSX003B,84,14,29.69,1015.41,0.00,29456,31,977,0.33,1.52,1.67,0.33,1.52,1.67,210.52,64.83,18.22,1.00,0.74,0.00,0.17,0.50,0.66,0.17,0.50,0.66,146.21,43.05,6.95,1.63,1.03,1.03
2018/07/09T19:48:21z,2c:3a:e8:34:ff:6b,2.50i,2.0+OPENLOG+15833 MB+DS3231+BME280+PMSX003A+PMSX003B,84,14,29.69,1015.45,0.00,29696,31,1057,0.33,1.09,1.09,0.33,1.09,1.09,158.30,49.66,14.72,1.15,0.74,0.00,0.17,0.03,0.78,0.17,0.03,0.78,142.22,39.14,9.68,1.68,1.68,1.03
2018/07/09T19:49:41z,2c:3a:e8:34:ff:6b,2.50i,2.0+OPENLOG+15833 MB+DS3231+BME280+PMSX003A+PMSX003B,84,14,29.69,1015.36,0.00,30128,31,1137,0.33,0.36,0.36,0.33,0.36,0.36,119.87,35.32,10.00,1.62,0.74,0.00,0.17,0.22,0.49,0.17,0.22,0.49,148.54,41.41,9.95,2.27,1.68,1.03
2018/07/09T19:51:01z,2c:3a:e8:34:ff:6b,2.50i,2.0+OPENLOG+15833 MB+DS3231+BME280+PMSX003A+PMSX003B,84,14,29.69,1015.48,0.00,30128,31,1217,0.33,0.30,1.02,0.33,0.30,1.02,159.26,41.91,9.57,1.39,1.39,0.00,0.17,0.13,0.42,0.17,0.13,0.42,119.68,32.21,10.11,2.00,1.68,1.03
2018/07/09T19:52:21z,2c:3a:e8:34:ff:6b,2.50i,2.0+OPENLOG+15833 MB+DS3231+BME280+PMSX003A+PMSX003B,84,14,29.69,1015.44,0.00,29640,31,1297,0.11,0.20,0.20,0.11,0.20,0.20,131.73,36.98,10.09,1.39,1.39,0.00,0.17,0.05,0.61,0.17,0.05,0.61,120.79,34.32,9.37,0.68,0.68,0.68
2018/07/09T19:53:41z,2c:3a:e8:34:ff:6b,2.50i,2.0+OPENLOG+15833 MB+DS3231+BME280+PMSX003A+PMSX003B,84,14,29.69,1015.39,0.00,29696,31,1377,0.11,0.26,0.26,0.11,0.26,0.26,127.17,36.57,8.17,1.22,1.39,0.00,0.17,0.24,0.46,0.17,0.24,0.46,110.92,32.54,9.84,0.54,0.68,0.68
2018/07/09T19:55:01z,2c:3a:e8:34:ff:6b,2.50i,2.0+OPENLOG+15833 MB+DS3231+BME280+PMSX003A+PMSX003B,84,14,29.69,1015.34,0.00,30128,31,1457,0.11,0.91,0.91,0.11,0.91,0.91,157.96,49.74,15.78,1.09,1.39,0.00,0.17,0.42,1.42,0.17,0.42,1.42,135.33,42.78,8.72,2.00,1.39,0.61
2018/07/09T19:56:21z,2c:3a:e8:34:ff:6b,2.50i,2.0+OPENLOG+15833 MB+DS3231+BME280+PMSX003A+PMSX003B,84,14,29.69,1015.41,0.00,30128,31,1537,0.11,0.19,0.45,0.11,0.19,0.45,97.28,31.02,10.04,1.02,1.39,0.00,0.17,0.34,0.58,0.17,0.34,0.58,144.71,40.55,10.63,1.16,0.58,0.61
2018/07/09T19:57:41z,2c:3a:e8:34:ff:6b,2.50i,2.0+OPENLOG+15833 MB+DS3231+BME280+PMSX003A+PMSX003B,84,14,29.69,1015.39,0.00,30128,31,1617,0.11,0.02,0.47,0.11,0.02,0.47,110.94,33.45,9.32,0.94,0.94,0.00,0.17,0.05,0.21,0.17,0.05,0.21,114.16,31.58,5.63,1.21,0.58,0.61
2018/07/09T19:59:01z,2c:3a:e8:34:ff:6b,2.50i,2.0+OPENLOG+15833 MB+DS3231+BME280+PMSX003A+PMSX003B,84,14,29.69,1015.30,0.00,29696,31,1697,0.11,0.26,0.50,0.11,0.26,0.50,93.00,26.87,9.74,1.74,0.48,0.00,0.17,0.57,1.00,0.17,0.57,1.00,90.49,27.78,11.46,3.03,0.58,0.61
2018/07/09T20:00:21z,2c:3a:e8:34:ff:6b,2.50i,2.0+OPENLOG+15833 MB+DS3231+BME280+PMSX003A+PMSX003B,84,14,29.69,1015.41,0.00,29696,31,1777,0.11,0.30,0.52,0.11,0.30,0.52,105.00,32.35,9.52,2.48,0.61,0.00,0.17,0.57,0.03,0.17,0.57,0.03,95.50,27.39,6.00,0.50,0.58,0.61
2018/07/09T20:01:41z,2c:3a:e8:34:ff:6b,2.50i,2.0+OPENLOG+15833 MB+DS3231+BME280+PMSX003A+PMSX003B,84,14,29.69,1015.22,0.00,30128,31,1857,0.11,0.04,0.04,0.11,0.04,0.04,90.52,28.39,7.78,2.48,0.61,0.00,0.17,0.45,0.45,0.17,0.45,0.45,97.26,31.00,12.47,0.89,0.58,0.61
2018/07/09T20:03:01z,2c:3a:e8:34:ff:6b,2.50i,2.0+OPENLOG+15833 MB+DS3231+BME280+PMSX003A+PMSX003B,84,14,29.69,1015.23,0.00,30128,31,1937,0.11,0.22,0.26,0.11,0.22,0.26,97.70,27.65,6.04,1.09,0.65,0.00,0.17,0.45,0.45,0.17,0.45,0.45,90.16,27.53,5.63,0.74,0.58,0.61
2018/07/09T20:04:21z,2c:3a:e8:34:ff:6b,2.50i,2.0+OPENLOG+15833 MB+DS3231+BME280+PMSX003A+PMSX003B,84,13,27.87,1015.64,0.00,29592,31,2017,0.11,0.02,0.02,0.11,0.02,0.02,75.13,23.70,5.87,0.35,0.65,0.00,0.17,0.45,0.64,0.17,0.45,0.64,89.17,26.83,5.28,1.50,0.58,0.61
2018/07/09T20:05:41z,2c:3a:e8:34:ff:6b,2.50i,2.0+OPENLOG+15833 MB+DS3231+BME280+PMSX003A+PMSX003B,84,12,25.93,1015.55,0.00,29696,31,2097,0.11,0.02,0.02,0.11,0.02,0.02,51.96,14.89,4.30,0.04,0.65,0.00,0.17,0.45,0.30,0.17,0.45,0.30,68.92,18.54,5.14,0.65,0.65,0.61
2018/07/09T20:07:01z,2c:3a:e8:34:ff:6b,2.50i,2.0+OPENLOG+15833 MB+DS3231+BME280+PMSX003A+PMSX003B,84,11,23.84,1015.47,0.00,29944,31,2177,0.11,0.02,0.02,0.11,0.02,0.02,27.13,7.52,3.35,1.26,0.65,0.00,0.17,0.45,0.30,0.17,0.45,0.30,52.26,13.21,2.79,0.65,0.65,0.61
2018/07/09T20:08:21z,2c:3a:e8:34:ff:6b,2.50i,2.0+OPENLOG+15833 MB+DS3231+BME280+PMSX003A+PMSX003B,84,10,21.58,1015.55,0.00,30128,31,2257,0.11,0.02,0.02,0.11,0.02,0.02,22.53,6.71,1.16,1.26,0.65,0.00,0.17,0.45,0.30,0.17,0.45,0.30,23.05,5.47,1.68,0.65,0.65,0.61
2018/07/09T20:10:05z,2c:3a:e8:34:ff:6b,2.50i,2.0+OPENLOG+15833 MB+DS3231+BME280+PMSX003A+PMSX003B,84,9,19.10,1015.57,0.00,29672,31,23,0.00,0.00,0.00,0.00,0.00,0.00,0.00,0.00,0.00,0.00,0.00,0.00,0.00,1.00,1.00,0.00,1.00,1.00,0.00,0.00,0.00,0.00,0.00,0.00
2018/07/09T20:11:19z,2c:3a:e8:34:ff:6b,2.50i,2.0+OPENLOG+15833 MB+DS3231+BME280+PMSX003A+PMSX003B,84,9,19.10,1015.41,0.00,30128,31,97,0.00,0.00,0.00,0.00,0.00,0.00,0.00,0.00,0.00,0.00,0.00,0.00,0.00,1.00,1.00,0.00,1.00,1.00,22.00,5.94,0.00,0.00,0.00,0.00
2018/07/09T20:12:39z,2c:3a:e8:34:ff:6b,2.50i,2.0+OPENLOG+15833 MB+DS3231+BME280+PMSX003A+PMSX003B,84,8,16.36,1015.55,0.00,30128,31,177,0.00,0.00,0.00,0.00,0.00,0.00,5.23,1.74,0.47,0.00,0.00,0.00,0.00,1.00,1.00,0.00,1.00,1.00,7.50,1.78,0.11,0.00,0.00,0.00
2018/07/09T20:13:59z,2c:3a:e8:34:ff:6b,2.50i,2.0+OPENLOG+15833 MB+DS3231+BME280+PMSX003A+PMSX003B,84,8,16.36,1015.48,0.00,30128,31,257,0.00,0.00,0.00,0.00,0.00,0.00,1.17,0.39,0.47,0.00,0.00,0.00,0.00,1.00,0.46,0.00,1.00,0.46,8.76,2.92,1.89,0.92,0.92,0.00
2018/07/09T20:15:19z,2c:3a:e8:34:ff:6b,2.50i,2.0+OPENLOG+15833 MB+DS3231+BME280+PMSX003A+PMSX003B,84,8,16.36,1015.55,0.00,29696,31,337,0.00,0.00,0.00,0.00,0.00,0.00,3.91,1.30,0.47,0.00,0.00,0.00,0.00,1.00,0.46,0.00,1.00,0.46,8.21,2.63,1.89,0.92,0.92,0.00
2018/07/09T20:16:39z,2c:3a:e8:34:ff:6b,2.50i,2.0+OPENLOG+15833 MB+DS3231+BME280+PMSX003A+PMSX003B,84,8,16.36,1015.51,0.00,29672,31,417,0.00,0.00,0.00,0.00,0.00,0.00,5.61,1.35,1.13,0.00,0.00,0.00,0.00,1.00,0.46,0.00,1.00,0.46,8.43,1.35,1.89,0.92,0.92,0.00
2018/07/09T20:17:59z,2c:3a:e8:34:ff:6b,2.50i,2.0+OPENLOG+15833 MB+DS3231+BME280+PMSX003A+PMSX003B,84,8,16.36,1015.49,0.00,30128,31,497,0.00,0.00,0.00,0.00,0.00,0.00,1.57,0.52,1.13,0.00,0.00,0.00,0.00,1.00,0.46,0.00,1.00,0.46,4.50,1.50,0.67,0.67,0.92,0.00
2018/07/09T20:19:19z,2c:3a:e8:34:ff:6b,2.50i,2.0+OPENLOG+15833 MB+DS3231+BME280+PMSX003A+PMSX003B,84,7,13.30,1015.50,0.00,30128,31,577,0.00,0.00,0.00,0.00,0.00,0.00,3.57,0.51,1.13,0.00,0.00,0.00,0.00,1.00,0.46,0.00,1.00,0.46,4.50,1.50,0.67,0.67,0.92,0.00
2018/07/09T20:20:39z,2c:3a:e8:34:ff:6b,2.50i,2.0+OPENLOG+15833 MB+DS3231+BME280+PMSX003A+PMSX003B,84,7,13.30,1015.51,0.00,29696,31,657,0.00,0.00,0.00,0.00,0.00,0.00,8.81,1.28,0.51,0.00,0.00,0.00,0.00,1.00,0.46,0.00,1.00,0.46,4.50,1.50,0.67,0.67,0.92,0.00
2018/07/09T20:21:59z,2c:3a:e8:34:ff:6b,2.50i,2.0+OPENLOG+15833 MB+DS3231+BME280+PMSX003A+PMSX003B,84,7,13.30,1015.27,0.00,29696,31,737,0.00,0.00,0.00,0.00,0.00,0.00,4.30,0.96,0.22,0.00,0.00,0.00,0.00,1.00,0.46,0.00,1.00,0.46,2.43,0.81,0.67,0.67,0.92,0.00
2018/07/09T20:23:19z,2c:3a:e8:34:ff:6b,2.50i,2.0+OPENLOG+15833 MB+DS3231+BME280+PMSX003A+PMSX003B,84,22,41.08,1015.35,0.00,30128,31,817,1.46,2.30,2.30,1.46,2.30,2.30,328.70,93.35,16.74,0.52,0.00,0.00,1.49,1.76,1.76,1.49,1.76,1.76,341.59,97.70,9.68,0.67,0.92,0.00
2018/07/09T20:24:39z,2c:3a:e8:34:ff:6b,2.50i,2.0+OPENLOG+15833 MB+DS3231+BME280+PMSX003A+PMSX003B,84,19,37.32,1015.74,0.00,30128,31,897,185.08,793.54,1424.02,123.48,528.92,949.27,40914.12,13185.04,8038.17,2287.92,923.83,37.08,277.50,872.19,1509.78,184.47,580.97,1006.06,39715.42,12784.75,7699.11,2339.53,793.39,282.53
2018/07/09T20:25:59z,2c:3a:e8:34:ff:6b,2.50i,2.0+OPENLOG+15833 MB+DS3231+BME280+PMSX003A+PMSX003B,84,16,32.99,1015.72,0.00,29848,31,977,235.73,734.17,1126.31,156.23,488.71,750.15,45405.50,14230.10,7016.92,1538.56,567.21,21.96,210.76,679.61,1072.76,139.95,452.34,714.47,42500.61,13382.21,6258.74,1512.08,464.87,174.89
2018/07/09T20:27:19z,2c:3a:e8:34:ff:6b,2.50i,2.0+OPENLOG+15833 MB+DS3231+BME280+PMSX003A+PMSX003B,83,14,28.90,1015.62,0.00,29696,31,1057,174.74,467.15,694.04,115.83,310.80,462.00,32822.93,10024.54,4249.89,880.22,323.91,13.35,168.14,455.03,681.41,111.35,302.65,453.62,32283.65,9961.13,4023.97,863.03,269.03,93.86
2018/07/09T20:28:39z,2c:3a:e8:34:ff:6b,2.50i,2.0+OPENLOG+15833 MB+DS3231+BME280+PMSX003A+PMSX003B,84,12,25.93,1015.71,0.00,30128,31,1137,123.93,300.67,425.17,81.78,199.65,282.76,22609.44,6890.46,2642.00,494.91,179.13,5.70,113.03,294.00,414.00,74.43,195.30,275.22,21985.05,6656.65,2506.70,504.78,141.24,50.43
2018/07/09T20:29:59z,2c:3a:e8:34:ff:6b,2.50i,2.0+OPENLOG+15833 MB+DS3231+BME280+PMSX003A+PMSX003B,84,11,23.84,1015.66,0.00,30128,31,1217,77.47,189.67,266.89,50.84,125.69,177.24,14298.20,4321.18,1652.58,313.38,109.82,3.29,73.63,182.94,258.69,48.37,121.00,171.66,14254.29,4289.54,1545.43,310.83,90.57,27.43
2018/07/09T20:31:19z,2c:3a:e8:34:ff:6b,2.50i,2.0+OPENLOG+15833 MB+DS3231+BME280+PMSX003A+PMSX003B,84,10,21.58,1015.65,0.00,30128,31,1297,46.60,108.18,157.40,32.89,71.51,104.27,8647.07,2589.42,956.89,179.11,71.96,2.84,49.80,116.17,161.77,33.97,76.63,107.14,9601.20,2859.17,966.51,187.57,52.97,15.60
2018/07/09T20:32:39z,2c:3a:e8:34:ff:6b,2.50i,2.0+OPENLOG+15833 MB+DS3231+BME280+PMSX003A+PMSX003B,84,9,19.10,1015.21,0.00,29696,31,1377,29.43,67.02,90.68,25.18,48.30,68.77,5507.59,1631.00,573.18,98.18,33.05,0.73,28.47,68.36,98.17,24.67,48.69,71.47,5832.00,1720.00,578.03,110.58,34.11,13.89
2018/07/09T20:33:59z,2c:3a:e8:34:ff:6b,2.50i,2.0+OPENLOG+15833 MB+DS3231+BME280+PMSX003A+PMSX003B,84,9,19.10,1015.30,0.00,29672,31,1457,21.48,54.41,72.32,20.45,43.00,60.45,4221.00,1265.59,475.18,81.36,26.41,1.23,22.11,49.86,70.31,21.14,41.19,59.39,4256.00,1268.28,411.00,80.33,22.67,8.44
2018/07/09T20:35:19z,2c:3a:e8:34:ff:6b,2.50i,2.0+OPENLOG+15833 MB+DS3231+BME280+PMSX003A+PMSX003B,84,9,19.10,1015.43,0.00,30128,31,1537,21.50,49.25,67.34,20.75,40.70,57.98,4041.89,1213.95,428.14,73.36,28.91,0.91,19.65,46.00,60.92,19.27,38.97,54.35,3888.32,1155.05,390.54,62.46,17.24,8.81
2018/07/09T20:36:39z,2c:3a:e8:34:ff:6b,2.50i,2.0+OPENLOG+15833 MB+DS3231+BME280+PMSX003A+PMSX003B,84,9,19.10,1015.36,0.00,30128,31,1617,19.69,46.53,64.76,19.27,39.18,56.40,3781.53,1132.80,401.73,71.51,27.64,1.42,18.38,44.73,60.54,18.30,38.19,54.08,3715.22,1117.62,373.89,72.22,18.70,6.59
2018/07/09T20:37:59z,2c:3a:e8:34:ff:6b,2.50i,2.0+OPENLOG+15833 MB+DS3231+BME280+PMSX003A+PMSX003B,84,9,19.10,1015.38,0.00,29696,31,1697,17.95,43.93,56.86,17.95,37.86,51.82,3526.23,1048.18,386.41,59.00,18.82,2.00,17.82,41.79,59.85,17.76,36.82,53.82,3481.41,1055.32,353.06,67.35,20.88,9.47
2018/07/09T20:39:19z,2c:3a:e8:34:ff:6b,2.50i,2.0+OPENLOG+15833 MB+DS3231+BME280+PMSX003A+PMSX003B,84,9,19.10,1015.14,0.00,29696,31,1777,16.89,40.26,52.87,16.87,35.85,49.59,3301.30,987.00,341.52,55.26,19.22,0.52,15.41,35.92,50.86,15.41,33.19,48.24,3092.43,923.62,306.76,51.84,18.97,7.35
2018/07/09T20:40:39z,2c:3a:e8:34:ff:6b,2.50i,2.0+OPENLOG+15833 MB+DS3231+BME280+PMSX003A+PMSX003B,84,9,19.10,1015.46,0.00,30128,31,1857,14.89,33.96,46.52,14.89,32.02,45.07,2914.30,871.39,300.52,46.13,18.96,1.52,16.50,34.14,50.06,16.50,32.25,47.94,3231.50,954.94,281.25,52.50,19.50,7.72
2018/07/09T20:41:59z,2c:3a:e8:34:ff:6b,2.50i,2.0+OPENLOG+15833 MB+DS3231+BME280+PMSX003A+PMSX003B,84,9,19.10,1015.45,0.00,30128,31,1937,14.18,30.71,43.24,14.18,29.76,42.67,2827.07,831.87,273.51,44.40,18.13,0.71,14.11,31.11,43.65,14.11,30.30,43.30,2821.14,835.03,252.30,47.08,16.11,4.97
2018/07/09T20:43:19z,2c:3a:e8:34:ff:6b,2.50i,2.0+OPENLOG+15833 MB+DS3231+BME280+PMSX003A+PMSX003B,84,9,19.10,1015.40,0.00,29592,31,2017,13.43,30.38,41.13,13.43,29.79,40.94,2522.04,757.32,277.79,42.04,13.79,0.68,12.97,32.40,45.34,12.97,31.00,44.66,2728.29,817.86,280.20,51.26,16.57,3.89
2018/07/09T20:44:39z,2c:3a:e8:34:ff:6b,2.50i,2.0+OPENLOG+15833 MB+DS3231+BME280+PMSX003A+PMSX003B,84,9,19.10,1015.29,0.00,29696,31,2097,13.14,29.07,40.23,13.14,28.86,40.14,2446.77,732.50,256.55,42.32,16.27,0.45,12.28,27.97,37.77,12.28,27.46,37.77,2476.85,747.74,228.54,40.31,12.92,4.21
2018/07/09T20:45:59z,2c:3a:e8:34:ff:6b,2.50i,2.0+OPENLOG+15833 MB+DS3231+BME280+PMSX003A+PMSX003B,85,9,19.85,1015.38,0.00,30128,31,2177,11.09,27.15,34.85,11.09,27.00,34.85,2198.35,659.78,235.30,36.48,10.78,0.09,11.31,25.47,36.42,11.31,25.47,36.39,2351.00,698.72,212.69,40.22,13.61,4.83
2018/07/09T20:47:19z,2c:3a:e8:34:ff:6b,2.50i,2.0+OPENLOG+15833 MB+DS3231+BME280+PMSX003A+PMSX003B,85,9,19.85,1015.26,0.00,30128,31,2257,9.62,23.34,31.19,9.62,23.34,31.19,1959.83,588.30,200.34,37.15,11.06,0.34,10.74,25.74,34.60,10.74,25.74,34.57,2240.40,672.97,225.31,35.66,10.00,4.91
2018/07/09T20:49:05z,2c:3a:e8:34:ff:6b,2.50i,2.0+OPENLOG+15833 MB+DS3231+BME280+PMSX003A+PMSX003B,85,9,19.85,1015.29,0.00,29672,31,25,9.00,17.00,17.00,9.00,17.00,17.00,0.00,0.00,0.00,0.00,0.00,0.00,3.00,4.00,4.00,3.00,4.00,4.00,0.00,0.00,0.00,0.00,0.00,0.00
2018/07/09T20:50:17z,2c:3a:e8:34:ff:6b,2.50i,2.0+OPENLOG+15833 MB+DS3231+BME280+PMSX003A+PMSX003B,85,9,19.85,1015.36,0.00,30152,31,97,8.30,19.17,25.37,8.30,19.17,25.37,1744.65,518.10,180.40,25.70,7.90,0.00,8.39,19.15,26.88,8.39,19.15,26.88,1770.09,527.76,171.24,30.00,10.73,3.27
2018/07/09T20:51:37z,2c:3a:e8:34:ff:6b,2.50i,2.0+OPENLOG+15833 MB+DS3231+BME280+PMSX003A+PMSX003B,85,9,19.85,1015.29,0.00,30128,31,177,7.96,18.34,23.06,7.96,18.34,23.06,1588.72,477.96,156.55,22.43,6.64,0.00,7.11,19.61,27.61,7.11,19.61,27.61,1655.67,498.67,181.47,33.50,9.17,1.44
2018/07/09T20:52:57z,2c:3a:e8:34:ff:6b,2.50i,2.0+OPENLOG+15833 MB+DS3231+BME280+PMSX003A+PMSX003B,85,10,22.34,1015.18,0.00,30128,31,257,7.93,16.73,20.24,7.93,16.73,20.24,1527.87,453.42,127.73,19.69,5.47,0.04,7.71,17.05,24.68,7.71,17.05,24.68,1568.37,467.03,144.37,29.68,9.11,1.21
2018/07/09T20:54:17z,2c:3a:e8:34:ff:6b,2.50i,2.0+OPENLOG+15833 MB+DS3231+BME280+PMSX003A+PMSX003B,85,10,22.34,1015.17,0.00,29592,31,337,8.07,17.84,22.51,8.07,17.84,22.51,1614.53,486.00,157.16,20.76,6.76,1.02,7.05,17.61,22.97,7.05,17.61,22.97,1544.92,469.61,148.89,22.32,7.00,1.37
2018/07/09T20:55:37z,2c:3a:e8:34:ff:6b,2.50i,2.0+OPENLOG+15833 MB+DS3231+BME280+PMSX003A+PMSX003B,85,10,22.34,1015.16,0.00,29696,31,417,6.69,15.98,22.49,6.69,15.98,22.49,1395.73,409.56,138.71,26.22,8.62,0.80,5.72,14.47,20.61,5.72,14.47,20.61,1267.83,383.42,128.83,21.00,8.56,1.22
2018/07/09T20:56:57z,2c:3a:e8:34:ff:6b,2.50i,2.0+OPENLOG+15833 MB+DS3231+BME280+PMSX003A+PMSX003B,85,10,22.34,1015.30,0.00,30128,31,497,7.02,14.87,20.02,7.02,14.87,20.02,1406.61,422.96,129.39,20.30,6.91,0.13,6.47,12.75,20.83,6.47,12.75,20.83,1341.75,399.64,116.47,21.17,9.61,3.83
2018/07/09T20:58:17z,2c:3a:e8:34:ff:6b,2.50i,2.0+OPENLOG+15833 MB+DS3231+BME280+PMSX003A+PMSX003B,85,10,22.34,1015.01,0.00,30128,31,577,5.55,13.04,16.43,5.55,13.04,16.43,1207.79,365.66,114.77,17.28,4.17,0.13,4.97,11.79,16.08,4.97,11.79,16.08,1055.61,311.74,95.18,22.37,4.84,0.84
2018/07/09T20:59:37z,2c:3a:e8:34:ff:6b,2.50i,2.0+OPENLOG+15833 MB+DS3231+BME280+PMSX003A+PMSX003B,85,10,22.34,1015.13,0.00,29640,31,657,4.60,11.19,17.09,4.60,11.19,17.09,1183.28,343.57,106.72,18.85,8.47,0.13,5.16,9.59,12.97,5.16,9.59,12.97,1073.03,310.59,86.11,9.57,5.35,2.59
2018/07/09T21:00:57z,2c:3a:e8:34:ff:6b,2.50i,2.0+OPENLOG+15833 MB+DS3231+BME280+PMSX003A+PMSX003B,85,10,22.34,1015.29,0.00,29696,31,737,5.28,10.41,14.17,5.28,10.41,14.17,1081.17,309.00,97.35,11.26,5.52,0.57,4.44,12.28,14.67,4.44,12.28,14.67,1086.92,328.08,111.94,14.83,3.22,1.56
2018/07/09T21:02:17z,2c:3a:e8:34:ff:6b,2.50i,2.0+OPENLOG+15833 MB+DS3231+BME280+PMSX003A+PMSX003B,85,10,22.34,1015.31,0.00,30128,31,817,4.57,10.61,13.39,4.57,10.61,13.39,946.43,285.17,94.78,14.17,2.78,0.57,4.74,11.47,15.87,4.74,11.47,15.87,1092.16,323.89,103.89,18.95,3.37,1.21
2018/07/09T21:03:37z,2c:3a:e8:34:ff:6b,2.50i,2.0+OPENLOG+15833 MB+DS3231+BME280+PMSX003A+PMSX003B,85,10,22.34,1015.29,0.00,30128,31,897,5.30,9.83,13.41,5.30,9.83,13.41,1023.65,306.78,84.74,9.74,5.22,0.57,4.32,8.29,10.84,4.32,8.29,10.84,901.66,267.24,71.16,9.05,1.84,1.53
2018/07/09T21:04:57z,2c:3a:e8:34:ff:6b,2.50i,2.0+OPENLOG+15833 MB+DS3231+BME280+PMSX003A+PMSX003B,85,10,22.34,1015.29,0.00,29944,31,977,3.89,9.39,12.26,3.89,9.39,12.26,906.78,258.04,69.78,15.26,4.74,0.57,3.13,7.97,10.24,3.13,7.97,10.24,789.16,229.95,64.37,11.05,3.37,0.74
2018/07/09T21:06:17z,2c:3a:e8:34:ff:6b,2.50i,2.0+OPENLOG+15833 MB+DS3231+BME280+PMSX003A+PMSX003B,85,10,22.34,1015.22,0.00,29696,31,1057,3.52,7.52,9.63,3.52,7.52,9.63,763.17,225.61,71.04,9.35,2.52,0.57,2.79,7.33,10.00,2.79,7.33,10.00,665.69,208.92,65.69,8.87,3.18,1.54
2018/07/09T21:07:37z,2c:3a:e8:34:ff:6b,2.50i,2.0+OPENLOG+15833 MB+DS3231+BME280+PMSX003A+PMSX003B,85,10,22.34,1015.16,0.00,30128,31,1137,3.47,7.43,10.81,3.47,7.43,10.81,784.34,232.60,65.28,10.21,4.98,0.57,3.06,8.50,9.00,3.06,8.50,9.00,848.50,242.33,68.61,7.94,0.28,0.28
2018/07/09T21:08:57z,2c:3a:e8:34:ff:6b,2.50i,2.0+OPENLOG+15833 MB+DS3231+BME280+PMSX003A+PMSX003B,85,10,22.34,1015.15,0.00,30128,31,1217,3.34,6.77,9.36,3.34,6.77,9.36,741.57,218.85,60.81,8.64,3.74,0.60,3.28,7.78,11.08,3.28,7.78,11.08,749.83,228.14,71.78,10.83,4.33,2.22
2018/07/09T21:10:17z,2c:3a:e8:34:ff:6b,2.50i,2.0+OPENLOG+15833 MB+DS3231+BME280+PMSX003A+PMSX003B,85,10,22.34,1015.20,0.00,30128,31,1297,3.17,7.00,9.02,3.17,7.00,9.02,708.00,214.57,66.26,8.22,2.70,0.43,2.55,6.74,9.53,2.55,6.74,9.53,664.11,198.29,58.37,11.53,3.58,1.05
2018/07/09T21:11:37z,2c:3a:e8:34:ff:6b,2.50i,2.0+OPENLOG+15833 MB+DS3231+BME280+PMSX003A+PMSX003B,85,10,22.34,1015.27,0.00,29512,31,1377,2.11,5.39,8.22,2.11,5.39,8.22,616.04,182.57,51.96,11.35,4.43,0.39,1.89,5.81,8.58,1.89,5.81,8.58,517.33,157.97,54.39,14.61,3.83,0.89
2018/07/09T21:12:57z,2c:3a:e8:34:ff:6b,2.50i,2.0+OPENLOG+15833 MB+DS3231+BME280+PMSX003A+PMSX003B,85,10,22.34,1015.24,0.00,30152,31,1457,2.11,5.24,7.84,2.11,5.24,7.84,574.00,173.38,54.93,7.47,3.91,0.39,2.11,5.11,7.97,2.11,5.11,7.97,603.16,179.03,53.35,6.92,3.24,2.27
2018/07/09T21:14:17z,2c:3a:e8:34:ff:6b,2.50i,2.0+OPENLOG+15833 MB+DS3231+BME280+PMSX003A+PMSX003B,85,10,22.34,1015.33,0.00,30128,31,1537,2.21,5.53,7.15,2.21,5.53,7.15,573.19,171.23,55.28,6.77,2.17,0.39,2.00,5.92,7.54,2.00,5.92,7.54,617.76,181.54,54.00,7.30,2.49,0.16
2018/07/09T21:15:37z,2c:3a:e8:34:ff:6b,2.50i,2.0+OPENLOG+15833 MB+DS3231+BME280+PMSX003A+PMSX003B,85,10,22.34,1015.34,0.00,30128,31,1617,1.80,4.78,6.11,1.80,4.78,6.11,484.43,143.96,52.22,4.22,1.35,0.39,2.50,5.76,7.58,2.50,5.76,7.58,610.82,180.58,52.11,7.63,2.32,0.58
2018/07/09T21:16:57z,2c:3a:e8:34:ff:6b,2.50i,2.0+OPENLOG+15833 MB+DS3231+BME280+PMSX003A+PMSX003B,85,10,22.34,1015.28,0.00,29848,31,1697,1.96,5.50,7.74,1.96,5.50,7.74,475.57,148.74,53.04,8.65,3.04,0.83,1.39,4.03,5.21,1.39,4.03,5.21,454.11,134.42,33.16,7.11,0.79,0.79
2018/07/09T21:18:17z,2c:3a:e8:34:ff:6b,2.50i,2.0+OPENLOG+15833 MB+DS3231+BME280+PMSX003A+PMSX003B,85,10,22.34,1015.24,0.00,29696,31,1777,1.73,4.32,6.00,1.73,4.32,6.00,462.00,139.32,44.32,4.82,2.23,0.83,1.08,4.65,5.51,1.08,4.65,5.51,450.08,132.35,45.30,6.32,0.65,0.65
2018/07/09T21:19:37z,2c:3a:e8:34:ff:6b,2.50i,2.0+OPENLOG+15833 MB+DS3231+BME280+PMSX003A+PMSX003B,85,10,22.34,1015.37,0.00,30128,31,1857,1.11,3.15,4.11,1.11,3.15,4.11,427.43,118.00,33.52,4.39,1.52,0.52,1.89,3.92,5.65,1.89,3.92,5.65,446.84,136.00,41.08,6.27,2.92,0.59
2018/07/09T21:20:57z,2c:3a:e8:34:ff:6b,2.50i,2.0+OPENLOG+15833 MB+DS3231+BME280+PMSX003A+PMSX003B,85,10,22.34,1015.32,0.00,30128,31,1937,1.39,3.26,3.74,1.39,3.26,3.74,407.87,122.61,33.52,2.96,0.70,0.04,1.13,3.05,5.03,1.13,3.05,5.03,416.92,122.24,33.00,5.74,2.63,0.47
2018/07/09T21:22:17z,2c:3a:e8:34:ff:6b,2.50i,2.0+OPENLOG+15833 MB+DS3231+BME280+PMSX003A+PMSX003B,85,10,22.34,1015.39,0.00,29944,31,2017,0.74,2.87,3.98,0.74,2.87,3.98,319.91,94.34,32.09,5.06,2.09,0.04,0.63,2.39,4.24,0.63,2.39,4.24,326.13,94.39,25.26,5.47,1.74,1.00
2018/07/09T21:23:37z,2c:3a:e8:34:ff:6b,2.50i,2.0+OPENLOG+15833 MB+DS3231+BME280+PMSX003A+PMSX003B,85,10,22.34,1015.29,0.00,29592,31,2097,1.00,3.81,4.98,1.00,3.81,4.98,327.70,100.17,42.26,6.26,1.83,0.04,0.56,1.97,2.89,0.56,1.97,2.89,348.67,99.78,23.94,2.72,1.39,0.06
2018/07/09T21:24:57z,2c:3a:e8:34:ff:6b,2.50i,2.0+OPENLOG+15833 MB+DS3231+BME280+PMSX003A+PMSX003B,85,10,22.34,1015.37,0.00,30128,31,2177,1.35,2.37,3.04,1.35,2.37,3.04,325.04,95.57,23.87,1.78,1.22,0.04,0.84,3.35,4.24,0.84,3.35,4.24,349.62,108.11,33.19,4.16,1.46,0.16
2018/07/09T21:26:17z,2c:3a:e8:34:ff:6b,2.50i,2.0+OPENLOG+15833 MB+DS3231+BME280+PMSX003A+PMSX003B,85,10,22.34,1015.40,0.00,30128,31,2257,0.74,2.17,3.72,0.74,2.17,3.72,349.96,100.83,25.09,3.70,3.09,0.04,0.76,2.74,3.68,0.76,2.74,3.68,363.16,106.79,28.47,3.79,0.79,0.63
2018/07/09T21:28:01z,2c:3a:e8:34:ff:6b,2.50i,2.0+OPENLOG+15833 MB+DS3231+BME280+PMSX003A+PMSX003B,85,10,22.34,1015.47,0.00,29672,31,23,2.00,2.00,2.00,2.00,2.00,2.00,0.00,0.00,0.00,0.00,0.00,0.00,1.00,1.00,1.00,1.00,1.00,1.00,0.00,0.00,0.00,0.00,0.00,0.00
2018/07/09T21:29:15z,2c:3a:e8:34:ff:6b,2.50i,2.0+OPENLOG+15833 MB+DS3231+BME280+PMSX003A+PMSX003B,85,10,22.34,1015.37,0.00,30128,31,97,0.10,1.02,2.00,0.10,1.02,2.00,256.68,77.22,24.54,1.76,1.76,0.00,0.39,2.00,2.53,0.39,2.00,2.53,265.08,82.06,29.44,2.67,1.00,1.00
2018/07/09T21:30:35z,2c:3a:e8:34:ff:6b,2.50i,2.0+OPENLOG+15833 MB+DS3231+BME280+PMSX003A+PMSX003B,85,10,22.34,1015.47,0.00,30128,31,177,0.21,1.66,2.64,0.21,1.66,2.64,258.89,75.23,20.09,5.02,1.32,0.00,0.47,1.31,1.92,0.47,1.31,1.92,222.00,68.83,19.17,2.94,0.67,1.00
2018/07/09T21:31:55z,2c:3a:e8:34:ff:6b,2.50i,2.0+OPENLOG+15833 MB+DS3231+BME280+PMSX003A+PMSX003B,85,10,22.34,1015.45,0.00,30128,31,257,0.09,1.11,2.02,0.09,1.11,2.02,196.57,58.52,18.52,2.13,1.74,0.00,0.76,2.43,3.78,0.76,2.43,3.78,293.51,93.16,29.08,5.03,1.08,0.92
2018/07/09T21:33:15z,2c:3a:e8:34:ff:6b,2.50i,2.0+OPENLOG+15833 MB+DS3231+BME280+PMSX003A+PMSX003B,85,10,22.34,1015.45,0.00,29592,31,337,0.37,1.80,2.57,0.37,1.80,2.57,278.48,80.00,28.26,3.17,1.52,0.00,0.18,0.82,1.32,0.18,0.82,1.32,179.53,55.05,15.11,1.42,1.00,0.92
2018/07/09T21:34:35z,2c:3a:e8:34:ff:6b,2.50i,2.0+OPENLOG+15833 MB+DS3231+BME280+PMSX003A+PMSX003B,85,10,22.34,1015.37,0.00,29672,31,417,0.24,1.33,2.35,0.24,1.33,2.35,230.74,65.65,21.17,2.48,1.65,0.00,0.05,1.46,1.86,0.05,1.46,1.86,209.19,61.62,16.86,2.49,0.22,0.22
2018/07/09T21:35:55z,2c:3a:e8:34:ff:6b,2.50i,2.0+OPENLOG+15833 MB+DS3231+BME280+PMSX003A+PMSX003B,85,10,22.34,1015.31,0.00,30128,31,497,0.42,1.58,1.98,0.42,1.58,1.98,249.73,71.16,17.96,1.69,0.80,0.00,0.22,1.00,2.27,0.22,1.00,2.27,195.89,60.38,13.24,3.95,1.35,0.76
2018/07/09T21:37:15z,2c:3a:e8:34:ff:6b,2.50i,2.0+OPENLOG+15833 MB+DS3231+BME280+PMSX003A+PMSX003B,86,10,23.10,1015.43,0.00,30128,31,577,0.42,1.61,1.61,0.42,1.61,1.61,209.35,62.78,22.30,2.52,0.80,0.00,0.08,0.51,0.51,0.08,0.51,0.51,192.81,54.16,12.92,1.08,1.35,0.76
2018/07/09T21:38:35z,2c:3a:e8:34:ff:6b,2.50i,2.0+OPENLOG+15833 MB+DS3231+BME280+PMSX003A+PMSX003B,85,10,22.34,1015.28,0.00,29696,31,657,0.35,1.52,1.98,0.35,1.52,1.98,209.35,62.74,22.61,2.13,0.48,0.00,0.08,0.58,0.58,0.08,0.58,0.58,161.21,45.89,7.95,1.08,1.35,0.76
2018/07/09T21:39:55z,2c:3a:e8:34:ff:6b,2.50i,2.0+OPENLOG+15833 MB+DS3231+BME280+PMSX003A+PMSX003B,85,10,22.34,1015.40,0.00,29696,31,737,0.06,1.13,1.51,0.06,1.13,1.51,172.21,51.79,16.72,0.85,0.77,0.00,0.14,1.03,2.89,0.14,1.03,2.89,190.70,55.35,19.24,5.41,2.97,0.76
2018/07/09T21:41:15z,2c:3a:e8:34:ff:6b,2.50i,2.0+OPENLOG+15833 MB+DS3231+BME280+PMSX003A+PMSX003B,86,10,23.10,1015.41,0.00,30128,31,817,0.11,1.00,1.98,0.11,1.00,1.98,186.91,57.74,16.13,1.96,1.22,0.00,0.14,1.39,2.67,0.14,1.39,2.67,153.00,45.72,17.56,6.44,1.67,1.67
2018/07/09T21:42:35z,2c:3a:e8:34:ff:6b,2.50i,2.0+OPENLOG+15833 MB+DS3231+BME280+PMSX003A+PMSX003B,86,10,23.10,1015.40,0.00,30128,31,897,0.07,0.89,0.89,0.07,0.89,0.89,155.07,45.47,11.51,1.38,1.22,0.00,0.14,0.66,1.26,0.14,0.66,1.26,141.00,43.00,14.11,2.89,1.26,1.67
2018/07/09T21:43:55z,2c:3a:e8:34:ff:6b,2.50i,2.0+OPENLOG+15833 MB+DS3231+BME280+PMSX003A+PMSX003B,86,10,23.10,1015.35,0.00,29848,31,977,0.07,0.68,1.13,0.07,0.68,1.13,145.53,41.02,15.49,1.32,0.77,0.00,0.05,0.63,1.00,0.05,0.63,1.00,155.53,47.11,13.05,2.00,0.11,0.11
2018/07/09T21:45:15z,2c:3a:e8:34:ff:6b,2.50i,2.0+OPENLOG+15833 MB+DS3231+BME280+PMSX003A+PMSX003B,85,10,22.34,1015.28,0.00,29696,31,1057,0.07,0.11,0.11,0.07,0.11,0.11,116.17,35.53,9.19,0.72,0.77,0.00,0.05,0.42,0.83,0.05,0.42,0.83,126.17,38.17,13.78,1.89,0.11,0.11
2018/07/09T21:46:35z,2c:3a:e8:34:ff:6b,2.50i,2.0+OPENLOG+15833 MB+DS3231+BME280+PMSX003A+PMSX003B,86,10,23.10,1015.43,0.00,30128,31,1137,0.07,0.28,0.85,0.07,0.28,0.85,156.64,39.91,9.06,1.15,0.60,0.00,0.05,0.69,1.81,0.05,0.69,1.81,180.58,52.47,12.94,3.61,0.89,0.89
2018/07/09T21:47:55z,2c:3a:e8:34:ff:6b,2.50i,2.0+OPENLOG+15833 MB+DS3231+BME280+PMSX003A+PMSX003B,86,10,23.10,1015.38,0.00,30128,31,1217,0.07,0.70,0.70,0.07,0.70,0.70,157.17,44.65,13.13,1.15,0.60,0.00,0.05,0.32,0.32,0.05,0.32,0.32,123.24,36.92,7.05,3.61,0.89,0.89
2018/07/09T21:49:15z,2c:3a:e8:34:ff:6b,2.50i,2.0+OPENLOG+15833 MB+DS3231+BME280+PMSX003A+PMSX003B,86,10,23.10,1015.28,0.00,30128,31,1297,0.07,0.57,0.57,0.07,0.57,0.57,134.35,38.30,9.78,0.52,0.60,0.00,0.05,0.53,0.53,0.05,0.53,0.53,161.68,44.00,9.47,0.74,0.89,0.89
2018/07/09T21:50:35z,2c:3a:e8:34:ff:6b,2.50i,2.0+OPENLOG+15833 MB+DS3231+BME280+PMSX003A+PMSX003B,85,10,22.34,1015.20,0.00,29592,31,1377,0.07,0.17,0.41,0.07,0.17,0.41,125.09,35.43,10.30,0.61,0.60,0.00,0.05,0.03,0.78,0.05,0.03,0.78,126.81,32.81,8.65,0.76,0.76,0.76
2018/07/09T21:51:55z,2c:3a:e8:34:ff:6b,2.50i,2.0+OPENLOG+15833 MB+DS3231+BME280+PMSX003A+PMSX003B,86,10,23.10,1015.73,0.00,29672,31,1457,0.07,0.17,0.41,0.07,0.17,0.41,93.57,27.23,6.09,0.61,0.60,0.00,0.05,0.49,0.89,0.05,0.49,0.89,125.35,39.84,11.08,1.73,0.81,0.76
2018/07/09T21:53:15z,2c:3a:e8:34:ff:6b,2.50i,2.0+OPENLOG+15833 MB+DS3231+BME280+PMSX003A+PMSX003B,85,10,22.34,1015.73,0.00,30128,31,1537,0.07,0.17,0.41,0.07,0.17,0.41,79.70,24.30,2.74,0.61,0.60,0.00,0.05,0.49,0.89,0.05,0.49,0.89,82.89,22.79,4.95,0.95,0.81,0.76
2018/07/09T21:54:35z,2c:3a:e8:34:ff:6b,2.50i,2.0+OPENLOG+15833 MB+DS3231+BME280+PMSX003A+PMSX003B,85,9,19.85,1015.62,0.00,30128,31,1617,0.07,0.17,0.41,0.07,0.17,0.41,59.87,18.81,7.83,0.81,0.60,0.00,0.05,0.49,0.89,0.05,0.49,0.89,54.95,17.21,4.63,1.00,0.81,0.76
2018/07/09T21:55:55z,2c:3a:e8:34:ff:6b,2.50i,2.0+OPENLOG+15833 MB+DS3231+BME280+PMSX003A+PMSX003B,85,8,17.11,1015.75,0.00,29696,31,1697,0.07,0.17,0.41,0.07,0.17,0.41,52.96,12.61,3.96,0.81,0.60,0.00,0.05,0.49,0.31,0.05,0.49,0.31,47.17,14.39,5.28,0.61,0.61,0.61
2018/07/09T21:57:15z,2c:3a:e8:34:ff:6b,2.50i,2.0+OPENLOG+15833 MB+DS3231+BME280+PMSX003A+PMSX003B,85,8,17.11,1015.68,0.00,29672,31,1777,0.07,0.17,0.41,0.07,0.17,0.41,13.96,3.91,1.35,0.81,0.60,0.00,0.05,0.49,0.31,0.05,0.49,0.31,16.50,5.50,1.00,0.61,0.61,0.61
2018/07/09T21:58:35z,2c:3a:e8:34:ff:6b,2.50i,2.0+OPENLOG+15833 MB+DS3231+BME280+PMSX003A+PMSX003B,85,7,14.04,1015.77,0.00,30128,31,1857,0.07,0.17,0.41,0.07,0.17,0.41,21.00,6.52,1.30,0.81,0.60,0.00,0.05,0.49,0.31,0.05,0.49,0.31,9.79,2.21,0.53,0.53,0.61,0.61
2018/07/09T21:59:55z,2c:3a:e8:34:ff:6b,2.50i,2.0+OPENLOG+15833 MB+DS3231+BME280+PMSX003A+PMSX003B,85,7,14.04,1015.73,0.00,30128,31,1937,0.07,0.17,0.41,0.07,0.17,0.41,10.98,2.77,0.47,0.81,0.60,0.00,0.05,0.49,0.31,0.05,0.49,0.31,7.42,2.47,1.00,0.53,0.61,0.61
2018/07/09T22:01:15z,2c:3a:e8:34:ff:6b,2.50i,2.0+OPENLOG+15833 MB+DS3231+BME280+PMSX003A+PMSX003B,85,7,14.04,1015.71,0.00,29592,31,2017,0.07,0.17,0.41,0.07,0.17,0.41,14.68,3.19,1.53,0.81,0.60,0.00,0.05,0.49,0.31,0.05,0.49,0.31,6.00,0.67,1.00,0.53,0.61,0.61
2018/07/09T22:02:35z,2c:3a:e8:34:ff:6b,2.50i,2.0+OPENLOG+15833 MB+DS3231+BME280+PMSX003A+PMSX003B,85,7,14.04,1015.68,0.00,29696,31,2097,0.07,0.17,0.37,0.07,0.17,0.37,15.91,2.91,1.04,0.74,0.74,0.00,0.05,0.49,0.31,0.05,0.49,0.31,5.51,1.84,0.59,0.53,0.61,0.61
2018/07/09T22:03:55z,2c:3a:e8:34:ff:6b,2.50i,2.0+OPENLOG+15833 MB+DS3231+BME280+PMSX003A+PMSX003B,85,6,10.55,1015.74,0.00,30128,31,2177,0.07,0.17,0.37,0.07,0.17,0.37,7.70,1.96,1.17,0.65,0.74,0.00,0.05,0.49,0.31,0.05,0.49,0.31,2.21,0.74,0.59,0.53,0.61,0.61
2018/07/09T22:05:15z,2c:3a:e8:34:ff:6b,2.50i,2.0+OPENLOG+15833 MB+DS3231+BME280+PMSX003A+PMSX003B,85,6,10.55,1015.72,0.00,30128,31,2257,0.07,0.17,0.37,0.07,0.17,0.37,11.20,3.73,1.02,0.53,0.74,0.00,0.05,0.49,0.31,0.05,0.49,0.31,12.95,4.32,0.59,0.53,0.61,0.61
2018/07/09T22:06:59z,2c:3a:e8:34:ff:6b,2.50i,2.0+OPENLOG+15833 MB+DS3231+BME280+PMSX003A+PMSX003B,85,6,10.55,1015.70,0.00,29672,31,23,0.00,0.00,0.00,0.00,0.00,0.00,0.00,0.00,0.00,0.00,0.00,0.00,0.00,0.00,0.00,0.00,0.00,0.00,0.00,0.00,0.00,0.00,0.00,0.00
2018/07/09T22:08:13z,2c:3a:e8:34:ff:6b,2.50i,2.0+OPENLOG+15833 MB+DS3231+BME280+PMSX003A+PMSX003B,85,6,10.55,1015.48,0.00,30128,31,97,0.00,0.00,0.00,0.00,0.00,0.00,4.24,1.41,0.88,0.00,0.00,0.00,0.00,0.00,0.00,0.00,0.00,0.00,1.95,0.65,0.65,0.00,0.00,0.00
2018/07/09T22:09:33z,2c:3a:e8:34:ff:6b,2.50i,2.0+OPENLOG+15833 MB+DS3231+BME280+PMSX003A+PMSX003B,85,6,10.55,1015.67,0.00,30128,31,177,0.00,0.00,0.00,0.00,0.00,0.00,7.28,1.96,0.81,0.00,0.00,0.00,0.00,0.00,0.00,0.00,0.00,0.00,4.00,0.65,0.65,0.00,0.00,0.00
2018/07/09T22:10:53z,2c:3a:e8:34:ff:6b,2.50i,2.0+OPENLOG+15833 MB+DS3231+BME280+PMSX003A+PMSX003B,85,6,10.55,1015.48,0.00,30128,31,257,0.00,0.00,0.00,0.00,0.00,0.00,11.22,1.61,0.81,0.00,0.00,0.00,0.00,0.00,0.00,0.00,0.00,0.00,4.00,0.65,0.65,0.00,0.00,0.00
2018/07/09T22:12:13z,2c:3a:e8:34:ff:6b,2.50i,2.0+OPENLOG+15833 MB+DS3231+BME280+PMSX003A+PMSX003B,85,6,10.55,1015.70,0.00,29696,31,337,0.00,0.00,0.00,0.00,0.00,0.00,0.52,1.61,0.81,0.00,0.00,0.00,0.00,0.00,0.00,0.00,0.00,0.00,4.00,0.65,0.65,0.00,0.00,0.00
2018/07/09T22:13:33z,2c:3a:e8:34:ff:6b,2.50i,2.0+OPENLOG+15833 MB+DS3231+BME280+PMSX003A+PMSX003B,85,6,10.55,1015.71,0.00,29672,31,417,0.00,0.00,0.00,0.00,0.00,0.00,4.17,0.52,0.81,0.00,0.00,0.00,0.00,0.00,0.00,0.00,0.00,0.00,3.08,1.03,0.65,0.00,0.00,0.00
2018/07/09T22:14:53z,2c:3a:e8:34:ff:6b,2.50i,2.0+OPENLOG+15833 MB+DS3231+BME280+PMSX003A+PMSX003B,85,6,10.55,1015.62,0.00,30128,31,497,0.00,0.00,0.00,0.00,0.00,0.00,1.60,0.04,0.04,0.00,0.00,0.00,0.00,0.00,0.00,0.00,0.00,0.00,5.00,1.56,0.65,0.00,0.00,0.00
2018/07/09T22:16:13z,2c:3a:e8:34:ff:6b,2.50i,2.0+OPENLOG+15833 MB+DS3231+BME280+PMSX003A+PMSX003B,85,6,10.55,1015.67,0.00,30128,31,577,0.00,0.00,0.00,0.00,0.00,0.00,5.49,0.60,0.60,0.00,0.00,0.00,0.00,0.00,0.00,0.00,0.00,0.00,5.00,1.56,0.65,0.00,0.00,0.00
2018/07/09T22:17:33z,2c:3a:e8:34:ff:6b,2.50i,2.0+OPENLOG+15833 MB+DS3231+BME280+PMSX003A+PMSX003B,85,6,10.55,1015.63,0.00,29696,31,657,0.00,0.00,0.00,0.00,0.00,0.00,8.48,1.96,0.48,0.00,0.00,0.00,0.00,0.00,0.00,0.00,0.00,0.00,8.59,2.86,0.38,0.00,0.00,0.00
2018/07/09T22:18:53z,2c:3a:e8:34:ff:6b,2.50i,2.0+OPENLOG+15833 MB+DS3231+BME280+PMSX003A+PMSX003B,84,6,9.83,1015.43,0.00,29696,31,737,0.00,0.00,0.00,0.00,0.00,0.00,1.91,0.64,0.64,0.00,0.00,0.00,0.00,0.00,0.00,0.00,0.00,0.00,2.21,0.74,0.74,0.63,0.00,0.00
2018/07/09T22:20:13z,2c:3a:e8:34:ff:6b,2.50i,2.0+OPENLOG+15833 MB+DS3231+BME280+PMSX003A+PMSX003B,85,6,10.55,1015.69,0.00,30128,31,817,0.00,0.00,0.00,0.00,0.00,0.00,3.78,0.48,0.64,0.00,0.00,0.00,0.00,0.00,0.00,0.00,0.00,0.00,2.21,0.74,0.74,0.63,0.00,0.00
2018/07/09T22:21:33z,2c:3a:e8:34:ff:6b,2.50i,2.0+OPENLOG+15833 MB+DS3231+BME280+PMSX003A+PMSX003B,85,17,35.32,1015.32,0.00,30128,31,897,1.00,1.13,1.13,1.00,1.13,1.13,217.57,61.96,8.65,0.00,0.00,0.00,0.30,0.46,0.46,0.30,0.46,0.46,120.08,34.16,3.78,0.49,0.00,0.00
2018/07/09T22:22:53z,2c:3a:e8:34:ff:6b,2.50i,2.0+OPENLOG+15833 MB+DS3231+BME280+PMSX003A+PMSX003B,85,24,44.18,1015.71,0.00,29384,31,977,42.43,330.72,763.74,29.17,221.68,510.43,14036.81,4603.17,3546.77,1457.43,636.15,23.62,8.77,29.85,52.15,7.62,22.15,37.15,2072.46,629.67,273.82,82.41,26.62,10.00
2018/07/09T22:24:13z,2c:3a:e8:34:ff:6b,2.50i,2.0+OPENLOG+15833 MB+DS3231+BME280+PMSX003A+PMSX003B,85,20,39.45,1015.68,0.00,29696,31,1057,241.75,1424.44,2454.83,160.52,948.98,1635.96,62614.13,20514.65,14656.15,4066.50,1491.23,57.08,225.59,1285.10,2429.05,149.72,856.03,1618.64,59190.00,19382.85,13130.41,4098.33,1397.74,501.10
2018/07/09T22:25:33z,2c:3a:e8:34:ff:6b,2.50i,2.0+OPENLOG+15833 MB+DS3231+BME280+PMSX003A+PMSX003B,85,16,33.79,1015.61,0.00,30128,31,1137,265.52,1202.40,1953.85,176.33,800.90,1301.90,59386.13,19211.21,12191.98,2979.42,1100.75,27.67,247.03,1115.18,1944.24,163.97,742.82,1295.45,57178.18,18509.74,11190.16,3100.16,995.84,328.05
2018/07/09T22:26:53z,2c:3a:e8:34:ff:6b,2.50i,2.0+OPENLOG+15833 MB+DS3231+BME280+PMSX003A+PMSX003B,84,14,29.69,1015.47,0.00,30128,31,1217,257.70,902.79,1368.49,171.09,601.02,911.72,51604.72,16365.87,8789.43,1916.17,670.94,22.34,235.31,837.75,1319.72,156.28,557.86,879.06,48865.83,15470.22,7926.44,1949.69,576.19,187.08
2018/07/09T22:28:13z,2c:3a:e8:34:ff:6b,2.50i,2.0+OPENLOG+15833 MB+DS3231+BME280+PMSX003A+PMSX003B,85,12,26.71,1015.61,0.00,29640,31,1297,211.75,620.40,879.69,140.42,413.02,585.50,40522.62,12489.42,5823.83,1084.79,375.17,18.54,191.72,591.94,901.39,127.25,394.03,600.25,38331.33,11932.75,5468.61,1210.67,357.31,129.86
2402.77,28326.09,8727.49,3584.23,780.17,239.26,84.91
2.94,19186.00,5826.64,2254.64,440.11,131.08,35.22
2018/07/09T22:32:13z,2c:3a:e8:34:ff:6b,2.50i,2.0+OPENLOG+15833 MB+DS3231+BME280+PMSX003A+PMSX003B,85,9,19.85,1015.51,0.00,30128,31,1537,71.48,172.98,232.55,47.00,114.52,154.34,13290.55,3968.84,1503.93,248.68,85.41,4.41,68.30,174.54,246.46,44.89,115.59,163.59,13196.43,3979.76,1496.38,289.38,84.97,32.38
2018/07/09T22:33:33z,2c:3a:e8:34:ff:6b,2.50i,2.0+OPENLOG+15833 MB+DS3231+BME280+PMSX003A+PMSX003B,85,8,17.11,1015.53,0.00,30128,31,1617,47.09,114.70,146.49,32.70,75.60,96.93,8714.16,2605.21,978.60,163.35,44.98,0.14,43.57,111.65,161.46,31.32,73.62,106.84,8577.97,2597.03,963.08,199.76,56.54,21.62
2018/07/09T22:34:53z,2c:3a:e8:34:ff:6b,2.50i,2.0+OPENLOG+15833 MB+DS3231+BME280+PMSX003A+PMSX003B,85,8,17.11,1015.26,0.00,29696,31,1697,32.66,77.61,104.55,26.73,52.07,74.11,6202.50,1853.68,685.82,110.36,37.64,1.36,31.32,76.81,103.49,26.32,52.00,73.78,6045.32,1827.14,655.84,115.97,33.24,9.30
2018/07/09T22:36:13z,2c:3a:e8:34:ff:6b,2.50i,2.0+OPENLOG+15833 MB+DS3231+BME280+PMSX003A+PMSX003B,85,8,17.11,1015.37,0.00,29672,31,1777,30.09,71.16,92.57,25.48,49.68,69.27,5576.52,1673.14,628.45,97.59,29.41,2.86,26.69,66.60,92.80,23.34,48.14,69.51,5206.80,1586.97,580.51,108.37,32.34,8.23
2018/07/09T22:37:33z,2c:3a:e8:34:ff:6b,2.50i,2.0+OPENLOG+15833 MB+DS3231+BME280+PMSX003A+PMSX003B,85,8,17.11,1015.32,0.00,30128,31,1857,27.58,64.84,87.53,24.04,47.47,67.69,5164.07,1542.07,566.49,96.04,32.80,1.60,24.69,62.78,83.72,22.53,46.56,65.94,4897.00,1483.89,539.03,90.03,24.00,8.33
2018/07/09T22:38:53z,2c:3a:e8:34:ff:6b,2.50i,2.0+OPENLOG+15833 MB+DS3231+BME280+PMSX003A+PMSX003B,85,8,17.11,1015.30,0.00,30128,31,1937,26.04,63.47,84.64,22.98,46.80,66.22,4915.73,1488.80,565.96,86.22,31.07,1.38,24.49,62.35,86.11,22.41,46.35,66.81,4859.35,1465.46,536.14,99.46,27.30,9.84
2018/07/09T22:40:13z,2c:3a:e8:34:ff:6b,2.50i,2.0+OPENLOG+15833 MB+DS3231+BME280+PMSX003A+PMSX003B,85,8,17.11,1015.41,0.00,29696,31,2017,25.24,62.27,81.42,22.80,46.53,65.02,4774.80,1435.36,541.82,87.11,28.58,1.24,23.30,57.41,79.05,21.62,44.30,63.78,4563.08,1384.51,483.24,92.24,24.05,10.11
2018/07/09T22:41:33z,2c:3a:e8:34:ff:6b,2.50i,2.0+OPENLOG+15833 MB+DS3231+BME280+PMSX003A+PMSX003B,85,8,17.11,1015.34,0.00,29696,31,2097,24.00,57.20,74.00,22.24,44.40,61.53,4613.93,1371.60,486.00,77.64,23.33,1.07,23.94,55.56,72.50,22.06,43.72,60.58,4537.58,1378.08,463.81,81.56,20.56,4.72
2018/07/09T22:42:53z,2c:3a:e8:34:ff:6b,2.50i,2.0+OPENLOG+15833 MB+DS3231+BME280+PMSX003A+PMSX003B,85,8,17.11,1015.38,0.00,30128,31,2177,21.09,51.38,69.04,20.36,41.89,58.91,4068.93,1216.49,455.78,77.20,23.64,1.42,19.72,46.94,64.39,19.22,39.61,56.28,3719.83,1130.81,410.61,72.50,21.33,6.06
2018/07/09T22:44:13z,2c:3a:e8:34:ff:6b,2.50i,2.0+OPENLOG+15833 MB+DS3231+BME280+PMSX003A+PMSX003B,85,8,17.11,1015.40,0.00,30128,31,2257,20.23,47.48,62.89,19.68,39.86,55.66,3849.48,1150.77,405.14,62.18,23.95,1.55,17.79,44.09,59.50,17.74,38.03,53.56,3643.94,1090.97,390.29,66.29,17.82,5.06
2018/07/09T22:45:57z,2c:3a:e8:34:ff:6b,2.50i,2.0+OPENLOG+15833 MB+DS3231+BME280+PMSX003A+PMSX003B,85,8,17.11,1015.40,0.00,29672,31,23,18.00,40.00,40.00,18.00,36.00,40.00,0.00,0.00,0.00,0.00,0.00,0.00,14.00,31.00,65.00,14.00,30.00,57.00,0.00,0.00,0.00,0.00,0.00,0.00
2018/07/09T22:47:11z,2c:3a:e8:34:ff:6b,2.50i,2.0+OPENLOG+15833 MB+DS3231+BME280+PMSX003A+PMSX003B,85,8,17.11,1015.37,0.00,30128,31,97,16.88,38.98,46.88,16.85,34.95,45.20,3119.85,950.24,335.32,38.10,11.80,0.00,14.56,34.82,49.68,14.56,32.56,47.41,2988.71,892.32,317.82,54.82,16.59,3.71
2018/07/09T22:48:31z,2c:3a:e8:34:ff:6b,2.50i,2.0+OPENLOG+15833 MB+DS3231+BME280+PMSX003A+PMSX003B,85,8,17.11,1015.37,0.00,30128,31,177,16.70,39.00,48.80,16.70,34.98,46.93,3169.43,956.30,351.70,46.61,13.96,0.74,16.06,37.44,54.81,15.97,33.97,50.64,3261.17,984.94,329.22,59.44,20.89,7.44
2018/07/09T22:49:51z,2c:3a:e8:34:ff:6b,2.50i,2.0+OPENLOG+15833 MB+DS3231+BME280+PMSX003A+PMSX003B,85,8,17.11,1015.43,0.00,30128,31,257,15.63,36.74,47.11,15.63,33.65,45.43,3059.48,909.43,330.57,46.13,15.26,0.78,14.17,36.80,51.94,14.17,33.91,49.06,2855.06,870.23,321.66,61.89,20.06,6.34
2018/07/09T22:51:11z,2c:3a:e8:34:ff:6b,2.50i,2.0+OPENLOG+15833 MB+DS3231+BME280+PMSX003A+PMSX003B,85,8,17.11,1015.21,0.00,29592,31,337,13.89,34.33,43.44,13.89,32.33,43.09,2778.53,826.98,309.16,40.40,12.09,0.78,14.00,32.59,46.19,14.00,31.24,44.97,2748.00,838.03,291.51,46.32,17.84,5.08
2018/07/09T22:52:31z,2c:3a:e8:34:ff:6b,2.50i,2.0+OPENLOG+15833 MB+DS3231+BME280+PMSX003A+PMSX003B,85,8,17.11,1015.34,0.00,29672,31,417,13.62,34.09,45.13,13.62,32.16,44.42,2710.53,819.42,304.80,49.07,16.13,0.31,13.56,33.72,45.83,13.56,32.06,44.64,2677.25,803.78,285.14,55.17,14.78,3.56
2018/07/09T22:53:51z,2c:3a:e8:34:ff:6b,2.50i,2.0+OPENLOG+15833 MB+DS3231+BME280+PMSX003A+PMSX003B,85,8,17.11,1015.27,0.00,30128,31,497,11.73,31.02,39.91,11.73,30.22,39.89,2351.07,711.16,274.00,46.58,13.64,0.36,11.65,30.14,41.78,11.65,29.54,41.51,2428.05,723.38,258.43,48.32,14.76,5.95
2018/07/09T22:55:11z,2c:3a:e8:34:ff:6b,2.50i,2.0+OPENLOG+15833 MB+DS3231+BME280+PMSX003A+PMSX003B,85,8,17.11,1015.12,0.00,30128,31,577,11.91,27.91,34.91,11.91,27.81,34.91,2337.57,697.15,240.26,36.64,10.00,0.51,10.30,24.35,31.89,10.30,24.35,31.89,2085.89,622.14,217.62,31.62,8.49,2.65
2018/07/09T22:56:31z,2c:3a:e8:34:ff:6b,2.50i,2.0+OPENLOG+15833 MB+DS3231+BME280+PMSX003A+PMSX003B,85,8,17.11,1015.25,0.00,29696,31,657,12.00,29.48,36.22,12.00,29.09,36.22,2382.13,718.65,247.09,35.83,8.91,1.13,10.94,25.31,33.69,10.94,25.31,33.69,2168.08,661.75,210.61,36.94,9.56,2.83
2018/07/09T22:57:51z,2c:3a:e8:34:ff:6b,2.50i,2.0+OPENLOG+15833 MB+DS3231+BME280+PMSX003A+PMSX003B,85,8,17.11,1015.14,0.00,29696,31,737,10.63,25.11,33.02,10.63,25.11,33.02,2055.65,622.00,233.61,29.78,11.91,1.13,9.13,23.32,31.32,9.13,23.32,31.32,1927.18,575.05,222.29,33.37,10.05,4.42
2018/07/09T22:59:11z,2c:3a:e8:34:ff:6b,2.50i,2.0+OPENLOG+15833 MB+DS3231+BME280+PMSX003A+PMSX003B,85,8,17.11,1015.13,0.00,30128,31,817,10.00,23.16,31.89,10.00,23.16,31.89,1850.00,567.69,207.64,31.91,13.42,1.13,11.11,24.81,31.69,11.11,24.81,31.69,2160.50,659.86,214.00,31.61,9.44,1.33
2018/07/09T23:00:31z,2c:3a:e8:34:ff:6b,2.50i,2.0+OPENLOG+15833 MB+DS3231+BME280+PMSX003A+PMSX003B,85,9,19.85,1015.17,0.00,29944,31,897,10.34,23.38,28.47,10.34,23.38,28.47,1984.72,593.79,205.40,24.68,7.79,0.21,8.74,22.80,28.94,8.74,22.80,28.94,1856.49,567.43,199.57,31.37,6.06,2.69
2018/07/09T23:01:51z,2c:3a:e8:34:ff:6b,2.50i,2.0+OPENLOG+15833 MB+DS3231+BME280+PMSX003A+PMSX003B,85,9,19.85,1014.98,0.00,29696,31,977,8.73,20.64,25.78,8.73,20.64,25.78,1721.87,526.36,191.47,23.51,7.16,0.21,7.81,20.06,32.33,7.81,20.06,32.33,1675.17,507.78,182.44,41.11,15.56,7.44
2018/07/09T23:03:11z,2c:3a:e8:34:ff:6b,2.50i,2.0+OPENLOG+15833 MB+DS3231+BME280+PMSX003A+PMSX003B,85,9,19.85,1015.09,0.00,29696,31,1057,8.54,18.65,24.58,8.54,18.65,24.58,1667.38,494.67,169.13,20.92,7.71,0.21,8.21,20.45,27.26,8.21,20.45,27.26,1674.39,508.95,179.61,27.89,8.21,3.68
2018/07/09T23:04:31z,2c:3a:e8:34:ff:6b,2.50i,2.0+OPENLOG+15833 MB+DS3231+BME280+PMSX003A+PMSX003B,85,9,19.85,1015.18,0.00,29944,31,1137,7.95,18.55,22.59,7.95,18.55,22.59,1606.09,483.82,167.64,21.91,4.45,0.41,7.92,18.19,25.33,7.92,18.19,25.33,1601.75,479.03,155.19,27.67,8.94,3.39
2018/07/09T23:05:51z,2c:3a:e8:34:ff:6b,2.50i,2.0+OPENLOG+15833 MB+DS3231+BME280+PMSX003A+PMSX003B,85,9,19.85,1015.02,0.00,30128,31,1217,6.94,16.73,22.77,6.94,16.73,22.77,1460.13,434.96,160.96,23.25,7.83,1.00,7.18,16.68,19.89,7.18,16.68,19.89,1423.18,423.84,144.68,17.84,4.32,1.58
2018/07/09T23:07:11z,2c:3a:e8:34:ff:6b,2.50i,2.0+OPENLOG+15833 MB+DS3231+BME280+PMSX003A+PMSX003B,85,9,19.85,1015.12,0.00,29640,31,1297,6.95,17.93,23.20,6.95,17.93,23.20,1450.09,439.45,170.82,22.27,7.91,1.00,5.24,13.11,16.78,5.24,13.11,16.78,1200.49,364.32,114.70,16.11,3.24,2.27
2018/07/09T23:08:31z,2c:3a:e8:34:ff:6b,2.50i,2.0+OPENLOG+15833 MB+DS3231+BME280+PMSX003A+PMSX003B,85,9,19.85,1014.96,0.00,29696,31,1377,6.37,13.77,17.37,6.37,13.77,17.37,1313.13,384.50,126.83,14.63,4.67,1.00,5.16,13.89,17.89,5.16,13.89,17.89,1160.03,357.89,131.14,18.86,4.81,1.68
2018/07/09T23:09:51z,2c:3a:e8:34:ff:6b,2.50i,2.0+OPENLOG+15833 MB+DS3231+BME280+PMSX003A+PMSX003B,85,9,19.85,1015.02,0.00,30128,31,1457,5.54,12.67,15.15,5.54,12.67,15.15,1206.00,356.13,106.13,12.61,4.17,1.00,6.42,13.34,18.29,6.42,13.34,18.29,1376.37,395.92,106.58,16.37,6.05,2.79
2018/07/09T23:11:11z,2c:3a:e8:34:ff:6b,2.50i,2.0+OPENLOG+15833 MB+DS3231+BME280+PMSX003A+PMSX003B,86,9,20.60,1014.89,0.00,30128,31,1537,5.61,12.80,18.09,5.61,12.80,18.09,1125.00,342.00,126.22,17.17,7.83,0.70,5.36,13.72,17.69,5.36,13.72,17.69,1143.33,346.00,112.42,21.83,5.22,1.61
2018/07/09T23:12:31z,2c:3a:e8:34:ff:6b,2.50i,2.0+OPENLOG+15833 MB+DS3231+BME280+PMSX003A+PMSX003B,86,9,20.60,1015.08,0.00,30128,31,1617,4.87,12.65,16.67,4.87,12.65,16.67,1061.74,321.35,119.91,17.39,6.17,0.70,4.19,12.41,15.62,4.19,12.41,15.62,1053.24,314.05,105.38,21.24,3.46,2.49
2018/07/09T23:13:51z,2c:3a:e8:34:ff:6b,2.50i,2.0+OPENLOG+15833 MB+DS3231+BME280+PMSX003A+PMSX003B,86,9,20.60,1015.06,0.00,29592,31,1697,4.64,11.89,16.38,4.64,11.89,16.38,967.91,296.60,113.62,19.74,6.21,0.70,4.37,11.00,14.11,4.37,11.00,14.11,1044.47,309.68,96.47,14.21,3.89,0.21
2018/07/09T23:15:11z,2c:3a:e8:34:ff:6b,2.50i,2.0+OPENLOG+15833 MB+DS3231+BME280+PMSX003A+PMSX003B,85,9,19.85,1015.05,0.00,29672,31,1777,4.22,10.98,13.64,4.22,10.98,13.64,935.20,280.89,103.87,12.67,3.64,0.70,3.77,9.06,14.43,3.77,9.06,14.43,896.66,265.63,91.60,17.09,7.60,2.29
2018/07/09T23:16:31z,2c:3a:e8:34:ff:6b,2.50i,2.0+OPENLOG+15833 MB+DS3231+BME280+PMSX003A+PMSX003B,85,9,19.85,1015.08,0.00,30128,31,1857,4.76,11.00,12.70,4.76,11.00,12.70,955.30,289.52,95.87,11.70,1.87,0.70,3.75,9.08,11.53,3.75,9.08,11.53,782.75,238.58,72.00,17.56,3.28,2.29
2018/07/09T23:17:51z,2c:3a:e8:34:ff:6b,2.50i,2.0+OPENLOG+15833 MB+DS3231+BME280+PMSX003A+PMSX003B,85,9,19.85,1015.02,0.00,30128,31,1937,4.11,9.89,12.13,4.11,9.89,12.13,914.48,268.22,83.43,10.74,2.65,0.48,3.81,9.43,10.86,3.81,9.43,10.86,838.78,253.03,74.81,10.22,2.49,0.81
2018/07/09T23:19:11z,2c:3a:e8:34:ff:6b,2.50i,2.0+OPENLOG+15833 MB+DS3231+BME280+PMSX003A+PMSX003B,85,9,19.85,1015.17,0.00,29696,31,2017,3.09,7.28,10.02,3.09,7.28,10.02,746.09,216.00,73.96,10.35,4.13,0.48,2.78,8.11,10.86,2.78,8.11,10.86,743.50,222.69,80.19,11.78,2.89,1.06
2018/07/09T23:20:31z,2c:3a:e8:34:ff:6b,2.50i,2.0+OPENLOG+15833 MB+DS3231+BME280+PMSX003A+PMSX003B,85,9,19.85,1015.19,0.00,29696,31,2097,2.91,7.70,8.89,2.91,7.70,8.89,671.23,201.57,72.89,7.66,1.87,0.48,2.95,8.26,9.66,2.95,8.26,9.66,768.79,231.97,82.11,12.00,1.58,1.06
2018/07/09T23:21:51z,2c:3a:e8:34:ff:6b,2.50i,2.0+OPENLOG+15833 MB+DS3231+BME280+PMSX003A+PMSX003B,85,9,19.85,1015.12,0.00,30128,31,2177,3.04,8.06,10.38,3.04,8.06,10.38,819.83,237.83,80.17,8.34,3.57,0.48,3.45,7.58,9.55,3.45,7.58,9.55,749.61,227.76,68.53,7.11,3.26,0.89
2018/07/09T23:23:11z,2c:3a:e8:34:ff:6b,2.50i,2.0+OPENLOG+15833 MB+DS3231+BME280+PMSX003A+PMSX003B,85,9,19.85,1015.04,0.00,30128,31,2257,3.59,8.02,11.02,3.59,8.02,11.02,781.96,233.78,68.96,11.39,5.48,0.48,2.39,7.56,9.58,2.39,7.56,9.58,646.75,184.39,65.06,14.67,1.83,0.06
UTCDateTime,mac_address,firmware_ver,hardware,current_temp_f,current_humidity,current_dewpoint_f,pressure,adc,mem,rssi,uptime,pm1_0_atm,pm2_5_atm,pm10_0_atm,pm1_0_cf_1,pm2_5_cf_1,pm10_0_cf_1,p_0_3_um,p_0_5_um,p_1_0_um,p_2_5_um,p_5_0_um,p_10_0_um,pm1_0_atm_b,pm2_5_atm_b,pm10_0_atm_b,pm1_0_cf_1_b,pm2_5_cf_1_b,pm10_0_cf_1_b,p_0_3_um_b,p_0_5_um_b,p_1_0_um_b,p_2_5_um_b,p_5_0_um_b,p_10_0_um_b
2018/07/09T23:24:55z,2c:3a:e8:34:ff:6b,2.50i,2.0+OPENLOG+15833 MB+DS3231+BME280+PMSX003A+PMSX003B,85,9,19.85,1014.93,0.00,29672,31,23,1.00,2.00,2.00,1.00,2.00,2.00,0.00,0.00,0.00,0.00,0.00,0.00,2.00,2.00,2.00,2.00,2.00,2.00,0.00,0.00,0.00,0.00,0.00,0.00
2018/07/09T23:26:09z,2c:3a:e8:34:ff:6b,2.50i,2.0+OPENLOG+15833 MB+DS3231+BME280+PMSX003A+PMSX003B,85,9,19.85,1015.07,0.00,30128,31,97,1.34,3.76,4.29,1.34,3.76,4.29,482.20,145.51,44.78,3.02,0.00,0.00,1.50,5.17,8.08,1.50,5.17,8.08,543.25,160.86,57.89,11.00,3.83,1.61
2018/07/09T23:27:29z,2c:3a:e8:34:ff:6b,2.50i,2.0+OPENLOG+15833 MB+DS3231+BME280+PMSX003A+PMSX003B,85,9,19.85,1014.89,0.00,30128,31,177,2.13,5.62,7.57,2.13,5.62,7.57,573.19,169.96,60.30,9.28,2.30,0.00,1.61,5.44,6.64,1.61,5.44,6.64,534.42,162.14,56.89,8.00,0.67,1.61
2018/07/09T23:28:49z,2c:3a:e8:34:ff:6b,2.50i,2.0+OPENLOG+15833 MB+DS3231+BME280+PMSX003A+PMSX003B,85,9,19.85,1014.90,0.00,30128,31,257,2.21,5.53,6.45,2.21,5.53,6.45,586.34,169.32,52.85,4.89,1.62,0.00,1.08,3.30,6.24,1.08,3.30,6.24,493.30,142.59,38.00,6.00,3.73,0.97
2018/07/09T23:30:09z,2c:3a:e8:34:ff:6b,2.50i,2.0+OPENLOG+15833 MB+DS3231+BME280+PMSX003A+PMSX003B,85,9,19.85,1015.05,0.00,29592,31,337,1.26,4.37,5.04,1.26,4.37,5.04,489.52,151.96,57.13,3.39,0.83,0.00,1.74,5.03,8.50,1.74,5.03,8.50,546.00,158.39,57.00,10.16,4.68,1.21
2018/07/09T23:31:29z,2c:3a:e8:34:ff:6b,2.50i,2.0+OPENLOG+15833 MB+DS3231+BME280+PMSX003A+PMSX003B,85,9,19.85,1014.90,0.00,29672,31,417,1.43,4.04,6.83,1.43,4.04,6.83,402.78,123.83,47.04,8.74,3.78,0.00,1.62,4.89,6.43,1.62,4.89,6.43,459.81,135.49,40.38,8.38,2.54,1.03
2018/07/09T23:32:49z,2c:3a:e8:34:ff:6b,2.50i,2.0+OPENLOG+15833 MB+DS3231+BME280+PMSX003A+PMSX003B,85,9,19.85,1015.03,0.00,30128,31,497,1.76,5.04,8.02,1.76,5.04,8.02,489.65,149.13,47.65,9.96,4.35,0.00,1.08,4.49,4.78,1.08,4.49,4.78,390.24,116.32,41.95,5.35,2.54,1.03
2018/07/09T23:34:09z,2c:3a:e8:34:ff:6b,2.50i,2.0+OPENLOG+15833 MB+DS3231+BME280+PMSX003A+PMSX003B,85,9,19.85,1014.85,0.00,30128,31,577,1.74,4.57,7.11,1.74,4.57,7.11,436.85,138.09,48.77,7.57,4.13,0.00,1.27,4.11,5.81,1.27,4.11,5.81,429.81,130.86,40.97,7.68,1.84,0.38
2018/07/09T23:35:29z,2c:3a:e8:34:ff:6b,2.50i,2.0+OPENLOG+15833 MB+DS3231+BME280+PMSX003A+PMSX003B,85,9,19.85,1015.04,0.00,29696,31,657,1.60,3.79,5.43,1.60,3.79,5.43,410.68,122.34,45.53,5.28,2.98,0.00,0.92,3.34,4.63,0.92,3.34,4.63,400.58,123.11,37.26,6.05,1.26,0.11
2018/07/09T23:36:49z,2c:3a:e8:34:ff:6b,2.50i,2.0+OPENLOG+15833 MB+DS3231+BME280+PMSX003A+PMSX003B,85,9,19.85,1014.94,0.00,29696,31,737,1.33,3.48,4.26,1.33,3.48,4.26,393.65,117.52,36.17,4.91,0.96,0.00,0.81,3.46,3.76,0.81,3.46,3.76,381.08,112.51,37.19,3.03,0.05,0.11
2018/07/09T23:38:09z,2c:3a:e8:34:ff:6b,2.50i,2.0+OPENLOG+15833 MB+DS3231+BME280+PMSX003A+PMSX003B,85,9,19.85,1014.97,0.00,30128,31,817,0.87,3.09,3.80,0.87,3.09,3.80,414.39,115.96,36.43,5.09,0.52,0.00,0.69,2.94,5.31,0.69,2.94,5.31,302.67,94.39,35.67,7.78,3.06,1.17
2018/07/09T23:39:29z,2c:3a:e8:34:ff:6b,2.50i,2.0+OPENLOG+15833 MB+DS3231+BME280+PMSX003A+PMSX003B,85,9,19.85,1015.08,0.00,29944,31,897,1.00,3.74,4.50,1.00,3.74,4.50,363.91,110.09,34.48,6.04,1.00,0.00,0.92,2.39,4.42,0.92,2.39,4.42,336.71,100.82,29.95,4.32,1.89,1.11
2018/07/09T23:40:49z,2c:3a:e8:34:ff:6b,2.50i,2.0+OPENLOG+15833 MB+DS3231+BME280+PMSX003A+PMSX003B,85,9,19.85,1015.03,0.00,29592,31,977,0.83,2.74,3.64,0.83,2.74,3.64,310.47,91.96,31.15,3.96,1.79,0.00,0.34,1.97,4.11,0.34,1.97,4.11,298.74,93.47,31.05,4.63,2.42,0.95
2018/07/09T23:42:09z,2c:3a:e8:34:ff:6b,2.50i,2.0+OPENLOG+15833 MB+DS3231+BME280+PMSX003A+PMSX003B,85,9,19.85,1014.94,0.00,29696,31,1057,0.94,2.51,4.04,0.94,2.51,4.04,326.94,91.79,29.15,4.77,2.21,0.00,0.83,1.94,2.50,0.83,1.94,2.50,276.58,84.08,26.89,3.06,0.94,0.95
2018/07/09T23:43:29z,2c:3a:e8:34:ff:6b,2.50i,2.0+OPENLOG+15833 MB+DS3231+BME280+PMSX003A+PMSX003B,85,9,19.85,1014.94,0.00,30128,31,1137,1.00,3.20,4.07,1.00,3.20,4.07,334.04,101.22,33.91,4.57,1.22,0.57,0.46,1.89,3.54,0.46,1.89,3.54,274.86,84.76,30.05,4.05,0.92,0.92
2018/07/09T23:44:49z,2c:3a:e8:34:ff:6b,2.50i,2.0+OPENLOG+15833 MB+DS3231+BME280+PMSX003A+PMSX003B,85,9,19.85,1014.99,0.00,30128,31,1217,0.57,1.80,2.15,0.57,1.80,2.15,248.09,76.52,21.17,1.35,1.22,0.57,0.63,1.95,3.63,0.63,1.95,3.63,265.58,81.58,27.79,3.63,2.37,1.79
2018/07/09T23:46:09z,2c:3a:e8:34:ff:6b,2.50i,2.0+OPENLOG+15833 MB+DS3231+BME280+PMSX003A+PMSX003B,85,9,19.85,1014.97,0.00,29640,31,1297,0.91,2.50,3.61,0.91,2.50,3.61,363.39,116.04,25.91,3.65,2.09,0.57,0.68,2.46,2.65,0.68,2.46,2.65,288.57,89.27,26.11,2.86,2.37,1.79
2018/07/09T23:47:29z,2c:3a:e8:34:ff:6b,2.50i,2.0+OPENLOG+15833 MB+DS3231+BME280+PMSX003A+PMSX003B,85,9,19.85,1014.73,0.00,29592,31,1377,0.32,1.77,2.06,0.32,1.77,2.06,233.11,71.02,22.43,2.51,2.09,0.57,0.31,1.89,2.69,0.31,1.89,2.69,259.58,78.08,25.83,3.61,1.00,1.00
2018/07/09T23:48:49z,2c:3a:e8:34:ff:6b,2.50i,2.0+OPENLOG+15833 MB+DS3231+BME280+PMSX003A+PMSX003B,85,9,19.85,1015.00,0.00,30128,31,1457,0.70,1.77,1.77,0.70,1.77,1.77,259.53,77.15,18.98,2.04,2.09,0.57,0.31,2.14,2.22,0.31,2.14,2.22,239.19,70.76,22.49,2.27,1.00,1.00
2018/07/09T23:50:09z,2c:3a:e8:34:ff:6b,2.50i,2.0+OPENLOG+15833 MB+DS3231+BME280+PMSX003A+PMSX003B,85,9,19.85,1014.79,0.00,30128,31,1537,0.24,1.41,1.89,0.24,1.41,1.89,219.65,66.70,18.43,2.39,0.30,0.57,0.50,1.89,2.71,0.50,1.89,2.71,226.97,67.45,19.89,3.32,0.68,1.00
2018/07/09T23:51:29z,2c:3a:e8:34:ff:6b,2.50i,2.0+OPENLOG+15833 MB+DS3231+BME280+PMSX003A+PMSX003B,85,9,19.85,1014.90,0.00,29944,31,1617,0.65,1.91,3.46,0.65,1.91,3.46,287.22,82.57,28.09,4.52,2.96,0.57,0.05,1.84,4.18,0.05,1.84,4.18,229.82,64.58,19.74,6.74,2.63,2.00
2018/07/09T23:52:49z,2c:3a:e8:34:ff:6b,2.50i,2.0+OPENLOG+15833 MB+DS3231+BME280+PMSX003A+PMSX003B,85,9,19.85,1014.90,0.00,29696,31,1697,0.17,1.20,1.20,0.17,1.20,1.20,220.96,66.91,27.13,1.70,2.96,0.57,0.49,1.54,1.54,0.49,1.54,1.54,261.69,76.83,18.00,1.09,2.63,2.00
2018/07/09T23:54:09z,2c:3a:e8:34:ff:6b,2.50i,2.0+OPENLOG+15833 MB+DS3231+BME280+PMSX003A+PMSX003B,85,9,19.85,1014.90,0.00,29672,31,1777,0.17,1.21,1.21,0.17,1.21,1.21,220.85,63.91,18.38,0.60,2.96,0.57,0.39,1.53,1.69,0.39,1.53,1.69,202.58,61.67,18.89,4.11,2.63,2.00
2018/07/09T23:55:29z,2c:3a:e8:34:ff:6b,2.50i,2.0+OPENLOG+15833 MB+DS3231+BME280+PMSX003A+PMSX003B,85,9,19.85,1014.92,0.00,30128,31,1857,0.09,1.38,1.70,0.09,1.38,1.70,226.85,63.91,19.15,1.36,2.96,0.57,0.39,0.78,1.62,0.39,0.78,1.62,174.49,52.86,16.76,3.73,0.59,2.00
2018/07/09T23:56:49z,2c:3a:e8:34:ff:6b,2.50i,2.0+OPENLOG+15833 MB+DS3231+BME280+PMSX003A+PMSX003B,85,9,19.85,1014.96,0.00,29944,31,1937,0.15,0.87,1.98,0.15,0.87,1.98,220.30,63.35,22.87,2.78,1.52,0.78,0.39,1.16,2.11,0.39,1.16,2.11,203.84,56.74,17.16,3.00,0.95,0.95
2018/07/09T23:58:09z,2c:3a:e8:34:ff:6b,2.50i,2.0+OPENLOG+15833 MB+DS3231+BME280+PMSX003A+PMSX003B,85,9,19.85,1014.95,0.00,29592,31,2017,0.28,0.93,1.33,0.28,0.93,1.33,200.22,56.13,17.17,1.48,0.78,0.78,0.39,0.41,0.86,0.39,0.41,0.86,146.92,42.16,12.16,1.46,0.43,0.95
2018/07/09T23:59:29z,2c:3a:e8:34:ff:6b,2.50i,2.0+OPENLOG+15833 MB+DS3231+BME280+PMSX003A+PMSX003B,85,9,19.85,1014.84,0.00,29696,31,2097,0.07,0.87,0.87,0.07,0.87,0.87,153.26,45.43,12.17,1.35,0.78,0.78,0.11,0.64,1.00,0.11,0.64,1.00,167.50,49.67,11.00,0.72,0.72,0.95
