UTCDateTime,mac_address,firmware_ver,hardware,current_temp_f,current_humidity,current_dewpoint_f,pressure,adc,mem,rssi,uptime,pm1_0_atm,pm2_5_atm,pm10_0_atm,pm1_0_cf_1,pm2_5_cf_1,pm10_0_cf_1,p_0_3_um,p_0_5_um,p_1_0_um,p_2_5_um,p_5_0_um,p_10_0_um,pm1_0_atm_b,pm2_5_atm_b,pm10_0_atm_b,pm1_0_cf_1_b,pm2_5_cf_1_b,pm10_0_cf_1_b,p_0_3_um_b,p_0_5_um_b,p_1_0_um_b,p_2_5_um_b,p_5_0_um_b,p_10_0_um_b
2018/07/10T00:00:08z,60:1:94:58:a0:74,2.50i,2.0+OPENLOG+15931 MB+DS3231+BME280+PMSX003A+PMSX003B,83,4,0.26,1015.72,0.00,29792,31,2177,0.04,0.40,0.72,0.04,0.40,0.72,129.83,37.94,10.32,1.77,0.51,0.83,0.24,1.00,1.00,0.24,1.00,1.00,190.42,52.26,12.21,1.08,1.42,0.47
2018/07/10T00:01:28z,60:1:94:58:a0:74,2.50i,2.0+OPENLOG+15931 MB+DS3231+BME280+PMSX003A+PMSX003B,83,4,0.26,1015.82,0.00,29640,31,2257,0.04,0.28,0.63,0.04,0.28,0.63,134.87,38.11,10.91,0.98,0.67,0.83,0.24,0.16,0.49,0.24,0.16,0.49,138.57,40.11,6.00,1.54,0.32,0.47
2018/07/10T00:02:48z,60:1:94:58:a0:74,2.50i,2.0+OPENLOG+15931 MB+DS3231+BME280+PMSX003A+PMSX003B,83,4,0.26,1015.64,0.00,29616,31,2337,0.04,0.38,0.38,0.04,0.38,0.38,144.77,40.70,13.36,0.26,0.67,0.83,0.24,0.19,0.51,0.24,0.19,0.51,128.27,37.89,8.05,0.76,0.32,0.47

 ets Jan  8 2013,rst cause:1, boot mode:(3,7)

load 0x4010f000, len 1384, room 16 
tail 8
chksum 0x2d
csum 0x2d
v3de0c112
~ld


AirMonitor Ver: 2.50i
FlashChipRealSize: 2097152
69 31872 time not set:Detecting I2C...
70 31848 time not set:RETRY: Found RTC! ******************
82 31784 2018/07/10T00:02:48z:Found BME280 sensor on 0x76! ******************
3723 31504 2018/07/10T00:02:52z:EEPROM SSID: 
3725 31448 2018/07/10T00:02:52z:Device: AirMonitor_a074
3727 31448 2018/07/10T00:02:52z:MAC: 60:1:94:58:a0:74
3728 31472 2018/07/10T00:02:52z:setupWiFi Complete.
3731 31472 2018/07/10T00:02:52z:Looking for channel B
6405 31128 2018/07/10T00:02:55z:Attempt 1 took 2668ms. Found PMSX003 type sensor! ******************
6406 31344 2018/07/10T00:02:55z:Looking for channel A
2018/07/10T00:04:26z,60:1:94:58:a0:74,2.50i,2.0+OPENLOG+15931 MB+DS3231+BME280+PMSX003A+PMSX003B,83,4,0.26,1015.61,0.00,30072,31,97,0.22,0.62,0.82,0.22,0.62,0.82,169.00,48.76,11.18,1.40,0.49,0.00,0.20,0.20,0.20,0.20,0.20,0.20,147.07,37.44,8.49,0.00,0.00,0.00
2018/07/10T00:05:46z,60:1:94:58:a0:74,2.50i,2.0+OPENLOG+15931 MB+DS3231+BME280+PMSX003A+PMSX003B,83,4,0.26,1015.39,0.00,29640,31,177,0.22,0.39,0.63,0.22,0.39,0.63,175.96,49.63,13.30,1.54,0.33,0.00,0.20,0.14,0.14,0.20,0.14,0.14,100.22,28.32,5.62,0.00,0.00,0.00
2018/07/10T00:07:06z,60:1:94:58:a0:74,2.50i,2.0+OPENLOG+15931 MB+DS3231+BME280+PMSX003A+PMSX003B,83,4,0.26,1015.07,0.00,29640,31,257,0.22,0.45,0.60,0.22,0.45,0.60,85.91,27.47,12.17,1.40,0.26,0.00,0.20,0.16,0.68,0.20,0.16,0.68,114.41,35.97,9.95,2.51,0.46,0.00
2018/07/10T00:08:26z,60:1:94:58:a0:74,2.50i,2.0+OPENLOG+15931 MB+DS3231+BME280+PMSX003A+PMSX003B,84,4,0.95,1015.63,0.00,30072,31,337,0.22,0.46,0.46,0.22,0.46,0.46,94.76,26.20,9.43,0.85,0.26,0.00,0.20,0.05,0.05,0.20,0.05,0.05,95.76,26.61,5.39,0.37,0.46,0.00
2018/07/10T00:09:46z,60:1:94:58:a0:74,2.50i,2.0+OPENLOG+15931 MB+DS3231+BME280+PMSX003A+PMSX003B,84,4,0.95,1015.63,0.00,30072,31,417,0.22,0.28,0.28,0.22,0.28,0.28,110.49,32.19,7.60,0.83,0.26,0.00,0.20,0.29,0.29,0.20,0.29,0.29,141.32,36.55,3.66,0.45,0.46,0.00
2018/07/10T00:11:06z,60:1:94:58:a0:74,2.50i,2.0+OPENLOG+15931 MB+DS3231+BME280+PMSX003A+PMSX003B,83,4,0.26,1014.74,0.00,29584,31,497,0.22,0.39,0.46,0.22,0.39,0.46,118.43,36.67,10.67,1.78,0.26,0.00,0.20,0.17,0.17,0.20,0.17,0.17,123.75,34.86,6.69,0.33,0.46,0.00
2018/07/10T00:12:26z,60:1:94:58:a0:74,2.50i,2.0+OPENLOG+15931 MB+DS3231+BME280+PMSX003A+PMSX003B,83,4,0.26,1014.76,0.00,29640,31,577,0.22,0.39,0.23,0.22,0.39,0.23,94.02,28.19,5.32,1.06,0.30,0.00,0.20,0.32,0.71,0.20,0.32,0.71,143.92,34.08,6.63,1.76,0.47,0.00
2018/07/10T00:13:46z,60:1:94:58:a0:74,2.50i,2.0+OPENLOG+15931 MB+DS3231+BME280+PMSX003A+PMSX003B,83,4,0.26,1015.60,0.00,30072,31,657,0.22,0.39,0.20,0.22,0.39,0.20,74.80,22.11,3.49,1.71,1.09,0.22,0.20,0.32,0.71,0.20,0.32,0.71,127.86,33.51,2.57,1.76,0.47,0.00
2018/07/10T00:15:06z,60:1:94:58:a0:74,2.50i,2.0+OPENLOG+15931 MB+DS3231+BME280+PMSX003A+PMSX003B,83,4,0.26,1015.55,0.00,30072,31,737,0.22,0.39,0.29,0.22,0.39,0.29,94.47,28.80,7.40,1.09,0.60,0.20,0.20,0.32,0.08,0.20,0.32,0.08,94.54,27.30,3.22,0.32,0.47,0.00
2018/07/10T00:16:26z,60:1:94:58:a0:74,2.50i,2.0+OPENLOG+15931 MB+DS3231+BME280+PMSX003A+PMSX003B,82,4,-0.43,1014.28,0.00,29792,31,817,0.22,0.39,0.26,0.22,0.39,0.26,78.52,21.72,5.96,0.65,0.26,0.20,0.20,0.03,0.03,0.20,0.03,0.03,77.27,22.38,7.11,0.41,0.47,0.00
2018/07/10T00:17:46z,60:1:94:58:a0:74,2.50i,2.0+OPENLOG+15931 MB+DS3231+BME280+PMSX003A+PMSX003B,83,4,0.26,1015.52,0.00,29640,31,897,0.22,0.26,0.26,0.22,0.26,0.26,89.55,24.15,6.55,0.66,0.26,0.20,0.20,0.08,0.13,0.20,0.08,0.13,105.71,30.50,6.42,0.11,0.47,0.00
2018/07/10T00:19:06z,60:1:94:58:a0:74,2.50i,2.0+OPENLOG+15931 MB+DS3231+BME280+PMSX003A+PMSX003B,83,4,0.26,1015.53,0.00,30072,31,977,0.22,0.26,0.26,0.22,0.26,0.26,89.74,26.38,5.43,0.62,0.26,0.20,0.20,0.08,0.13,0.20,0.08,0.13,73.34,22.82,4.11,0.11,0.47,0.00
2018/07/10T00:20:26z,60:1:94:58:a0:74,2.50i,2.0+OPENLOG+15931 MB+DS3231+BME280+PMSX003A+PMSX003B,83,4,0.26,1015.38,0.00,30072,31,1057,0.22,0.26,0.04,0.22,0.26,0.04,69.06,20.40,6.23,0.98,0.66,0.20,0.20,0.08,0.14,0.20,0.08,0.14,75.81,24.03,5.70,1.43,0.47,0.00
2018/07/10T00:21:46z,60:1:94:58:a0:74,2.50i,2.0+OPENLOG+15931 MB+DS3231+BME280+PMSX003A+PMSX003B,82,4,-0.43,1014.60,0.00,30072,31,1137,0.22,0.13,0.13,0.22,0.13,0.13,78.46,25.37,6.89,0.93,0.66,0.20,0.20,0.08,0.14,0.20,0.08,0.14,61.50,18.05,3.11,0.95,0.47,0.00
2018/07/10T00:23:06z,60:1:94:58:a0:74,2.50i,2.0+OPENLOG+15931 MB+DS3231+BME280+PMSX003A+PMSX003B,83,4,0.26,1015.71,0.00,29640,31,1217,0.22,0.22,0.67,0.22,0.22,0.67,120.91,38.26,9.41,1.41,0.72,0.07,0.20,0.08,0.13,0.20,0.08,0.13,89.13,25.08,4.42,0.63,0.32,0.00
2018/07/10T00:24:26z,60:1:94:58:a0:74,2.50i,2.0+OPENLOG+15931 MB+DS3231+BME280+PMSX003A+PMSX003B,84,4,0.95,1015.79,0.00,29616,31,1297,0.22,0.22,0.26,0.22,0.22,0.26,61.89,17.57,3.87,1.15,0.26,0.26,0.20,0.08,0.13,0.20,0.08,0.13,66.81,17.92,3.70,0.24,0.32,0.00
2018/07/10T00:25:46z,60:1:94:58:a0:74,2.50i,2.0+OPENLOG+15931 MB+DS3231+BME280+PMSX003A+PMSX003B,81,4,-1.12,1013.30,0.00,30072,31,1377,0.22,0.22,0.09,0.22,0.22,0.09,69.57,20.38,6.17,0.87,0.36,0.26,0.20,0.08,0.13,0.20,0.08,0.13,86.84,21.22,6.78,0.24,0.32,0.00
2018/07/10T00:27:06z,60:1:94:58:a0:74,2.50i,2.0+OPENLOG+15931 MB+DS3231+BME280+PMSX003A+PMSX003B,83,3,-5.79,1016.07,0.00,30072,31,1457,0.22,0.22,0.09,0.22,0.22,0.09,50.02,15.67,4.48,0.87,0.36,0.26,0.20,0.08,0.13,0.20,0.08,0.13,52.46,16.26,3.21,0.24,0.32,0.00
2018/07/10T00:28:26z,60:1:94:58:a0:74,2.50i,2.0+OPENLOG+15931 MB+DS3231+BME280+PMSX003A+PMSX003B,81,2,-15.30,1013.75,0.00,29640,31,1537,0.22,0.22,0.09,0.22,0.22,0.09,26.30,7.94,2.81,0.43,0.36,0.26,0.20,0.08,0.13,0.20,0.08,0.13,18.73,4.95,0.76,0.24,0.32,0.00
2018/07/10T00:29:46z,60:1:94:58:a0:74,2.50i,2.0+OPENLOG+15931 MB+DS3231+BME280+PMSX003A+PMSX003B,83,2,-14.02,1015.61,0.00,29640,31,1617,0.22,0.22,0.09,0.22,0.22,0.09,16.57,5.28,1.76,0.50,0.36,0.26,0.20,0.08,0.13,0.20,0.08,0.13,18.41,4.68,1.00,0.24,0.32,0.00
2018/07/10T00:31:06z,60:1:94:58:a0:74,2.50i,2.0+OPENLOG+15931 MB+DS3231+BME280+PMSX003A+PMSX003B,83,1,-27.32,1015.42,0.00,30072,31,1697,0.22,0.22,0.09,0.22,0.22,0.09,10.21,2.38,0.38,0.38,0.36,0.26,0.20,0.08,0.13,0.20,0.08,0.13,11.61,2.29,0.08,0.24,0.32,0.00
2018/07/10T00:32:26z,60:1:94:58:a0:74,2.50i,2.0+OPENLOG+15931 MB+DS3231+BME280+PMSX003A+PMSX003B,83,13,27.09,1015.89,0.00,30072,31,1777,1.63,2.35,2.35,1.63,2.35,2.35,409.50,114.46,16.00,0.26,0.36,0.26,1.29,1.58,1.58,1.29,1.58,1.58,306.87,85.29,7.68,0.21,0.32,0.00
2018/07/10T00:33:46z,60:1:94:58:a0:74,2.50i,2.0+OPENLOG+15931 MB+DS3231+BME280+PMSX003A+PMSX003B,82,21,38.22,1015.23,0.00,29640,31,1857,8.64,14.71,17.44,8.36,13.20,15.58,1748.47,500.93,96.64,11.73,3.53,0.89,6.46,8.24,8.41,6.46,8.24,8.41,1308.97,356.27,44.32,1.73,0.16,0.00
2018/07/10T00:35:06z,60:1:94:58:a0:74,2.50i,2.0+OPENLOG+15931 MB+DS3231+BME280+PMSX003A+PMSX003B,82,15,29.79,1015.87,0.00,29352,31,1937,138.94,424.51,686.11,91.96,282.32,456.68,28612.47,8855.72,3865.70,916.49,346.47,106.47,172.61,444.22,615.14,114.42,295.42,409.31,32827.00,9889.33,3959.61,745.25,192.19,31.19
2018/07/10T00:36:26z,60:1:94:58:a0:74,2.50i,2.0+OPENLOG+15931 MB+DS3231+BME280+PMSX003A+PMSX003B,82,11,22.30,1014.79,0.00,30072,31,2017,129.21,383.89,628.04,85.30,255.00,418.15,26560.09,8160.53,3448.68,847.94,327.51,92.66,161.06,396.67,534.39,106.64,263.56,355.56,30558.33,9147.53,3471.61,632.94,151.14,25.89
2018/07/10T00:37:46z,60:1:94:58:a0:74,2.50i,2.0+OPENLOG+15931 MB+DS3231+BME280+PMSX003A+PMSX003B,82,8,14.88,1014.96,0.00,30072,31,2097,96.91,267.84,423.67,63.80,177.67,281.89,19912.53,6036.27,2325.38,556.42,210.76,53.87,114.46,266.86,357.92,75.49,177.19,237.86,22026.41,6420.24,2242.00,415.59,100.38,16.65
2018/07/10T00:39:06z,60:1:94:58:a0:74,2.50i,2.0+OPENLOG+15931 MB+DS3231+BME280+PMSX003A+PMSX003B,80,6,6.94,1013.36,0.00,29584,31,2177,67.58,170.47,263.11,44.31,113.00,174.71,13607.67,4061.22,1442.98,320.84,121.69,36.87,77.63,172.69,231.49,51.20,114.43,153.66,14830.03,4292.40,1422.46,256.54,64.57,11.43
2018/07/10T00:40:26z,60:1:94:58:a0:74,2.50i,2.0+OPENLOG+15931 MB+DS3231+BME280+PMSX003A+PMSX003B,81,5,3.67,1014.41,0.00,29640,31,2257,41.84,107.39,157.61,30.55,70.80,104.30,8552.93,2552.41,895.84,190.48,67.75,13.68,46.28,107.47,138.33,32.28,70.69,91.56,9099.67,2657.50,896.36,151.03,35.42,4.92
2018/07/10T00:41:46z,60:1:94:58:a0:74,2.50i,2.0+OPENLOG+15931 MB+DS3231+BME280+PMSX003A+PMSX003B,83,3,-5.79,1015.61,0.00,30072,31,2337,25.84,63.41,96.75,23.02,46.66,70.89,5355.07,1582.95,536.50,114.61,43.61,11.73,27.00,62.03,76.44,23.81,46.17,62.33,5419.17,1553.78,509.92,80.42,16.31,2.06

 ets Jan  8 2013,rst cause:1, boot mode:(3,7)

load 0x4010f000, len 1384, room 16 
tail 8
chksum 0x2d
csum 0x2d
v3de0c112
~ld


AirMonitor Ver: 2.50i
FlashChipRealSize: 2097152
69 31872 time not set:Detecting I2C...
70 31848 time not set:RETRY: Found RTC! ******************
83 31784 2018/07/10T00:41:46z:Found BME280 sensor on 0x76! ******************
3724 31504 2018/07/10T00:41:50z:EEPROM SSID: 
3726 31448 2018/07/10T00:41:50z:Device: AirMonitor_a074
3728 31448 2018/07/10T00:41:50z:MAC: 60:1:94:58:a0:74
3729 31472 2018/07/10T00:41:50z:setupWiFi Complete.
3732 31472 2018/07/10T00:41:50z:Looking for channel B
6468 31128 2018/07/10T00:41:53z:Attempt 1 took 2731ms. Found PMSX003 type sensor! ******************
6470 31344 2018/07/10T00:41:53z:Looking for channel A
2018/07/10T00:43:24z,60:1:94:58:a0:74,2.50i,2.0+OPENLOG+15931 MB+DS3231+BME280+PMSX003A+PMSX003B,83,3,-5.79,1015.73,0.00,30072,31,97,19.32,46.59,67.11,18.84,39.20,57.64,4044.75,1199.09,395.07,76.25,26.95,5.95,22.80,48.95,56.93,21.43,40.57,52.05,4003.57,1139.57,334.84,43.27,6.32,1.27
2018/07/10T00:44:44z,60:1:94:58:a0:74,2.50i,2.0+OPENLOG+15931 MB+DS3231+BME280+PMSX003A+PMSX003B,82,3,-6.46,1014.94,0.00,29640,31,177,19.59,48.32,68.23,19.27,40.20,58.25,4131.20,1212.80,399.75,74.09,27.14,6.77,21.89,45.27,55.76,20.78,38.57,51.24,4269.32,1228.03,363.49,49.03,10.57,1.49
2018/07/10T00:46:04z,60:1:94:58:a0:74,2.50i,2.0+OPENLOG+15931 MB+DS3231+BME280+PMSX003A+PMSX003B,82,3,-6.46,1014.67,0.00,29616,31,257,17.31,40.76,61.96,17.31,36.11,55.09,3548.67,1050.91,347.44,70.93,25.82,7.31,20.24,44.54,53.38,19.70,38.32,49.97,4127.59,1179.03,368.51,47.00,8.70,1.43
2018/07/10T00:47:24z,60:1:94:58:a0:74,2.50i,2.0+OPENLOG+15931 MB+DS3231+BME280+PMSX003A+PMSX003B,83,3,-5.79,1015.76,0.00,30072,31,337,16.89,42.59,61.57,16.89,37.26,54.72,3579.72,1057.41,357.59,72.67,23.33,7.37,18.79,42.12,50.59,18.62,36.88,47.97,3852.62,1099.94,344.76,47.26,10.06,1.35
2018/07/10T00:48:44z,60:1:94:58:a0:74,2.50i,2.0+OPENLOG+15931 MB+DS3231+BME280+PMSX003A+PMSX003B,83,3,-5.79,1015.69,0.00,30072,31,417,15.66,39.04,55.45,15.66,35.11,51.17,3331.02,983.72,322.57,62.23,22.85,4.36,17.08,39.41,48.41,17.08,35.46,46.62,3444.08,1002.86,314.19,50.19,8.92,1.54
2018/07/10T00:50:04z,60:1:94:58:a0:74,2.50i,2.0+OPENLOG+15931 MB+DS3231+BME280+PMSX003A+PMSX003B,83,3,-5.79,1015.39,0.00,29640,31,497,14.49,35.87,50.13,14.49,33.36,47.81,3051.19,900.49,299.00,54.72,19.83,4.34,17.67,38.53,47.11,17.67,34.78,46.08,3602.75,1021.03,310.28,46.08,9.11,2.19
2018/07/10T00:51:24z,60:1:94:58:a0:74,2.50i,2.0+OPENLOG+15931 MB+DS3231+BME280+PMSX003A+PMSX003B,82,4,-0.43,1014.41,0.00,29640,31,577,14.19,33.93,46.49,14.19,32.14,45.67,2849.72,860.65,278.95,53.00,15.49,3.09,14.50,31.33,37.11,14.50,30.00,37.11,2857.67,833.69,273.81,29.89,5.67,0.44
2018/07/10T00:52:44z,60:1:94:58:a0:74,2.50i,2.0+OPENLOG+15931 MB+DS3231+BME280+PMSX003A+PMSX003B,83,3,-5.79,1015.39,0.00,29888,31,657,11.80,30.14,45.55,11.80,29.64,44.66,2523.61,752.66,257.39,54.30,21.14,3.07,12.95,28.89,35.97,12.95,28.58,35.97,2759.45,783.76,238.61,35.92,5.18,1.71
2018/07/10T00:54:04z,60:1:94:58:a0:74,2.50i,2.0+OPENLOG+15931 MB+DS3231+BME280+PMSX003A+PMSX003B,83,4,0.26,1015.06,0.00,30072,31,737,10.77,26.77,37.49,10.77,26.77,37.49,2251.60,671.38,231.09,41.32,14.81,3.15,12.27,26.19,32.84,12.27,26.19,32.84,2502.00,718.35,204.84,34.11,6.62,1.32
2018/07/10T00:55:24z,60:1:94:58:a0:74,2.50i,2.0+OPENLOG+15931 MB+DS3231+BME280+PMSX003A+PMSX003B,83,4,0.26,1014.91,0.00,29640,31,817,11.85,29.11,38.85,11.85,28.65,38.85,2509.37,744.50,237.78,40.00,13.13,4.54,11.39,24.33,29.42,11.39,24.33,29.42,2274.75,663.33,211.19,24.03,6.19,0.64
2018/07/10T00:56:44z,60:1:94:58:a0:74,2.50i,2.0+OPENLOG+15931 MB+DS3231+BME280+PMSX003A+PMSX003B,83,4,0.26,1015.41,0.00,29640,31,897,9.95,23.45,31.91,9.95,23.45,31.91,2166.61,641.18,196.43,32.55,11.25,1.41,10.79,22.74,27.21,10.79,22.74,27.21,2193.87,632.24,186.82,27.87,3.11,1.18
2018/07/10T00:58:04z,60:1:94:58:a0:74,2.50i,2.0+OPENLOG+15931 MB+DS3231+BME280+PMSX003A+PMSX003B,83,4,0.26,1015.54,0.00,30072,31,977,8.41,21.04,27.00,8.41,21.04,27.00,1866.33,547.07,181.63,25.11,7.11,2.43,10.31,22.36,26.14,10.31,22.36,26.14,2083.92,600.00,180.17,19.89,3.97,0.81
2018/07/10T00:59:24z,60:1:94:58:a0:74,2.50i,2.0+OPENLOG+15931 MB+DS3231+BME280+PMSX003A+PMSX003B,83,4,0.26,1015.42,0.00,30072,31,1057,8.00,21.76,29.24,8.00,21.76,29.24,1844.80,541.74,177.83,31.46,10.07,2.15,9.08,19.29,24.00,9.08,19.29,24.00,1963.58,560.84,166.71,24.97,3.42,1.00
2018/07/10T01:00:44z,60:1:94:58:a0:74,2.50i,2.0+OPENLOG+15931 MB+DS3231+BME280+PMSX003A+PMSX003B,83,4,0.26,1015.47,0.00,29536,31,1137,7.58,20.02,27.04,7.58,20.02,27.04,1721.27,509.80,166.98,32.89,9.42,2.04,9.25,18.42,22.42,9.25,18.42,22.42,1871.58,543.75,156.75,19.00,3.67,0.36
2018/07/10T01:02:04z,60:1:94:58:a0:74,2.50i,2.0+OPENLOG+15931 MB+DS3231+BME280+PMSX003A+PMSX003B,83,4,0.26,1015.62,0.00,29640,31,1217,7.56,18.42,24.78,7.56,18.42,24.78,1756.47,517.00,155.84,25.33,7.98,1.84,7.36,15.69,20.33,7.36,15.69,20.33,1589.83,460.19,128.11,18.14,5.92,0.44
2018/07/10T01:03:24z,60:1:94:58:a0:74,2.50i,2.0+OPENLOG+15931 MB+DS3231+BME280+PMSX003A+PMSX003B,82,4,-0.43,1014.50,0.00,30072,31,1297,5.27,14.98,22.18,5.27,14.98,22.18,1401.40,408.40,135.13,28.49,7.53,2.31,8.46,17.68,20.57,8.46,17.68,20.57,1752.57,497.00,143.16,17.51,3.27,0.32
2018/07/10T01:04:44z,60:1:94:58:a0:74,2.50i,2.0+OPENLOG+15931 MB+DS3231+BME280+PMSX003A+PMSX003B,83,4,0.26,1015.50,0.00,30072,31,1377,6.45,14.91,21.68,6.45,14.91,21.68,1400.68,414.89,130.85,22.96,8.87,3.91,6.92,14.76,16.53,6.92,14.76,16.53,1467.00,419.71,127.45,13.18,1.97,0.47
2018/07/10T01:06:04z,60:1:94:58:a0:74,2.50i,2.0+OPENLOG+15931 MB+DS3231+BME280+PMSX003A+PMSX003B,83,4,0.26,1015.47,0.00,29792,31,1457,5.85,15.68,19.96,5.85,15.68,19.96,1289.68,387.17,131.83,19.57,5.81,1.49,5.26,11.79,13.47,5.26,11.79,13.47,1251.00,357.32,119.13,8.84,1.21,0.47
2018/07/10T01:07:24z,60:1:94:58:a0:74,2.50i,2.0+OPENLOG+15931 MB+DS3231+BME280+PMSX003A+PMSX003B,81,4,-1.12,1013.32,0.00,29640,31,1537,5.57,13.50,17.48,5.57,13.50,17.48,1236.98,355.50,111.54,19.24,5.59,0.87,6.19,11.69,14.19,6.19,11.69,14.19,1307.33,370.67,105.06,10.75,2.33,1.06
2018/07/10T01:08:44z,60:1:94:58:a0:74,2.50i,2.0+OPENLOG+15931 MB+DS3231+BME280+PMSX003A+PMSX003B,82,4,-0.43,1014.23,0.00,29616,31,1617,4.76,12.41,18.28,4.76,12.41,18.28,1133.41,345.83,118.00,17.74,7.11,3.07,5.70,11.16,13.16,5.70,11.16,13.16,1278.49,359.24,94.24,9.43,2.03,0.54
2018/07/10T01:10:04z,60:1:94:58:a0:74,2.50i,2.0+OPENLOG+15931 MB+DS3231+BME280+PMSX003A+PMSX003B,82,4,-0.43,1014.39,0.00,30072,31,1697,4.00,10.63,15.26,4.00,10.63,15.26,1029.20,310.37,99.02,16.98,5.85,0.89,4.58,9.71,11.92,4.58,9.71,11.92,1082.92,304.42,87.58,9.08,2.58,1.26
2018/07/10T01:11:24z,60:1:94:58:a0:74,2.50i,2.0+OPENLOG+15931 MB+DS3231+BME280+PMSX003A+PMSX003B,82,4,-0.43,1014.46,0.00,29888,31,1777,3.91,9.43,13.89,3.91,9.43,13.89,1018.11,298.80,91.83,11.65,4.89,2.46,5.29,9.68,10.39,5.29,9.68,10.39,1090.50,318.24,82.61,5.74,0.82,1.26
2018/07/10T01:12:44z,60:1:94:58:a0:74,2.50i,2.0+OPENLOG+15931 MB+DS3231+BME280+PMSX003A+PMSX003B,83,4,0.26,1015.42,0.00,29640,31,1857,4.20,9.28,13.24,4.20,9.28,13.24,970.30,290.04,83.17,12.57,6.07,0.43,3.54,8.78,10.92,3.54,8.78,10.92,924.08,265.03,85.54,10.30,2.22,0.30
2018/07/10T01:14:04z,60:1:94:58:a0:74,2.50i,2.0+OPENLOG+15931 MB+DS3231+BME280+PMSX003A+PMSX003B,83,4,0.26,1014.83,0.00,29432,31,1937,3.98,9.26,12.22,3.98,9.26,12.22,926.67,274.50,77.54,12.54,3.76,1.17,3.59,7.08,7.81,3.59,7.08,7.81,795.65,232.16,64.76,5.41,0.30,0.30
2018/07/10T01:15:24z,60:1:94:58:a0:74,2.50i,2.0+OPENLOG+15931 MB+DS3231+BME280+PMSX003A+PMSX003B,83,4,0.26,1015.30,0.00,30072,31,2017,3.46,7.96,11.57,3.46,7.96,11.57,789.72,236.91,68.41,13.52,5.09,1.70,3.68,8.39,9.16,3.68,8.39,9.16,875.76,258.76,76.39,7.97,0.68,0.32
2018/07/10T01:16:44z,60:1:94:58:a0:74,2.50i,2.0+OPENLOG+15931 MB+DS3231+BME280+PMSX003A+PMSX003B,83,4,0.26,1015.32,0.00,30072,31,2097,3.46,7.04,9.72,3.46,7.04,9.72,795.65,234.28,54.83,10.07,3.70,0.80,3.19,6.92,8.49,3.19,6.92,8.49,788.19,225.57,56.51,7.57,2.16,0.32
2018/07/10T01:18:04z,60:1:94:58:a0:74,2.50i,2.0+OPENLOG+15931 MB+DS3231+BME280+PMSX003A+PMSX003B,83,4,0.26,1014.86,0.00,29640,31,2177,1.72,6.04,9.13,1.72,6.04,9.13,717.32,204.98,61.40,11.40,4.13,2.04,3.00,6.19,6.76,3.00,6.19,6.76,774.00,223.51,52.11,3.51,0.59,0.32
2018/07/10T01:19:24z,60:1:94:58:a0:74,2.50i,2.0+OPENLOG+15931 MB+DS3231+BME280+PMSX003A+PMSX003B,82,4,-0.43,1014.66,0.00,29640,31,2257,2.45,6.21,7.68,2.45,6.21,7.68,654.77,199.06,60.94,5.32,1.62,0.57,3.03,6.29,7.34,3.03,6.29,7.34,688.50,206.03,56.32,2.95,0.92,0.53
2018/07/10T01:20:44z,60:1:94:58:a0:74,2.50i,2.0+OPENLOG+15931 MB+DS3231+BME280+PMSX003A+PMSX003B,83,4,0.26,1014.99,0.00,30072,31,2337,2.55,6.45,8.11,2.55,6.45,8.11,632.74,193.11,56.36,6.72,2.57,0.81,3.00,6.53,8.05,3.00,6.53,8.05,838.34,231.89,62.24,7.45,0.89,0.53

 ets Jan  8 2013,rst cause:1, boot mode:(3,7)

load 0x4010f000, len 1384, room 16 
tail 8
chksum 0x2d
csum 0x2d
v3de0c112
~ld


AirMonitor Ver: 2.50i
FlashChipRealSize: 2097152
69 31872 time not set:Detecting I2C...
70 31848 time not set:RETRY: Found RTC! ******************
82 31784 2018/07/10T01:20:44z:Found BME280 sensor on 0x76! ******************
3723 31504 2018/07/10T01:20:48z:EEPROM SSID: 
3725 31448 2018/07/10T01:20:48z:Device: AirMonitor_a074
3727 31448 2018/07/10T01:20:48z:MAC: 60:1:94:58:a0:74
3728 31472 2018/07/10T01:20:48z:setupWiFi Complete.
3731 31472 2018/07/10T01:20:48z:Looking for channel B
6386 31128 2018/07/10T01:20:51z:Attempt 1 took 2650ms. Found PMSX003 type sensor! ******************
6388 31344 2018/07/10T01:20:51z:Looking for channel A
2018/07/10T01:22:22z,60:1:94:58:a0:74,2.50i,2.0+OPENLOG+15931 MB+DS3231+BME280+PMSX003A+PMSX003B,83,4,0.26,1015.33,0.00,30072,31,97,1.76,5.42,7.16,1.76,5.42,7.16,609.47,178.04,53.76,7.80,1.82,0.82,2.54,5.17,6.33,2.54,5.17,6.33,578.02,169.74,44.63,3.91,0.93,0.35
2018/07/10T01:23:42z,60:1:94:58:a0:74,2.50i,2.0+OPENLOG+15931 MB+DS3231+BME280+PMSX003A+PMSX003B,81,4,-1.12,1013.46,0.00,29640,31,177,2.04,5.61,7.00,2.04,5.61,7.00,594.00,172.65,52.04,6.65,1.65,0.52,2.22,3.78,5.14,2.22,3.78,5.14,560.68,157.59,31.86,3.70,0.73,0.08
2018/07/10T01:25:02z,60:1:94:58:a0:74,2.50i,2.0+OPENLOG+15931 MB+DS3231+BME280+PMSX003A+PMSX003B,83,4,0.26,1015.52,0.00,29640,31,257,1.76,4.70,5.57,1.76,4.70,5.57,514.24,151.04,42.46,5.74,1.00,0.37,2.30,4.92,5.08,2.30,4.92,5.08,645.89,178.38,41.05,3.59,0.65,0.08
2018/07/10T01:26:22z,60:1:94:58:a0:74,2.50i,2.0+OPENLOG+15931 MB+DS3231+BME280+PMSX003A+PMSX003B,83,4,0.26,1015.38,0.00,30072,31,337,2.00,4.89,7.15,2.00,4.89,7.15,525.20,162.24,43.89,7.74,3.22,0.74,2.24,5.00,5.16,2.24,5.00,5.16,625.42,172.39,42.84,2.39,0.13,0.08
2018/07/10T01:27:42z,60:1:94:58:a0:74,2.50i,2.0+OPENLOG+15931 MB+DS3231+BME280+PMSX003A+PMSX003B,83,4,0.26,1015.43,0.00,30072,31,417,1.53,3.89,4.36,1.53,3.89,4.36,439.98,134.81,32.34,4.32,0.60,0.30,1.63,3.53,4.11,1.63,3.53,4.11,475.89,137.63,32.37,3.00,1.08,0.26
2018/07/10T01:29:02z,60:1:94:58:a0:74,2.50i,2.0+OPENLOG+15931 MB+DS3231+BME280+PMSX003A+PMSX003B,83,4,0.26,1016.01,0.00,29536,31,497,1.54,4.74,5.89,1.54,4.74,5.89,459.85,137.43,43.93,7.17,1.74,0.57,1.36,3.14,4.78,1.36,3.14,4.78,438.33,128.89,33.50,5.89,1.83,0.33
2018/07/10T01:30:22z,60:1:94:58:a0:74,2.50i,2.0+OPENLOG+15931 MB+DS3231+BME280+PMSX003A+PMSX003B,82,4,-0.43,1014.57,0.00,29640,31,577,1.02,3.26,4.43,1.02,3.26,4.43,435.20,126.65,34.20,4.87,1.61,0.57,1.50,3.29,3.95,1.50,3.29,3.95,431.13,129.76,36.74,2.74,0.82,0.33
2018/07/10T01:31:42z,60:1:94:58:a0:74,2.50i,2.0+OPENLOG+15931 MB+DS3231+BME280+PMSX003A+PMSX003B,83,4,0.26,1015.36,0.00,30072,31,657,0.58,1.69,2.36,0.58,1.69,2.36,364.67,105.31,22.51,1.51,1.20,0.57,0.86,2.41,2.70,0.86,2.41,2.70,358.62,97.95,26.65,2.35,0.30,0.30
2018/07/10T01:33:02z,60:1:94:58:a0:74,2.50i,2.0+OPENLOG+15931 MB+DS3231+BME280+PMSX003A+PMSX003B,83,4,0.26,1015.35,0.00,30072,31,737,1.26,3.07,3.57,1.26,3.07,3.57,436.11,128.33,24.39,2.83,0.74,0.26,1.14,2.35,3.08,1.14,2.35,3.08,387.08,105.95,25.32,3.24,0.43,0.30
2018/07/10T01:34:22z,60:1:94:58:a0:74,2.50i,2.0+OPENLOG+15931 MB+DS3231+BME280+PMSX003A+PMSX003B,82,4,-0.43,1014.50,0.00,29584,31,817,1.17,2.43,3.89,1.17,2.43,3.89,342.26,99.07,23.00,4.80,1.74,0.41,1.21,2.58,2.58,1.21,2.58,2.58,414.71,117.05,20.92,1.16,0.39,0.30
2018/07/10T01:35:42z,60:1:94:58:a0:74,2.50i,2.0+OPENLOG+15931 MB+DS3231+BME280+PMSX003A+PMSX003B,83,4,0.26,1015.41,0.00,29456,31,897,0.15,1.57,2.72,0.15,1.57,2.72,320.49,93.72,25.64,2.81,1.66,0.62,1.39,3.79,3.87,1.39,3.79,3.87,423.95,123.68,38.74,3.87,0.39,0.30
2018/07/10T01:37:02z,60:1:94:58:a0:74,2.50i,2.0+OPENLOG+15931 MB+DS3231+BME280+PMSX003A+PMSX003B,83,4,0.26,1015.80,0.00,29616,31,977,0.57,2.45,3.11,0.57,2.45,3.11,293.30,83.74,17.57,5.19,1.06,0.40,0.95,2.97,3.68,0.95,2.97,3.68,367.78,109.16,26.89,5.24,1.08,0.30
2018/07/10T01:38:22z,60:1:94:58:a0:74,2.50i,2.0+OPENLOG+15931 MB+DS3231+BME280+PMSX003A+PMSX003B,81,4,-1.12,1013.32,0.00,30072,31,1057,0.98,1.91,2.41,0.98,1.91,2.41,276.72,86.98,17.98,1.72,0.93,0.40,0.70,1.27,2.08,0.70,1.27,2.08,268.95,77.30,15.05,2.62,1.62,0.30
2018/07/10T01:39:42z,60:1:94:58:a0:74,2.50i,2.0+OPENLOG+15931 MB+DS3231+BME280+PMSX003A+PMSX003B,83,4,0.26,1014.92,0.00,30072,31,1137,0.83,2.48,3.30,0.83,2.48,3.30,324.07,94.39,26.07,3.52,0.48,0.20,1.00,1.84,2.16,1.00,1.84,2.16,313.58,93.89,16.26,1.89,0.32,0.30
2018/07/10T01:41:02z,60:1:94:58:a0:74,2.50i,2.0+OPENLOG+15931 MB+DS3231+BME280+PMSX003A+PMSX003B,82,4,-0.43,1014.53,0.00,29536,31,1217,0.48,1.93,2.85,0.48,1.93,2.85,311.09,85.91,20.43,4.37,0.83,0.22,0.39,0.87,1.16,0.39,0.87,1.16,247.74,70.58,13.26,1.63,0.32,0.30
2018/07/10T01:42:22z,60:1:94:58:a0:74,2.50i,2.0+OPENLOG+15931 MB+DS3231+BME280+PMSX003A+PMSX003B,83,4,0.26,1015.18,0.00,29616,31,1297,0.09,1.02,1.02,0.09,1.02,1.02,275.35,76.22,21.43,0.98,0.83,0.22,0.25,0.86,1.11,0.25,0.86,1.11,227.08,63.81,9.72,0.67,0.67,0.30
2018/07/10T01:43:42z,60:1:94:58:a0:74,2.50i,2.0+OPENLOG+15931 MB+DS3231+BME280+PMSX003A+PMSX003B,83,4,0.26,1015.02,0.00,30072,31,1377,0.09,0.57,1.33,0.09,0.57,1.33,224.09,64.57,19.76,2.33,1.00,0.39,0.92,1.13,1.63,0.92,1.13,1.63,297.00,78.05,14.53,1.21,0.39,0.39
2018/07/10T01:45:02z,60:1:94:58:a0:74,2.50i,2.0+OPENLOG+15931 MB+DS3231+BME280+PMSX003A+PMSX003B,82,4,-0.43,1014.97,0.00,30072,31,1457,0.60,1.28,1.53,0.60,1.28,1.53,269.30,74.06,14.32,1.43,0.30,0.30,0.84,1.24,1.24,0.84,1.24,1.24,276.71,77.47,11.61,0.24,0.08,0.39
2018/07/10T01:46:22z,60:1:94:58:a0:74,2.50i,2.0+OPENLOG+15931 MB+DS3231+BME280+PMSX003A+PMSX003B,83,4,0.26,1015.64,0.00,29640,31,1537,0.28,1.39,1.98,0.28,1.39,1.98,217.11,65.48,16.33,2.61,0.93,0.30,0.38,1.92,2.00,0.38,1.92,2.00,229.38,68.43,17.32,3.05,0.08,0.39
2018/07/10T01:47:42z,60:1:94:58:a0:74,2.50i,2.0+OPENLOG+15931 MB+DS3231+BME280+PMSX003A+PMSX003B,83,4,0.26,1015.38,0.00,29456,31,1617,0.21,1.23,1.66,0.21,1.23,1.66,250.02,67.40,15.85,1.74,0.38,0.04,0.22,1.41,1.62,0.22,1.41,1.62,232.54,68.65,18.68,1.84,0.32,0.32
2018/07/10T01:49:02z,60:1:94:58:a0:74,2.50i,2.0+OPENLOG+15931 MB+DS3231+BME280+PMSX003A+PMSX003B,83,4,0.26,1014.78,0.00,30072,31,1697,0.21,0.61,0.87,0.21,0.61,0.87,163.30,48.50,11.37,0.87,0.24,0.24,0.05,0.82,1.03,0.05,0.82,1.03,185.68,54.61,9.11,1.82,0.63,0.32
2018/07/10T01:50:22z,60:1:94:58:a0:74,2.50i,2.0+OPENLOG+15931 MB+DS3231+BME280+PMSX003A+PMSX003B,81,5,3.67,1012.86,0.00,30072,31,1777,0.21,1.13,1.83,0.21,1.13,1.83,183.77,53.34,13.43,2.15,1.13,0.51,0.05,0.32,0.32,0.05,0.32,0.32,168.79,44.95,4.97,0.21,0.63,0.32
2018/07/10T01:51:42z,60:1:94:58:a0:74,2.50i,2.0+OPENLOG+15931 MB+DS3231+BME280+PMSX003A+PMSX003B,82,4,-0.43,1014.52,0.00,29536,31,1857,0.21,0.33,0.74,0.21,0.33,0.74,171.46,51.26,13.04,2.59,0.63,0.51,0.08,0.08,0.30,0.08,0.08,0.30,166.05,46.54,8.00,1.03,0.32,0.32
2018/07/10T01:53:02z,60:1:94:58:a0:74,2.50i,2.0+OPENLOG+15931 MB+DS3231+BME280+PMSX003A+PMSX003B,83,4,0.26,1015.48,0.00,29536,31,1937,0.21,0.07,0.20,0.21,0.07,0.20,186.85,54.80,9.59,0.28,0.28,0.51,0.08,0.29,0.29,0.08,0.29,0.29,153.95,39.66,7.53,0.89,0.32,0.32
2018/07/10T01:54:22z,60:1:94:58:a0:74,2.50i,2.0+OPENLOG+15931 MB+DS3231+BME280+PMSX003A+PMSX003B,83,4,0.26,1015.87,0.00,29616,31,2017,0.21,0.61,1.24,0.21,0.61,1.24,188.61,52.20,10.54,2.76,0.89,0.51,0.37,0.66,0.66,0.37,0.66,0.66,195.55,55.50,9.24,0.05,0.32,0.32
2018/07/10T01:55:42z,60:1:94:58:a0:74,2.50i,2.0+OPENLOG+15931 MB+DS3231+BME280+PMSX003A+PMSX003B,83,4,0.26,1015.44,0.00,30072,31,2097,0.21,0.57,0.67,0.21,0.57,0.67,150.13,42.70,9.00,0.89,0.24,0.51,0.37,0.66,0.38,0.37,0.66,0.38,129.08,35.16,4.22,0.76,0.49,0.32
2018/07/10T01:57:02z,60:1:94:58:a0:74,2.50i,2.0+OPENLOG+15931 MB+DS3231+BME280+PMSX003A+PMSX003B,83,4,0.26,1014.82,0.00,30072,31,2177,0.21,0.72,1.04,0.21,0.72,1.04,149.62,43.91,11.45,1.57,0.38,0.51,0.37,0.66,0.24,0.37,0.66,0.24,110.59,33.24,4.84,0.62,0.32,0.32
2018/07/10T01:58:22z,60:1:94:58:a0:74,2.50i,2.0+OPENLOG+15931 MB+DS3231+BME280+PMSX003A+PMSX003B,83,4,0.26,1015.27,0.00,29640,31,2257,0.21,0.38,0.38,0.21,0.38,0.38,116.74,35.02,11.62,0.26,0.38,0.51,0.37,0.08,0.16,0.37,0.08,0.16,130.11,29.24,5.21,0.45,0.37,0.32
2018/07/10T01:59:42z,60:1:94:58:a0:74,2.50i,2.0+OPENLOG+15931 MB+DS3231+BME280+PMSX003A+PMSX003B,83,4,0.26,1015.36,0.00,29616,31,2337,0.21,0.38,0.26,0.21,0.38,0.26,127.11,35.91,7.35,0.26,0.38,0.51,0.37,0.30,0.30,0.37,0.30,0.30,114.00,30.73,3.68,0.65,0.37,0.32

 ets Jan  8 2013,rst cause:1, boot mode:(3,7)

load 0x4010f000, len 1384, room 16 
tail 8
chksum 0x2d
csum 0x2d
v3de0c112
~ld


AirMonitor Ver: 2.50i
FlashChipRealSize: 2097152
69 31872 time not set:Detecting I2C...
70 31848 time not set:RETRY: Found RTC! ******************
82 31784 2018/07/10T01:59:42z:Found BME280 sensor on 0x76! ******************
3723 31504 2018/07/10T01:59:46z:EEPROM SSID: 
3725 31448 2018/07/10T01:59:46z:Device: AirMonitor_a074
3727 31448 2018/07/10T01:59:46z:MAC: 60:1:94:58:a0:74
3728 31472 2018/07/10T01:59:46z:setupWiFi Complete.
3731 31472 2018/07/10T01:59:46z:Looking for channel B
6399 31128 2018/07/10T01:59:48z:Attempt 1 took 2663ms. Found PMSX003 type sensor! ******************
6401 31344 2018/07/10T01:59:48z:Looking for channel A
2018/07/10T02:01:20z,60:1:94:58:a0:74,2.50i,2.0+OPENLOG+15931 MB+DS3231+BME280+PMSX003A+PMSX003B,81,5,3.67,1013.20,0.00,30072,31,97,0.00,0.29,0.69,0.00,0.29,0.69,130.73,36.84,8.82,1.27,0.78,0.00,0.00,0.00,0.00,0.00,0.00,0.00,71.67,17.83,3.96,0.00,0.00,0.00
2018/07/10T02:02:40z,60:1:94:58:a0:74,2.50i,2.0+OPENLOG+15931 MB+DS3231+BME280+PMSX003A+PMSX003B,82,5,4.38,1014.27,0.00,29640,31,177,0.00,0.26,0.67,0.00,0.26,0.67,107.48,32.67,8.00,1.57,1.09,0.00,0.00,0.05,0.05,0.00,0.05,0.05,113.03,33.24,4.30,0.00,0.00,0.00
2018/07/10T02:04:00z,60:1:94:58:a0:74,2.50i,2.0+OPENLOG+15931 MB+DS3231+BME280+PMSX003A+PMSX003B,82,5,4.38,1014.33,0.00,29640,31,257,0.00,0.17,0.50,0.00,0.17,0.50,93.98,28.00,6.91,1.54,1.09,0.00,0.00,0.05,0.08,0.00,0.05,0.08,93.81,27.89,5.62,0.08,0.08,0.00
2018/07/10T02:05:20z,60:1:94:58:a0:74,2.50i,2.0+OPENLOG+15931 MB+DS3231+BME280+PMSX003A+PMSX003B,81,5,3.67,1013.35,0.00,30072,31,337,0.00,0.17,0.23,0.00,0.17,0.23,109.60,32.17,9.98,1.11,0.40,0.00,0.00,0.05,0.08,0.00,0.05,0.08,100.82,28.08,3.11,0.08,0.08,0.00
2018/07/10T02:06:40z,60:1:94:58:a0:74,2.50i,2.0+OPENLOG+15931 MB+DS3231+BME280+PMSX003A+PMSX003B,83,5,5.08,1015.16,0.00,30072,31,417,0.00,0.30,0.30,0.00,0.30,0.30,97.70,28.93,8.22,0.50,0.40,0.00,0.00,0.08,0.08,0.00,0.08,0.08,104.68,28.79,7.87,0.50,0.08,0.00
2018/07/10T02:08:00z,60:1:94:58:a0:74,2.50i,2.0+OPENLOG+15931 MB+DS3231+BME280+PMSX003A+PMSX003B,83,5,5.08,1015.42,0.00,29536,31,497,0.00,0.02,0.02,0.00,0.02,0.02,112.96,32.91,6.07,0.26,0.40,0.00,0.00,0.25,0.64,0.00,0.25,0.64,140.83,37.97,7.25,1.31,0.31,0.31
2018/07/10T02:09:20z,60:1:94:58:a0:74,2.50i,2.0+OPENLOG+15931 MB+DS3231+BME280+PMSX003A+PMSX003B,83,5,5.08,1015.59,0.00,29640,31,577,0.00,0.46,0.48,0.00,0.46,0.48,111.72,32.35,9.13,0.83,0.40,0.00,0.00,0.25,0.64,0.00,0.25,0.64,113.13,26.00,7.79,0.18,0.31,0.31
2018/07/10T02:10:40z,60:1:94:58:a0:74,2.50i,2.0+OPENLOG+15931 MB+DS3231+BME280+PMSX003A+PMSX003B,80,4,-1.81,1012.83,0.00,29616,31,657,0.00,0.46,0.27,0.00,0.46,0.27,70.00,19.60,3.49,0.33,0.33,0.00,0.00,0.25,0.30,0.00,0.25,0.30,70.54,19.81,5.54,0.30,0.30,0.30
2018/07/10T02:12:00z,60:1:94:58:a0:74,2.50i,2.0+OPENLOG+15931 MB+DS3231+BME280+PMSX003A+PMSX003B,83,2,-14.02,1015.64,0.00,30072,31,737,0.00,0.46,0.27,0.00,0.46,0.27,25.50,7.67,3.57,0.33,0.33,0.00,0.00,0.25,0.30,0.00,0.25,0.30,30.57,9.89,2.22,0.30,0.30,0.30
2018/07/10T02:13:20z,60:1:94:58:a0:74,2.50i,2.0+OPENLOG+15931 MB+DS3231+BME280+PMSX003A+PMSX003B,83,2,-14.02,1015.62,0.00,30072,31,817,0.00,0.46,0.27,0.00,0.46,0.27,32.04,9.02,3.21,0.33,0.33,0.00,0.00,0.25,0.30,0.00,0.25,0.30,14.84,4.00,0.39,0.30,0.30,0.30
2018/07/10T02:14:40z,60:1:94:58:a0:74,2.50i,2.0+OPENLOG+15931 MB+DS3231+BME280+PMSX003A+PMSX003B,83,1,-27.32,1015.59,0.00,29536,31,897,0.00,0.46,0.27,0.00,0.46,0.27,15.83,4.66,2.77,0.55,0.30,0.00,0.00,0.25,0.30,0.00,0.25,0.30,12.79,3.05,0.37,0.30,0.30,0.30
2018/07/10T02:16:00z,60:1:94:58:a0:74,2.50i,2.0+OPENLOG+15931 MB+DS3231+BME280+PMSX003A+PMSX003B,82,1,-27.92,1015.29,0.00,29616,31,977,0.00,0.46,0.27,0.00,0.46,0.27,13.34,4.06,1.21,0.40,0.40,0.00,0.00,0.25,0.30,0.00,0.25,0.30,4.03,1.34,0.37,0.30,0.30,0.30
2018/07/10T02:17:20z,60:1:94:58:a0:74,2.50i,2.0+OPENLOG+15931 MB+DS3231+BME280+PMSX003A+PMSX003B,83,1,-27.32,1015.58,0.00,30072,31,1057,0.00,0.46,0.27,0.00,0.46,0.27,8.93,1.63,1.21,0.40,0.40,0.00,0.00,0.25,0.30,0.00,0.25,0.30,4.03,1.34,0.37,0.30,0.30,0.30
2018/07/10T02:18:40z,60:1:94:58:a0:74,2.50i,2.0+OPENLOG+15931 MB+DS3231+BME280+PMSX003A+PMSX003B,83,0,nan,1015.58,0.00,30072,31,1137,0.00,0.46,0.27,0.00,0.46,0.27,1.63,0.54,1.21,0.40,0.40,0.00,0.00,0.25,0.30,0.00,0.25,0.30,2.68,0.84,0.82,0.30,0.30,0.30
2018/07/10T02:20:00z,60:1:94:58:a0:74,2.50i,2.0+OPENLOG+15931 MB+DS3231+BME280+PMSX003A+PMSX003B,83,0,nan,1015.63,0.00,29640,31,1217,0.00,0.46,0.27,0.00,0.46,0.27,1.50,0.50,0.24,0.40,0.40,0.00,0.00,0.25,0.30,0.00,0.25,0.30,9.32,3.00,0.51,0.30,0.30,0.30
2018/07/10T02:21:20z,60:1:94:58:a0:74,2.50i,2.0+OPENLOG+15931 MB+DS3231+BME280+PMSX003A+PMSX003B,83,0,nan,1015.98,0.00,29640,31,1297,0.00,0.46,0.27,0.00,0.46,0.27,3.91,1.00,0.61,0.30,0.40,0.00,0.00,0.25,0.30,0.00,0.25,0.30,17.92,5.97,1.81,0.30,0.30,0.30
2018/07/10T02:22:40z,60:1:94:58:a0:74,2.50i,2.0+OPENLOG+15931 MB+DS3231+BME280+PMSX003A+PMSX003B,83,0,nan,1015.67,0.00,30072,31,1377,0.00,0.46,0.27,0.00,0.46,0.27,4.15,0.53,0.61,0.30,0.40,0.00,0.00,0.25,0.30,0.00,0.25,0.30,2.11,0.35,0.35,0.35,0.30,0.30
2018/07/10T02:24:00z,60:1:94:58:a0:74,2.50i,2.0+OPENLOG+15931 MB+DS3231+BME280+PMSX003A+PMSX003B,83,0,nan,1015.63,0.00,30072,31,1457,0.00,0.46,0.27,0.00,0.46,0.27,7.83,1.52,0.39,0.30,0.40,0.00,0.00,0.25,0.30,0.00,0.25,0.30,1.74,0.53,0.35,0.35,0.30,0.30
2018/07/10T02:25:20z,60:1:94:58:a0:74,2.50i,2.0+OPENLOG+15931 MB+DS3231+BME280+PMSX003A+PMSX003B,82,0,nan,1014.72,0.00,29536,31,1537,0.00,0.46,0.27,0.00,0.46,0.27,6.89,2.30,0.39,0.30,0.40,0.00,0.00,0.25,0.30,0.00,0.25,0.30,2.27,0.41,0.35,0.35,0.30,0.30
2018/07/10T02:26:40z,60:1:94:58:a0:74,2.50i,2.0+OPENLOG+15931 MB+DS3231+BME280+PMSX003A+PMSX003B,83,1,-27.32,1015.23,0.00,29640,31,1617,0.00,0.46,0.27,0.00,0.46,0.27,38.28,7.02,0.65,0.04,0.04,0.00,0.00,0.25,0.30,0.00,0.25,0.30,3.89,0.70,0.35,0.35,0.30,0.30
