Instrument Name,DustTrak DRX
Model Number,8533
Serial Number,8533103401
Firmware Version,3.5
Calibration Date,06/27/2017
Test Name,MANUAL_006
Test Start Time,14:40:40
Test Start Date,07/02/2018
Test Length [D:H:M],0:1:16
Test Interval [M:S],1:0
PM1 Average [mg/m3],0.176
PM1 Minimum [mg/m3],0.000
PM1 Maximum [mg/m3],2.90
PM1 TWA [mg/m3],0.028
PM2.5 Average [mg/m3],0.192
PM2.5 Minimum [mg/m3],0.000
PM2.5 Maximum [mg/m3],3.26
PM2.5 TWA [mg/m3],0.030
PM4 Average [mg/m3],0.208
PM4 Minimum [mg/m3],0.000
PM4 Maximum [mg/m3],3.64
PM4 TWA [mg/m3],0.033
PM10 Average [mg/m3],0.210
PM10 Minimum [mg/m3],0.000
PM10 Maximum [mg/m3],3.70
PM10 TWA [mg/m3],0.033
TOTAL Average [mg/m3],0.211
TOTAL Minimum [mg/m3],0.000
TOTAL Maximum [mg/m3],3.70
TOTAL TWA [mg/m3],0.033
Photometric User Cal,1.00
Size Correction User Cal,1.00
Flow User Cal,0.00
Errors,
Number of Samples,76

Elapsed Time [s],PM1 [mg/m3],PM2.5 [mg/m3],PM4 [mg/m3],PM10 [mg/m3],TOTAL [mg/m3],Alarms,Errors
60,1.05,1.17,1.34,1.38,1.39,,
120,2.90,3.26,3.64,3.70,3.70,,
180,2.52,2.80,3.07,3.10,3.11,,
240,1.61,1.76,1.91,1.92,1.92,,
300,1.03,1.11,1.19,1.20,1.20,,
360,0.705,0.752,0.805,0.810,0.810,,
420,0.451,0.477,0.508,0.511,0.511,,
480,0.296,0.312,0.331,0.332,0.332,,
540,0.195,0.205,0.217,0.218,0.218,,
600,0.188,0.197,0.208,0.209,0.209,,
660,0.171,0.179,0.188,0.188,0.188,,
720,0.157,0.164,0.172,0.173,0.173,,
780,0.147,0.153,0.160,0.161,0.161,,
840,0.135,0.140,0.146,0.146,0.146,,
900,0.127,0.132,0.136,0.137,0.137,,
960,0.117,0.121,0.125,0.126,0.126,,
1020,0.110,0.113,0.117,0.117,0.117,,
1080,0.102,0.106,0.109,0.109,0.109,,
1140,0.094,0.097,0.099,0.099,0.099,,
1200,0.087,0.090,0.092,0.092,0.092,,
1260,0.082,0.084,0.086,0.086,0.086,,
1320,0.076,0.078,0.079,0.079,0.079,,
1380,0.071,0.073,0.074,0.074,0.074,,
1440,0.066,0.067,0.069,0.069,0.069,,
1500,0.061,0.063,0.064,0.064,0.064,,
1560,0.058,0.059,0.060,0.060,0.060,,
1620,0.053,0.054,0.056,0.056,0.056,,
1680,0.050,0.051,0.052,0.052,0.052,,
1740,0.047,0.048,0.048,0.049,0.049,,
1800,0.044,0.044,0.045,0.045,0.045,,
1860,0.041,0.042,0.042,0.042,0.042,,
1920,0.038,0.039,0.040,0.040,0.040,,
1980,0.036,0.037,0.037,0.037,0.037,,
2040,0.034,0.034,0.035,0.035,0.035,,
2100,0.031,0.032,0.032,0.032,0.032,,
2160,0.029,0.030,0.030,0.030,0.030,,
2220,0.028,0.028,0.029,0.029,0.029,,
2280,0.026,0.026,0.027,0.027,0.027,,
2340,0.024,0.025,0.025,0.025,0.025,,
2400,0.023,0.023,0.023,0.023,0.023,,
2460,0.022,0.022,0.022,0.022,0.022,,
2520,0.020,0.020,0.020,0.020,0.020,,
2580,0.019,0.019,0.019,0.019,0.019,,
2640,0.018,0.018,0.018,0.018,0.018,,
2700,0.017,0.017,0.017,0.017,0.017,,
2760,0.016,0.016,0.016,0.016,0.016,,
2820,0.015,0.015,0.015,0.015,0.015,,
2880,0.014,0.014,0.014,0.014,0.014,,
2940,0.013,0.013,0.013,0.013,0.013,,
3000,0.012,0.012,0.012,0.012,0.012,,
3060,0.011,0.011,0.012,0.012,0.012,,
3120,0.011,0.011,0.011,0.011,0.011,,
3180,0.010,0.010,0.010,0.010,0.010,,
3240,0.010,0.010,0.010,0.010,0.010,,
3300,0.009,0.009,0.009,0.009,0.009,,
3360,0.009,0.009,0.009,0.009,0.009,,
3420,0.008,0.008,0.008,0.008,0.008,,
3480,0.008,0.008,0.008,0.008,0.008,,
3540,0.007,0.007,0.007,0.007,0.007,,
3600,0.007,0.007,0.007,0.007,0.007,,
3660,0.006,0.006,0.006,0.006,0.006,,
3720,0.006,0.006,0.006,0.006,0.006,,
3780,0.006,0.006,0.006,0.006,0.006,,
3840,0.005,0.005,0.005,0.005,0.005,,
3900,0.005,0.005,0.005,0.005,0.005,,
3960,0.003,0.003,0.003,0.003,0.003,,
4020,0.002,0.002,0.002,0.002,0.002,,
4080,0.001,0.001,0.001,0.001,0.001,,
4140,0.001,0.001,0.001,0.001,0.001,,
4200,0.001,0.001,0.001,0.001,0.001,,
4260,0.001,0.001,0.001,0.001,0.001,,
4320,0.000,0.000,0.000,0.000,0.000,,
4380,0.000,0.000,0.000,0.000,0.000,,
4440,0.000,0.000,0.000,0.000,0.000,,
4500,0.000,0.000,0.000,0.000,0.000,,
4560,0.000,0.000,0.000,0.000,0.000,,
