UTCDateTime,mac_address,firmware_ver,hardware,current_temp_f,current_humidity,current_dewpoint_f,pressure,adc,mem,rssi,uptime,pm1_0_atm,pm2_5_atm,pm10_0_atm,pm1_0_cf_1,pm2_5_cf_1,pm10_0_cf_1,p_0_3_um,p_0_5_um,p_1_0_um,p_2_5_um,p_5_0_um,p_10_0_um,pm1_0_atm_b,pm2_5_atm_b,pm10_0_atm_b,pm1_0_cf_1_b,pm2_5_cf_1_b,pm10_0_cf_1_b,p_0_3_um_b,p_0_5_um_b,p_1_0_um_b,p_2_5_um_b,p_5_0_um_b,p_10_0_um_b
2018/06/06T21:17:19z,2c:3a:e8:34:ff:c7,2.50i,2.0+OPENLOG+15833 MB+DS3231+BME280+PMSX003A+PMSX003B,72,38,45.01,1005.68,0.00,29672,31,23,0.00,0.00,0.00,0.00,0.00,0.00,0.00,0.00,0.00,0.00,0.00,0.00,0.00,0.00,0.00,0.00,0.00,0.00,0.00,0.00,0.00,0.00,0.00,0.00
2018/06/06T21:18:33z,2c:3a:e8:34:ff:c7,2.50i,2.0+OPENLOG+15833 MB+DS3231+BME280+PMSX003A+PMSX003B,73,37,45.19,1005.62,0.00,29944,31,97,1.90,2.27,2.27,1.90,2.27,2.27,450.51,141.54,11.00,0.00,0.00,0.00,2.00,3.15,3.15,2.00,3.15,3.15,501.91,141.36,16.70,1.55,0.00,0.00
2018/06/06T21:19:53z,2c:3a:e8:34:ff:c7,2.50i,2.0+OPENLOG+15833 MB+DS3231+BME280+PMSX003A+PMSX003B,73,36,44.47,1005.08,0.00,29944,31,177,2.40,3.00,3.27,2.40,3.00,3.27,526.53,156.96,22.36,0.36,0.00,0.00,2.74,3.21,3.21,2.74,3.21,3.21,582.55,164.13,15.92,0.97,0.00,0.00
2018/06/06T21:21:13z,2c:3a:e8:34:ff:c7,2.50i,2.0+OPENLOG+15833 MB+DS3231+BME280+PMSX003A+PMSX003B,74,36,45.36,1005.41,0.00,30128,31,257,2.74,3.15,3.62,2.74,3.15,3.62,592.53,174.55,14.85,0.70,0.70,0.00,2.62,3.11,3.11,2.62,3.11,3.11,594.16,163.43,16.57,1.46,0.00,0.00
2018/06/06T21:22:33z,2c:3a:e8:34:ff:c7,2.50i,2.0+OPENLOG+15833 MB+DS3231+BME280+PMSX003A+PMSX003B,74,35,44.62,1005.20,0.00,29696,31,337,2.41,2.93,3.28,2.41,2.93,3.28,536.15,162.13,16.22,0.87,0.63,0.00,1.89,2.68,2.68,1.89,2.68,2.68,546.97,154.59,16.57,0.57,0.00,0.00
2018/06/06T21:23:53z,2c:3a:e8:34:ff:c7,2.50i,2.0+OPENLOG+15833 MB+DS3231+BME280+PMSX003A+PMSX003B,75,34,44.73,1005.48,0.00,29512,31,417,2.37,3.00,3.00,2.37,3.00,3.00,529.11,160.65,13.02,0.24,0.63,0.00,1.67,2.21,2.51,1.67,2.21,2.51,575.46,158.03,18.10,0.90,0.36,0.00
2018/06/06T21:25:13z,2c:3a:e8:34:ff:c7,2.50i,2.0+OPENLOG+15833 MB+DS3231+BME280+PMSX003A+PMSX003B,76,33,44.83,1005.45,0.00,30128,31,497,2.55,3.55,3.87,2.55,3.55,3.87,573.51,173.45,22.47,1.00,0.38,0.38,1.27,2.38,2.38,1.27,2.38,2.38,585.65,158.03,23.19,1.11,0.36,0.00
2018/06/06T21:26:33z,2c:3a:e8:34:ff:c7,2.50i,2.0+OPENLOG+15833 MB+DS3231+BME280+PMSX003A+PMSX003B,76,34,45.61,1009.54,0.00,30128,31,577,386.71,491.18,518.31,257.06,326.73,344.94,54467.47,17487.86,2661.63,109.12,34.27,0.18,376.95,479.48,499.60,250.55,319.20,332.55,56143.95,17152.82,2542.90,126.60,21.02,0.00
2018/06/06T21:27:53z,2c:3a:e8:34:ff:c7,2.50i,2.0+OPENLOG+15833 MB+DS3231+BME280+PMSX003A+PMSX003B,77,30,43.20,1009.28,0.00,29592,31,657,363.94,462.71,487.81,241.85,307.67,324.54,53229.44,16781.94,2432.48,109.37,31.87,0.33,354.03,453.64,469.77,235.23,301.46,312.41,53715.62,16222.03,2412.26,126.41,17.72,0.10
2018/06/06T21:29:13z,2c:3a:e8:34:ff:c7,2.50i,2.0+OPENLOG+15833 MB+DS3231+BME280+PMSX003A+PMSX003B,77,25,38.49,1009.17,0.00,29592,31,737,252.94,314.19,328.48,167.81,208.75,218.35,38571.37,11993.94,1450.19,67.56,14.54,0.33,250.21,312.13,326.63,166.08,207.32,217.16,39487.58,11669.42,1545.03,91.71,18.13,1.16
2018/06/06T21:30:33z,2c:3a:e8:34:ff:c7,2.50i,2.0+OPENLOG+15833 MB+DS3231+BME280+PMSX003A+PMSX003B,77,22,35.24,1005.16,0.00,29944,31,817,175.40,218.60,229.53,116.11,144.84,152.13,27438.67,8467.71,1014.09,50.69,14.20,1.36,164.70,208.51,216.97,108.97,138.03,143.76,27090.08,7882.51,1002.97,59.86,11.11,1.16
2018/06/06T21:31:53z,2c:3a:e8:34:ff:c7,2.50i,2.0+OPENLOG+15833 MB+DS3231+BME280+PMSX003A+PMSX003B,77,21,34.08,1005.38,0.00,30128,31,897,158.27,198.20,208.67,104.56,131.22,138.24,24731.07,7625.09,947.24,47.73,12.09,0.62,154.78,198.14,209.36,102.44,131.25,138.69,25352.83,7388.86,948.31,73.11,13.67,0.47
2018/06/06T21:33:13z,2c:3a:e8:34:ff:c7,2.50i,2.0+OPENLOG+15833 MB+DS3231+BME280+PMSX003A+PMSX003B,78,20,33.68,1005.33,0.00,30128,31,977,155.85,200.60,221.74,103.26,132.91,147.17,24325.40,7520.72,1046.28,74.11,27.49,1.28,159.34,203.37,216.34,105.53,134.76,143.53,25807.89,7523.34,1018.87,80.29,15.34,0.47
2018/06/06T21:34:33z,2c:3a:e8:34:ff:c7,2.50i,2.0+OPENLOG+15833 MB+DS3231+BME280+PMSX003A+PMSX003B,78,20,33.68,1005.33,0.00,29592,31,1057,150.76,200.02,219.63,99.85,132.76,145.85,23627.02,7333.96,1061.57,81.61,25.02,1.26,151.47,200.61,214.83,100.14,132.92,142.44,24801.83,7229.50,1077.83,87.53,17.08,0.47
2018/06/06T21:35:53z,2c:3a:e8:34:ff:c7,2.50i,2.0+OPENLOG+15833 MB+DS3231+BME280+PMSX003A+PMSX003B,78,20,33.68,1005.34,0.00,29672,31,1137,147.46,198.20,222.96,97.39,131.13,147.83,23285.28,7194.26,1120.65,87.67,32.35,0.91,146.39,198.00,209.42,96.89,131.21,138.76,23967.79,7043.53,1062.97,89.53,14.84,0.47
2018/06/06T21:37:13z,2c:3a:e8:34:ff:c7,2.50i,2.0+OPENLOG+15833 MB+DS3231+BME280+PMSX003A+PMSX003B,79,20,34.51,1005.40,0.00,30128,31,1217,142.96,195.96,221.44,94.64,129.78,146.60,22540.27,7001.80,1119.98,97.62,31.87,0.64,140.72,195.18,210.10,93.23,129.36,139.44,23137.38,6788.05,1073.44,104.51,17.36,0.85
2018/06/06T21:38:33z,2c:3a:e8:34:ff:c7,2.50i,2.0+OPENLOG+15833 MB+DS3231+BME280+PMSX003A+PMSX003B,79,19,33.22,1005.35,0.00,30128,31,1297,135.86,186.48,209.09,89.80,123.50,138.64,21525.34,6657.98,1096.52,89.00,25.25,0.45,133.53,186.33,202.78,88.17,123.25,134.39,22206.75,6474.14,1047.36,103.31,20.72,0.28
2018/06/06T21:39:53z,2c:3a:e8:34:ff:c7,2.50i,2.0+OPENLOG+15833 MB+DS3231+BME280+PMSX003A+PMSX003B,79,19,33.22,1005.29,0.00,29696,31,1377,130.94,179.66,203.53,86.55,118.85,134.89,20667.57,6376.72,1023.45,91.91,31.45,0.72,130.14,181.57,194.86,86.03,120.20,129.11,21242.74,6246.91,1041.74,93.43,15.91,0.17
2018/06/06T21:41:13z,2c:3a:e8:34:ff:c7,2.50i,2.0+OPENLOG+15833 MB+DS3231+BME280+PMSX003A+PMSX003B,79,19,33.22,1005.12,0.00,29672,31,1457,129.61,178.30,206.48,85.59,118.14,136.75,20314.91,6302.80,1082.45,95.36,41.68,1.59,125.57,174.59,190.03,82.84,115.70,126.05,20558.27,6043.73,1011.14,93.32,16.65,0.38
2018/06/06T21:42:33z,2c:3a:e8:34:ff:c7,2.50i,2.0+OPENLOG+15833 MB+DS3231+BME280+PMSX003A+PMSX003B,79,19,33.22,1005.22,0.00,30128,31,1537,121.07,169.89,196.84,79.98,112.52,130.52,19191.54,5963.45,991.98,96.64,34.82,1.18,118.89,168.63,179.95,78.37,111.71,119.18,19864.11,5805.66,995.63,78.87,12.24,0.29
2018/06/06T21:43:53z,2c:3a:e8:34:ff:c7,2.50i,2.0+OPENLOG+15833 MB+DS3231+BME280+PMSX003A+PMSX003B,80,19,34.04,1005.23,0.00,30128,31,1617,115.49,163.73,190.58,76.36,108.36,126.27,18566.93,5734.60,979.38,98.60,36.82,1.00,115.11,164.42,179.42,76.11,108.86,118.94,19201.67,5605.42,971.75,95.31,18.81,1.03
2018/06/06T21:45:13z,2c:3a:e8:34:ff:c7,2.50i,2.0+OPENLOG+15833 MB+DS3231+BME280+PMSX003A+PMSX003B,80,19,34.04,1005.14,0.00,29696,31,1697,109.89,154.84,176.51,72.60,102.60,117.04,17597.00,5455.53,922.76,79.73,27.27,1.47,111.82,157.42,170.16,73.84,104.16,112.66,18544.11,5434.82,913.05,81.89,14.32,0.18
2018/06/06T21:46:33z,2c:3a:e8:34:ff:c7,2.50i,2.0+OPENLOG+15833 MB+DS3231+BME280+PMSX003A+PMSX003B,80,19,34.04,1005.11,0.00,29696,31,1777,104.46,151.96,169.15,68.74,100.50,111.96,16822.50,5206.65,934.91,79.26,22.20,0.30,103.49,148.86,162.27,68.19,98.46,107.49,17298.16,5050.51,873.62,85.86,18.11,0.68
2018/06/06T21:47:53z,2c:3a:e8:34:ff:c7,2.50i,2.0+OPENLOG+15833 MB+DS3231+BME280+PMSX003A+PMSX003B,80,19,34.04,1005.18,0.00,30128,31,1857,100.82,145.80,169.52,66.59,96.39,112.30,16240.98,5023.86,886.27,84.18,33.70,1.16,101.42,145.05,160.03,66.79,96.00,105.84,16881.00,4937.08,858.74,92.79,16.87,0.34
2018/06/06T21:49:13z,2c:3a:e8:34:ff:c7,2.50i,2.0+OPENLOG+15833 MB+DS3231+BME280+PMSX003A+PMSX003B,80,19,34.04,1005.23,0.00,30128,31,1937,96.70,138.91,162.11,63.63,91.89,107.15,15510.52,4814.11,852.63,87.74,30.80,1.07,96.28,139.86,153.08,63.17,92.31,101.06,16147.42,4726.94,836.28,86.19,14.00,1.03
2018/06/06T21:50:33z,2c:3a:e8:34:ff:c7,2.50i,2.0+OPENLOG+15833 MB+DS3231+BME280+PMSX003A+PMSX003B,80,19,34.04,1004.83,0.00,29848,31,2017,92.59,135.89,155.32,61.11,89.84,102.70,14904.41,4630.18,830.59,79.91,24.68,0.70,92.03,135.06,145.89,60.43,89.29,96.37,15427.03,4500.06,822.31,82.17,11.54,0.26
2018/06/06T21:51:53z,2c:3a:e8:34:ff:c7,2.50i,2.0+OPENLOG+15833 MB+DS3231+BME280+PMSX003A+PMSX003B,81,19,34.86,1005.23,0.00,29696,31,2097,88.07,126.46,149.67,57.85,83.50,98.91,14292.91,4431.28,781.91,78.78,32.13,0.59,89.56,128.61,139.86,59.08,84.97,92.44,14884.33,4374.17,777.00,72.03,12.61,0.33
2018/06/06T21:53:13z,2c:3a:e8:34:ff:c7,2.50i,2.0+OPENLOG+15833 MB+DS3231+BME280+PMSX003A+PMSX003B,81,19,34.86,1005.23,0.00,30128,31,2177,87.26,125.63,143.91,57.26,82.85,95.00,14066.93,4352.63,782.37,70.72,23.50,0.59,83.43,123.49,135.06,54.83,81.46,89.40,14118.43,4126.91,722.06,79.06,14.94,0.33
2018/06/06T21:54:33z,2c:3a:e8:34:ff:c7,2.50i,2.0+OPENLOG+15833 MB+DS3231+BME280+PMSX003A+PMSX003B,81,19,34.86,1005.20,0.00,30128,31,2257,80.86,119.07,140.52,53.16,78.61,92.98,13093.36,4062.86,756.30,80.07,26.77,0.75,80.00,117.37,129.80,52.71,77.51,85.94,13438.03,3915.86,742.14,74.54,16.66,0.33
2018/06/06T21:56:17z,2c:3a:e8:34:ff:c7,2.50i,2.0+OPENLOG+15833 MB+DS3231+BME280+PMSX003A+PMSX003B,81,19,34.86,1004.83,0.00,30128,31,23,53.00,71.00,100.00,35.00,50.00,73.00,0.00,0.00,0.00,0.00,0.00,0.00,64.00,91.00,107.00,42.00,60.00,75.00,0.00,0.00,0.00,0.00,0.00,0.00
2018/06/06T21:57:31z,2c:3a:e8:34:ff:c7,2.50i,2.0+OPENLOG+15833 MB+DS3231+BME280+PMSX003A+PMSX003B,81,19,34.86,1004.97,0.00,29672,31,97,74.67,109.46,124.51,48.85,72.05,82.95,11628.23,3603.15,652.08,63.64,19.03,1.15,73.80,110.14,118.57,48.34,72.51,79.17,12518.74,3662.40,680.11,67.26,10.91,0.23
2018/06/06T21:58:51z,2c:3a:e8:34:ff:c7,2.50i,2.0+OPENLOG+15833 MB+DS3231+BME280+PMSX003A+PMSX003B,81,19,34.86,1005.16,0.00,30128,31,177,69.41,105.85,123.39,45.59,69.76,81.65,11419.96,3533.43,699.11,67.20,24.20,0.89,70.17,106.33,117.86,45.94,69.81,78.69,12185.83,3561.00,664.44,68.25,13.47,0.56
2018/06/06T22:00:11z,2c:3a:e8:34:ff:c7,2.50i,2.0+OPENLOG+15833 MB+DS3231+BME280+PMSX003A+PMSX003B,81,19,34.86,1005.11,0.00,30128,31,257,67.44,100.78,120.67,44.24,66.38,80.42,11061.40,3432.02,655.64,72.02,28.36,0.36,68.29,102.09,112.89,44.83,67.34,77.23,11613.17,3387.83,639.34,67.97,13.54,0.80
2018/06/06T22:01:31z,2c:3a:e8:34:ff:c7,2.50i,2.0+OPENLOG+15833 MB+DS3231+BME280+PMSX003A+PMSX003B,82,19,35.68,1005.19,0.00,29592,31,337,65.93,98.44,117.44,43.24,64.89,78.40,10796.87,3349.91,659.24,66.11,26.58,0.67,64.64,96.22,104.81,42.14,63.25,73.92,11042.75,3205.17,599.58,61.08,9.75,0.11
2018/06/06T22:02:51z,2c:3a:e8:34:ff:c7,2.50i,2.0+OPENLOG+15833 MB+DS3231+BME280+PMSX003A+PMSX003B,82,19,35.68,1005.06,0.00,29672,31,417,63.38,95.82,110.84,41.60,63.16,76.40,10279.33,3192.76,625.60,61.49,16.29,0.60,64.54,96.43,105.41,42.35,63.70,74.84,10979.27,3203.43,601.62,59.76,9.92,0.32
2018/06/06T22:04:11z,2c:3a:e8:34:ff:c7,2.50i,2.0+OPENLOG+15833 MB+DS3231+BME280+PMSX003A+PMSX003B,82,19,35.68,1005.06,0.00,30128,31,497,61.87,92.20,111.27,40.49,60.80,76.78,10100.07,3116.40,604.69,72.96,22.49,0.24,59.47,89.82,101.26,38.74,59.05,72.89,10157.29,2965.84,539.05,71.95,13.53,0.13
2018/06/06T22:05:31z,2c:3a:e8:34:ff:c7,2.50i,2.0+OPENLOG+15833 MB+DS3231+BME280+PMSX003A+PMSX003B,82,19,35.68,1005.02,0.00,30128,31,577,57.22,85.78,102.93,37.28,56.33,73.46,9461.02,2916.50,555.85,63.24,25.83,0.11,57.38,86.00,94.79,37.59,56.69,70.64,9691.69,2838.67,551.92,56.77,8.95,0.38
2018/06/06T22:06:51z,2c:3a:e8:34:ff:c7,2.50i,2.0+OPENLOG+15833 MB+DS3231+BME280+PMSX003A+PMSX003B,82,19,35.68,1005.10,0.00,29592,31,657,55.36,85.57,101.77,36.20,56.41,73.30,9142.36,2834.09,552.86,64.64,23.25,0.14,56.68,83.08,94.16,37.08,54.76,70.51,9588.24,2806.49,537.84,54.03,12.78,0.49
2018/06/06T22:08:11z,2c:3a:e8:34:ff:c7,2.50i,2.0+OPENLOG+15833 MB+DS3231+BME280+PMSX003A+PMSX003B,82,19,35.68,1005.08,0.00,29696,31,737,53.67,82.40,98.87,35.22,54.38,72.07,8900.27,2770.24,543.82,56.18,24.44,0.36,52.73,81.16,89.43,34.86,53.51,68.22,8979.00,2637.76,526.30,54.11,8.54,0.30
2018/06/06T22:09:31z,2c:3a:e8:34:ff:c7,2.50i,2.0+OPENLOG+15833 MB+DS3231+BME280+PMSX003A+PMSX003B,82,19,35.68,1004.90,0.00,30128,31,817,51.52,77.37,90.96,34.30,51.91,68.85,8400.13,2603.26,494.48,51.39,19.28,1.00,51.05,79.18,86.76,33.95,52.63,67.11,8814.32,2567.95,488.84,58.92,10.32,0.29
2018/06/06T22:10:51z,2c:3a:e8:34:ff:c7,2.50i,2.0+OPENLOG+15833 MB+DS3231+BME280+PMSX003A+PMSX003B,82,19,35.68,1005.11,0.00,30128,31,897,49.74,74.91,90.09,33.65,51.22,68.74,8167.11,2533.48,504.41,52.61,19.07,1.35,48.43,72.95,80.86,33.51,50.65,64.59,8305.78,2395.08,481.49,47.84,8.32,0.29
2018/06/06T22:12:11z,2c:3a:e8:34:ff:c7,2.50i,2.0+OPENLOG+15833 MB+DS3231+BME280+PMSX003A+PMSX003B,82,19,35.68,1005.10,0.00,29664,31,977,48.26,72.77,83.23,33.23,50.53,65.85,7849.21,2434.23,466.38,45.30,14.38,0.45,47.43,74.03,81.11,32.97,50.76,64.62,8192.27,2377.11,471.16,54.49,9.24,0.27
2018/06/06T22:13:31z,2c:3a:e8:34:ff:c7,2.50i,2.0+OPENLOG+15833 MB+DS3231+BME280+PMSX003A+PMSX003B,82,19,35.68,1004.93,0.00,29592,31,1057,44.80,67.60,80.02,32.11,48.64,64.18,7376.00,2285.89,438.69,45.04,16.71,0.45,45.84,69.35,75.24,32.27,49.03,61.84,7895.19,2309.78,435.54,40.95,6.65,0.24
2018/06/06T22:14:51z,2c:3a:e8:34:ff:c7,2.50i,2.0+OPENLOG+15833 MB+DS3231+BME280+PMSX003A+PMSX003B,82,19,35.68,1005.01,0.00,29672,31,1137,43.38,66.93,80.27,31.47,48.31,64.44,7189.67,2224.07,452.78,49.20,18.24,0.80,42.89,64.00,70.00,31.08,47.00,59.24,7457.43,2172.81,386.76,41.24,6.05,0.24
2018/06/06T22:16:11z,2c:3a:e8:34:ff:c7,2.50i,2.0+OPENLOG+15833 MB+DS3231+BME280+PMSX003A+PMSX003B,82,19,35.68,1004.91,0.00,30128,31,1217,40.65,64.28,76.30,30.30,47.26,62.35,6881.41,2122.02,429.11,47.93,15.39,1.35,40.94,62.61,70.22,30.61,46.44,59.47,7051.92,2061.31,409.69,43.81,9.11,0.24
2018/06/06T22:17:31z,2c:3a:e8:34:ff:c7,2.50i,2.0+OPENLOG+15833 MB+DS3231+BME280+PMSX003A+PMSX003B,83,19,36.50,1004.98,0.00,30128,31,1297,40.18,63.11,73.04,30.02,46.64,60.80,6795.13,2101.84,409.69,44.73,13.91,0.29,39.54,59.78,67.76,29.65,45.22,58.05,6976.62,2024.08,398.78,42.08,10.32,0.05
2018/06/06T22:18:51z,2c:3a:e8:34:ff:c7,2.50i,2.0+OPENLOG+15833 MB+DS3231+BME280+PMSX003A+PMSX003B,83,19,36.50,1004.85,0.00,29592,31,1377,38.39,61.39,73.04,29.39,46.09,61.07,6434.74,1994.04,417.15,46.07,15.83,0.63,37.53,58.67,65.67,28.86,44.83,57.00,6583.00,1921.89,383.64,43.97,9.19,0.06
2018/06/06T22:20:11z,2c:3a:e8:34:ff:c7,2.50i,2.0+OPENLOG+15833 MB+DS3231+BME280+PMSX003A+PMSX003B,83,19,36.50,1004.93,0.00,29488,31,1457,37.36,57.09,69.25,28.89,44.43,59.00,6207.68,1923.43,381.11,41.91,14.05,0.23,37.14,59.06,63.81,28.92,45.25,56.11,6485.33,1890.58,373.28,40.53,4.94,0.22
2018/06/06T22:21:31z,2c:3a:e8:34:ff:c7,2.50i,2.0+OPENLOG+15833 MB+DS3231+BME280+PMSX003A+PMSX003B,83,19,36.50,1004.95,0.00,30128,31,1537,34.02,53.50,63.74,27.33,42.57,56.00,5811.72,1795.70,351.70,41.24,14.24,0.15,35.67,55.75,62.14,28.22,43.69,55.08,6207.00,1810.58,362.94,44.42,8.58,0.44
2018/06/06T22:22:51z,2c:3a:e8:34:ff:c7,2.50i,2.0+OPENLOG+15833 MB+DS3231+BME280+PMSX003A+PMSX003B,82,19,35.68,1004.50,0.00,30128,31,1617,35.49,54.34,63.79,28.23,43.26,56.09,5842.98,1810.85,356.49,36.70,13.34,0.96,34.97,54.22,61.00,27.68,42.95,54.38,6107.03,1786.00,355.62,39.68,8.81,0.44
2018/06/06T22:24:11z,2c:3a:e8:34:ff:c7,2.50i,2.0+OPENLOG+15833 MB+DS3231+BME280+PMSX003A+PMSX003B,83,19,36.50,1004.73,0.00,29696,31,1697,32.69,52.07,62.20,27.02,42.09,55.22,5544.67,1711.11,361.13,39.76,12.58,0.51,32.71,50.79,56.58,27.11,41.58,51.84,5737.89,1682.74,320.21,33.79,7.45,0.44
2018/06/06T22:25:31z,2c:3a:e8:34:ff:c7,2.50i,2.0+OPENLOG+15833 MB+DS3231+BME280+PMSX003A+PMSX003B,83,19,36.50,1004.74,0.00,29696,31,1777,30.61,46.66,55.68,25.95,39.41,51.32,5142.55,1593.23,302.91,32.75,10.57,0.51,32.25,49.78,54.89,26.56,40.86,50.78,5631.50,1634.56,330.47,33.50,6.17,0.14
2018/06/06T22:26:51z,2c:3a:e8:34:ff:c7,2.50i,2.0+OPENLOG+15833 MB+DS3231+BME280+PMSX003A+PMSX003B,83,19,36.50,1004.85,0.00,30128,31,1857,28.89,47.22,57.41,24.61,39.46,51.96,5046.13,1547.17,328.72,42.65,15.48,0.51,31.57,49.49,53.57,26.40,40.86,50.03,5472.77,1602.34,313.43,35.29,3.91,0.14
2018/06/06T22:28:11z,2c:3a:e8:34:ff:c7,2.50i,2.0+OPENLOG+15833 MB+DS3231+BME280+PMSX003A+PMSX003B,83,19,36.50,1004.90,0.00,30128,31,1937,27.79,44.19,52.94,24.04,37.98,49.60,4853.62,1499.30,304.30,32.55,11.40,0.43,28.61,45.39,51.11,24.63,38.55,48.37,5187.16,1482.16,306.47,32.97,7.92,0.68
2018/06/06T22:29:31z,2c:3a:e8:34:ff:c7,2.50i,2.0+OPENLOG+15833 MB+DS3231+BME280+PMSX003A+PMSX003B,83,18,35.13,1004.77,0.00,29592,31,2017,27.34,43.93,51.98,23.80,38.14,49.07,4620.68,1434.75,302.95,30.75,11.64,0.32,29.58,43.13,46.76,25.24,37.63,45.74,5040.55,1475.08,274.95,26.45,4.05,0.68
2018/06/06T22:30:51z,2c:3a:e8:34:ff:c7,2.50i,2.0+OPENLOG+15833 MB+DS3231+BME280+PMSX003A+PMSX003B,83,18,35.13,1004.82,0.00,29696,31,2097,26.48,42.54,51.35,23.50,37.33,48.85,4480.11,1377.09,282.00,35.70,12.02,0.33,27.08,41.55,45.13,23.68,36.63,44.63,4681.74,1373.29,278.79,23.55,3.92,0.68
2018/06/06T22:32:11z,2c:3a:e8:34:ff:c7,2.50i,2.0+OPENLOG+15833 MB+DS3231+BME280+PMSX003A+PMSX003B,83,18,35.13,1004.78,0.00,30128,31,2177,24.16,40.20,48.24,21.96,35.47,46.53,4300.47,1324.64,280.09,32.58,10.09,0.29,27.06,40.83,45.81,23.58,36.19,44.97,4691.83,1373.19,267.81,26.17,6.19,1.08
2018/06/06T22:33:31z,2c:3a:e8:34:ff:c7,2.50i,2.0+OPENLOG+15833 MB+DS3231+BME280+PMSX003A+PMSX003B,83,18,35.13,1004.41,0.00,30128,31,2257,25.00,40.87,50.37,22.72,36.43,48.13,4206.91,1309.83,284.39,34.33,13.76,0.52,25.05,39.30,42.57,22.73,35.38,42.27,4467.24,1291.41,261.30,22.57,3.70,0.05
2018/06/06T22:35:15z,2c:3a:e8:34:ff:c7,2.50i,2.0+OPENLOG+15833 MB+DS3231+BME280+PMSX003A+PMSX003B,83,19,36.50,1004.69,0.00,29672,31,23,20.00,22.00,22.00,20.00,22.00,22.00,0.00,0.00,0.00,0.00,0.00,0.00,17.50,27.50,29.50,17.50,27.50,29.50,0.00,0.00,0.00,0.00,0.00,0.00
2018/06/06T22:36:29z,2c:3a:e8:34:ff:c7,2.50i,2.0+OPENLOG+15833 MB+DS3231+BME280+PMSX003A+PMSX003B,83,18,35.13,1004.62,0.00,30128,31,97,20.07,32.95,39.79,19.38,31.21,39.52,3477.43,1077.00,221.10,28.50,8.67,0.45,21.25,32.81,35.11,20.25,31.36,35.11,3939.58,1120.11,231.00,16.28,2.47,0.00
2018/06/06T22:37:49z,2c:3a:e8:34:ff:c7,2.50i,2.0+OPENLOG+15833 MB+DS3231+BME280+PMSX003A+PMSX003B,83,18,35.13,1004.72,0.00,30128,31,177,21.40,34.29,40.84,20.40,32.31,40.84,3684.07,1128.64,241.24,26.00,7.53,0.49,22.20,36.49,40.06,21.06,33.66,40.06,4043.40,1177.69,252.86,25.23,5.51,0.29
2018/06/06T22:39:09z,2c:3a:e8:34:ff:c7,2.50i,2.0+OPENLOG+15833 MB+DS3231+BME280+PMSX003A+PMSX003B,83,18,35.13,1004.74,0.00,30128,31,257,21.66,34.55,43.94,20.62,32.53,43.66,3694.02,1129.17,224.62,37.74,12.62,0.49,20.89,33.33,35.25,20.03,31.56,35.25,3837.33,1086.11,231.56,17.56,2.89,0.25
2018/06/06T22:40:29z,2c:3a:e8:34:ff:c7,2.50i,2.0+OPENLOG+15833 MB+DS3231+BME280+PMSX003A+PMSX003B,83,18,35.13,1004.78,0.00,29696,31,337,19.82,33.33,40.16,19.60,31.80,40.02,3453.40,1074.02,237.24,26.31,7.76,0.13,19.94,32.92,36.28,19.86,31.58,36.28,3611.00,1052.97,231.89,24.08,3.78,0.44
2018/06/06T22:41:49z,2c:3a:e8:34:ff:c7,2.50i,2.0+OPENLOG+15833 MB+DS3231+BME280+PMSX003A+PMSX003B,83,18,35.13,1004.77,0.00,29696,31,417,19.69,32.73,37.93,19.51,31.38,37.93,3464.93,1061.93,223.93,20.56,6.58,0.31,20.28,33.25,37.94,19.89,31.64,37.94,3695.75,1068.25,225.11,26.78,5.83,0.44
2018/06/06T22:43:09z,2c:3a:e8:34:ff:c7,2.50i,2.0+OPENLOG+15833 MB+DS3231+BME280+PMSX003A+PMSX003B,83,18,35.13,1004.76,0.00,30128,31,497,18.91,31.00,35.80,18.91,30.28,35.80,3264.26,1010.11,222.11,22.28,6.39,0.31,18.86,30.72,33.94,18.72,30.06,33.94,3358.50,984.64,200.94,22.56,5.06,0.14
2018/06/06T22:44:29z,2c:3a:e8:34:ff:c7,2.50i,2.0+OPENLOG+15833 MB+DS3231+BME280+PMSX003A+PMSX003B,83,18,35.13,1004.72,0.00,30128,31,577,18.38,29.09,35.36,18.38,29.00,35.36,3132.51,967.23,195.06,25.28,7.64,0.31,17.37,27.63,29.84,17.37,27.61,29.84,3208.97,905.26,186.45,17.37,3.03,0.14
2018/06/06T22:45:49z,2c:3a:e8:34:ff:c7,2.50i,2.0+OPENLOG+15833 MB+DS3231+BME280+PMSX003A+PMSX003B,83,18,35.13,1004.61,0.00,29592,31,657,17.80,29.62,36.31,17.80,29.22,36.31,3139.53,969.98,206.62,22.96,9.84,0.02,17.53,28.79,31.11,17.53,28.50,31.11,3162.16,929.71,195.89,19.92,3.11,0.32
2018/06/06T22:47:09z,2c:3a:e8:34:ff:c7,2.50i,2.0+OPENLOG+15833 MB+DS3231+BME280+PMSX003A+PMSX003B,83,18,35.13,1004.64,0.00,29696,31,737,16.64,26.93,31.57,16.64,26.84,31.57,2891.39,891.05,184.70,19.36,6.66,0.77,17.78,29.11,32.51,17.78,28.95,32.51,3193.95,937.16,193.43,25.73,4.22,0.32
2018/06/06T22:48:29z,2c:3a:e8:34:ff:c7,2.50i,2.0+OPENLOG+15833 MB+DS3231+BME280+PMSX003A+PMSX003B,83,18,35.13,1004.72,0.00,30128,31,817,16.13,26.34,30.94,16.13,26.28,30.94,2790.45,858.77,177.64,21.64,6.94,0.06,15.11,24.68,27.89,15.11,24.68,27.89,2840.61,827.29,168.16,19.24,4.00,0.05
2018/06/06T22:49:49z,2c:3a:e8:34:ff:c7,2.50i,2.0+OPENLOG+15833 MB+DS3231+BME280+PMSX003A+PMSX003B,83,18,35.13,1004.73,0.00,30128,31,897,16.09,25.93,30.80,16.09,25.87,30.80,2795.35,870.85,177.52,17.93,7.11,0.26,15.22,25.86,29.35,15.22,25.86,29.35,2840.51,829.73,185.03,22.57,4.11,0.32
2018/06/06T22:51:09z,2c:3a:e8:34:ff:c7,2.50i,2.0+OPENLOG+15833 MB+DS3231+BME280+PMSX003A+PMSX003B,83,18,35.13,1004.60,0.00,29640,31,977,14.78,25.11,29.09,14.78,25.11,29.09,2645.40,820.27,173.29,17.71,5.58,0.40,14.24,21.42,23.34,14.24,21.42,23.34,2665.50,761.55,141.13,13.03,2.37,0.32
2018/06/06T22:52:29z,2c:3a:e8:34:ff:c7,2.50i,2.0+OPENLOG+15833 MB+DS3231+BME280+PMSX003A+PMSX003B,83,18,35.13,1004.61,0.00,29696,31,1057,14.00,22.69,26.44,14.00,22.69,26.44,2442.40,762.38,160.96,13.69,5.49,0.27,13.03,23.64,25.67,13.03,23.64,25.67,2642.92,759.64,165.14,17.61,2.64,0.08
2018/06/06T22:53:49z,2c:3a:e8:34:ff:c7,2.50i,2.0+OPENLOG+15833 MB+DS3231+BME280+PMSX003A+PMSX003B,83,18,35.13,1004.48,0.00,30128,31,1137,13.76,21.64,25.07,13.76,21.64,25.07,2437.73,762.33,160.76,11.87,5.36,0.18,13.14,21.36,23.25,13.14,21.36,23.25,2550.17,735.22,154.89,14.00,2.42,0.06
2018/06/06T22:55:09z,2c:3a:e8:34:ff:c7,2.50i,2.0+OPENLOG+15833 MB+DS3231+BME280+PMSX003A+PMSX003B,84,18,35.95,1004.72,0.00,30128,31,1217,13.43,21.16,25.64,13.43,21.16,25.64,2318.86,718.09,154.95,14.02,5.61,0.18,13.19,19.43,21.78,13.19,19.43,21.78,2391.81,687.16,125.27,11.32,3.81,0.68
2018/06/06T22:56:29z,2c:3a:e8:34:ff:c7,2.50i,2.0+OPENLOG+15833 MB+DS3231+BME280+PMSX003A+PMSX003B,83,18,35.13,1004.64,0.00,29944,31,1297,12.79,21.26,25.21,12.79,21.26,25.21,2285.17,708.87,158.94,13.62,5.00,0.34,11.94,20.17,21.50,11.94,20.17,21.50,2262.17,661.72,137.75,14.36,1.19,0.68
2018/06/06T22:57:49z,2c:3a:e8:34:ff:c7,2.50i,2.0+OPENLOG+15833 MB+DS3231+BME280+PMSX003A+PMSX003B,84,18,35.95,1004.63,0.00,29696,31,1377,12.20,19.60,23.20,12.20,19.60,23.20,2231.67,682.16,139.27,12.58,4.42,0.34,11.74,18.18,20.39,11.74,18.18,20.39,2148.39,636.66,122.50,14.11,2.50,0.68
2018/06/06T22:59:09z,2c:3a:e8:34:ff:c7,2.50i,2.0+OPENLOG+15833 MB+DS3231+BME280+PMSX003A+PMSX003B,84,18,35.95,1004.64,0.00,29672,31,1457,11.96,19.50,23.30,11.96,19.50,23.30,2096.67,645.57,128.07,18.72,4.63,0.34,11.49,18.05,20.05,11.49,18.05,20.05,2262.97,660.30,119.24,10.30,2.62,0.08
2018/06/06T23:00:29z,2c:3a:e8:34:ff:c7,2.50i,2.0+OPENLOG+15833 MB+DS3231+BME280+PMSX003A+PMSX003B,84,18,35.95,1004.66,0.00,30128,31,1537,10.36,18.23,22.51,10.36,18.23,22.51,1956.77,597.72,136.28,18.30,5.49,0.40,10.71,16.42,17.79,10.71,16.42,17.79,2051.05,602.55,115.08,10.79,2.05,0.08
2018/06/06T23:01:49z,2c:3a:e8:34:ff:c7,2.50i,2.0+OPENLOG+15833 MB+DS3231+BME280+PMSX003A+PMSX003B,83,18,35.13,1004.52,0.00,30128,31,1617,11.30,17.49,20.47,11.30,17.49,20.47,1996.53,615.53,122.32,9.57,5.23,0.40,10.97,16.53,17.92,10.97,16.53,17.92,2013.95,582.76,97.55,10.50,1.84,0.11
2018/06/06T23:03:09z,2c:3a:e8:34:ff:c7,2.50i,2.0+OPENLOG+15833 MB+DS3231+BME280+PMSX003A+PMSX003B,84,18,35.95,1004.66,0.00,29384,31,1697,9.82,16.22,20.24,9.82,16.22,20.24,1830.53,556.13,117.87,12.36,5.29,0.24,11.84,17.37,18.26,11.84,17.37,18.26,2086.74,614.79,106.87,9.92,0.61,0.11
2018/06/06T23:04:29z,2c:3a:e8:34:ff:c7,2.50i,2.0+OPENLOG+15833 MB+DS3231+BME280+PMSX003A+PMSX003B,83,18,35.13,1004.53,0.00,29696,31,1777,10.30,16.57,18.74,10.30,16.57,18.74,1857.38,569.36,122.02,8.87,3.55,0.24,10.38,15.89,17.57,10.38,15.89,17.57,1869.32,548.46,105.97,10.32,1.81,0.11
2018/06/06T23:05:49z,2c:3a:e8:34:ff:c7,2.50i,2.0+OPENLOG+15833 MB+DS3231+BME280+PMSX003A+PMSX003B,83,18,35.13,1004.37,0.00,30128,31,1857,9.22,15.59,19.20,9.22,15.59,19.20,1680.13,518.83,107.37,14.80,5.24,0.24,10.11,16.14,17.76,10.11,16.14,17.76,1931.03,553.46,109.84,10.19,1.73,0.19
2018/06/06T23:07:09z,2c:3a:e8:34:ff:c7,2.50i,2.0+OPENLOG+15833 MB+DS3231+BME280+PMSX003A+PMSX003B,84,18,35.95,1004.63,0.00,30128,31,1937,9.46,16.07,18.54,9.46,16.07,18.54,1780.43,551.61,128.09,8.33,4.07,0.26,8.75,13.53,14.61,8.75,13.53,14.61,1666.08,480.64,91.31,8.61,1.33,0.19
2018/06/06T23:08:29z,2c:3a:e8:34:ff:c7,2.50i,2.0+OPENLOG+15833 MB+DS3231+BME280+PMSX003A+PMSX003B,83,19,36.50,1004.54,0.00,29640,31,2017,8.80,13.61,17.63,8.80,13.61,17.63,1588.04,499.76,105.65,11.85,4.00,0.26,8.70,12.92,14.38,8.70,12.92,14.38,1669.62,468.22,90.57,9.81,1.24,0.19
2018/06/06T23:09:49z,2c:3a:e8:34:ff:c7,2.50i,2.0+OPENLOG+15833 MB+DS3231+BME280+PMSX003A+PMSX003B,84,19,37.32,1004.59,0.00,29696,31,2097,8.21,14.09,17.15,8.21,14.09,17.15,1559.62,484.38,97.85,11.85,4.00,0.26,8.45,14.08,15.34,8.45,14.08,15.34,1682.29,485.95,101.53,9.05,1.89,0.18
2018/06/06T23:11:09z,2c:3a:e8:34:ff:c7,2.50i,2.0+OPENLOG+15833 MB+DS3231+BME280+PMSX003A+PMSX003B,84,19,37.32,1004.58,0.00,30128,31,2177,8.56,13.00,15.71,8.56,13.00,15.71,1563.47,483.47,92.60,6.89,3.73,0.24,8.79,13.34,14.68,8.79,13.34,14.68,1672.74,472.08,85.66,8.29,1.61,0.18
2018/06/06T23:12:29z,2c:3a:e8:34:ff:c7,2.50i,2.0+OPENLOG+15833 MB+DS3231+BME280+PMSX003A+PMSX003B,83,19,36.50,1004.40,0.00,30128,31,2257,7.57,12.00,15.74,7.57,12.00,15.74,1426.89,441.48,92.83,9.85,5.80,0.24,8.16,13.51,15.70,8.16,13.51,15.70,1594.30,465.92,96.86,9.86,2.41,0.32
2018/06/06T23:14:18z,2c:3a:e8:34:ff:c7,2.50i,2.0+OPENLOG+15833 MB+DS3231+BME280+PMSX003A+PMSX003B,83,19,36.50,1004.27,0.00,29672,31,28,5.00,7.00,7.00,5.00,7.00,7.00,0.00,0.00,0.00,0.00,0.00,0.00,6.00,11.00,16.00,6.00,11.00,16.00,0.00,0.00,0.00,0.00,0.00,0.00
2018/06/06T23:15:37z,2c:3a:e8:34:ff:c7,2.50i,2.0+OPENLOG+15833 MB+DS3231+BME280+PMSX003A+PMSX003B,83,19,36.50,1004.34,0.00,30128,31,107,6.19,11.02,13.87,6.19,11.02,13.87,1249.34,397.13,86.94,9.79,4.79,0.00,5.72,10.28,11.17,5.72,10.28,11.17,1316.50,372.22,76.97,9.11,0.72,0.08
2018/06/06T23:16:57z,2c:3a:e8:34:ff:c7,2.50i,2.0+OPENLOG+15833 MB+DS3231+BME280+PMSX003A+PMSX003B,83,19,36.50,1004.42,0.00,29848,31,187,5.80,10.29,13.33,5.80,10.29,13.33,1262.00,390.33,87.18,8.78,4.00,0.00,6.59,11.10,12.38,6.59,11.10,12.38,1408.31,405.18,85.05,6.92,1.87,0.08
2018/06/06T23:18:17z,2c:3a:e8:34:ff:c7,2.50i,2.0+OPENLOG+15833 MB+DS3231+BME280+PMSX003A+PMSX003B,83,19,36.50,1004.38,0.00,29696,31,267,7.06,11.13,13.53,7.06,11.13,13.53,1308.00,406.60,80.96,9.13,3.72,0.00,7.22,11.25,12.33,7.22,11.25,12.33,1365.83,405.50,84.50,8.44,1.19,0.08
2018/06/06T23:19:37z,2c:3a:e8:34:ff:c7,2.50i,2.0+OPENLOG+15833 MB+DS3231+BME280+PMSX003A+PMSX003B,84,19,37.32,1004.48,0.00,30128,31,347,6.60,11.09,13.98,6.60,11.09,13.98,1301.73,400.93,71.47,12.09,4.73,0.00,6.41,10.35,10.86,6.41,10.35,10.86,1262.84,357.84,65.97,7.19,0.86,0.08
2018/06/06T23:20:57z,2c:3a:e8:34:ff:c7,2.50i,2.0+OPENLOG+15833 MB+DS3231+BME280+PMSX003A+PMSX003B,83,19,36.50,1003.96,0.00,30128,31,427,6.74,10.06,11.72,6.74,10.06,11.72,1189.53,368.66,72.11,5.40,1.85,0.00,6.06,9.61,11.03,6.06,9.61,11.03,1227.08,365.22,68.47,7.19,1.53,0.25
2018/06/06T23:22:17z,2c:3a:e8:34:ff:c7,2.50i,2.0+OPENLOG+15833 MB+DS3231+BME280+PMSX003A+PMSX003B,83,19,36.50,1004.40,0.00,30128,31,507,6.28,9.67,11.65,6.28,9.67,11.65,1123.57,348.54,67.48,7.98,1.98,0.00,6.54,9.62,10.38,6.54,9.62,10.38,1323.97,376.78,69.51,3.59,1.14,0.25
2018/06/06T23:23:37z,2c:3a:e8:34:ff:c7,2.50i,2.0+OPENLOG+15833 MB+DS3231+BME280+PMSX003A+PMSX003B,83,19,36.50,1004.34,0.00,29696,31,587,5.11,8.56,10.56,5.11,8.56,10.56,1044.07,318.67,70.96,5.24,2.18,0.24,6.17,10.81,12.42,6.17,10.81,12.42,1214.75,355.14,72.42,9.28,2.19,0.47
2018/06/06T23:24:57z,2c:3a:e8:34:ff:c7,2.50i,2.0+OPENLOG+15833 MB+DS3231+BME280+PMSX003A+PMSX003B,84,19,37.32,1004.47,0.00,29672,31,667,5.00,9.02,11.33,5.00,9.02,11.33,1072.63,329.40,70.02,10.04,2.19,0.24,6.11,8.13,8.55,6.11,8.13,8.55,1126.34,328.71,60.26,2.63,0.21,0.47
2018/06/06T23:26:17z,2c:3a:e8:34:ff:c7,2.50i,2.0+OPENLOG+15833 MB+DS3231+BME280+PMSX003A+PMSX003B,84,19,37.32,1004.38,0.00,30128,31,747,5.22,9.43,11.39,5.22,9.43,11.39,1032.59,323.22,77.87,8.26,2.70,0.24,5.03,7.46,8.03,5.03,7.46,8.03,1040.92,296.22,58.76,3.97,0.73,0.47
2018/06/06T23:27:37z,2c:3a:e8:34:ff:c7,2.50i,2.0+OPENLOG+15833 MB+DS3231+BME280+PMSX003A+PMSX003B,84,19,37.32,1004.44,0.00,30128,31,827,5.26,9.09,11.54,5.26,9.09,11.54,1013.28,314.17,66.54,10.02,4.20,0.24,5.32,8.29,9.55,5.32,8.29,9.55,1015.58,302.24,64.11,7.84,0.42,0.47
2018/06/06T23:28:57z,2c:3a:e8:34:ff:c7,2.50i,2.0+OPENLOG+15833 MB+DS3231+BME280+PMSX003A+PMSX003B,83,19,36.50,1004.33,0.00,29592,31,907,4.94,8.71,10.00,4.94,8.71,10.00,966.87,303.12,70.31,5.73,1.54,0.24,5.05,8.18,8.92,5.05,8.18,8.92,1047.87,301.92,62.63,6.32,1.00,0.47
2018/06/06T23:30:17z,2c:3a:e8:34:ff:c7,2.50i,2.0+OPENLOG+15833 MB+DS3231+BME280+PMSX003A+PMSX003B,84,19,37.32,1004.38,0.00,29696,31,987,4.09,7.07,8.16,4.09,7.07,8.16,918.53,275.78,54.13,3.69,1.71,0.24,4.45,7.89,8.82,4.45,7.89,8.82,956.53,273.58,55.71,7.66,0.92,0.37
2018/06/06T23:31:37z,2c:3a:e8:34:ff:c7,2.50i,2.0+OPENLOG+15833 MB+DS3231+BME280+PMSX003A+PMSX003B,83,19,36.50,1004.29,0.00,30128,31,1067,4.21,6.62,7.32,4.21,6.62,7.32,849.45,262.98,47.83,2.83,0.79,0.24,4.59,6.68,7.43,4.59,6.68,7.43,926.84,262.70,47.95,4.65,0.30,0.37
2018/06/06T23:32:57z,2c:3a:e8:34:ff:c7,2.50i,2.0+OPENLOG+15833 MB+DS3231+BME280+PMSX003A+PMSX003B,84,19,37.32,1004.35,0.00,30128,31,1147,4.28,7.11,9.20,4.28,7.11,9.20,885.46,275.83,55.91,7.13,2.76,0.24,4.30,6.70,7.57,4.30,6.70,7.57,862.95,252.43,47.38,6.65,0.54,0.37
2018/06/06T23:34:17z,2c:3a:e8:34:ff:c7,2.50i,2.0+OPENLOG+15833 MB+DS3231+BME280+PMSX003A+PMSX003B,83,19,36.50,1004.06,0.00,30128,31,1227,3.93,7.78,9.44,3.93,7.78,9.44,875.33,267.56,58.58,8.64,1.87,0.24,4.18,7.58,8.61,4.18,7.58,8.61,906.55,270.18,64.37,6.00,0.74,0.37
2018/06/06T23:35:37z,2c:3a:e8:34:ff:c7,2.50i,2.0+OPENLOG+15833 MB+DS3231+BME280+PMSX003A+PMSX003B,83,19,36.50,1004.12,0.00,29592,31,1307,3.94,6.36,8.70,3.94,6.36,8.70,840.32,255.57,51.36,6.17,3.38,0.24,4.18,6.79,8.63,4.18,6.79,8.63,831.63,242.11,56.97,5.74,2.21,0.42
2018/06/06T23:36:57z,2c:3a:e8:34:ff:c7,2.50i,2.0+OPENLOG+15833 MB+DS3231+BME280+PMSX003A+PMSX003B,84,19,37.32,1004.32,0.00,29672,31,1387,4.02,6.65,7.85,4.02,6.65,7.85,790.63,242.63,45.98,7.33,1.67,0.24,4.38,6.43,6.89,4.38,6.43,6.89,882.00,252.27,48.32,3.22,0.46,0.42
2018/06/06T23:38:17z,2c:3a:e8:34:ff:c7,2.50i,2.0+OPENLOG+15833 MB+DS3231+BME280+PMSX003A+PMSX003B,84,19,37.32,1004.29,0.00,30128,31,1467,3.73,5.67,6.36,3.73,5.67,6.36,786.27,234.16,41.47,3.82,0.73,0.24,4.08,7.57,7.86,4.08,7.57,7.86,901.54,266.73,52.95,7.22,0.46,0.42
2018/06/06T23:39:37z,2c:3a:e8:34:ff:c7,2.50i,2.0+OPENLOG+15833 MB+DS3231+BME280+PMSX003A+PMSX003B,84,19,37.32,1004.31,0.00,30128,31,1547,3.62,6.12,6.77,3.62,6.12,6.77,791.00,242.17,46.90,3.85,0.98,0.24,4.08,7.11,9.00,4.08,7.11,9.00,884.03,248.89,51.46,6.22,2.73,0.42
2018/06/06T23:40:57z,2c:3a:e8:34:ff:c7,2.50i,2.0+OPENLOG+15833 MB+DS3231+BME280+PMSX003A+PMSX003B,84,19,37.32,1004.31,0.00,29696,31,1627,3.27,5.02,7.11,3.27,5.02,7.11,688.40,212.20,38.24,5.62,3.00,0.24,3.21,4.50,4.89,3.21,4.50,4.89,651.16,193.24,33.53,1.76,0.42,0.42
2018/06/06T23:42:17z,2c:3a:e8:34:ff:c7,2.50i,2.0+OPENLOG+15833 MB+DS3231+BME280+PMSX003A+PMSX003B,83,19,36.50,1004.15,0.00,29696,31,1707,2.52,4.57,5.22,2.52,4.57,5.22,676.70,206.11,41.20,1.26,0.89,0.24,2.95,5.58,6.58,2.95,5.58,6.58,709.58,209.11,45.18,6.00,1.32,0.42
2018/06/06T23:43:37z,2c:3a:e8:34:ff:c7,2.50i,2.0+OPENLOG+15833 MB+DS3231+BME280+PMSX003A+PMSX003B,84,19,37.32,1004.24,0.00,30128,31,1787,3.00,4.87,6.04,3.00,4.87,6.04,614.11,191.89,39.62,3.81,2.00,0.24,3.54,6.00,7.16,3.54,6.00,7.16,749.27,214.57,41.27,6.16,1.51,0.42
2018/06/06T23:44:57z,2c:3a:e8:34:ff:c7,2.50i,2.0+OPENLOG+15833 MB+DS3231+BME280+PMSX003A+PMSX003B,83,19,36.50,1004.22,0.00,30128,31,1867,3.24,5.36,6.53,3.24,5.36,6.53,637.73,202.16,41.13,5.09,1.76,0.24,3.24,5.16,5.84,3.24,5.16,5.84,657.16,190.08,40.86,5.30,0.43,0.42
2018/06/06T23:46:17z,2c:3a:e8:34:ff:c7,2.50i,2.0+OPENLOG+15833 MB+DS3231+BME280+PMSX003A+PMSX003B,83,19,36.50,1004.13,0.00,29640,31,1947,1.89,4.36,5.70,1.89,4.36,5.70,625.47,190.51,44.98,4.45,2.17,0.24,2.66,4.53,5.21,2.66,4.53,5.21,712.74,203.24,40.58,2.74,0.89,0.42
2018/06/06T23:47:37z,2c:3a:e8:34:ff:c7,2.50i,2.0+OPENLOG+15833 MB+DS3231+BME280+PMSX003A+PMSX003B,84,19,37.32,1004.19,0.00,29696,31,2027,2.55,3.55,4.43,2.55,3.55,4.43,596.74,182.94,32.51,2.57,1.30,0.24,2.95,4.66,5.47,2.95,4.66,5.47,678.16,194.24,37.03,3.11,1.37,0.42
2018/06/06T23:48:57z,2c:3a:e8:34:ff:c7,2.50i,2.0+OPENLOG+15833 MB+DS3231+BME280+PMSX003A+PMSX003B,83,19,36.50,1004.21,0.00,30128,31,2107,2.67,3.82,4.67,2.67,3.82,4.67,587.80,174.49,27.84,2.84,0.89,0.24,2.97,4.29,5.71,2.97,4.29,5.71,659.21,190.13,38.45,4.03,1.87,0.42
2018/06/06T23:50:17z,2c:3a:e8:34:ff:c7,2.50i,2.0+OPENLOG+15833 MB+DS3231+BME280+PMSX003A+PMSX003B,83,19,36.50,1003.96,0.00,30128,31,2187,2.40,4.23,5.04,2.40,4.23,5.04,569.19,172.21,36.58,2.75,1.58,0.24,2.92,4.16,4.51,2.92,4.16,4.51,582.16,169.84,33.30,2.30,1.87,0.42
2018/06/06T23:51:37z,2c:3a:e8:34:ff:c7,2.50i,2.0+OPENLOG+15833 MB+DS3231+BME280+PMSX003A+PMSX003B,84,19,37.32,1004.19,0.00,30128,31,2267,1.76,3.00,3.37,1.76,3.00,3.37,455.93,140.48,25.07,1.91,0.72,0.24,2.30,3.76,4.30,2.30,3.76,4.30,570.97,150.51,31.76,3.16,0.30,0.42
2018/06/06T23:53:21z,2c:3a:e8:34:ff:c7,2.50i,2.0+OPENLOG+15833 MB+DS3231+BME280+PMSX003A+PMSX003B,83,19,36.50,1004.02,0.00,29672,31,23,1.00,1.00,1.00,1.00,1.00,1.00,0.00,0.00,0.00,0.00,0.00,0.00,2.00,2.00,2.00,2.00,2.00,2.00,0.00,0.00,0.00,0.00,0.00,0.00
2018/06/06T23:54:35z,2c:3a:e8:34:ff:c7,2.50i,2.0+OPENLOG+15833 MB+DS3231+BME280+PMSX003A+PMSX003B,83,19,36.50,1004.25,0.00,30128,31,97,1.37,3.00,3.83,1.37,3.00,3.83,462.45,142.77,29.55,3.92,1.33,0.00,1.64,3.14,3.33,1.64,3.14,3.33,533.33,149.31,24.53,3.42,0.00,0.00
2018/06/06T23:55:55z,2c:3a:e8:34:ff:c7,2.50i,2.0+OPENLOG+15833 MB+DS3231+BME280+PMSX003A+PMSX003B,83,19,36.50,1004.03,0.00,29944,31,177,1.37,3.04,3.71,1.37,3.04,3.71,479.38,147.54,31.33,3.87,1.46,0.00,2.03,3.16,4.16,2.03,3.16,4.16,578.84,161.32,23.53,4.13,0.66,0.00
2018/06/06T23:57:15z,2c:3a:e8:34:ff:c7,2.50i,2.0+OPENLOG+15833 MB+DS3231+BME280+PMSX003A+PMSX003B,83,19,36.50,1004.22,0.00,29944,31,257,1.61,2.87,3.22,1.61,2.87,3.22,442.43,136.46,22.52,1.87,0.59,0.35,1.89,3.49,4.11,1.89,3.49,4.11,508.30,152.92,30.08,2.70,0.78,0.00
2018/06/06T23:58:35z,2c:3a:e8:34:ff:c7,2.50i,2.0+OPENLOG+15833 MB+DS3231+BME280+PMSX003A+PMSX003B,83,19,36.50,1004.20,0.00,29696,31,337,0.93,3.18,4.56,0.93,3.18,4.56,453.20,138.13,37.67,5.20,2.02,0.35,1.27,3.57,4.27,1.27,3.57,4.27,520.38,147.35,32.03,4.97,1.32,0.00
2018/06/06T23:59:55z,2c:3a:e8:34:ff:c7,2.50i,2.0+OPENLOG+15833 MB+DS3231+BME280+PMSX003A+PMSX003B,83,19,36.50,1004.20,0.00,29696,31,417,1.42,2.87,3.31,1.42,2.87,3.31,412.62,126.50,21.00,2.02,0.92,0.35,2.14,3.05,3.70,2.14,3.05,3.70,504.89,141.86,27.16,2.51,0.51,0.00
